[
  {
    "link_thumb": "https://live.staticflickr.com/65535/50019651846_39a0ca3098_n.jpg",
    "id_album": "-766919393",
    "description": "Chameleon_454169",
    "title": "Chameleon_454169",
    "link_img": "https://live.staticflickr.com/65535/50019651846_ee2750e1f2_o.jpg",
    "id_image": "Chameleon_454169",
    "count_view": 0
  },
  {
    "link_thumb": "https://live.staticflickr.com/65535/50017042831_5ed4288e30_n.jpg",
    "id_album": "-422187261",
    "description": "Bear_413655",
    "title": "Bear_413655",
    "link_img": "https://live.staticflickr.com/65535/50017042831_dfca068452_o.jpg",
    "id_image": "Bear_413655",
    "count_view": 0
  },
  {
    "link_thumb": "https://live.staticflickr.com/65535/50018754878_a1c2f40241_n.jpg",
    "id_album": "-462831704",
    "description": "Cat_523668",
    "title": "Cat_523668",
    "link_img": "https://live.staticflickr.com/65535/50018754878_8eecfdbc98_o.jpg",
    "id_image": "Cat_523668",
    "count_view": 0
  },
  {
    "link_thumb": "https://live.staticflickr.com/65535/50020926677_b637af467b_n.jpg",
    "id_album": "1168627767",
    "description": "Duck_725845",
    "title": "Duck_725845",
    "link_img": "https://live.staticflickr.com/65535/50020926677_0bcc56c84f_o.jpg",
    "id_image": "Duck_725845",
    "count_view": 0
  },
  {
    "link_thumb": "https://live.staticflickr.com/65535/50017742837_142d63397d_n.jpg",
    "id_album": "782930701",
    "description": "BorderCollie_439434",
    "title": "BorderCollie_439434",
    "link_img": "https://live.staticflickr.com/65535/50017742837_7f214a4a74_o.jpg",
    "id_image": "BorderCollie_439434",
    "count_view": 0
  },
  {
    "link_thumb": "https://live.staticflickr.com/65535/50351774568_a1a8bd49fa_n.jpg",
    "id_album": "-462831703",
    "description": "Cat_365250",
    "title": "Cat_365250",
    "link_img": "https://live.staticflickr.com/65535/50351774568_bd5d4e4d9b_o.jpg",
    "id_image": "Cat_365250",
    "count_view": 0
  },
  {
    "link_thumb": "https://live.staticflickr.com/65535/50021100152_4c82dddf03_n.jpg",
    "id_album": "-1118073211",
    "description": "Fish_364800",
    "title": "Fish_364800",
    "link_img": "https://live.staticflickr.com/65535/50021100152_08d9e300fe_o.jpg",
    "id_image": "Fish_364800",
    "count_view": 0
  },
  {
    "link_thumb": "https://live.staticflickr.com/65535/50020646667_d7c90b76f8_n.jpg",
    "id_album": "-149330231",
    "description": "Dog_409544",
    "title": "Dog_409544",
    "link_img": "https://live.staticflickr.com/65535/50020646667_15a55a89c8_o.jpg",
    "id_image": "Dog_409544",
    "count_view": 0
  },
  {
    "link_thumb": "https://live.staticflickr.com/65535/50017652721_d935349cb6_n.jpg",
    "id_album": "-401151552",
    "description": "Butterfly_712887",
    "title": "Butterfly_712887",
    "link_img": "https://live.staticflickr.com/65535/50017652721_ed0d4f3480_o.jpg",
    "id_image": "Butterfly_712887",
    "count_view": 0
  },
  {
    "link_thumb": "https://live.staticflickr.com/65535/50022740468_f14b59cca5_n.jpg",
    "id_album": "48367914",
    "description": "Rhino_431799",
    "title": "Rhino_431799",
    "link_img": "https://live.staticflickr.com/65535/50022740468_1e25eff835_o.jpg",
    "id_image": "Rhino_431799",
    "count_view": 0
  },
  {
    "link_thumb": "https://live.staticflickr.com/65535/50021337063_d111323140_n.jpg",
    "id_album": "1918884325",
    "description": "Lemur_748172",
    "title": "Lemur_748172",
    "link_img": "https://live.staticflickr.com/65535/50021337063_ef86a4786d_o.jpg",
    "id_image": "Lemur_748172",
    "count_view": 0
  },
  {
    "link_thumb": "https://live.staticflickr.com/65535/50352464346_070ed8332c_n.jpg",
    "id_album": "-462831703",
    "description": "Cat_362883",
    "title": "Cat_362883",
    "link_img": "https://live.staticflickr.com/65535/50352464346_aed1091ccc_o.jpg",
    "id_image": "Cat_362883",
    "count_view": 0
  },
  {
    "link_thumb": "https://live.staticflickr.com/65535/50022004522_207d6c97a3_n.jpg",
    "id_album": "665694624",
    "description": "JapaneseMacaque_423908",
    "title": "JapaneseMacaque_423908",
    "link_img": "https://live.staticflickr.com/65535/50022004522_1c9c0eb4f5_o.jpg",
    "id_image": "JapaneseMacaque_423908",
    "count_view": 0
  },
  {
    "link_thumb": "https://live.staticflickr.com/65535/50021183611_7961a42b56_n.jpg",
    "id_album": "-462831704",
    "description": "Cat_702096",
    "title": "Cat_702096",
    "link_img": "https://live.staticflickr.com/65535/50021183611_e52b348f3c_o.jpg",
    "id_image": "Cat_702096",
    "count_view": 0
  },
  {
    "link_thumb": "https://live.staticflickr.com/65535/50016973551_d498a338f4_n.jpg",
    "id_album": "231236068",
    "description": "BaldEagle_956139",
    "title": "BaldEagle_956139",
    "link_img": "https://live.staticflickr.com/65535/50016973551_6901cc9b95_o.jpg",
    "id_image": "BaldEagle_956139",
    "count_view": 0
  },
  {
    "link_thumb": "https://live.staticflickr.com/65535/50351861828_7a6c53fede_n.jpg",
    "id_album": "-462831703",
    "description": "Cat_484187",
    "title": "Cat_484187",
    "link_img": "https://live.staticflickr.com/65535/50351861828_59294ff899_o.jpg",
    "id_image": "Cat_484187",
    "count_view": 0
  },
  {
    "link_thumb": "https://live.staticflickr.com/65535/50019038563_fa2ea0594e_n.jpg",
    "id_album": "-462831703",
    "description": "Cat_995091",
    "title": "Cat_995091",
    "link_img": "https://live.staticflickr.com/65535/50019038563_f185a5c1b6_o.jpg",
    "id_image": "Cat_995091",
    "count_view": 0
  },
  {
    "link_thumb": "https://live.staticflickr.com/65535/50020586983_bd974467ec_n.jpg",
    "id_album": "-462831704",
    "description": "Cat_591562",
    "title": "Cat_591562",
    "link_img": "https://live.staticflickr.com/65535/50020586983_afb2262f89_o.jpg",
    "id_image": "Cat_591562",
    "count_view": 0
  },
  {
    "link_thumb": "https://live.staticflickr.com/65535/50016834241_efc2afe478_n.jpg",
    "id_album": "-1741290715",
    "description": "Ant_414386",
    "title": "Ant_414386",
    "link_img": "https://live.staticflickr.com/65535/50016834241_54d9c9d6da_o.jpg",
    "id_image": "Ant_414386",
    "count_view": 0
  },
  {
    "link_thumb": "https://live.staticflickr.com/65535/50020113716_4e172352e7_n.jpg",
    "id_album": "-149330232",
    "description": "Dog_102116",
    "title": "Dog_102116",
    "link_img": "https://live.staticflickr.com/65535/50020113716_978ccc0fbf_o.jpg",
    "id_image": "Dog_102116",
    "count_view": 0
  },
  {
    "link_thumb": "https://live.staticflickr.com/65535/50021523392_e47a12be75_n.jpg",
    "id_album": "-462831703",
    "description": "Cat_830779",
    "title": "Cat_830779",
    "link_img": "https://live.staticflickr.com/65535/50021523392_a4a6c72eed_o.jpg",
    "id_image": "Cat_830779",
    "count_view": 0
  },
  {
    "link_thumb": "https://live.staticflickr.com/65535/50019858318_1d795299dc_n.jpg",
    "id_album": "-149330231",
    "description": "Dog_410322",
    "title": "Dog_410322",
    "link_img": "https://live.staticflickr.com/65535/50019858318_f6a6ef91b9_o.jpg",
    "id_image": "Dog_410322",
    "count_view": 0
  },
  {
    "link_thumb": "https://live.staticflickr.com/65535/50017375757_cfb143827b_n.jpg",
    "id_album": "-422187261",
    "description": "Bear_998668",
    "title": "Bear_998668",
    "link_img": "https://live.staticflickr.com/65535/50017375757_94178e8143_o.jpg",
    "id_image": "Bear_998668",
    "count_view": 0
  },
  {
    "link_thumb": "https://live.staticflickr.com/65535/50017081023_3226510b5a_n.jpg",
    "id_album": "-401151552",
    "description": "Butterfly_469612",
    "title": "Butterfly_469612",
    "link_img": "https://live.staticflickr.com/65535/50017081023_1439ced0d3_o.jpg",
    "id_image": "Butterfly_469612",
    "count_view": 0
  },
  {
    "link_thumb": "https://live.staticflickr.com/65535/50016737693_597bb4c339_n.jpg",
    "id_album": "-1846011410",
    "description": "Bird_350930",
    "title": "Bird_350930",
    "link_img": "https://live.staticflickr.com/65535/50016737693_c478f91881_o.jpg",
    "id_image": "Bird_350930",
    "count_view": 0
  },
  {
    "link_thumb": "https://live.staticflickr.com/65535/50020319582_38acc48d49_n.jpg",
    "id_album": "1903411565",
    "description": "Deer_882828",
    "title": "Deer_882828",
    "link_img": "https://live.staticflickr.com/65535/50020319582_d181aae9c8_o.jpg",
    "id_image": "Deer_882828",
    "count_view": 0
  },
  {
    "link_thumb": "https://live.staticflickr.com/65535/50024594652_a00b1b31fe_n.jpg",
    "id_album": "461588038",
    "description": "Vulture_363505",
    "title": "Vulture_363505",
    "link_img": "https://live.staticflickr.com/65535/50024594652_24af3d4e98_o.jpg",
    "id_image": "Vulture_363505",
    "count_view": 0
  },
  {
    "link_thumb": "https://live.staticflickr.com/65535/50352540106_217c83845d_n.jpg",
    "id_album": "-462831703",
    "description": "Cat_459955",
    "title": "Cat_459955",
    "link_img": "https://live.staticflickr.com/65535/50352540106_8bca0fcee6_o.jpg",
    "id_image": "Cat_459955",
    "count_view": 0
  },
  {
    "link_thumb": "https://live.staticflickr.com/65535/50023219042_b3e645b7ff_n.jpg",
    "id_album": "-353898617",
    "description": "Puppy_352329",
    "title": "Puppy_352329",
    "link_img": "https://live.staticflickr.com/65535/50023219042_a99447824a_o.jpg",
    "id_image": "Puppy_352329",
    "count_view": 0
  },
  {
    "link_thumb": "https://live.staticflickr.com/65535/50021798206_eda2429518_n.jpg",
    "id_album": "770105808",
    "description": "Kingfisher_379667",
    "title": "Kingfisher_379667",
    "link_img": "https://live.staticflickr.com/65535/50021798206_cddd0a5e76_o.jpg",
    "id_image": "Kingfisher_379667",
    "count_view": 0
  },
  {
    "link_thumb": "https://live.staticflickr.com/65535/50016657288_9523bce708_n.jpg",
    "id_album": "325287329",
    "description": "Beetle_403970",
    "title": "Beetle_403970",
    "link_img": "https://live.staticflickr.com/65535/50016657288_0fcd5f4204_o.jpg",
    "id_image": "Beetle_403970",
    "count_view": 0
  },
  {
    "link_thumb": "https://live.staticflickr.com/65535/50017721262_6d3e6cfc0a_n.jpg",
    "id_album": "-530283314",
    "description": "BlueandyellowMacaw_212696",
    "title": "BlueandyellowMacaw_212696",
    "link_img": "https://live.staticflickr.com/65535/50017721262_3d79dfd4eb_o.jpg",
    "id_image": "BlueandyellowMacaw_212696",
    "count_view": 0
  },
  {
    "link_thumb": "https://live.staticflickr.com/65535/50352449066_f7b5c804b0_n.jpg",
    "id_album": "-462831703",
    "description": "Cat_270403",
    "title": "Cat_270403",
    "link_img": "https://live.staticflickr.com/65535/50352449066_6766ee57cf_o.jpg",
    "id_image": "Cat_270403",
    "count_view": 0
  },
  {
    "link_thumb": "https://live.staticflickr.com/65535/50023626553_8761da14dd_n.jpg",
    "id_album": "405170427",
    "description": "Tiger_570848",
    "title": "Tiger_570848",
    "link_img": "https://live.staticflickr.com/65535/50023626553_48f8091b7f_o.jpg",
    "id_image": "Tiger_570848",
    "count_view": 0
  },
  {
    "link_thumb": "https://live.staticflickr.com/65535/50023224876_2922757094_n.jpg",
    "id_album": "332874268",
    "description": "RedPanda_682190",
    "title": "RedPanda_682190",
    "link_img": "https://live.staticflickr.com/65535/50023224876_7c06720e10_o.jpg",
    "id_image": "RedPanda_682190",
    "count_view": 0
  },
  {
    "link_thumb": "https://live.staticflickr.com/65535/50018219947_d4d4064818_n.jpg",
    "id_album": "-462831702",
    "description": "Cat_315706",
    "title": "Cat_315706",
    "link_img": "https://live.staticflickr.com/65535/50018219947_f111b6d2ef_o.jpg",
    "id_image": "Cat_315706",
    "count_view": 0
  },
  {
    "link_thumb": "https://live.staticflickr.com/65535/50017222483_322daa6dbe_n.jpg",
    "id_album": "-462831705",
    "description": "Cat_109812",
    "title": "Cat_109812",
    "link_img": "https://live.staticflickr.com/65535/50017222483_614233ccda_o.jpg",
    "id_image": "Cat_109812",
    "count_view": 0
  },
  {
    "link_thumb": "https://live.staticflickr.com/65535/50020456148_fd73f359fd_n.jpg",
    "id_album": "-128218148",
    "description": "Fox_746174",
    "title": "Fox_746174",
    "link_img": "https://live.staticflickr.com/65535/50020456148_4afefb77c3_o.jpg",
    "id_image": "Fox_746174",
    "count_view": 0
  },
  {
    "link_thumb": "https://live.staticflickr.com/65535/50017550921_cd37b49d1f_n.jpg",
    "id_album": "-401151552",
    "description": "Butterfly_244127",
    "title": "Butterfly_244127",
    "link_img": "https://live.staticflickr.com/65535/50017550921_a361f671cd_o.jpg",
    "id_image": "Butterfly_244127",
    "count_view": 0
  },
  {
    "link_thumb": "https://live.staticflickr.com/65535/50017451437_501292c4be_n.jpg",
    "id_album": "-1846011410",
    "description": "Bird_102090",
    "title": "Bird_102090",
    "link_img": "https://live.staticflickr.com/65535/50017451437_1839884f93_o.jpg",
    "id_image": "Bird_102090",
    "count_view": 0
  },
  {
    "link_thumb": "https://live.staticflickr.com/65535/50018378752_f61a894846_n.jpg",
    "id_album": "-462831702",
    "description": "Cat_386721",
    "title": "Cat_386721",
    "link_img": "https://live.staticflickr.com/65535/50018378752_bc421db295_o.jpg",
    "id_image": "Cat_386721",
    "count_view": 0
  },
  {
    "link_thumb": "https://live.staticflickr.com/65535/50021339168_299d4694fe_n.jpg",
    "id_album": "1918884325",
    "description": "Lemur_921601",
    "title": "Lemur_921601",
    "link_img": "https://live.staticflickr.com/65535/50021339168_18bf19e9b7_o.jpg",
    "id_image": "Lemur_921601",
    "count_view": 0
  },
  {
    "link_thumb": "https://live.staticflickr.com/65535/50352782222_169f77bb86_n.jpg",
    "id_album": "-462831703",
    "description": "Cat_597280",
    "title": "Cat_597280",
    "link_img": "https://live.staticflickr.com/65535/50352782222_c3101ae961_o.jpg",
    "id_image": "Cat_597280",
    "count_view": 0
  },
  {
    "link_thumb": "https://live.staticflickr.com/65535/50020607688_a1e589fc2a_n.jpg",
    "id_album": "-462831704",
    "description": "Cat_650927",
    "title": "Cat_650927",
    "link_img": "https://live.staticflickr.com/65535/50020607688_0994d4bc27_o.jpg",
    "id_image": "Cat_650927",
    "count_view": 0
  },
  {
    "link_thumb": "https://live.staticflickr.com/65535/50019584577_b04d52fced_n.jpg",
    "id_album": "-462831703",
    "description": "Cat_856432",
    "title": "Cat_856432",
    "link_img": "https://live.staticflickr.com/65535/50019584577_f7f04fa38a_o.jpg",
    "id_image": "Cat_856432",
    "count_view": 0
  },
  {
    "link_thumb": "https://live.staticflickr.com/65535/50024100851_e3682fe13b_n.jpg",
    "id_album": "405170427",
    "description": "Tiger_379708",
    "title": "Tiger_379708",
    "link_img": "https://live.staticflickr.com/65535/50024100851_de023e31bb_o.jpg",
    "id_image": "Tiger_379708",
    "count_view": 0
  },
  {
    "link_thumb": "https://live.staticflickr.com/65535/50021534497_1799cccbb0_n.jpg",
    "id_album": "-34696179",
    "description": "Gecko_776603",
    "title": "Gecko_776603",
    "link_img": "https://live.staticflickr.com/65535/50021534497_2ea4e2e02b_o.jpg",
    "id_image": "Gecko_776603",
    "count_view": 0
  },
  {
    "link_thumb": "https://live.staticflickr.com/65535/50017821061_3a6fa822a6_n.jpg",
    "id_album": "-462831705",
    "description": "Cat_181052",
    "title": "Cat_181052",
    "link_img": "https://live.staticflickr.com/65535/50017821061_34a1994c60_o.jpg",
    "id_image": "Cat_181052",
    "count_view": 0
  },
  {
    "link_thumb": "https://live.staticflickr.com/65535/50016333028_3c881f4d01_n.jpg",
    "id_album": "523598895",
    "description": "Artistic_113072",
    "title": "Artistic_113072",
    "link_img": "https://live.staticflickr.com/65535/50016333028_aa10c57da1_o.jpg",
    "id_image": "Artistic_113072",
    "count_view": 0
  },
  {
    "link_thumb": "https://live.staticflickr.com/65535/50020954687_0ec6f50b34_n.jpg",
    "id_album": "-39098563",
    "description": "Eagle_361505",
    "title": "Eagle_361505",
    "link_img": "https://live.staticflickr.com/65535/50020954687_65188a4d6f_o.jpg",
    "id_image": "Eagle_361505",
    "count_view": 0
  },
  {
    "link_thumb": "https://live.staticflickr.com/65535/50021238903_d119b7f148_n.jpg",
    "id_album": "1562047127",
    "description": "Jellyfish_780949",
    "title": "Jellyfish_780949",
    "link_img": "https://live.staticflickr.com/65535/50021238903_485967d62c_o.jpg",
    "id_image": "Jellyfish_780949",
    "count_view": 0
  },
  {
    "link_thumb": "https://live.staticflickr.com/65535/50020231537_308d8d7925_n.jpg",
    "id_album": "-1783645069",
    "description": "Dalmatian_971384",
    "title": "Dalmatian_971384",
    "link_img": "https://live.staticflickr.com/65535/50020231537_0b603e86f1_o.jpg",
    "id_image": "Dalmatian_971384",
    "count_view": 0
  },
  {
    "link_thumb": "https://live.staticflickr.com/65535/50023604422_477842a17c_n.jpg",
    "id_album": "-419757464",
    "description": "SeaLife_724520",
    "title": "SeaLife_724520",
    "link_img": "https://live.staticflickr.com/65535/50023604422_a38b802f9c_o.jpg",
    "id_image": "SeaLife_724520",
    "count_view": 0
  },
  {
    "link_thumb": "https://live.staticflickr.com/65535/50021611407_6093ea3e2b_n.jpg",
    "id_album": "2060159334",
    "description": "GoldenRetriever_742092",
    "title": "GoldenRetriever_742092",
    "link_img": "https://live.staticflickr.com/65535/50021611407_25d80d1259_o.jpg",
    "id_image": "GoldenRetriever_742092",
    "count_view": 0
  },
  {
    "link_thumb": "https://live.staticflickr.com/65535/50020416878_3534fe1739_n.jpg",
    "id_album": "-128218148",
    "description": "Fox_396809",
    "title": "Fox_396809",
    "link_img": "https://live.staticflickr.com/65535/50020416878_4cf56c05b2_o.jpg",
    "id_image": "Fox_396809",
    "count_view": 0
  },
  {
    "link_thumb": "https://live.staticflickr.com/65535/50020274268_05f2ebc493_n.jpg",
    "id_album": "822895535",
    "description": "Falcon_383323",
    "title": "Falcon_383323",
    "link_img": "https://live.staticflickr.com/65535/50020274268_ed342b61a3_o.jpg",
    "id_image": "Falcon_383323",
    "count_view": 0
  },
  {
    "link_thumb": "https://live.staticflickr.com/65535/50017840931_1f2b9aeaaf_n.jpg",
    "id_album": "-462831705",
    "description": "Cat_203191",
    "title": "Cat_203191",
    "link_img": "https://live.staticflickr.com/65535/50017840931_5225493431_o.jpg",
    "id_image": "Cat_203191",
    "count_view": 0
  },
  {
    "link_thumb": "https://live.staticflickr.com/65535/50022484738_cbaaed56ba_n.jpg",
    "id_album": "-353898617",
    "description": "Puppy_587562",
    "title": "Puppy_587562",
    "link_img": "https://live.staticflickr.com/65535/50022484738_4a3ba19db1_o.jpg",
    "id_image": "Puppy_587562",
    "count_view": 0
  },
  {
    "link_thumb": "https://live.staticflickr.com/65535/50016587833_65d6c41833_n.jpg",
    "id_album": "-422187261",
    "description": "Bear_992381",
    "title": "Bear_992381",
    "link_img": "https://live.staticflickr.com/65535/50016587833_062380e00c_o.jpg",
    "id_image": "Bear_992381",
    "count_view": 0
  },
  {
    "link_thumb": "https://live.staticflickr.com/65535/50017954352_29ff42c4e3_n.jpg",
    "id_album": "-401151552",
    "description": "Butterfly_920056",
    "title": "Butterfly_920056",
    "link_img": "https://live.staticflickr.com/65535/50017954352_72ee92bb52_o.jpg",
    "id_image": "Butterfly_920056",
    "count_view": 0
  },
  {
    "link_thumb": "https://live.staticflickr.com/65535/50020187352_ff0e9c28fa_n.jpg",
    "id_album": "1273365283",
    "description": "Cute_277909",
    "title": "Cute_277909",
    "link_img": "https://live.staticflickr.com/65535/50020187352_10d016a031_o.jpg",
    "id_image": "Cute_277909",
    "count_view": 0
  },
  {
    "link_thumb": "https://live.staticflickr.com/65535/50021725567_1fdcfa8991_n.jpg",
    "id_album": "-1933715543",
    "description": "Horse_246153",
    "title": "Horse_246153",
    "link_img": "https://live.staticflickr.com/65535/50021725567_f3ca3a1647_o.jpg",
    "id_image": "Horse_246153",
    "count_view": 0
  },
  {
    "link_thumb": "https://live.staticflickr.com/65535/50018411412_9a780c67cb_n.jpg",
    "id_album": "-462831702",
    "description": "Cat_407235",
    "title": "Cat_407235",
    "link_img": "https://live.staticflickr.com/65535/50018411412_1ff216afdf_o.jpg",
    "id_image": "Cat_407235",
    "count_view": 0
  },
  {
    "link_thumb": "https://live.staticflickr.com/65535/50017567251_e3ff0e5972_n.jpg",
    "id_album": "-401151552",
    "description": "Butterfly_350466",
    "title": "Butterfly_350466",
    "link_img": "https://live.staticflickr.com/65535/50017567251_72d9c61245_o.jpg",
    "id_image": "Butterfly_350466",
    "count_view": 0
  },
  {
    "link_thumb": "https://live.staticflickr.com/65535/50020509617_6d8a161587_n.jpg",
    "id_album": "-149330232",
    "description": "Dog_331066",
    "title": "Dog_331066",
    "link_img": "https://live.staticflickr.com/65535/50020509617_6ea20df190_o.jpg",
    "id_image": "Dog_331066",
    "count_view": 0
  },
  {
    "link_thumb": "https://live.staticflickr.com/65535/50017235496_75ecb0281e_n.jpg",
    "id_album": "-1846011410",
    "description": "Bird_315657",
    "title": "Bird_315657",
    "link_img": "https://live.staticflickr.com/65535/50017235496_20df9eb990_o.jpg",
    "id_image": "Bird_315657",
    "count_view": 0
  },
  {
    "link_thumb": "https://live.staticflickr.com/65535/50023667883_c5a57172ab_n.jpg",
    "id_album": "405170427",
    "description": "Tiger_778586",
    "title": "Tiger_778586",
    "link_img": "https://live.staticflickr.com/65535/50023667883_70aa9db79a_o.jpg",
    "id_image": "Tiger_778586",
    "count_view": 0
  },
  {
    "link_thumb": "https://live.staticflickr.com/65535/50020881288_9da44786fc_n.jpg",
    "id_album": "-1513987841",
    "description": "Hawk_564746",
    "title": "Hawk_564746",
    "link_img": "https://live.staticflickr.com/65535/50020881288_f29a31f450_o.jpg",
    "id_image": "Hawk_564746",
    "count_view": 0
  },
  {
    "link_thumb": "https://live.staticflickr.com/65535/50021870581_3ec14c0a17_n.jpg",
    "id_album": "1918884325",
    "description": "Lemur_253207",
    "title": "Lemur_253207",
    "link_img": "https://live.staticflickr.com/65535/50021870581_6fec375365_o.jpg",
    "id_image": "Lemur_253207",
    "count_view": 0
  },
  {
    "link_thumb": "https://live.staticflickr.com/65535/50022330881_6da97e8fbb_n.jpg",
    "id_album": "1015034486",
    "description": "Muteswan_707753",
    "title": "Muteswan_707753",
    "link_img": "https://live.staticflickr.com/65535/50022330881_6c7be140ba_o.jpg",
    "id_image": "Muteswan_707753",
    "count_view": 0
  },
  {
    "link_thumb": "https://live.staticflickr.com/65535/50022188618_a7294b873e_n.jpg",
    "id_album": "392248205",
    "description": "Penguin_912896",
    "title": "Penguin_912896",
    "link_img": "https://live.staticflickr.com/65535/50022188618_29dfa15bd5_o.jpg",
    "id_image": "Penguin_912896",
    "count_view": 0
  },
  {
    "link_thumb": "https://live.staticflickr.com/65535/50017450782_4a239d60ec_n.jpg",
    "id_album": "325287329",
    "description": "Beetle_830405",
    "title": "Beetle_830405",
    "link_img": "https://live.staticflickr.com/65535/50017450782_6653d381bf_o.jpg",
    "id_image": "Beetle_830405",
    "count_view": 0
  },
  {
    "link_thumb": "https://live.staticflickr.com/65535/50021864741_4ec20c057d_n.jpg",
    "id_album": "-1882491687",
    "description": "Ladybug_792837",
    "title": "Ladybug_792837",
    "link_img": "https://live.staticflickr.com/65535/50021864741_0a70b4be13_o.jpg",
    "id_image": "Ladybug_792837",
    "count_view": 0
  },
  {
    "link_thumb": "https://live.staticflickr.com/65535/50017706876_ddb4c39a40_n.jpg",
    "id_album": "-401151552",
    "description": "Butterfly_926932",
    "title": "Butterfly_926932",
    "link_img": "https://live.staticflickr.com/65535/50017706876_481e8d42e9_o.jpg",
    "id_image": "Butterfly_926932",
    "count_view": 0
  },
  {
    "link_thumb": "https://live.staticflickr.com/65535/50023333312_ac7677642c_n.jpg",
    "id_album": "470794721",
    "description": "Python_270199",
    "title": "Python_270199",
    "link_img": "https://live.staticflickr.com/65535/50023333312_b260b4d8d0_o.jpg",
    "id_image": "Python_270199",
    "count_view": 0
  },
  {
    "link_thumb": "https://live.staticflickr.com/65535/50020364126_06aa96017a_n.jpg",
    "id_album": "-149330231",
    "description": "Dog_386669",
    "title": "Dog_386669",
    "link_img": "https://live.staticflickr.com/65535/50020364126_233f977d62_o.jpg",
    "id_image": "Dog_386669",
    "count_view": 0
  },
  {
    "link_thumb": "https://live.staticflickr.com/65535/50352740937_c62649a4e3_n.jpg",
    "id_album": "-462831703",
    "description": "Cat_515816",
    "title": "Cat_515816",
    "link_img": "https://live.staticflickr.com/65535/50352740937_a35641d554_o.jpg",
    "id_image": "Cat_515816",
    "count_view": 0
  },
  {
    "link_thumb": "https://live.staticflickr.com/65535/50021298483_660786a801_n.jpg",
    "id_album": "-1882491687",
    "description": "Ladybug_218251",
    "title": "Ladybug_218251",
    "link_img": "https://live.staticflickr.com/65535/50021298483_dbea8a967d_o.jpg",
    "id_image": "Ladybug_218251",
    "count_view": 0
  },
  {
    "link_thumb": "https://live.staticflickr.com/65535/50022073832_6fba3e37c7_n.jpg",
    "id_album": "771796001",
    "description": "Koala_436557",
    "title": "Koala_436557",
    "link_img": "https://live.staticflickr.com/65535/50022073832_72104a9da9_o.jpg",
    "id_image": "Koala_436557",
    "count_view": 0
  },
  {
    "link_thumb": "https://live.staticflickr.com/65535/50021288478_65f46eafc6_n.jpg",
    "id_album": "1307335982",
    "description": "LabradorRetriever_696232",
    "title": "LabradorRetriever_696232",
    "link_img": "https://live.staticflickr.com/65535/50021288478_e8e6376e26_o.jpg",
    "id_image": "LabradorRetriever_696232",
    "count_view": 0
  },
  {
    "link_thumb": "https://live.staticflickr.com/65535/50021375811_be69b46fc1_n.jpg",
    "id_album": "-975314166",
    "description": "Goldfish_190934",
    "title": "Goldfish_190934",
    "link_img": "https://live.staticflickr.com/65535/50021375811_847db31be7_o.jpg",
    "id_image": "Goldfish_190934",
    "count_view": 0
  },
  {
    "link_thumb": "https://live.staticflickr.com/65535/50017151748_9cd727563d_n.jpg",
    "id_album": "-401151552",
    "description": "Butterfly_853901",
    "title": "Butterfly_853901",
    "link_img": "https://live.staticflickr.com/65535/50017151748_97457fde2c_o.jpg",
    "id_image": "Butterfly_853901",
    "count_view": 0
  },
  {
    "link_thumb": "https://live.staticflickr.com/65535/50023198996_ed5ef03216_n.jpg",
    "id_album": "-1862965835",
    "description": "RedEyedTreeFrog_997026",
    "title": "RedEyedTreeFrog_997026",
    "link_img": "https://live.staticflickr.com/65535/50023198996_43ecfee05d_o.jpg",
    "id_image": "RedEyedTreeFrog_997026",
    "count_view": 0
  },
  {
    "link_thumb": "https://live.staticflickr.com/65535/50023744153_68f847c15f_n.jpg",
    "id_album": "-1103743486",
    "description": "Toucan_991723",
    "title": "Toucan_991723",
    "link_img": "https://live.staticflickr.com/65535/50023744153_47e9281dc1_o.jpg",
    "id_image": "Toucan_991723",
    "count_view": 0
  },
  {
    "link_thumb": "https://live.staticflickr.com/65535/50020926223_17c648a13f_n.jpg",
    "id_album": "-1933715543",
    "description": "Horse_212987",
    "title": "Horse_212987",
    "link_img": "https://live.staticflickr.com/65535/50020926223_d86b15002b_o.jpg",
    "id_image": "Horse_212987",
    "count_view": 0
  },
  {
    "link_thumb": "https://live.staticflickr.com/65535/50021269598_de5a2fa094_n.jpg",
    "id_album": "770105808",
    "description": "Kingfisher_879079",
    "title": "Kingfisher_879079",
    "link_img": "https://live.staticflickr.com/65535/50021269598_f3fb211ecb_o.jpg",
    "id_image": "Kingfisher_879079",
    "count_view": 0
  },
  {
    "link_thumb": "https://live.staticflickr.com/65535/50021878137_46d2bbd825_n.jpg",
    "id_album": "2144294979",
    "description": "Hummingbird_967118",
    "title": "Hummingbird_967118",
    "link_img": "https://live.staticflickr.com/65535/50021878137_0aa773b308_o.jpg",
    "id_image": "Hummingbird_967118",
    "count_view": 0
  },
  {
    "link_thumb": "https://live.staticflickr.com/65535/50018202867_a8f3a187d5_n.jpg",
    "id_album": "-462831702",
    "description": "Cat_292123",
    "title": "Cat_292123",
    "link_img": "https://live.staticflickr.com/65535/50018202867_ea3794228d_o.jpg",
    "id_image": "Cat_292123",
    "count_view": 0
  },
  {
    "link_thumb": "https://live.staticflickr.com/65535/50351918798_7e98fdaf5c_n.jpg",
    "id_album": "-462831703",
    "description": "Cat_589096",
    "title": "Cat_589096",
    "link_img": "https://live.staticflickr.com/65535/50351918798_da206f62d4_o.jpg",
    "id_image": "Cat_589096",
    "count_view": 0
  },
  {
    "link_thumb": "https://live.staticflickr.com/65535/50022447497_ac2ab3ccf0_n.jpg",
    "id_album": "-1720012921",
    "description": "Meerkat_683474",
    "title": "Meerkat_683474",
    "link_img": "https://live.staticflickr.com/65535/50022447497_c071d290f6_o.jpg",
    "id_image": "Meerkat_683474",
    "count_view": 0
  },
  {
    "link_thumb": "https://live.staticflickr.com/65535/50020859572_d51c75272e_n.jpg",
    "id_album": "-1859457960",
    "description": "Dove_821952",
    "title": "Dove_821952",
    "link_img": "https://live.staticflickr.com/65535/50020859572_69aa3aee52_o.jpg",
    "id_image": "Dove_821952",
    "count_view": 0
  },
  {
    "link_thumb": "https://live.staticflickr.com/65535/50022676323_c2f8629cc0_n.jpg",
    "id_album": "332874268",
    "description": "RedPanda_650164",
    "title": "RedPanda_650164",
    "link_img": "https://live.staticflickr.com/65535/50022676323_2ffe73d525_o.jpg",
    "id_image": "RedPanda_650164",
    "count_view": 0
  },
  {
    "link_thumb": "https://live.staticflickr.com/65535/50021429557_34d34be03d_n.jpg",
    "id_album": "-462831704",
    "description": "Cat_697454",
    "title": "Cat_697454",
    "link_img": "https://live.staticflickr.com/65535/50021429557_81fbc49d9d_o.jpg",
    "id_image": "Cat_697454",
    "count_view": 0
  },
  {
    "link_thumb": "https://live.staticflickr.com/65535/50023330347_fb2b57b4c4_n.jpg",
    "id_album": "-353898617",
    "description": "Puppy_948254",
    "title": "Puppy_948254",
    "link_img": "https://live.staticflickr.com/65535/50023330347_5787bcfdc6_o.jpg",
    "id_image": "Puppy_948254",
    "count_view": 0
  },
  {
    "link_thumb": "https://live.staticflickr.com/65535/50021476973_60defd7737_n.jpg",
    "id_album": "416744915",
    "description": "Lion_431096",
    "title": "Lion_431096",
    "link_img": "https://live.staticflickr.com/65535/50021476973_1fc2c577c0_o.jpg",
    "id_image": "Lion_431096",
    "count_view": 0
  },
  {
    "link_thumb": "https://live.staticflickr.com/65535/50020794687_6f8a97c8db_n.jpg",
    "id_album": "-149330231",
    "description": "Dog_897308",
    "title": "Dog_897308",
    "link_img": "https://live.staticflickr.com/65535/50020794687_06dc375e47_o.jpg",
    "id_image": "Dog_897308",
    "count_view": 0
  },
  {
    "link_thumb": "https://live.staticflickr.com/65535/50017954127_6aca871089_n.jpg",
    "id_album": "-401151552",
    "description": "Butterfly_916311",
    "title": "Butterfly_916311",
    "link_img": "https://live.staticflickr.com/65535/50017954127_7e7c12ac9f_o.jpg",
    "id_image": "Butterfly_916311",
    "count_view": 0
  },
  {
    "link_thumb": "https://live.staticflickr.com/65535/50016296753_e546286fd1_n.jpg",
    "id_album": "-229810103",
    "description": "AmericanBison_553747",
    "title": "AmericanBison_553747",
    "link_img": "https://live.staticflickr.com/65535/50016296753_794f3a1958_o.jpg",
    "id_image": "AmericanBison_553747",
    "count_view": 0
  },
  {
    "link_thumb": "https://live.staticflickr.com/65535/50024492982_00b34c2b46_n.jpg",
    "id_album": "405170427",
    "description": "Tiger_899729",
    "title": "Tiger_899729",
    "link_img": "https://live.staticflickr.com/65535/50024492982_eee1093258_o.jpg",
    "id_image": "Tiger_899729",
    "count_view": 0
  },
  {
    "link_thumb": "https://live.staticflickr.com/65535/50021748218_8f76186465_n.jpg",
    "id_album": "1957967135",
    "description": "Mouse_424608",
    "title": "Mouse_424608",
    "link_img": "https://live.staticflickr.com/65535/50021748218_f3b4208a7f_o.jpg",
    "id_image": "Mouse_424608",
    "count_view": 0
  },
  {
    "link_thumb": "https://live.staticflickr.com/65535/50021981268_8559113164_n.jpg",
    "id_album": "-358592519",
    "description": "Panda_353080",
    "title": "Panda_353080",
    "link_img": "https://live.staticflickr.com/65535/50021981268_10585a6870_o.jpg",
    "id_image": "Panda_353080",
    "count_view": 0
  },
  {
    "link_thumb": "https://live.staticflickr.com/65535/50351948913_6dcc43fd71_n.jpg",
    "id_album": "-462831703",
    "description": "Cat_687361",
    "title": "Cat_687361",
    "link_img": "https://live.staticflickr.com/65535/50351948913_a5d872acd3_o.jpg",
    "id_image": "Cat_687361",
    "count_view": 0
  },
  {
    "link_thumb": "https://live.staticflickr.com/65535/50020665528_8c75c305fd_n.jpg",
    "id_album": "-462831704",
    "description": "Cat_725830",
    "title": "Cat_725830",
    "link_img": "https://live.staticflickr.com/65535/50020665528_20712f90b5_o.jpg",
    "id_image": "Cat_725830",
    "count_view": 0
  },
  {
    "link_thumb": "https://live.staticflickr.com/65535/50021191142_23b13d197e_n.jpg",
    "id_album": "-128218148",
    "description": "Fox_217721",
    "title": "Fox_217721",
    "link_img": "https://live.staticflickr.com/65535/50021191142_44dc3542ff_o.jpg",
    "id_image": "Fox_217721",
    "count_view": 0
  },
  {
    "link_thumb": "https://live.staticflickr.com/65535/50020668817_f00f18ee03_n.jpg",
    "id_album": "-149330231",
    "description": "Dog_435049",
    "title": "Dog_435049",
    "link_img": "https://live.staticflickr.com/65535/50020668817_4883241e99_o.jpg",
    "id_image": "Dog_435049",
    "count_view": 0
  },
  {
    "link_thumb": "https://live.staticflickr.com/65535/50352663667_7e0ffdceb7_n.jpg",
    "id_album": "-462831703",
    "description": "Cat_416189",
    "title": "Cat_416189",
    "link_img": "https://live.staticflickr.com/65535/50352663667_df619feaa6_o.jpg",
    "id_image": "Cat_416189",
    "count_view": 0
  },
  {
    "link_thumb": "https://live.staticflickr.com/65535/50021622396_832979010a_n.jpg",
    "id_album": "2144294979",
    "description": "Hummingbird_852393",
    "title": "Hummingbird_852393",
    "link_img": "https://live.staticflickr.com/65535/50021622396_6c05143c18_o.jpg",
    "id_image": "Hummingbird_852393",
    "count_view": 0
  },
  {
    "link_thumb": "https://live.staticflickr.com/65535/50016950096_ef50d7af7f_n.jpg",
    "id_album": "390697200",
    "description": "AustralianShepherd_982504",
    "title": "AustralianShepherd_982504",
    "link_img": "https://live.staticflickr.com/65535/50016950096_6daf7fff4e_o.jpg",
    "id_image": "AustralianShepherd_982504",
    "count_view": 0
  },
  {
    "link_thumb": "https://live.staticflickr.com/65535/50024841817_d9bdcb05f1_n.jpg",
    "id_album": "1104421803",
    "description": "Zebra_921610",
    "title": "Zebra_921610",
    "link_img": "https://live.staticflickr.com/65535/50024841817_5c47def497_o.jpg",
    "id_image": "Zebra_921610",
    "count_view": 0
  },
  {
    "link_thumb": "https://live.staticflickr.com/65535/50017509338_c819baf381_n.jpg",
    "id_album": "-462831702",
    "description": "Cat_352642",
    "title": "Cat_352642",
    "link_img": "https://live.staticflickr.com/65535/50017509338_bb4805b0e9_o.jpg",
    "id_image": "Cat_352642",
    "count_view": 0
  },
  {
    "link_thumb": "https://live.staticflickr.com/65535/50352478631_2c644bc974_n.jpg",
    "id_album": "-462831703",
    "description": "Cat_373757",
    "title": "Cat_373757",
    "link_img": "https://live.staticflickr.com/65535/50352478631_ec9faf6803_o.jpg",
    "id_image": "Cat_373757",
    "count_view": 0
  },
  {
    "link_thumb": "https://live.staticflickr.com/65535/50017475472_bcc5f689de_n.jpg",
    "id_album": "-1846011410",
    "description": "Bird_222340",
    "title": "Bird_222340",
    "link_img": "https://live.staticflickr.com/65535/50017475472_c090d1ecc3_o.jpg",
    "id_image": "Bird_222340",
    "count_view": 0
  },
  {
    "link_thumb": "https://live.staticflickr.com/65535/50017559281_54604d7dd1_n.jpg",
    "id_album": "-401151552",
    "description": "Butterfly_310117",
    "title": "Butterfly_310117",
    "link_img": "https://live.staticflickr.com/65535/50017559281_7b166cf41d_o.jpg",
    "id_image": "Butterfly_310117",
    "count_view": 0
  },
  {
    "link_thumb": "https://live.staticflickr.com/65535/50023261443_1f2e4f08e7_n.jpg",
    "id_album": "-1082521515",
    "description": "Spider_9275",
    "title": "Spider_9275",
    "link_img": "https://live.staticflickr.com/65535/50023261443_73436eedb6_o.jpg",
    "id_image": "Spider_9275",
    "count_view": 0
  },
  {
    "link_thumb": "https://live.staticflickr.com/65535/50017094441_b93230c00b_n.jpg",
    "id_album": "-422187261",
    "description": "Bear_874513",
    "title": "Bear_874513",
    "link_img": "https://live.staticflickr.com/65535/50017094441_9c954b4abf_o.jpg",
    "id_image": "Bear_874513",
    "count_view": 0
  },
  {
    "link_thumb": "https://live.staticflickr.com/65535/50017433297_4ee640dd6a_n.jpg",
    "id_album": "172748811",
    "description": "Beeeater_419495",
    "title": "Beeeater_419495",
    "link_img": "https://live.staticflickr.com/65535/50017433297_7c9dae8e4b_o.jpg",
    "id_image": "Beeeater_419495",
    "count_view": 0
  },
  {
    "link_thumb": "https://live.staticflickr.com/65535/50017414292_4eff8d66bb_n.jpg",
    "id_album": "1699594607",
    "description": "Bee_657516",
    "title": "Bee_657516",
    "link_img": "https://live.staticflickr.com/65535/50017414292_dd0e8e7ae7_o.jpg",
    "id_image": "Bee_657516",
    "count_view": 0
  },
  {
    "link_thumb": "https://live.staticflickr.com/65535/50021676681_bb9846c511_n.jpg",
    "id_album": "1658866795",
    "description": "Insect_403419",
    "title": "Insect_403419",
    "link_img": "https://live.staticflickr.com/65535/50021676681_ef7fde30a5_o.jpg",
    "id_image": "Insect_403419",
    "count_view": 0
  },
  {
    "link_thumb": "https://live.staticflickr.com/65535/50020865857_77f8dc4553_n.jpg",
    "id_album": "-405058657",
    "description": "Dragonfly_323744",
    "title": "Dragonfly_323744",
    "link_img": "https://live.staticflickr.com/65535/50020865857_abe501a14c_o.jpg",
    "id_image": "Dragonfly_323744",
    "count_view": 0
  },
  {
    "link_thumb": "https://live.staticflickr.com/65535/50021339101_96b06a334d_n.jpg",
    "id_album": "-804131074",
    "description": "Goat_325872",
    "title": "Goat_325872",
    "link_img": "https://live.staticflickr.com/65535/50021339101_c923d701aa_o.jpg",
    "id_image": "Goat_325872",
    "count_view": 0
  },
  {
    "link_thumb": "https://live.staticflickr.com/65535/50021155398_511e8cf55c_n.jpg",
    "id_album": "1658866795",
    "description": "Insect_411725",
    "title": "Insect_411725",
    "link_img": "https://live.staticflickr.com/65535/50021155398_ccd2d39e64_o.jpg",
    "id_image": "Insect_411725",
    "count_view": 0
  },
  {
    "link_thumb": "https://live.staticflickr.com/65535/50018125686_22ff576900_n.jpg",
    "id_album": "-462831702",
    "description": "Cat_393559",
    "title": "Cat_393559",
    "link_img": "https://live.staticflickr.com/65535/50018125686_fc1ed19ab7_o.jpg",
    "id_image": "Cat_393559",
    "count_view": 0
  },
  {
    "link_thumb": "https://live.staticflickr.com/65535/50019053518_5343282c04_n.jpg",
    "id_album": "-1930903528",
    "description": "CatDog_716546",
    "title": "CatDog_716546",
    "link_img": "https://live.staticflickr.com/65535/50019053518_28d620bc08_o.jpg",
    "id_image": "CatDog_716546",
    "count_view": 0
  },
  {
    "link_thumb": "https://live.staticflickr.com/65535/50017527886_39cc9f1408_n.jpg",
    "id_album": "368532157",
    "description": "Bulldog_682410",
    "title": "Bulldog_682410",
    "link_img": "https://live.staticflickr.com/65535/50017527886_82fdd6a09a_o.jpg",
    "id_image": "Bulldog_682410",
    "count_view": 0
  },
  {
    "link_thumb": "https://live.staticflickr.com/65535/50019272836_3711fc7db5_n.jpg",
    "id_album": "-462831704",
    "description": "Cat_514490",
    "title": "Cat_514490",
    "link_img": "https://live.staticflickr.com/65535/50019272836_752a7f86d9_o.jpg",
    "id_image": "Cat_514490",
    "count_view": 0
  },
  {
    "link_thumb": "https://live.staticflickr.com/65535/50023319242_b9d9f17864_n.jpg",
    "id_album": "-353898617",
    "description": "Puppy_801204",
    "title": "Puppy_801204",
    "link_img": "https://live.staticflickr.com/65535/50023319242_a2e5954529_o.jpg",
    "id_image": "Puppy_801204",
    "count_view": 0
  },
  {
    "link_thumb": "https://live.staticflickr.com/65535/50022861723_8ffbf48234_n.jpg",
    "id_album": "1961094930",
    "description": "Seal_325960",
    "title": "Seal_325960",
    "link_img": "https://live.staticflickr.com/65535/50022861723_601a3bfbe8_o.jpg",
    "id_image": "Seal_325960",
    "count_view": 0
  },
  {
    "link_thumb": "https://live.staticflickr.com/65535/50017837181_95898f584a_n.jpg",
    "id_album": "-462831705",
    "description": "Cat_195501",
    "title": "Cat_195501",
    "link_img": "https://live.staticflickr.com/65535/50017837181_61af1a9e1f_o.jpg",
    "id_image": "Cat_195501",
    "count_view": 0
  },
  {
    "link_thumb": "https://live.staticflickr.com/65535/50022781447_7152f0f82e_n.jpg",
    "id_album": "-358592519",
    "description": "Panda_331288",
    "title": "Panda_331288",
    "link_img": "https://live.staticflickr.com/65535/50022781447_eea7b3f680_o.jpg",
    "id_image": "Panda_331288",
    "count_view": 0
  },
  {
    "link_thumb": "https://live.staticflickr.com/65535/50022200842_ef0fd7dc36_n.jpg",
    "id_album": "1392348450",
    "description": "Leopard_686470",
    "title": "Leopard_686470",
    "link_img": "https://live.staticflickr.com/65535/50022200842_4ffd845a12_o.jpg",
    "id_image": "Leopard_686470",
    "count_view": 0
  },
  {
    "link_thumb": "https://live.staticflickr.com/65535/50021486822_e8a8c0074a_n.jpg",
    "id_album": "-462831703",
    "description": "Cat_767512",
    "title": "Cat_767512",
    "link_img": "https://live.staticflickr.com/65535/50021486822_210c24b87c_o.jpg",
    "id_image": "Cat_767512",
    "count_view": 0
  },
  {
    "link_thumb": "https://live.staticflickr.com/65535/50017269943_bf4ee4ffb3_n.jpg",
    "id_album": "-462831705",
    "description": "Cat_166887",
    "title": "Cat_166887",
    "link_img": "https://live.staticflickr.com/65535/50017269943_face0fa37b_o.jpg",
    "id_image": "Cat_166887",
    "count_view": 0
  },
  {
    "link_thumb": "https://live.staticflickr.com/65535/50017506612_cf29edb18e_n.jpg",
    "id_album": "-1846011410",
    "description": "Bird_335295",
    "title": "Bird_335295",
    "link_img": "https://live.staticflickr.com/65535/50017506612_4b7e1da105_o.jpg",
    "id_image": "Bird_335295",
    "count_view": 0
  },
  {
    "link_thumb": "https://live.staticflickr.com/65535/50020748811_032923920e_n.jpg",
    "id_album": "1270947998",
    "description": "Elephant_359636",
    "title": "Elephant_359636",
    "link_img": "https://live.staticflickr.com/65535/50020748811_2e5675d232_o.jpg",
    "id_image": "Elephant_359636",
    "count_view": 0
  },
  {
    "link_thumb": "https://live.staticflickr.com/65535/50352437011_f3e794e0ba_n.jpg",
    "id_album": "-462831703",
    "description": "Cat_238894",
    "title": "Cat_238894",
    "link_img": "https://live.staticflickr.com/65535/50352437011_4e39b098f4_o.jpg",
    "id_image": "Cat_238894",
    "count_view": 0
  },
  {
    "link_thumb": "https://live.staticflickr.com/65535/50018623803_9bc74b688d_n.jpg",
    "id_album": "-462831702",
    "description": "Cat_419587",
    "title": "Cat_419587",
    "link_img": "https://live.staticflickr.com/65535/50018623803_54aac89221_o.jpg",
    "id_image": "Cat_419587",
    "count_view": 0
  },
  {
    "link_thumb": "https://live.staticflickr.com/65535/50022531803_28f20f8b2d_n.jpg",
    "id_album": "-353898617",
    "description": "Puppy_967354",
    "title": "Puppy_967354",
    "link_img": "https://live.staticflickr.com/65535/50022531803_0c00ae2aa4_o.jpg",
    "id_image": "Puppy_967354",
    "count_view": 0
  },
  {
    "link_thumb": "https://live.staticflickr.com/65535/50018927428_3c617d2582_n.jpg",
    "id_album": "-462831705",
    "description": "Cat_91473",
    "title": "Cat_91473",
    "link_img": "https://live.staticflickr.com/65535/50018927428_ca726c898b_o.jpg",
    "id_image": "Cat_91473",
    "count_view": 0
  },
  {
    "link_thumb": "https://live.staticflickr.com/65535/50020349481_168edbd490_n.jpg",
    "id_album": "-149330232",
    "description": "Dog_375292",
    "title": "Dog_375292",
    "link_img": "https://live.staticflickr.com/65535/50020349481_83aa1b6fea_o.jpg",
    "id_image": "Dog_375292",
    "count_view": 0
  },
  {
    "link_thumb": "https://live.staticflickr.com/65535/50023218416_629e43a0e0_n.jpg",
    "id_album": "332874268",
    "description": "RedPanda_650166",
    "title": "RedPanda_650166",
    "link_img": "https://live.staticflickr.com/65535/50023218416_7e770a09eb_o.jpg",
    "id_image": "RedPanda_650166",
    "count_view": 0
  },
  {
    "link_thumb": "https://live.staticflickr.com/65535/50023040837_6907209ac1_n.jpg",
    "id_album": "1008910300",
    "description": "PolarBear_174633",
    "title": "PolarBear_174633",
    "link_img": "https://live.staticflickr.com/65535/50023040837_211e870239_o.jpg",
    "id_image": "PolarBear_174633",
    "count_view": 0
  },
  {
    "link_thumb": "https://live.staticflickr.com/65535/50021828706_7543624443_n.jpg",
    "id_album": "1307335982",
    "description": "LabradorRetriever_428226",
    "title": "LabradorRetriever_428226",
    "link_img": "https://live.staticflickr.com/65535/50021828706_1bdb475fd6_o.jpg",
    "id_image": "LabradorRetriever_428226",
    "count_view": 0
  },
  {
    "link_thumb": "https://live.staticflickr.com/65535/50020544043_5f8cefbde3_n.jpg",
    "id_album": "844170697",
    "description": "Frog_940132",
    "title": "Frog_940132",
    "link_img": "https://live.staticflickr.com/65535/50020544043_1164a596bb_o.jpg",
    "id_image": "Frog_940132",
    "count_view": 0
  },
  {
    "link_thumb": "https://live.staticflickr.com/65535/50022372986_894fe27df4_n.jpg",
    "id_album": "-1384601601",
    "description": "Owl_147480",
    "title": "Owl_147480",
    "link_img": "https://live.staticflickr.com/65535/50022372986_21421de1dd_o.jpg",
    "id_image": "Owl_147480",
    "count_view": 0
  },
  {
    "link_thumb": "https://live.staticflickr.com/65535/50021632146_c927832ba1_n.jpg",
    "id_album": "-712553376",
    "description": "Husky_399922",
    "title": "Husky_399922",
    "link_img": "https://live.staticflickr.com/65535/50021632146_cd60728d63_o.jpg",
    "id_image": "Husky_399922",
    "count_view": 0
  },
  {
    "link_thumb": "https://live.staticflickr.com/65535/50021312053_b1f6e154f2_n.jpg",
    "id_album": "-1882491687",
    "description": "Ladybug_493229",
    "title": "Ladybug_493229",
    "link_img": "https://live.staticflickr.com/65535/50021312053_6063384338_o.jpg",
    "id_image": "Ladybug_493229",
    "count_view": 0
  },
  {
    "link_thumb": "https://live.staticflickr.com/65535/50022325023_aff693cb2f_n.jpg",
    "id_album": "1008910300",
    "description": "PolarBear_913814",
    "title": "PolarBear_913814",
    "link_img": "https://live.staticflickr.com/65535/50022325023_c9fb2659b7_o.jpg",
    "id_image": "PolarBear_913814",
    "count_view": 0
  },
  {
    "link_thumb": "https://live.staticflickr.com/65535/50018112406_40d5540632_n.jpg",
    "id_album": "-462831702",
    "description": "Cat_383845",
    "title": "Cat_383845",
    "link_img": "https://live.staticflickr.com/65535/50018112406_e7b9ce06c7_o.jpg",
    "id_image": "Cat_383845",
    "count_view": 0
  },
  {
    "link_thumb": "https://live.staticflickr.com/65535/50019949576_977363d31d_n.jpg",
    "id_album": "1831085598",
    "description": "Dachshund_337728",
    "title": "Dachshund_337728",
    "link_img": "https://live.staticflickr.com/65535/50019949576_3c4d2bc3fc_o.jpg",
    "id_image": "Dachshund_337728",
    "count_view": 0
  },
  {
    "link_thumb": "https://live.staticflickr.com/65535/50023129351_6f36820169_n.jpg",
    "id_album": "-1940643173",
    "description": "Rabbit_837314",
    "title": "Rabbit_837314",
    "link_img": "https://live.staticflickr.com/65535/50023129351_0470e5901b_o.jpg",
    "id_image": "Rabbit_837314",
    "count_view": 0
  },
  {
    "link_thumb": "https://live.staticflickr.com/65535/50352625607_e08c7922a4_n.jpg",
    "id_album": "-462831703",
    "description": "Cat_365131",
    "title": "Cat_365131",
    "link_img": "https://live.staticflickr.com/65535/50352625607_aaf2a0edaa_o.jpg",
    "id_image": "Cat_365131",
    "count_view": 0
  },
  {
    "link_thumb": "https://live.staticflickr.com/65535/50023769711_93971bc90b_n.jpg",
    "id_album": "-1082521515",
    "description": "Spider_493531",
    "title": "Spider_493531",
    "link_img": "https://live.staticflickr.com/65535/50023769711_220dd2055d_o.jpg",
    "id_image": "Spider_493531",
    "count_view": 0
  },
  {
    "link_thumb": "https://live.staticflickr.com/65535/50022190692_361b0d6683_n.jpg",
    "id_album": "1392348450",
    "description": "Leopard_529856",
    "title": "Leopard_529856",
    "link_img": "https://live.staticflickr.com/65535/50022190692_ae77bd54f3_o.jpg",
    "id_image": "Leopard_529856",
    "count_view": 0
  },
  {
    "link_thumb": "https://live.staticflickr.com/65535/50016820441_0d5c49ec22_n.jpg",
    "id_album": "-1473450542",
    "description": "Alpaca_548458",
    "title": "Alpaca_548458",
    "link_img": "https://live.staticflickr.com/65535/50016820441_db2c509d9a_o.jpg",
    "id_image": "Alpaca_548458",
    "count_view": 0
  },
  {
    "link_thumb": "https://live.staticflickr.com/65535/50021017436_7817f2796e_n.jpg",
    "id_album": "-128218148",
    "description": "Fox_890101",
    "title": "Fox_890101",
    "link_img": "https://live.staticflickr.com/65535/50021017436_d35fd73009_o.jpg",
    "id_image": "Fox_890101",
    "count_view": 0
  },
  {
    "link_thumb": "https://live.staticflickr.com/65535/50021491567_dcf4826584_n.jpg",
    "id_album": "-462831703",
    "description": "Cat_776581",
    "title": "Cat_776581",
    "link_img": "https://live.staticflickr.com/65535/50021491567_413974cf6e_o.jpg",
    "id_image": "Cat_776581",
    "count_view": 0
  },
  {
    "link_thumb": "https://live.staticflickr.com/65535/50017231147_8a54e2de8a_n.jpg",
    "id_album": "231236068",
    "description": "BaldEagle_811501",
    "title": "BaldEagle_811501",
    "link_img": "https://live.staticflickr.com/65535/50017231147_b6a7312b9e_o.jpg",
    "id_image": "BaldEagle_811501",
    "count_view": 0
  },
  {
    "link_thumb": "https://live.staticflickr.com/65535/50016373103_bf4e5889b2_n.jpg",
    "id_album": "523598895",
    "description": "Artistic_359967",
    "title": "Artistic_359967",
    "link_img": "https://live.staticflickr.com/65535/50016373103_041fd54d8e_o.jpg",
    "id_image": "Artistic_359967",
    "count_view": 0
  },
  {
    "link_thumb": "https://live.staticflickr.com/65535/50017459311_afca782c96_n.jpg",
    "id_album": "-530283314",
    "description": "BlueandyellowMacaw_124036",
    "title": "BlueandyellowMacaw_124036",
    "link_img": "https://live.staticflickr.com/65535/50017459311_83cc8238ef_o.jpg",
    "id_image": "BlueandyellowMacaw_124036",
    "count_view": 0
  },
  {
    "link_thumb": "https://live.staticflickr.com/65535/50021189167_695d846e7b_n.jpg",
    "id_album": "-128218148",
    "description": "Fox_191030",
    "title": "Fox_191030",
    "link_img": "https://live.staticflickr.com/65535/50021189167_309a7bc91c_o.jpg",
    "id_image": "Fox_191030",
    "count_view": 0
  },
  {
    "link_thumb": "https://live.staticflickr.com/65535/50351854658_a4abcaf93e_n.jpg",
    "id_album": "-462831703",
    "description": "Cat_468191",
    "title": "Cat_468191",
    "link_img": "https://live.staticflickr.com/65535/50351854658_9a1b82016a_o.jpg",
    "id_image": "Cat_468191",
    "count_view": 0
  },
  {
    "link_thumb": "https://live.staticflickr.com/65535/50020620803_0e385ae087_n.jpg",
    "id_album": "-462831704",
    "description": "Cat_678540",
    "title": "Cat_678540",
    "link_img": "https://live.staticflickr.com/65535/50020620803_e343c8f1d4_o.jpg",
    "id_image": "Cat_678540",
    "count_view": 0
  },
  {
    "link_thumb": "https://live.staticflickr.com/65535/50021421046_69ef6322c0_n.jpg",
    "id_album": "-1513987841",
    "description": "Hawk_406136",
    "title": "Hawk_406136",
    "link_img": "https://live.staticflickr.com/65535/50021421046_497cf74f1d_o.jpg",
    "id_image": "Hawk_406136",
    "count_view": 0
  },
  {
    "link_thumb": "https://live.staticflickr.com/65535/50017107453_dccfec3826_n.jpg",
    "id_album": "-401151552",
    "description": "Butterfly_574417",
    "title": "Butterfly_574417",
    "link_img": "https://live.staticflickr.com/65535/50017107453_4aa0c84119_o.jpg",
    "id_image": "Butterfly_574417",
    "count_view": 0
  },
  {
    "link_thumb": "https://live.staticflickr.com/65535/50021835446_54ef04f940_n.jpg",
    "id_album": "1307335982",
    "description": "LabradorRetriever_878362",
    "title": "LabradorRetriever_878362",
    "link_img": "https://live.staticflickr.com/65535/50021835446_714f697ef3_o.jpg",
    "id_image": "LabradorRetriever_878362",
    "count_view": 0
  },
  {
    "link_thumb": "https://live.staticflickr.com/65535/50021300727_05df850b9e_n.jpg",
    "id_album": "704811092",
    "description": "FrenchBulldog_863093",
    "title": "FrenchBulldog_863093",
    "link_img": "https://live.staticflickr.com/65535/50021300727_fea6dc8e99_o.jpg",
    "id_image": "FrenchBulldog_863093",
    "count_view": 0
  },
  {
    "link_thumb": "https://live.staticflickr.com/65535/50016927328_56671ee3f5_n.jpg",
    "id_album": "-1561645279",
    "description": "BlackPanther_425367",
    "title": "BlackPanther_425367",
    "link_img": "https://live.staticflickr.com/65535/50016927328_02ebb48d19_o.jpg",
    "id_image": "BlackPanther_425367",
    "count_view": 0
  },
  {
    "link_thumb": "https://live.staticflickr.com/65535/50017321671_a164b465b8_n.jpg",
    "id_album": "-1846011410",
    "description": "Bird_420197",
    "title": "Bird_420197",
    "link_img": "https://live.staticflickr.com/65535/50017321671_5c2ed1bef6_o.jpg",
    "id_image": "Bird_420197",
    "count_view": 0
  },
  {
    "link_thumb": "https://live.staticflickr.com/65535/50017604906_e9fde2a47e_n.jpg",
    "id_album": "-401151552",
    "description": "Butterfly_462693",
    "title": "Butterfly_462693",
    "link_img": "https://live.staticflickr.com/65535/50017604906_8630e6cf4c_o.jpg",
    "id_image": "Butterfly_462693",
    "count_view": 0
  },
  {
    "link_thumb": "https://live.staticflickr.com/65535/50022169162_28c3fd9da5_n.jpg",
    "id_album": "1392348450",
    "description": "Leopard_374236",
    "title": "Leopard_374236",
    "link_img": "https://live.staticflickr.com/65535/50022169162_b086b31b5d_o.jpg",
    "id_image": "Leopard_374236",
    "count_view": 0
  },
  {
    "link_thumb": "https://live.staticflickr.com/65535/50020123328_ed66713c2e_n.jpg",
    "id_album": "1168627767",
    "description": "Duck_411911",
    "title": "Duck_411911",
    "link_img": "https://live.staticflickr.com/65535/50020123328_6b5d3441ee_o.jpg",
    "id_image": "Duck_411911",
    "count_view": 0
  },
  {
    "link_thumb": "https://live.staticflickr.com/65535/50021095447_a6a007b169_n.jpg",
    "id_album": "-1118073211",
    "description": "Fish_349084",
    "title": "Fish_349084",
    "link_img": "https://live.staticflickr.com/65535/50021095447_8ed587793b_o.jpg",
    "id_image": "Fish_349084",
    "count_view": 0
  },
  {
    "link_thumb": "https://live.staticflickr.com/65535/50017751406_79d58a163b_n.jpg",
    "id_album": "-462831705",
    "description": "Cat_110512",
    "title": "Cat_110512",
    "link_img": "https://live.staticflickr.com/65535/50017751406_2b0a4c538a_o.jpg",
    "id_image": "Cat_110512",
    "count_view": 0
  },
  {
    "link_thumb": "https://live.staticflickr.com/65535/50017725227_d5ff4c04a3_n.jpg",
    "id_album": "-530283314",
    "description": "BlueandyellowMacaw_391847",
    "title": "BlueandyellowMacaw_391847",
    "link_img": "https://live.staticflickr.com/65535/50017725227_62dd5b3d0a_o.jpg",
    "id_image": "BlueandyellowMacaw_391847",
    "count_view": 0
  },
  {
    "link_thumb": "https://live.staticflickr.com/65535/50016957001_01a474cbd9_n.jpg",
    "id_album": "231236068",
    "description": "BaldEagle_419962",
    "title": "BaldEagle_419962",
    "link_img": "https://live.staticflickr.com/65535/50016957001_c497a99941_o.jpg",
    "id_image": "BaldEagle_419962",
    "count_view": 0
  },
  {
    "link_thumb": "https://live.staticflickr.com/65535/50020410468_3d00154f2f_n.jpg",
    "id_album": "-128218148",
    "description": "Fox_362692",
    "title": "Fox_362692",
    "link_img": "https://live.staticflickr.com/65535/50020410468_c69b67a44a_o.jpg",
    "id_image": "Fox_362692",
    "count_view": 0
  },
  {
    "link_thumb": "https://live.staticflickr.com/65535/50021055777_e3ff9a5ca1_n.jpg",
    "id_album": "1270947998",
    "description": "Elephant_88196",
    "title": "Elephant_88196",
    "link_img": "https://live.staticflickr.com/65535/50021055777_e2b4ecd89c_o.jpg",
    "id_image": "Elephant_88196",
    "count_view": 0
  },
  {
    "link_thumb": "https://live.staticflickr.com/65535/50016418548_28227ed350_n.jpg",
    "id_album": "390697200",
    "description": "AustralianShepherd_884516",
    "title": "AustralianShepherd_884516",
    "link_img": "https://live.staticflickr.com/65535/50016418548_795002c8b4_o.jpg",
    "id_image": "AustralianShepherd_884516",
    "count_view": 0
  },
  {
    "link_thumb": "https://live.staticflickr.com/65535/50017245847_5d2664cb29_n.jpg",
    "id_album": "809937717",
    "description": "Beagle_371088",
    "title": "Beagle_371088",
    "link_img": "https://live.staticflickr.com/65535/50017245847_70bf0ecb85_o.jpg",
    "id_image": "Beagle_371088",
    "count_view": 0
  },
  {
    "link_thumb": "https://live.staticflickr.com/65535/50018148151_d315560f70_n.jpg",
    "id_album": "-462831702",
    "description": "Cat_406536",
    "title": "Cat_406536",
    "link_img": "https://live.staticflickr.com/65535/50018148151_0617380525_o.jpg",
    "id_image": "Cat_406536",
    "count_view": 0
  },
  {
    "link_thumb": "https://live.staticflickr.com/65535/50020569277_58a5471b32_n.jpg",
    "id_album": "-149330232",
    "description": "Dog_356703",
    "title": "Dog_356703",
    "link_img": "https://live.staticflickr.com/65535/50020569277_982322fd20_o.jpg",
    "id_image": "Dog_356703",
    "count_view": 0
  },
  {
    "link_thumb": "https://live.staticflickr.com/65535/50019223258_cac700e25f_n.jpg",
    "id_album": "1949822052",
    "description": "Chimpanzee_858001",
    "title": "Chimpanzee_858001",
    "link_img": "https://live.staticflickr.com/65535/50019223258_1a1d88b8d1_o.jpg",
    "id_image": "Chimpanzee_858001",
    "count_view": 0
  },
  {
    "link_thumb": "https://live.staticflickr.com/65535/50020048247_5a05b7b61c_n.jpg",
    "id_album": "-1462118852",
    "description": "Corgi_339620",
    "title": "Corgi_339620",
    "link_img": "https://live.staticflickr.com/65535/50020048247_54e63e1ff6_o.jpg",
    "id_image": "Corgi_339620",
    "count_view": 0
  },
  {
    "link_thumb": "https://live.staticflickr.com/65535/50024380787_5bfa0a08b6_n.jpg",
    "id_album": "405170427",
    "description": "Tiger_406947",
    "title": "Tiger_406947",
    "link_img": "https://live.staticflickr.com/65535/50024380787_b7e948e6d7_o.jpg",
    "id_image": "Tiger_406947",
    "count_view": 0
  },
  {
    "link_thumb": "https://live.staticflickr.com/65535/50016953671_4bded1c8c3_n.jpg",
    "id_album": "231236068",
    "description": "BaldEagle_358104",
    "title": "BaldEagle_358104",
    "link_img": "https://live.staticflickr.com/65535/50016953671_fa26f926c5_o.jpg",
    "id_image": "BaldEagle_358104",
    "count_view": 0
  },
  {
    "link_thumb": "https://live.staticflickr.com/65535/50021607076_9be7057b19_n.jpg",
    "id_album": "2144294979",
    "description": "Hummingbird_370206",
    "title": "Hummingbird_370206",
    "link_img": "https://live.staticflickr.com/65535/50021607076_d1b7ed8992_o.jpg",
    "id_image": "Hummingbird_370206",
    "count_view": 0
  },
  {
    "link_thumb": "https://live.staticflickr.com/65535/50023680812_30f5befb67_n.jpg",
    "id_album": "1961094930",
    "description": "Seal_853917",
    "title": "Seal_853917",
    "link_img": "https://live.staticflickr.com/65535/50023680812_960f5a4124_o.jpg",
    "id_image": "Seal_853917",
    "count_view": 0
  },
  {
    "link_thumb": "https://live.staticflickr.com/65535/50024824482_f76ef83939_n.jpg",
    "id_album": "-709711865",
    "description": "Wolf_983286",
    "title": "Wolf_983286",
    "link_img": "https://live.staticflickr.com/65535/50024824482_e9d6cba899_o.jpg",
    "id_image": "Wolf_983286",
    "count_view": 0
  },
  {
    "link_thumb": "https://live.staticflickr.com/65535/50019047708_80eabb7eda_n.jpg",
    "id_album": "-1930903528",
    "description": "CatDog_379726",
    "title": "CatDog_379726",
    "link_img": "https://live.staticflickr.com/65535/50019047708_e440eef98a_o.jpg",
    "id_image": "CatDog_379726",
    "count_view": 0
  },
  {
    "link_thumb": "https://live.staticflickr.com/65535/50023080813_8fbd1f2182_n.jpg",
    "id_album": "-1131363127",
    "description": "SnowLeopard_250521",
    "title": "SnowLeopard_250521",
    "link_img": "https://live.staticflickr.com/65535/50023080813_37ec5c696e_o.jpg",
    "id_image": "SnowLeopard_250521",
    "count_view": 0
  },
  {
    "link_thumb": "https://live.staticflickr.com/65535/50019085283_7cf509a76a_n.jpg",
    "id_album": "-420782796",
    "description": "Caterpillar_927123",
    "title": "Caterpillar_927123",
    "link_img": "https://live.staticflickr.com/65535/50019085283_2a870e0e9a_o.jpg",
    "id_image": "Caterpillar_927123",
    "count_view": 0
  },
  {
    "link_thumb": "https://live.staticflickr.com/65535/50021852168_cf2edd3442_n.jpg",
    "id_album": "-1384601601",
    "description": "Owl_338208",
    "title": "Owl_338208",
    "link_img": "https://live.staticflickr.com/65535/50021852168_97890e157f_o.jpg",
    "id_image": "Owl_338208",
    "count_view": 0
  },
  {
    "link_thumb": "https://live.staticflickr.com/65535/50351718063_d00a9013fc_n.jpg",
    "id_album": "-462831703",
    "description": "Cat_190694",
    "title": "Cat_190694",
    "link_img": "https://live.staticflickr.com/65535/50351718063_b4752c0d94_o.jpg",
    "id_image": "Cat_190694",
    "count_view": 0
  },
  {
    "link_thumb": "https://live.staticflickr.com/65535/50019809677_d9aa71af1c_n.jpg",
    "id_album": "-462831703",
    "description": "Cat_983669",
    "title": "Cat_983669",
    "link_img": "https://live.staticflickr.com/65535/50019809677_0372a5242b_o.jpg",
    "id_image": "Cat_983669",
    "count_view": 0
  },
  {
    "link_thumb": "https://live.staticflickr.com/65535/50021165437_aa1727f1ce_n.jpg",
    "id_album": "-1758557371",
    "description": "Flamingo_765851",
    "title": "Flamingo_765851",
    "link_img": "https://live.staticflickr.com/65535/50021165437_7be07e10f8_o.jpg",
    "id_image": "Flamingo_765851",
    "count_view": 0
  },
  {
    "link_thumb": "https://live.staticflickr.com/65535/50018903813_f49818bc8f_n.jpg",
    "id_album": "-462831703",
    "description": "Cat_909718",
    "title": "Cat_909718",
    "link_img": "https://live.staticflickr.com/65535/50018903813_0066855968_o.jpg",
    "id_image": "Cat_909718",
    "count_view": 0
  },
  {
    "link_thumb": "https://live.staticflickr.com/65535/50017058808_4218612f7d_n.jpg",
    "id_album": "-401151552",
    "description": "Butterfly_406279",
    "title": "Butterfly_406279",
    "link_img": "https://live.staticflickr.com/65535/50017058808_49dac9b529_o.jpg",
    "id_image": "Butterfly_406279",
    "count_view": 0
  },
  {
    "link_thumb": "https://live.staticflickr.com/65535/50017370582_5e49372ff1_n.jpg",
    "id_album": "-422187261",
    "description": "Bear_954012",
    "title": "Bear_954012",
    "link_img": "https://live.staticflickr.com/65535/50017370582_9acd3a2bdc_o.jpg",
    "id_image": "Bear_954012",
    "count_view": 0
  },
  {
    "link_thumb": "https://live.staticflickr.com/65535/50024392732_e114355f04_n.jpg",
    "id_album": "405170427",
    "description": "Tiger_434462",
    "title": "Tiger_434462",
    "link_img": "https://live.staticflickr.com/65535/50024392732_d74f016939_o.jpg",
    "id_image": "Tiger_434462",
    "count_view": 0
  },
  {
    "link_thumb": "https://live.staticflickr.com/65535/50024685842_f875eacfbe_n.jpg",
    "id_album": "545627045",
    "description": "Whitestork_912820",
    "title": "Whitestork_912820",
    "link_img": "https://live.staticflickr.com/65535/50024685842_03a350f0d7_o.jpg",
    "id_image": "Whitestork_912820",
    "count_view": 0
  },
  {
    "link_thumb": "https://live.staticflickr.com/65535/50017238501_e51552f07c_n.jpg",
    "id_album": "-1846011410",
    "description": "Bird_326007",
    "title": "Bird_326007",
    "link_img": "https://live.staticflickr.com/65535/50017238501_325448e043_o.jpg",
    "id_image": "Bird_326007",
    "count_view": 0
  },
  {
    "link_thumb": "https://live.staticflickr.com/65535/50022104252_52dd965401_n.jpg",
    "id_album": "-1882491687",
    "description": "Ladybug_403684",
    "title": "Ladybug_403684",
    "link_img": "https://live.staticflickr.com/65535/50022104252_1e7d93b122_o.jpg",
    "id_image": "Ladybug_403684",
    "count_view": 0
  },
  {
    "link_thumb": "https://live.staticflickr.com/65535/50021879198_5918b21e6d_n.jpg",
    "id_album": "-1384601601",
    "description": "Owl_423655",
    "title": "Owl_423655",
    "link_img": "https://live.staticflickr.com/65535/50021879198_605b8c20f5_o.jpg",
    "id_image": "Owl_423655",
    "count_view": 0
  },
  {
    "link_thumb": "https://live.staticflickr.com/65535/50019686487_27d70b0957_n.jpg",
    "id_album": "-462831703",
    "description": "Cat_905743",
    "title": "Cat_905743",
    "link_img": "https://live.staticflickr.com/65535/50019686487_0771f308ce_o.jpg",
    "id_image": "Cat_905743",
    "count_view": 0
  },
  {
    "link_thumb": "https://live.staticflickr.com/65535/50022185758_30fe1cc7c0_n.jpg",
    "id_album": "392248205",
    "description": "Penguin_888661",
    "title": "Penguin_888661",
    "link_img": "https://live.staticflickr.com/65535/50022185758_be34c69793_o.jpg",
    "id_image": "Penguin_888661",
    "count_view": 0
  },
  {
    "link_thumb": "https://live.staticflickr.com/65535/50021371717_293fd1c585_n.jpg",
    "id_album": "-462831704",
    "description": "Cat_569335",
    "title": "Cat_569335",
    "link_img": "https://live.staticflickr.com/65535/50021371717_c41aa439e1_o.jpg",
    "id_image": "Cat_569335",
    "count_view": 0
  },
  {
    "link_thumb": "https://live.staticflickr.com/65535/50019429361_1a5011847d_n.jpg",
    "id_album": "-462831703",
    "description": "Cat_906429",
    "title": "Cat_906429",
    "link_img": "https://live.staticflickr.com/65535/50019429361_c25232cd28_o.jpg",
    "id_image": "Cat_906429",
    "count_view": 0
  },
  {
    "link_thumb": "https://live.staticflickr.com/65535/50017442882_aba3e712be_n.jpg",
    "id_album": "325287329",
    "description": "Beetle_391733",
    "title": "Beetle_391733",
    "link_img": "https://live.staticflickr.com/65535/50017442882_229e0396cd_o.jpg",
    "id_image": "Beetle_391733",
    "count_view": 0
  },
  {
    "link_thumb": "https://live.staticflickr.com/65535/50017519361_a2c29dd596_n.jpg",
    "id_album": "1696155652",
    "description": "Boxer_707561",
    "title": "Boxer_707561",
    "link_img": "https://live.staticflickr.com/65535/50017519361_3b76d8f0e5_o.jpg",
    "id_image": "Boxer_707561",
    "count_view": 0
  },
  {
    "link_thumb": "https://live.staticflickr.com/65535/50021250558_c9ce413e76_n.jpg",
    "id_album": "-649286029",
    "description": "Kangaroo_589305",
    "title": "Kangaroo_589305",
    "link_img": "https://live.staticflickr.com/65535/50021250558_929e13c7cc_o.jpg",
    "id_image": "Kangaroo_589305",
    "count_view": 0
  },
  {
    "link_thumb": "https://live.staticflickr.com/65535/50018270132_6617c4ba95_n.jpg",
    "id_album": "-462831702",
    "description": "Cat_340116",
    "title": "Cat_340116",
    "link_img": "https://live.staticflickr.com/65535/50018270132_abdcfed24f_o.jpg",
    "id_image": "Cat_340116",
    "count_view": 0
  },
  {
    "link_thumb": "https://live.staticflickr.com/65535/50019132243_9c79e6e104_n.jpg",
    "id_album": "-766919393",
    "description": "Chameleon_765804",
    "title": "Chameleon_765804",
    "link_img": "https://live.staticflickr.com/65535/50019132243_74a95622cb_o.jpg",
    "id_image": "Chameleon_765804",
    "count_view": 0
  },
  {
    "link_thumb": "https://live.staticflickr.com/65535/50017817032_2995c6472a_n.jpg",
    "id_album": "-401151552",
    "description": "Butterfly_274705",
    "title": "Butterfly_274705",
    "link_img": "https://live.staticflickr.com/65535/50017817032_f708128734_o.jpg",
    "id_image": "Butterfly_274705",
    "count_view": 0
  },
  {
    "link_thumb": "https://live.staticflickr.com/65535/50019962741_b3a8010de8_n.jpg",
    "id_album": "-1783645069",
    "description": "Dalmatian_277073",
    "title": "Dalmatian_277073",
    "link_img": "https://live.staticflickr.com/65535/50019962741_beb85793f2_o.jpg",
    "id_image": "Dalmatian_277073",
    "count_view": 0
  },
  {
    "link_thumb": "https://live.staticflickr.com/65535/50352417361_cb23f01dc0_n.jpg",
    "id_album": "-462831703",
    "description": "Cat_193587",
    "title": "Cat_193587",
    "link_img": "https://live.staticflickr.com/65535/50352417361_c01e4a7d5e_o.jpg",
    "id_image": "Cat_193587",
    "count_view": 0
  },
  {
    "link_thumb": "https://live.staticflickr.com/65535/50019195761_2e52d41bb0_n.jpg",
    "id_album": "-462831704",
    "description": "Cat_435607",
    "title": "Cat_435607",
    "link_img": "https://live.staticflickr.com/65535/50019195761_b34de9161a_o.jpg",
    "id_image": "Cat_435607",
    "count_view": 0
  },
  {
    "link_thumb": "https://live.staticflickr.com/65535/50017307256_2b8f1db256_n.jpg",
    "id_album": "-1846011410",
    "description": "Bird_401020",
    "title": "Bird_401020",
    "link_img": "https://live.staticflickr.com/65535/50017307256_56a430b7ea_o.jpg",
    "id_image": "Bird_401020",
    "count_view": 0
  },
  {
    "link_thumb": "https://live.staticflickr.com/65535/50018687793_2b8ae1d2c8_n.jpg",
    "id_album": "-462831704",
    "description": "Cat_449005",
    "title": "Cat_449005",
    "link_img": "https://live.staticflickr.com/65535/50018687793_0fb9319722_o.jpg",
    "id_image": "Cat_449005",
    "count_view": 0
  },
  {
    "link_thumb": "https://live.staticflickr.com/65535/50020533193_256a94afe8_n.jpg",
    "id_album": "844170697",
    "description": "Frog_803350",
    "title": "Frog_803350",
    "link_img": "https://live.staticflickr.com/65535/50020533193_4a58b8711c_o.jpg",
    "id_image": "Frog_803350",
    "count_view": 0
  },
  {
    "link_thumb": "https://live.staticflickr.com/65535/50022554263_06fc8ec6d0_n.jpg",
    "id_album": "-1940643173",
    "description": "Rabbit_318362",
    "title": "Rabbit_318362",
    "link_img": "https://live.staticflickr.com/65535/50022554263_394343e333_o.jpg",
    "id_image": "Rabbit_318362",
    "count_view": 0
  },
  {
    "link_thumb": "https://live.staticflickr.com/65535/50019736788_14bfc67b7d_n.jpg",
    "id_album": "-149330232",
    "description": "Dog_336557",
    "title": "Dog_336557",
    "link_img": "https://live.staticflickr.com/65535/50019736788_6a96e1b2c8_o.jpg",
    "id_image": "Dog_336557",
    "count_view": 0
  },
  {
    "link_thumb": "https://live.staticflickr.com/65535/50017224073_f6da040aec_n.jpg",
    "id_album": "-462831705",
    "description": "Cat_110524",
    "title": "Cat_110524",
    "link_img": "https://live.staticflickr.com/65535/50017224073_a05dd77be6_o.jpg",
    "id_image": "Cat_110524",
    "count_view": 0
  },
  {
    "link_thumb": "https://live.staticflickr.com/65535/50021111272_624d1892b3_n.jpg",
    "id_album": "-1118073211",
    "description": "Fish_456432",
    "title": "Fish_456432",
    "link_img": "https://live.staticflickr.com/65535/50021111272_822ac68239_o.jpg",
    "id_image": "Fish_456432",
    "count_view": 0
  },
  {
    "link_thumb": "https://live.staticflickr.com/65535/50021493868_b62714849c_n.jpg",
    "id_album": "416744915",
    "description": "Lion_595547",
    "title": "Lion_595547",
    "link_img": "https://live.staticflickr.com/65535/50021493868_f4a4723d33_o.jpg",
    "id_image": "Lion_595547",
    "count_view": 0
  },
  {
    "link_thumb": "https://live.staticflickr.com/65535/50023159696_6335751aa6_n.jpg",
    "id_album": "248289288",
    "description": "Raccoon_711401",
    "title": "Raccoon_711401",
    "link_img": "https://live.staticflickr.com/65535/50023159696_91e26c655a_o.jpg",
    "id_image": "Raccoon_711401",
    "count_view": 0
  },
  {
    "link_thumb": "https://live.staticflickr.com/65535/50021059021_329637ee5f_n.jpg",
    "id_album": "844170697",
    "description": "Frog_386500",
    "title": "Frog_386500",
    "link_img": "https://live.staticflickr.com/65535/50021059021_535a976157_o.jpg",
    "id_image": "Frog_386500",
    "count_view": 0
  },
  {
    "link_thumb": "https://live.staticflickr.com/65535/50019699922_443518a82e_n.jpg",
    "id_album": "-462831705",
    "description": "Cat_91378",
    "title": "Cat_91378",
    "link_img": "https://live.staticflickr.com/65535/50019699922_663546dafa_o.jpg",
    "id_image": "Cat_91378",
    "count_view": 0
  },
  {
    "link_thumb": "https://live.staticflickr.com/65535/50021459361_c6c80ccb34_n.jpg",
    "id_album": "-1933715543",
    "description": "Horse_103350",
    "title": "Horse_103350",
    "link_img": "https://live.staticflickr.com/65535/50021459361_193b9fa2d1_o.jpg",
    "id_image": "Horse_103350",
    "count_view": 0
  },
  {
    "link_thumb": "https://live.staticflickr.com/65535/50020372166_34ce6c99b9_n.jpg",
    "id_album": "-149330231",
    "description": "Dog_394351",
    "title": "Dog_394351",
    "link_img": "https://live.staticflickr.com/65535/50020372166_1c95278216_o.jpg",
    "id_image": "Dog_394351",
    "count_view": 0
  },
  {
    "link_thumb": "https://live.staticflickr.com/65535/50022098257_d384d4767a_n.jpg",
    "id_album": "-1882491687",
    "description": "Ladybug_283315",
    "title": "Ladybug_283315",
    "link_img": "https://live.staticflickr.com/65535/50022098257_39c0c921ec_o.jpg",
    "id_image": "Ladybug_283315",
    "count_view": 0
  },
  {
    "link_thumb": "https://live.staticflickr.com/65535/50019802643_bb573dac14_n.jpg",
    "id_album": "-149330232",
    "description": "Dog_367361",
    "title": "Dog_367361",
    "link_img": "https://live.staticflickr.com/65535/50019802643_98e4bf0405_o.jpg",
    "id_image": "Dog_367361",
    "count_view": 0
  },
  {
    "link_thumb": "https://live.staticflickr.com/65535/50016489728_48e2f5f632_n.jpg",
    "id_album": "-422187261",
    "description": "Bear_279342",
    "title": "Bear_279342",
    "link_img": "https://live.staticflickr.com/65535/50016489728_9d9c51bc4f_o.jpg",
    "id_image": "Bear_279342",
    "count_view": 0
  },
  {
    "link_thumb": "https://live.staticflickr.com/65535/50018031976_26ef05d342_n.jpg",
    "id_album": "-462831702",
    "description": "Cat_349887",
    "title": "Cat_349887",
    "link_img": "https://live.staticflickr.com/65535/50018031976_5ee2b4c263_o.jpg",
    "id_image": "Cat_349887",
    "count_view": 0
  },
  {
    "link_thumb": "https://live.staticflickr.com/65535/50021795931_2b58605c19_n.jpg",
    "id_album": "770105808",
    "description": "Kingfisher_193547",
    "title": "Kingfisher_193547",
    "link_img": "https://live.staticflickr.com/65535/50021795931_d85025f8ee_o.jpg",
    "id_image": "Kingfisher_193547",
    "count_view": 0
  },
  {
    "link_thumb": "https://live.staticflickr.com/65535/50019651557_ce410a29d3_n.jpg",
    "id_album": "-462831703",
    "description": "Cat_884349",
    "title": "Cat_884349",
    "link_img": "https://live.staticflickr.com/65535/50019651557_ea1e3f8c90_o.jpg",
    "id_image": "Cat_884349",
    "count_view": 0
  },
  {
    "link_thumb": "https://live.staticflickr.com/65535/50022801872_5060a95d75_n.jpg",
    "id_album": "-358592519",
    "description": "Panda_596681",
    "title": "Panda_596681",
    "link_img": "https://live.staticflickr.com/65535/50022801872_785d57f081_o.jpg",
    "id_image": "Panda_596681",
    "count_view": 0
  },
  {
    "link_thumb": "https://live.staticflickr.com/65535/50020452097_476aa84227_n.jpg",
    "id_album": "-149330232",
    "description": "Dog_264019",
    "title": "Dog_264019",
    "link_img": "https://live.staticflickr.com/65535/50020452097_00d562154f_o.jpg",
    "id_image": "Dog_264019",
    "count_view": 0
  },
  {
    "link_thumb": "https://live.staticflickr.com/65535/50023132052_f6cab862f2_n.jpg",
    "id_album": "1008910300",
    "description": "PolarBear_954505",
    "title": "PolarBear_954505",
    "link_img": "https://live.staticflickr.com/65535/50023132052_feb48b404f_o.jpg",
    "id_image": "PolarBear_954505",
    "count_view": 0
  },
  {
    "link_thumb": "https://live.staticflickr.com/65535/50019561542_ca05c8cff2_n.jpg",
    "id_album": "-462831704",
    "description": "Cat_534110",
    "title": "Cat_534110",
    "link_img": "https://live.staticflickr.com/65535/50019561542_5982db4289_o.jpg",
    "id_image": "Cat_534110",
    "count_view": 0
  },
  {
    "link_thumb": "https://live.staticflickr.com/65535/50020967252_4efd94c1b2_n.jpg",
    "id_album": "-39098563",
    "description": "Eagle_450310",
    "title": "Eagle_450310",
    "link_img": "https://live.staticflickr.com/65535/50020967252_323b2322e2_o.jpg",
    "id_image": "Eagle_450310",
    "count_view": 0
  },
  {
    "link_thumb": "https://live.staticflickr.com/65535/50020260838_22b33ddafb_n.jpg",
    "id_album": "1270947998",
    "description": "Elephant_869369",
    "title": "Elephant_869369",
    "link_img": "https://live.staticflickr.com/65535/50020260838_32d091095f_o.jpg",
    "id_image": "Elephant_869369",
    "count_view": 0
  },
  {
    "link_thumb": "https://live.staticflickr.com/65535/50021760231_54134d8c3a_n.jpg",
    "id_album": "1562047127",
    "description": "Jellyfish_20403",
    "title": "Jellyfish_20403",
    "link_img": "https://live.staticflickr.com/65535/50021760231_85b91dd5ff_o.jpg",
    "id_image": "Jellyfish_20403",
    "count_view": 0
  },
  {
    "link_thumb": "https://live.staticflickr.com/65535/50019673292_bcaec2c519_n.jpg",
    "id_album": "-462831703",
    "description": "Cat_900814",
    "title": "Cat_900814",
    "link_img": "https://live.staticflickr.com/65535/50019673292_a84de3aa0d_o.jpg",
    "id_image": "Cat_900814",
    "count_view": 0
  },
  {
    "link_thumb": "https://live.staticflickr.com/65535/50017768327_7bbe251809_n.jpg",
    "id_album": "782930701",
    "description": "BorderCollie_903623",
    "title": "BorderCollie_903623",
    "link_img": "https://live.staticflickr.com/65535/50017768327_4439424838_o.jpg",
    "id_image": "BorderCollie_903623",
    "count_view": 0
  },
  {
    "link_thumb": "https://live.staticflickr.com/65535/50017577478_29cbd4f08d_n.jpg",
    "id_album": "-462831702",
    "description": "Cat_379751",
    "title": "Cat_379751",
    "link_img": "https://live.staticflickr.com/65535/50017577478_e2e15dbc02_o.jpg",
    "id_image": "Cat_379751",
    "count_view": 0
  },
  {
    "link_thumb": "https://live.staticflickr.com/65535/50020171736_65ee8a419a_n.jpg",
    "id_album": "-149330232",
    "description": "Dog_240954",
    "title": "Dog_240954",
    "link_img": "https://live.staticflickr.com/65535/50020171736_5c9aae435a_o.jpg",
    "id_image": "Dog_240954",
    "count_view": 0
  },
  {
    "link_thumb": "https://live.staticflickr.com/65535/50020064921_2536db5a1d_n.jpg",
    "id_album": "1903411565",
    "description": "Deer_948262",
    "title": "Deer_948262",
    "link_img": "https://live.staticflickr.com/65535/50020064921_cf620aebcd_o.jpg",
    "id_image": "Deer_948262",
    "count_view": 0
  },
  {
    "link_thumb": "https://live.staticflickr.com/65535/50022959522_4a9e92d987_n.jpg",
    "id_album": "392248205",
    "description": "Penguin_468729",
    "title": "Penguin_468729",
    "link_img": "https://live.staticflickr.com/65535/50022959522_9ddda0487a_o.jpg",
    "id_image": "Penguin_468729",
    "count_view": 0
  },
  {
    "link_thumb": "https://live.staticflickr.com/65535/50021331423_82eae7d416_n.jpg",
    "id_album": "1918884325",
    "description": "Lemur_368562",
    "title": "Lemur_368562",
    "link_img": "https://live.staticflickr.com/65535/50021331423_85b9f094bb_o.jpg",
    "id_image": "Lemur_368562",
    "count_view": 0
  },
  {
    "link_thumb": "https://live.staticflickr.com/65535/50352658097_8d54dc11ba_n.jpg",
    "id_album": "-462831703",
    "description": "Cat_407591",
    "title": "Cat_407591",
    "link_img": "https://live.staticflickr.com/65535/50352658097_d2ee44934d_o.jpg",
    "id_image": "Cat_407591",
    "count_view": 0
  },
  {
    "link_thumb": "https://live.staticflickr.com/65535/50021349503_f80a40edc9_n.jpg",
    "id_album": "1392348450",
    "description": "Leopard_242395",
    "title": "Leopard_242395",
    "link_img": "https://live.staticflickr.com/65535/50021349503_6ec1e26ac0_o.jpg",
    "id_image": "Leopard_242395",
    "count_view": 0
  },
  {
    "link_thumb": "https://live.staticflickr.com/65535/50020856688_28351c1b21_n.jpg",
    "id_album": "-1168906494",
    "description": "Grasshopper_322576",
    "title": "Grasshopper_322576",
    "link_img": "https://live.staticflickr.com/65535/50020856688_84b33ca839_o.jpg",
    "id_image": "Grasshopper_322576",
    "count_view": 0
  },
  {
    "link_thumb": "https://live.staticflickr.com/65535/50021251622_8ddefa1ec7_n.jpg",
    "id_album": "-128218148",
    "description": "Fox_742882",
    "title": "Fox_742882",
    "link_img": "https://live.staticflickr.com/65535/50021251622_b9b6109ac2_o.jpg",
    "id_image": "Fox_742882",
    "count_view": 0
  },
  {
    "link_thumb": "https://live.staticflickr.com/65535/50352856412_d5cff38550_n.jpg",
    "id_album": "-462831702",
    "description": "Cat_17850",
    "title": "Cat_17850",
    "link_img": "https://live.staticflickr.com/65535/50352856412_20e9c241f1_o.jpg",
    "id_image": "Cat_17850",
    "count_view": 0
  },
  {
    "link_thumb": "https://live.staticflickr.com/65535/50021636486_4793f03b9c_n.jpg",
    "id_album": "-712553376",
    "description": "Husky_528252",
    "title": "Husky_528252",
    "link_img": "https://live.staticflickr.com/65535/50021636486_1326377ee3_o.jpg",
    "id_image": "Husky_528252",
    "count_view": 0
  },
  {
    "link_thumb": "https://live.staticflickr.com/65535/50019341953_92b3aba3c2_n.jpg",
    "id_album": "-2144640780",
    "description": "Cow_995078",
    "title": "Cow_995078",
    "link_img": "https://live.staticflickr.com/65535/50019341953_628d16e8b0_o.jpg",
    "id_image": "Cow_995078",
    "count_view": 0
  },
  {
    "link_thumb": "https://live.staticflickr.com/65535/50020600081_b94f01dcb9_n.jpg",
    "id_album": "-1859457960",
    "description": "Dove_574038",
    "title": "Dove_574038",
    "link_img": "https://live.staticflickr.com/65535/50020600081_9e5620772c_o.jpg",
    "id_image": "Dove_574038",
    "count_view": 0
  },
  {
    "link_thumb": "https://live.staticflickr.com/65535/50021583176_130432dd63_n.jpg",
    "id_album": "-1933715543",
    "description": "Horse_903801",
    "title": "Horse_903801",
    "link_img": "https://live.staticflickr.com/65535/50021583176_8c29d92159_o.jpg",
    "id_image": "Horse_903801",
    "count_view": 0
  },
  {
    "link_thumb": "https://live.staticflickr.com/65535/50020380166_fec10021c2_n.jpg",
    "id_album": "-149330231",
    "description": "Dog_406086",
    "title": "Dog_406086",
    "link_img": "https://live.staticflickr.com/65535/50020380166_9d4e774f4b_o.jpg",
    "id_image": "Dog_406086",
    "count_view": 0
  },
  {
    "link_thumb": "https://live.staticflickr.com/65535/50017393522_c705ea4c25_n.jpg",
    "id_album": "1699594607",
    "description": "Bee_378735",
    "title": "Bee_378735",
    "link_img": "https://live.staticflickr.com/65535/50017393522_c294b10f93_o.jpg",
    "id_image": "Bee_378735",
    "count_view": 0
  },
  {
    "link_thumb": "https://live.staticflickr.com/65535/50024082797_bf0f9e0e6a_n.jpg",
    "id_album": "702283289",
    "description": "Squirrel_315291",
    "title": "Squirrel_315291",
    "link_img": "https://live.staticflickr.com/65535/50024082797_951d078b27_o.jpg",
    "id_image": "Squirrel_315291",
    "count_view": 0
  },
  {
    "link_thumb": "https://live.staticflickr.com/65535/50021473197_b739706d18_n.jpg",
    "id_album": "-462831703",
    "description": "Cat_740532",
    "title": "Cat_740532",
    "link_img": "https://live.staticflickr.com/65535/50021473197_0fd2189363_o.jpg",
    "id_image": "Cat_740532",
    "count_view": 0
  },
  {
    "link_thumb": "https://live.staticflickr.com/65535/50019889426_6dd9e39537_n.jpg",
    "id_album": "1475096665",
    "description": "Crocodile_360898",
    "title": "Crocodile_360898",
    "link_img": "https://live.staticflickr.com/65535/50019889426_347421efd8_o.jpg",
    "id_image": "Crocodile_360898",
    "count_view": 0
  },
  {
    "link_thumb": "https://live.staticflickr.com/65535/50023447393_65375e1e62_n.jpg",
    "id_album": "1244464375",
    "description": "Starfish_373097",
    "title": "Starfish_373097",
    "link_img": "https://live.staticflickr.com/65535/50023447393_2a2a5c6e7c_o.jpg",
    "id_image": "Starfish_373097",
    "count_view": 0
  },
  {
    "link_thumb": "https://live.staticflickr.com/65535/50016362063_3e33fa8fbe_n.jpg",
    "id_album": "523598895",
    "description": "Artistic_265833",
    "title": "Artistic_265833",
    "link_img": "https://live.staticflickr.com/65535/50016362063_3b90be2e4c_o.jpg",
    "id_image": "Artistic_265833",
    "count_view": 0
  },
  {
    "link_thumb": "https://live.staticflickr.com/65535/50021168646_24cbf8ee81_n.jpg",
    "id_album": "-462831704",
    "description": "Cat_686421",
    "title": "Cat_686421",
    "link_img": "https://live.staticflickr.com/65535/50021168646_d729a665d6_o.jpg",
    "id_image": "Cat_686421",
    "count_view": 0
  },
  {
    "link_thumb": "https://live.staticflickr.com/65535/50020608791_d48ac9fcf0_n.jpg",
    "id_album": "-405058657",
    "description": "Dragonfly_327475",
    "title": "Dragonfly_327475",
    "link_img": "https://live.staticflickr.com/65535/50020608791_477c4c2dfd_o.jpg",
    "id_image": "Dragonfly_327475",
    "count_view": 0
  },
  {
    "link_thumb": "https://live.staticflickr.com/65535/50020444158_6021a473fa_n.jpg",
    "id_album": "-128218148",
    "description": "Fox_668857",
    "title": "Fox_668857",
    "link_img": "https://live.staticflickr.com/65535/50020444158_e0796d3df5_o.jpg",
    "id_image": "Fox_668857",
    "count_view": 0
  },
  {
    "link_thumb": "https://live.staticflickr.com/65535/50020726111_c22a50c786_n.jpg",
    "id_album": "-39098563",
    "description": "Eagle_92907",
    "title": "Eagle_92907",
    "link_img": "https://live.staticflickr.com/65535/50020726111_9cdc7625e7_o.jpg",
    "id_image": "Eagle_92907",
    "count_view": 0
  },
  {
    "link_thumb": "https://live.staticflickr.com/65535/50016953583_a91760cd66_n.jpg",
    "id_album": "782930701",
    "description": "BorderCollie_343078",
    "title": "BorderCollie_343078",
    "link_img": "https://live.staticflickr.com/65535/50016953583_e6f32518fc_o.jpg",
    "id_image": "BorderCollie_343078",
    "count_view": 0
  },
  {
    "link_thumb": "https://live.staticflickr.com/65535/50020501592_26285e1a43_n.jpg",
    "id_album": "-149330232",
    "description": "Dog_324347",
    "title": "Dog_324347",
    "link_img": "https://live.staticflickr.com/65535/50020501592_e7503cf0a8_o.jpg",
    "id_image": "Dog_324347",
    "count_view": 0
  },
  {
    "link_thumb": "https://live.staticflickr.com/65535/50021924192_a7a8b7a9e5_n.jpg",
    "id_album": "1658866795",
    "description": "Insect_392921",
    "title": "Insect_392921",
    "link_img": "https://live.staticflickr.com/65535/50021924192_b6022c6217_o.jpg",
    "id_image": "Insect_392921",
    "count_view": 0
  },
  {
    "link_thumb": "https://live.staticflickr.com/65535/50019551698_440c7026ba_n.jpg",
    "id_album": "297232732",
    "description": "Dinosaur_288601",
    "title": "Dinosaur_288601",
    "link_img": "https://live.staticflickr.com/65535/50019551698_e86ab4106b_o.jpg",
    "id_image": "Dinosaur_288601",
    "count_view": 0
  },
  {
    "link_thumb": "https://live.staticflickr.com/65535/50020185277_dd4bf2486c_n.jpg",
    "id_album": "1273365283",
    "description": "Cute_277727",
    "title": "Cute_277727",
    "link_img": "https://live.staticflickr.com/65535/50020185277_1ffabc76fa_o.jpg",
    "id_image": "Cute_277727",
    "count_view": 0
  },
  {
    "link_thumb": "https://live.staticflickr.com/65535/50019654682_291e18a861_n.jpg",
    "id_album": "-462831703",
    "description": "Cat_886925",
    "title": "Cat_886925",
    "link_img": "https://live.staticflickr.com/65535/50019654682_2c5c16fb4a_o.jpg",
    "id_image": "Cat_886925",
    "count_view": 0
  },
  {
    "link_thumb": "https://live.staticflickr.com/65535/50020584368_6c8d4e582e_n.jpg",
    "id_album": "-462831704",
    "description": "Cat_588329",
    "title": "Cat_588329",
    "link_img": "https://live.staticflickr.com/65535/50020584368_ce2c6e9e0c_o.jpg",
    "id_image": "Cat_588329",
    "count_view": 0
  },
  {
    "link_thumb": "https://live.staticflickr.com/65535/50018839853_ee744100d9_n.jpg",
    "id_album": "-462831703",
    "description": "Cat_874754",
    "title": "Cat_874754",
    "link_img": "https://live.staticflickr.com/65535/50018839853_053aebbd6b_o.jpg",
    "id_image": "Cat_874754",
    "count_view": 0
  },
  {
    "link_thumb": "https://live.staticflickr.com/65535/50019930573_2bc49390fd_n.jpg",
    "id_album": "-149330231",
    "description": "Dog_590343",
    "title": "Dog_590343",
    "link_img": "https://live.staticflickr.com/65535/50019930573_a2c32b6ac2_o.jpg",
    "id_image": "Dog_590343",
    "count_view": 0
  },
  {
    "link_thumb": "https://live.staticflickr.com/65535/50352507501_ae01dbb4f0_n.jpg",
    "id_album": "-462831703",
    "description": "Cat_419847",
    "title": "Cat_419847",
    "link_img": "https://live.staticflickr.com/65535/50352507501_125ae805ac_o.jpg",
    "id_image": "Cat_419847",
    "count_view": 0
  },
  {
    "link_thumb": "https://live.staticflickr.com/65535/50017524891_ffb81e054d_n.jpg",
    "id_album": "368532157",
    "description": "Bulldog_365167",
    "title": "Bulldog_365167",
    "link_img": "https://live.staticflickr.com/65535/50017524891_2285341d12_o.jpg",
    "id_image": "Bulldog_365167",
    "count_view": 0
  },
  {
    "link_thumb": "https://live.staticflickr.com/65535/50021909622_3d6cbb8617_n.jpg",
    "id_album": "-737856092",
    "description": "Iguana_825878",
    "title": "Iguana_825878",
    "link_img": "https://live.staticflickr.com/65535/50021909622_27e662f1e9_o.jpg",
    "id_image": "Iguana_825878",
    "count_view": 0
  },
  {
    "link_thumb": "https://live.staticflickr.com/65535/50021700351_8e5fc1ec31_n.jpg",
    "id_album": "1658866795",
    "description": "Insect_432087",
    "title": "Insect_432087",
    "link_img": "https://live.staticflickr.com/65535/50021700351_c21a0c214c_o.jpg",
    "id_image": "Insect_432087",
    "count_view": 0
  },
  {
    "link_thumb": "https://live.staticflickr.com/65535/50023610586_01ef241bed_n.jpg",
    "id_album": "-1182356179",
    "description": "Snake_867013",
    "title": "Snake_867013",
    "link_img": "https://live.staticflickr.com/65535/50023610586_0e39d5a152_o.jpg",
    "id_image": "Snake_867013",
    "count_view": 0
  },
  {
    "link_thumb": "https://live.staticflickr.com/65535/50017594513_e9530f7783_n.jpg",
    "id_album": "-462831702",
    "description": "Cat_391399",
    "title": "Cat_391399",
    "link_img": "https://live.staticflickr.com/65535/50017594513_466c1b0686_o.jpg",
    "id_image": "Cat_391399",
    "count_view": 0
  },
  {
    "link_thumb": "https://live.staticflickr.com/65535/50020383138_87916b409e_n.jpg",
    "id_album": "-1694105481",
    "description": "Fly_706157",
    "title": "Fly_706157",
    "link_img": "https://live.staticflickr.com/65535/50020383138_50111f7444_o.jpg",
    "id_image": "Fly_706157",
    "count_view": 0
  },
  {
    "link_thumb": "https://live.staticflickr.com/65535/50021924466_74019205f9_n.jpg",
    "id_album": "1392348450",
    "description": "Leopard_425899",
    "title": "Leopard_425899",
    "link_img": "https://live.staticflickr.com/65535/50021924466_63ffdbd791_o.jpg",
    "id_image": "Leopard_425899",
    "count_view": 0
  },
  {
    "link_thumb": "https://live.staticflickr.com/65535/50352494941_eefce12da2_n.jpg",
    "id_album": "-462831703",
    "description": "Cat_396803",
    "title": "Cat_396803",
    "link_img": "https://live.staticflickr.com/65535/50352494941_fa82b673a0_o.jpg",
    "id_image": "Cat_396803",
    "count_view": 0
  },
  {
    "link_thumb": "https://live.staticflickr.com/65535/50017158507_f0ee555f4b_n.jpg",
    "id_album": "523598895",
    "description": "Artistic_343926",
    "title": "Artistic_343926",
    "link_img": "https://live.staticflickr.com/65535/50017158507_33846f5e35_o.jpg",
    "id_image": "Artistic_343926",
    "count_view": 0
  },
  {
    "link_thumb": "https://live.staticflickr.com/65535/50024113631_b10c23dd83_n.jpg",
    "id_album": "405170427",
    "description": "Tiger_396298",
    "title": "Tiger_396298",
    "link_img": "https://live.staticflickr.com/65535/50024113631_2238bcfd63_o.jpg",
    "id_image": "Tiger_396298",
    "count_view": 0
  },
  {
    "link_thumb": "https://live.staticflickr.com/65535/50017573123_14ce56335b_n.jpg",
    "id_album": "-462831702",
    "description": "Cat_376104",
    "title": "Cat_376104",
    "link_img": "https://live.staticflickr.com/65535/50017573123_2349393efc_o.jpg",
    "id_image": "Cat_376104",
    "count_view": 0
  },
  {
    "link_thumb": "https://live.staticflickr.com/65535/50017176232_f208e2026b_n.jpg",
    "id_album": "523598895",
    "description": "Artistic_76293",
    "title": "Artistic_76293",
    "link_img": "https://live.staticflickr.com/65535/50017176232_2baec572c8_o.jpg",
    "id_image": "Artistic_76293",
    "count_view": 0
  },
  {
    "link_thumb": "https://live.staticflickr.com/65535/50021601307_69559776bd_n.jpg",
    "id_album": "2060159334",
    "description": "GoldenRetriever_379701",
    "title": "GoldenRetriever_379701",
    "link_img": "https://live.staticflickr.com/65535/50021601307_d8fd79a32b_o.jpg",
    "id_image": "GoldenRetriever_379701",
    "count_view": 0
  },
  {
    "link_thumb": "https://live.staticflickr.com/65535/50020883161_651c6ba46b_n.jpg",
    "id_album": "-1758557371",
    "description": "Flamingo_190992",
    "title": "Flamingo_190992",
    "link_img": "https://live.staticflickr.com/65535/50020883161_1e11bd05ca_o.jpg",
    "id_image": "Flamingo_190992",
    "count_view": 0
  },
  {
    "link_thumb": "https://live.staticflickr.com/65535/50020661788_28e57703db_n.jpg",
    "id_album": "-462831704",
    "description": "Cat_724084",
    "title": "Cat_724084",
    "link_img": "https://live.staticflickr.com/65535/50020661788_a997117ed9_o.jpg",
    "id_image": "Cat_724084",
    "count_view": 0
  },
  {
    "link_thumb": "https://live.staticflickr.com/65535/50021760817_0840b821b8_n.jpg",
    "id_album": "-1933715543",
    "description": "Horse_383116",
    "title": "Horse_383116",
    "link_img": "https://live.staticflickr.com/65535/50021760817_6d9992b792_o.jpg",
    "id_image": "Horse_383116",
    "count_view": 0
  },
  {
    "link_thumb": "https://live.staticflickr.com/65535/50020725253_aeb47954b2_n.jpg",
    "id_album": "-462831703",
    "description": "Cat_826190",
    "title": "Cat_826190",
    "link_img": "https://live.staticflickr.com/65535/50020725253_4da1c44cdf_o.jpg",
    "id_image": "Cat_826190",
    "count_view": 0
  },
  {
    "link_thumb": "https://live.staticflickr.com/65535/50021313551_fda0505c13_n.jpg",
    "id_album": "-405626519",
    "description": "GermanShepherd_974432",
    "title": "GermanShepherd_974432",
    "link_img": "https://live.staticflickr.com/65535/50021313551_812c930d62_o.jpg",
    "id_image": "GermanShepherd_974432",
    "count_view": 0
  },
  {
    "link_thumb": "https://live.staticflickr.com/65535/50020950271_d6ee807d66_n.jpg",
    "id_album": "-128218148",
    "description": "Fox_346200",
    "title": "Fox_346200",
    "link_img": "https://live.staticflickr.com/65535/50020950271_8444909482_o.jpg",
    "id_image": "Fox_346200",
    "count_view": 0
  },
  {
    "link_thumb": "https://live.staticflickr.com/65535/50017611757_2d1c1ef2a2_n.jpg",
    "id_album": "-1846011410",
    "description": "Bird_488591",
    "title": "Bird_488591",
    "link_img": "https://live.staticflickr.com/65535/50017611757_6f92742a68_o.jpg",
    "id_image": "Bird_488591",
    "count_view": 0
  },
  {
    "link_thumb": "https://live.staticflickr.com/65535/50016818083_fe0502cb1b_n.jpg",
    "id_album": "-1846011410",
    "description": "Bird_456944",
    "title": "Bird_456944",
    "link_img": "https://live.staticflickr.com/65535/50016818083_376c1b6abc_o.jpg",
    "id_image": "Bird_456944",
    "count_view": 0
  }
]