[
  {
    "link_thumb": "https://live.staticflickr.com/65535/50022565212_9fe484b68e_n.jpg",
    "id_album": "1015034486",
    "description": "Muteswan_239600",
    "title": "Muteswan_239600",
    "link_img": "https://live.staticflickr.com/65535/50022565212_b36358321d_o.jpg",
    "id_image": "Muteswan_239600",
    "count_view": 0
  },
  {
    "link_thumb": "https://live.staticflickr.com/65535/50018150167_970dfd5bcf_n.jpg",
    "id_album": "-462831705",
    "description": "Cat_236920",
    "title": "Cat_236920",
    "link_img": "https://live.staticflickr.com/65535/50018150167_b2d491bd40_o.jpg",
    "id_image": "Cat_236920",
    "count_view": 0
  },
  {
    "link_thumb": "https://live.staticflickr.com/65535/50022393321_882a95722d_n.jpg",
    "id_album": "-1384601601",
    "description": "Owl_339462",
    "title": "Owl_339462",
    "link_img": "https://live.staticflickr.com/65535/50022393321_0a5757ccf3_o.jpg",
    "id_image": "Owl_339462",
    "count_view": 0
  },
  {
    "link_thumb": "https://live.staticflickr.com/65535/50351948003_d639ac504f_n.jpg",
    "id_album": "-462831703",
    "description": "Cat_686073",
    "title": "Cat_686073",
    "link_img": "https://live.staticflickr.com/65535/50351948003_7d04d6636d_o.jpg",
    "id_image": "Cat_686073",
    "count_view": 0
  },
  {
    "link_thumb": "https://live.staticflickr.com/65535/50022635358_f9723f4332_n.jpg",
    "id_album": "-434874555",
    "description": "RainbowLorikeet_597018",
    "title": "RainbowLorikeet_597018",
    "link_img": "https://live.staticflickr.com/65535/50022635358_dfc778b306_o.jpg",
    "id_image": "RainbowLorikeet_597018",
    "count_view": 0
  },
  {
    "link_thumb": "https://live.staticflickr.com/65535/50022561928_be1a855bde_n.jpg",
    "id_album": "-1940643173",
    "description": "Rabbit_407957",
    "title": "Rabbit_407957",
    "link_img": "https://live.staticflickr.com/65535/50022561928_4464e30f48_o.jpg",
    "id_image": "Rabbit_407957",
    "count_view": 0
  },
  {
    "link_thumb": "https://live.staticflickr.com/65535/50017213088_8057e2aff7_n.jpg",
    "id_album": "-462831703",
    "description": "Cat_1001164",
    "title": "Cat_1001164",
    "link_img": "https://live.staticflickr.com/65535/50017213088_cc31695eda_o.jpg",
    "id_image": "Cat_1001164",
    "count_view": 0
  },
  {
    "link_thumb": "https://live.staticflickr.com/65535/50017221201_0f576b0c81_n.jpg",
    "id_album": "-1846011410",
    "description": "Bird_262205",
    "title": "Bird_262205",
    "link_img": "https://live.staticflickr.com/65535/50017221201_daa0d7c6ea_o.jpg",
    "id_image": "Bird_262205",
    "count_view": 0
  },
  {
    "link_thumb": "https://live.staticflickr.com/65535/50024488577_4f26942542_n.jpg",
    "id_album": "405170427",
    "description": "Tiger_880353",
    "title": "Tiger_880353",
    "link_img": "https://live.staticflickr.com/65535/50024488577_45c36f988d_o.jpg",
    "id_image": "Tiger_880353",
    "count_view": 0
  },
  {
    "link_thumb": "https://live.staticflickr.com/65535/50018156901_d5e58d504f_n.jpg",
    "id_album": "-462831702",
    "description": "Cat_409149",
    "title": "Cat_409149",
    "link_img": "https://live.staticflickr.com/65535/50018156901_606e60a722_o.jpg",
    "id_image": "Cat_409149",
    "count_view": 0
  },
  {
    "link_thumb": "https://live.staticflickr.com/65535/50018943233_6d74722038_n.jpg",
    "id_album": "-462831703",
    "description": "Cat_923383",
    "title": "Cat_923383",
    "link_img": "https://live.staticflickr.com/65535/50018943233_7b49b8d68f_o.jpg",
    "id_image": "Cat_923383",
    "count_view": 0
  },
  {
    "link_thumb": "https://live.staticflickr.com/65535/50021195276_cdd7ab31c6_n.jpg",
    "id_album": "-462831704",
    "description": "Cat_712387",
    "title": "Cat_712387",
    "link_img": "https://live.staticflickr.com/65535/50021195276_5f472e7dde_o.jpg",
    "id_image": "Cat_712387",
    "count_view": 0
  },
  {
    "link_thumb": "https://live.staticflickr.com/65535/50017032896_4f277d7c14_n.jpg",
    "id_album": "-422187261",
    "description": "Bear_364321",
    "title": "Bear_364321",
    "link_img": "https://live.staticflickr.com/65535/50017032896_a9808d3547_o.jpg",
    "id_image": "Bear_364321",
    "count_view": 0
  },
  {
    "link_thumb": "https://live.staticflickr.com/65535/50017639952_cdf9816822_n.jpg",
    "id_album": "-1846011410",
    "description": "Bird_590440",
    "title": "Bird_590440",
    "link_img": "https://live.staticflickr.com/65535/50017639952_35ddcf2463_o.jpg",
    "id_image": "Bird_590440",
    "count_view": 0
  },
  {
    "link_thumb": "https://live.staticflickr.com/65535/50023154868_b81e855438_n.jpg",
    "id_album": "-359606417",
    "description": "Sparrow_326625",
    "title": "Sparrow_326625",
    "link_img": "https://live.staticflickr.com/65535/50023154868_1d0b8a202c_o.jpg",
    "id_image": "Sparrow_326625",
    "count_view": 0
  },
  {
    "link_thumb": "https://live.staticflickr.com/65535/50021567722_76dfd64626_n.jpg",
    "id_album": "-405626519",
    "description": "GermanShepherd_966529",
    "title": "GermanShepherd_966529",
    "link_img": "https://live.staticflickr.com/65535/50021567722_0ce8c8a6e6_o.jpg",
    "id_image": "GermanShepherd_966529",
    "count_view": 0
  },
  {
    "link_thumb": "https://live.staticflickr.com/65535/50019502436_04f63851a4_n.jpg",
    "id_album": "-462831703",
    "description": "Cat_942650",
    "title": "Cat_942650",
    "link_img": "https://live.staticflickr.com/65535/50019502436_7364d56a8b_o.jpg",
    "id_image": "Cat_942650",
    "count_view": 0
  },
  {
    "link_thumb": "https://live.staticflickr.com/65535/50020415892_4bb754514b_n.jpg",
    "id_album": "-149330232",
    "description": "Dog_217171",
    "title": "Dog_217171",
    "link_img": "https://live.staticflickr.com/65535/50020415892_7101b0961e_o.jpg",
    "id_image": "Dog_217171",
    "count_view": 0
  },
  {
    "link_thumb": "https://live.staticflickr.com/65535/50017945921_07bbf208f4_n.jpg",
    "id_album": "-462831702",
    "description": "Cat_294691",
    "title": "Cat_294691",
    "link_img": "https://live.staticflickr.com/65535/50017945921_c0c3d03717_o.jpg",
    "id_image": "Cat_294691",
    "count_view": 0
  },
  {
    "link_thumb": "https://live.staticflickr.com/65535/50020491681_9465b862ec_n.jpg",
    "id_album": "-149330231",
    "description": "Dog_714957",
    "title": "Dog_714957",
    "link_img": "https://live.staticflickr.com/65535/50020491681_1dddfeb99a_o.jpg",
    "id_image": "Dog_714957",
    "count_view": 0
  },
  {
    "link_thumb": "https://live.staticflickr.com/65535/50017369117_209ca4dfc5_n.jpg",
    "id_album": "-422187261",
    "description": "Bear_949136",
    "title": "Bear_949136",
    "link_img": "https://live.staticflickr.com/65535/50017369117_7e3f2712a0_o.jpg",
    "id_image": "Bear_949136",
    "count_view": 0
  },
  {
    "link_thumb": "https://live.staticflickr.com/65535/50023801191_5b3799a768_n.jpg",
    "id_album": "-1082521515",
    "description": "Spider_898065",
    "title": "Spider_898065",
    "link_img": "https://live.staticflickr.com/65535/50023801191_1d9a7b4894_o.jpg",
    "id_image": "Spider_898065",
    "count_view": 0
  },
  {
    "link_thumb": "https://live.staticflickr.com/65535/50024117702_6ce540521d_n.jpg",
    "id_album": "702283289",
    "description": "Squirrel_394625",
    "title": "Squirrel_394625",
    "link_img": "https://live.staticflickr.com/65535/50024117702_cc465264e9_o.jpg",
    "id_image": "Squirrel_394625",
    "count_view": 0
  },
  {
    "link_thumb": "https://live.staticflickr.com/65535/50019662346_9529a6c66b_n.jpg",
    "id_album": "-766919393",
    "description": "Chameleon_760574",
    "title": "Chameleon_760574",
    "link_img": "https://live.staticflickr.com/65535/50019662346_66be62523e_o.jpg",
    "id_image": "Chameleon_760574",
    "count_view": 0
  },
  {
    "link_thumb": "https://live.staticflickr.com/65535/50019174163_06b5b62830_n.jpg",
    "id_album": "-1481843714",
    "description": "Cheetah_403756",
    "title": "Cheetah_403756",
    "link_img": "https://live.staticflickr.com/65535/50019174163_d297a820c2_o.jpg",
    "id_image": "Cheetah_403756",
    "count_view": 0
  },
  {
    "link_thumb": "https://live.staticflickr.com/65535/50024264456_4389b8f041_n.jpg",
    "id_album": "-809392728",
    "description": "Titmouse_888190",
    "title": "Titmouse_888190",
    "link_img": "https://live.staticflickr.com/65535/50024264456_5bfe535da3_o.jpg",
    "id_image": "Titmouse_888190",
    "count_view": 0
  },
  {
    "link_thumb": "https://live.staticflickr.com/65535/50021171323_80a06e2f3f_n.jpg",
    "id_album": "1658866795",
    "description": "Insect_811192",
    "title": "Insect_811192",
    "link_img": "https://live.staticflickr.com/65535/50021171323_548b5d34b4_o.jpg",
    "id_image": "Insect_811192",
    "count_view": 0
  },
  {
    "link_thumb": "https://live.staticflickr.com/65535/50020294373_a1fc460978_n.jpg",
    "id_album": "-1118073211",
    "description": "Fish_263497",
    "title": "Fish_263497",
    "link_img": "https://live.staticflickr.com/65535/50020294373_c342417677_o.jpg",
    "id_image": "Fish_263497",
    "count_view": 0
  },
  {
    "link_thumb": "https://live.staticflickr.com/65535/50352762732_cb23c2b129_n.jpg",
    "id_album": "-462831703",
    "description": "Cat_552448",
    "title": "Cat_552448",
    "link_img": "https://live.staticflickr.com/65535/50352762732_2880933262_o.jpg",
    "id_image": "Cat_552448",
    "count_view": 0
  },
  {
    "link_thumb": "https://live.staticflickr.com/65535/50023573642_f4ba325811_n.jpg",
    "id_album": "1926701726",
    "description": "Robin_733559",
    "title": "Robin_733559",
    "link_img": "https://live.staticflickr.com/65535/50023573642_1288d5f4b7_o.jpg",
    "id_image": "Robin_733559",
    "count_view": 0
  },
  {
    "link_thumb": "https://live.staticflickr.com/65535/50024254667_b7d94ce344_n.jpg",
    "id_album": "1244464375",
    "description": "Starfish_470092",
    "title": "Starfish_470092",
    "link_img": "https://live.staticflickr.com/65535/50024254667_4813df225b_o.jpg",
    "id_image": "Starfish_470092",
    "count_view": 0
  },
  {
    "link_thumb": "https://live.staticflickr.com/65535/50023242102_854de3691a_n.jpg",
    "id_album": "-353898617",
    "description": "Puppy_409590",
    "title": "Puppy_409590",
    "link_img": "https://live.staticflickr.com/65535/50023242102_22d583372a_o.jpg",
    "id_image": "Puppy_409590",
    "count_view": 0
  },
  {
    "link_thumb": "https://live.staticflickr.com/65535/50022269787_8dc3a353f7_n.jpg",
    "id_album": "416744915",
    "description": "Lion_413555",
    "title": "Lion_413555",
    "link_img": "https://live.staticflickr.com/65535/50022269787_17e2aa0dec_o.jpg",
    "id_image": "Lion_413555",
    "count_view": 0
  },
  {
    "link_thumb": "https://live.staticflickr.com/65535/50016770008_39e3296545_n.jpg",
    "id_album": "-1846011410",
    "description": "Bird_390900",
    "title": "Bird_390900",
    "link_img": "https://live.staticflickr.com/65535/50016770008_2be908afe6_o.jpg",
    "id_image": "Bird_390900",
    "count_view": 0
  },
  {
    "link_thumb": "https://live.staticflickr.com/65535/50017162876_d1d39a0dee_n.jpg",
    "id_album": "1699594607",
    "description": "Bee_837110",
    "title": "Bee_837110",
    "link_img": "https://live.staticflickr.com/65535/50017162876_198b8271a1_o.jpg",
    "id_image": "Bee_837110",
    "count_view": 0
  },
  {
    "link_thumb": "https://live.staticflickr.com/65535/50019151196_59b6e3b655_n.jpg",
    "id_album": "-462831702",
    "description": "Cat_417294",
    "title": "Cat_417294",
    "link_img": "https://live.staticflickr.com/65535/50019151196_ecefde66c5_o.jpg",
    "id_image": "Cat_417294",
    "count_view": 0
  },
  {
    "link_thumb": "https://live.staticflickr.com/65535/50017051283_22b2973dc5_n.jpg",
    "id_album": "-401151552",
    "description": "Butterfly_381330",
    "title": "Butterfly_381330",
    "link_img": "https://live.staticflickr.com/65535/50017051283_84b3a84934_o.jpg",
    "id_image": "Butterfly_381330",
    "count_view": 0
  },
  {
    "link_thumb": "https://live.staticflickr.com/65535/50022435412_ed7fd9fac8_n.jpg",
    "id_album": "-1173056085",
    "description": "Macaw_352988",
    "title": "Macaw_352988",
    "link_img": "https://live.staticflickr.com/65535/50022435412_365ce3985e_o.jpg",
    "id_image": "Macaw_352988",
    "count_view": 0
  },
  {
    "link_thumb": "https://live.staticflickr.com/65535/50020219202_6f59119e55_n.jpg",
    "id_album": "1831085598",
    "description": "Dachshund_904760",
    "title": "Dachshund_904760",
    "link_img": "https://live.staticflickr.com/65535/50020219202_757c0b52bd_o.jpg",
    "id_image": "Dachshund_904760",
    "count_view": 0
  },
  {
    "link_thumb": "https://live.staticflickr.com/65535/50019732123_d5728fcd9f_n.jpg",
    "id_album": "-149330232",
    "description": "Dog_334685",
    "title": "Dog_334685",
    "link_img": "https://live.staticflickr.com/65535/50019732123_e6e1c7e655_o.jpg",
    "id_image": "Dog_334685",
    "count_view": 0
  },
  {
    "link_thumb": "https://live.staticflickr.com/65535/50017759237_b72f013c2f_n.jpg",
    "id_album": "782930701",
    "description": "BorderCollie_842615",
    "title": "BorderCollie_842615",
    "link_img": "https://live.staticflickr.com/65535/50017759237_447e8106f7_o.jpg",
    "id_image": "BorderCollie_842615",
    "count_view": 0
  },
  {
    "link_thumb": "https://live.staticflickr.com/65535/50022155196_496c5ec592_n.jpg",
    "id_album": "1894617400",
    "description": "Lynx_681457",
    "title": "Lynx_681457",
    "link_img": "https://live.staticflickr.com/65535/50022155196_1820d9ac25_o.jpg",
    "id_image": "Lynx_681457",
    "count_view": 0
  },
  {
    "link_thumb": "https://live.staticflickr.com/65535/50022103347_67330f9440_n.jpg",
    "id_album": "-1882491687",
    "description": "Ladybug_396474",
    "title": "Ladybug_396474",
    "link_img": "https://live.staticflickr.com/65535/50022103347_657de1be75_o.jpg",
    "id_image": "Ladybug_396474",
    "count_view": 0
  },
  {
    "link_thumb": "https://live.staticflickr.com/65535/50023342462_67aee4f6c4_n.jpg",
    "id_album": "470794721",
    "description": "Python_892258",
    "title": "Python_892258",
    "link_img": "https://live.staticflickr.com/65535/50023342462_009269a5e9_o.jpg",
    "id_image": "Python_892258",
    "count_view": 0
  },
  {
    "link_thumb": "https://live.staticflickr.com/65535/50017399047_ed9a45ebe0_n.jpg",
    "id_album": "1699594607",
    "description": "Bee_439749",
    "title": "Bee_439749",
    "link_img": "https://live.staticflickr.com/65535/50017399047_6c5038ce63_o.jpg",
    "id_image": "Bee_439749",
    "count_view": 0
  },
  {
    "link_thumb": "https://live.staticflickr.com/65535/50018146846_39f9277db1_n.jpg",
    "id_album": "-462831702",
    "description": "Cat_405933",
    "title": "Cat_405933",
    "link_img": "https://live.staticflickr.com/65535/50018146846_39a40a5c6b_o.jpg",
    "id_image": "Cat_405933",
    "count_view": 0
  },
  {
    "link_thumb": "https://live.staticflickr.com/65535/50352671236_eee0fca0af_n.jpg",
    "id_album": "-462831703",
    "description": "Cat_955200",
    "title": "Cat_955200",
    "link_img": "https://live.staticflickr.com/65535/50352671236_cafb675288_o.jpg",
    "id_image": "Cat_955200",
    "count_view": 0
  },
  {
    "link_thumb": "https://live.staticflickr.com/65535/50019716288_1c06944a20_n.jpg",
    "id_album": "-149330232",
    "description": "Dog_329495",
    "title": "Dog_329495",
    "link_img": "https://live.staticflickr.com/65535/50019716288_4ec9bde64a_o.jpg",
    "id_image": "Dog_329495",
    "count_view": 0
  },
  {
    "link_thumb": "https://live.staticflickr.com/65535/50021414396_ace7528240_n.jpg",
    "id_album": "109779448",
    "description": "Hare_420919",
    "title": "Hare_420919",
    "link_img": "https://live.staticflickr.com/65535/50021414396_990b760f8a_o.jpg",
    "id_image": "Hare_420919",
    "count_view": 0
  },
  {
    "link_thumb": "https://live.staticflickr.com/65535/50017561893_6a80b6eed8_n.jpg",
    "id_album": "-462831702",
    "description": "Cat_369934",
    "title": "Cat_369934",
    "link_img": "https://live.staticflickr.com/65535/50017561893_bbf30824b6_o.jpg",
    "id_image": "Cat_369934",
    "count_view": 0
  },
  {
    "link_thumb": "https://live.staticflickr.com/65535/50016314158_695509534d_n.jpg",
    "id_album": "-834314226",
    "description": "ArcticFox_327882",
    "title": "ArcticFox_327882",
    "link_img": "https://live.staticflickr.com/65535/50016314158_3a4b2d732e_o.jpg",
    "id_image": "ArcticFox_327882",
    "count_view": 0
  },
  {
    "link_thumb": "https://live.staticflickr.com/65535/50017175966_09a8a1e8f5_n.jpg",
    "id_album": "172748811",
    "description": "Beeeater_758210",
    "title": "Beeeater_758210",
    "link_img": "https://live.staticflickr.com/65535/50017175966_64c3f0568c_o.jpg",
    "id_image": "Beeeater_758210",
    "count_view": 0
  },
  {
    "link_thumb": "https://live.staticflickr.com/65535/50019781716_ee24d71ec7_n.jpg",
    "id_album": "643379324",
    "description": "Clownfish_404746",
    "title": "Clownfish_404746",
    "link_img": "https://live.staticflickr.com/65535/50019781716_84533e8a33_o.jpg",
    "id_image": "Clownfish_404746",
    "count_view": 0
  },
  {
    "link_thumb": "https://live.staticflickr.com/65535/50023555268_ccd35638a7_n.jpg",
    "id_album": "405170427",
    "description": "Tiger_379674",
    "title": "Tiger_379674",
    "link_img": "https://live.staticflickr.com/65535/50023555268_ae7e74e03c_o.jpg",
    "id_image": "Tiger_379674",
    "count_view": 0
  },
  {
    "link_thumb": "https://live.staticflickr.com/65535/50019473551_2750528bf7_n.jpg",
    "id_album": "-462831703",
    "description": "Cat_922660",
    "title": "Cat_922660",
    "link_img": "https://live.staticflickr.com/65535/50019473551_dc432fb281_o.jpg",
    "id_image": "Cat_922660",
    "count_view": 0
  },
  {
    "link_thumb": "https://live.staticflickr.com/65535/50019161523_2ee1b99813_n.jpg",
    "id_album": "-1481843714",
    "description": "Cheetah_337488",
    "title": "Cheetah_337488",
    "link_img": "https://live.staticflickr.com/65535/50019161523_226d955f3a_o.jpg",
    "id_image": "Cheetah_337488",
    "count_view": 0
  },
  {
    "link_thumb": "https://live.staticflickr.com/65535/50021292858_4fff780163_n.jpg",
    "id_album": "1307335982",
    "description": "LabradorRetriever_875246",
    "title": "LabradorRetriever_875246",
    "link_img": "https://live.staticflickr.com/65535/50021292858_07a3878582_o.jpg",
    "id_image": "LabradorRetriever_875246",
    "count_view": 0
  },
  {
    "link_thumb": "https://live.staticflickr.com/65535/50351846503_41aede643d_n.jpg",
    "id_album": "-462831703",
    "description": "Cat_461635",
    "title": "Cat_461635",
    "link_img": "https://live.staticflickr.com/65535/50351846503_2926e7b5c5_o.jpg",
    "id_image": "Cat_461635",
    "count_view": 0
  },
  {
    "link_thumb": "https://live.staticflickr.com/65535/50016971506_5dc8846cdf_n.jpg",
    "id_album": "231236068",
    "description": "BaldEagle_900268",
    "title": "BaldEagle_900268",
    "link_img": "https://live.staticflickr.com/65535/50016971506_b8ce5a8fb0_o.jpg",
    "id_image": "BaldEagle_900268",
    "count_view": 0
  },
  {
    "link_thumb": "https://live.staticflickr.com/65535/50017464813_2fc413357a_n.jpg",
    "id_album": "-462831702",
    "description": "Cat_332524",
    "title": "Cat_332524",
    "link_img": "https://live.staticflickr.com/65535/50017464813_fd2948c218_o.jpg",
    "id_image": "Cat_332524",
    "count_view": 0
  },
  {
    "link_thumb": "https://live.staticflickr.com/65535/50022131596_d6566f3b23_n.jpg",
    "id_album": "1894617400",
    "description": "Lynx_329474",
    "title": "Lynx_329474",
    "link_img": "https://live.staticflickr.com/65535/50022131596_afd6b79ce6_o.jpg",
    "id_image": "Lynx_329474",
    "count_view": 0
  },
  {
    "link_thumb": "https://live.staticflickr.com/65535/50351951773_f20dff2354_n.jpg",
    "id_album": "-462831703",
    "description": "Cat_697447",
    "title": "Cat_697447",
    "link_img": "https://live.staticflickr.com/65535/50351951773_15c8407784_o.jpg",
    "id_image": "Cat_697447",
    "count_view": 0
  },
  {
    "link_thumb": "https://live.staticflickr.com/65535/50024062507_388639976c_n.jpg",
    "id_album": "-1082521515",
    "description": "Spider_926059",
    "title": "Spider_926059",
    "link_img": "https://live.staticflickr.com/65535/50024062507_871a9b18b2_o.jpg",
    "id_image": "Spider_926059",
    "count_view": 0
  },
  {
    "link_thumb": "https://live.staticflickr.com/65535/50020695651_7d63cd4435_n.jpg",
    "id_album": "-39098563",
    "description": "Eagle_351266",
    "title": "Eagle_351266",
    "link_img": "https://live.staticflickr.com/65535/50020695651_04d1177d61_o.jpg",
    "id_image": "Eagle_351266",
    "count_view": 0
  },
  {
    "link_thumb": "https://live.staticflickr.com/65535/50016532648_f90ee300c8_n.jpg",
    "id_album": "-422187261",
    "description": "Bear_588517",
    "title": "Bear_588517",
    "link_img": "https://live.staticflickr.com/65535/50016532648_6505ec625f_o.jpg",
    "id_image": "Bear_588517",
    "count_view": 0
  },
  {
    "link_thumb": "https://live.staticflickr.com/65535/50017840456_307c8bd6ee_n.jpg",
    "id_album": "-462831705",
    "description": "Cat_202974",
    "title": "Cat_202974",
    "link_img": "https://live.staticflickr.com/65535/50017840456_e8c5069d13_o.jpg",
    "id_image": "Cat_202974",
    "count_view": 0
  },
  {
    "link_thumb": "https://live.staticflickr.com/65535/50017942291_580a28b68a_n.jpg",
    "id_album": "-462831702",
    "description": "Cat_290724",
    "title": "Cat_290724",
    "link_img": "https://live.staticflickr.com/65535/50017942291_da6462aeb6_o.jpg",
    "id_image": "Cat_290724",
    "count_view": 0
  },
  {
    "link_thumb": "https://live.staticflickr.com/65535/50021703471_2ca6993417_n.jpg",
    "id_album": "1658866795",
    "description": "Insect_574042",
    "title": "Insect_574042",
    "link_img": "https://live.staticflickr.com/65535/50021703471_258edbda98_o.jpg",
    "id_image": "Insect_574042",
    "count_view": 0
  },
  {
    "link_thumb": "https://live.staticflickr.com/65535/50017422813_4bbf90e83c_n.jpg",
    "id_album": "-462831702",
    "description": "Cat_306566",
    "title": "Cat_306566",
    "link_img": "https://live.staticflickr.com/65535/50017422813_4cb6a778de_o.jpg",
    "id_image": "Cat_306566",
    "count_view": 0
  },
  {
    "link_thumb": "https://live.staticflickr.com/65535/50017468473_689d5e99c2_n.jpg",
    "id_album": "-462831702",
    "description": "Cat_333837",
    "title": "Cat_333837",
    "link_img": "https://live.staticflickr.com/65535/50017468473_fdfa147226_o.jpg",
    "id_image": "Cat_333837",
    "count_view": 0
  },
  {
    "link_thumb": "https://live.staticflickr.com/65535/50352690347_9dafda6dcd_n.jpg",
    "id_album": "-462831703",
    "description": "Cat_452067",
    "title": "Cat_452067",
    "link_img": "https://live.staticflickr.com/65535/50352690347_423b8dda2f_o.jpg",
    "id_image": "Cat_452067",
    "count_view": 0
  },
  {
    "link_thumb": "https://live.staticflickr.com/65535/50021872181_2bf6433068_n.jpg",
    "id_album": "1918884325",
    "description": "Lemur_343487",
    "title": "Lemur_343487",
    "link_img": "https://live.staticflickr.com/65535/50021872181_1420e059c8_o.jpg",
    "id_image": "Lemur_343487",
    "count_view": 0
  },
  {
    "link_thumb": "https://live.staticflickr.com/65535/50352000343_f2fa76cb99_n.jpg",
    "id_album": "-462831702",
    "description": "Cat_18263",
    "title": "Cat_18263",
    "link_img": "https://live.staticflickr.com/65535/50352000343_17cf95696d_o.jpg",
    "id_image": "Cat_18263",
    "count_view": 0
  },
  {
    "link_thumb": "https://live.staticflickr.com/65535/50017622403_6eb0fe2888_n.jpg",
    "id_album": "-462831702",
    "description": "Cat_407410",
    "title": "Cat_407410",
    "link_img": "https://live.staticflickr.com/65535/50017622403_48e646b814_o.jpg",
    "id_image": "Cat_407410",
    "count_view": 0
  },
  {
    "link_thumb": "https://live.staticflickr.com/65535/50020708423_267d556122_n.jpg",
    "id_album": "-462831703",
    "description": "Cat_790272",
    "title": "Cat_790272",
    "link_img": "https://live.staticflickr.com/65535/50020708423_660f666bf2_o.jpg",
    "id_image": "Cat_790272",
    "count_view": 0
  },
  {
    "link_thumb": "https://live.staticflickr.com/65535/50018965488_77ecc35e9e_n.jpg",
    "id_album": "-462831703",
    "description": "Cat_938164",
    "title": "Cat_938164",
    "link_img": "https://live.staticflickr.com/65535/50018965488_6bf45985c7_o.jpg",
    "id_image": "Cat_938164",
    "count_view": 0
  },
  {
    "link_thumb": "https://live.staticflickr.com/65535/50016327633_aeb04ec44b_n.jpg",
    "id_album": "523598895",
    "description": "Artistic_103445",
    "title": "Artistic_103445",
    "link_img": "https://live.staticflickr.com/65535/50016327633_713b560ecc_o.jpg",
    "id_image": "Artistic_103445",
    "count_view": 0
  },
  {
    "link_thumb": "https://live.staticflickr.com/65535/50021625777_abc0dfed09_n.jpg",
    "id_album": "2060159334",
    "description": "GoldenRetriever_940906",
    "title": "GoldenRetriever_940906",
    "link_img": "https://live.staticflickr.com/65535/50021625777_3614490669_o.jpg",
    "id_image": "GoldenRetriever_940906",
    "count_view": 0
  },
  {
    "link_thumb": "https://live.staticflickr.com/65535/50020775192_d59dd821d2_n.jpg",
    "id_album": "-149330232",
    "description": "Dog_8291",
    "title": "Dog_8291",
    "link_img": "https://live.staticflickr.com/65535/50020775192_d2fc32ce4a_o.jpg",
    "id_image": "Dog_8291",
    "count_view": 0
  },
  {
    "link_thumb": "https://live.staticflickr.com/65535/50022347652_9e56a30556_n.jpg",
    "id_album": "416744915",
    "description": "Lion_946053",
    "title": "Lion_946053",
    "link_img": "https://live.staticflickr.com/65535/50022347652_e0ab53bc93_o.jpg",
    "id_image": "Lion_946053",
    "count_view": 0
  },
  {
    "link_thumb": "https://live.staticflickr.com/65535/50023336586_6d2246c5e8_n.jpg",
    "id_album": "-419757464",
    "description": "SeaLife_220184",
    "title": "SeaLife_220184",
    "link_img": "https://live.staticflickr.com/65535/50023336586_5bca7ea4b9_o.jpg",
    "id_image": "SeaLife_220184",
    "count_view": 0
  },
  {
    "link_thumb": "https://live.staticflickr.com/65535/50352666987_1b1aa2db41_n.jpg",
    "id_album": "-462831703",
    "description": "Cat_421422",
    "title": "Cat_421422",
    "link_img": "https://live.staticflickr.com/65535/50352666987_7ede37e053_o.jpg",
    "id_image": "Cat_421422",
    "count_view": 0
  },
  {
    "link_thumb": "https://live.staticflickr.com/65535/50022089861_00547106d4_n.jpg",
    "id_album": "416744915",
    "description": "Lion_953665",
    "title": "Lion_953665",
    "link_img": "https://live.staticflickr.com/65535/50022089861_f439fb44c7_o.jpg",
    "id_image": "Lion_953665",
    "count_view": 0
  },
  {
    "link_thumb": "https://live.staticflickr.com/65535/50021793692_f1ca247ca3_n.jpg",
    "id_album": "-1933715543",
    "description": "Horse_570093",
    "title": "Horse_570093",
    "link_img": "https://live.staticflickr.com/65535/50021793692_e727c3a284_o.jpg",
    "id_image": "Horse_570093",
    "count_view": 0
  },
  {
    "link_thumb": "https://live.staticflickr.com/65535/50017730286_97b572c985_n.jpg",
    "id_album": "189994021",
    "description": "Cardinal_207603",
    "title": "Cardinal_207603",
    "link_img": "https://live.staticflickr.com/65535/50017730286_3beaa08df7_o.jpg",
    "id_image": "Cardinal_207603",
    "count_view": 0
  },
  {
    "link_thumb": "https://live.staticflickr.com/65535/50021341328_b3e2f6cde6_n.jpg",
    "id_album": "1392348450",
    "description": "Leopard_143008",
    "title": "Leopard_143008",
    "link_img": "https://live.staticflickr.com/65535/50021341328_1a93a94238_o.jpg",
    "id_image": "Leopard_143008",
    "count_view": 0
  },
  {
    "link_thumb": "https://live.staticflickr.com/65535/50023944448_c32cd69c4d_n.jpg",
    "id_album": "-709711865",
    "description": "Wolf_370144",
    "title": "Wolf_370144",
    "link_img": "https://live.staticflickr.com/65535/50023944448_d0c159300e_o.jpg",
    "id_image": "Wolf_370144",
    "count_view": 0
  },
  {
    "link_thumb": "https://live.staticflickr.com/65535/50019963348_746bb21a9e_n.jpg",
    "id_album": "-149330231",
    "description": "Dog_726166",
    "title": "Dog_726166",
    "link_img": "https://live.staticflickr.com/65535/50019963348_99c5df9195_o.jpg",
    "id_image": "Dog_726166",
    "count_view": 0
  },
  {
    "link_thumb": "https://live.staticflickr.com/65535/50352583226_39f8c1a303_n.jpg",
    "id_album": "-462831703",
    "description": "Cat_521282",
    "title": "Cat_521282",
    "link_img": "https://live.staticflickr.com/65535/50352583226_7ae9cdc79e_o.jpg",
    "id_image": "Cat_521282",
    "count_view": 0
  },
  {
    "link_thumb": "https://live.staticflickr.com/65535/50017945437_1a0676ee5f_n.jpg",
    "id_album": "-401151552",
    "description": "Butterfly_872272",
    "title": "Butterfly_872272",
    "link_img": "https://live.staticflickr.com/65535/50017945437_609cf3ab19_o.jpg",
    "id_image": "Butterfly_872272",
    "count_view": 0
  },
  {
    "link_thumb": "https://live.staticflickr.com/65535/50017573558_74c679dc89_n.jpg",
    "id_album": "-462831702",
    "description": "Cat_376803",
    "title": "Cat_376803",
    "link_img": "https://live.staticflickr.com/65535/50017573558_c6b30fe7c4_o.jpg",
    "id_image": "Cat_376803",
    "count_view": 0
  },
  {
    "link_thumb": "https://live.staticflickr.com/65535/50022173921_0ae994234f_n.jpg",
    "id_album": "1894617400",
    "description": "Lynx_994336",
    "title": "Lynx_994336",
    "link_img": "https://live.staticflickr.com/65535/50022173921_b4589e4003_o.jpg",
    "id_image": "Lynx_994336",
    "count_view": 0
  },
  {
    "link_thumb": "https://live.staticflickr.com/65535/50017166057_2faa44b79c_n.jpg",
    "id_album": "523598895",
    "description": "Artistic_439208",
    "title": "Artistic_439208",
    "link_img": "https://live.staticflickr.com/65535/50017166057_5ea582e553_o.jpg",
    "id_image": "Artistic_439208",
    "count_view": 0
  },
  {
    "link_thumb": "https://live.staticflickr.com/65535/50352709581_2825ab36ab_n.jpg",
    "id_album": "-462831702",
    "description": "Cat_91411",
    "title": "Cat_91411",
    "link_img": "https://live.staticflickr.com/65535/50352709581_25200a9960_o.jpg",
    "id_image": "Cat_91411",
    "count_view": 0
  },
  {
    "link_thumb": "https://live.staticflickr.com/65535/50023501886_473b00623b_n.jpg",
    "id_album": "692487763",
    "description": "SiberianHusky_668843",
    "title": "SiberianHusky_668843",
    "link_img": "https://live.staticflickr.com/65535/50023501886_0f40687e09_o.jpg",
    "id_image": "SiberianHusky_668843",
    "count_view": 0
  },
  {
    "link_thumb": "https://live.staticflickr.com/65535/50016862096_4f8a9a9c67_n.jpg",
    "id_album": "523598895",
    "description": "Artistic_113689",
    "title": "Artistic_113689",
    "link_img": "https://live.staticflickr.com/65535/50016862096_7c7d3e28e1_o.jpg",
    "id_image": "Artistic_113689",
    "count_view": 0
  },
  {
    "link_thumb": "https://live.staticflickr.com/65535/50352597821_d6c86170c6_n.jpg",
    "id_album": "-462831703",
    "description": "Cat_548284",
    "title": "Cat_548284",
    "link_img": "https://live.staticflickr.com/65535/50352597821_78b2c51cc1_o.jpg",
    "id_image": "Cat_548284",
    "count_view": 0
  },
  {
    "link_thumb": "https://live.staticflickr.com/65535/50016843561_3ba11f0ce7_n.jpg",
    "id_album": "-834314226",
    "description": "ArcticFox_351115",
    "title": "ArcticFox_351115",
    "link_img": "https://live.staticflickr.com/65535/50016843561_10f9088c03_o.jpg",
    "id_image": "ArcticFox_351115",
    "count_view": 0
  },
  {
    "link_thumb": "https://live.staticflickr.com/65535/50020932382_6aa8fcaa57_n.jpg",
    "id_album": "1168627767",
    "description": "Duck_877065",
    "title": "Duck_877065",
    "link_img": "https://live.staticflickr.com/65535/50020932382_dcdbe58f69_o.jpg",
    "id_image": "Duck_877065",
    "count_view": 0
  },
  {
    "link_thumb": "https://live.staticflickr.com/65535/50020803683_ae10c19117_n.jpg",
    "id_album": "2060159334",
    "description": "GoldenRetriever_277138",
    "title": "GoldenRetriever_277138",
    "link_img": "https://live.staticflickr.com/65535/50020803683_b4fbf11352_o.jpg",
    "id_image": "GoldenRetriever_277138",
    "count_view": 0
  },
  {
    "link_thumb": "https://live.staticflickr.com/65535/50021780836_9530fdc1ee_n.jpg",
    "id_album": "1562047127",
    "description": "Jellyfish_772124",
    "title": "Jellyfish_772124",
    "link_img": "https://live.staticflickr.com/65535/50021780836_e38a8fc40f_o.jpg",
    "id_image": "Jellyfish_772124",
    "count_view": 0
  },
  {
    "link_thumb": "https://live.staticflickr.com/65535/50021043478_0d2f2173a8_n.jpg",
    "id_album": "-1933715543",
    "description": "Horse_924021",
    "title": "Horse_924021",
    "link_img": "https://live.staticflickr.com/65535/50021043478_bed668b5e7_o.jpg",
    "id_image": "Horse_924021",
    "count_view": 0
  },
  {
    "link_thumb": "https://live.staticflickr.com/65535/50022670488_921d36ccf5_n.jpg",
    "id_album": "332874268",
    "description": "RedPanda_432997",
    "title": "RedPanda_432997",
    "link_img": "https://live.staticflickr.com/65535/50022670488_27aef2199e_o.jpg",
    "id_image": "RedPanda_432997",
    "count_view": 0
  },
  {
    "link_thumb": "https://live.staticflickr.com/65535/50020627833_3663f46967_n.jpg",
    "id_album": "-462831704",
    "description": "Cat_687614",
    "title": "Cat_687614",
    "link_img": "https://live.staticflickr.com/65535/50020627833_8c461e7b56_o.jpg",
    "id_image": "Cat_687614",
    "count_view": 0
  },
  {
    "link_thumb": "https://live.staticflickr.com/65535/50016372168_63b2dd6096_n.jpg",
    "id_album": "523598895",
    "description": "Artistic_351468",
    "title": "Artistic_351468",
    "link_img": "https://live.staticflickr.com/65535/50016372168_9149089a65_o.jpg",
    "id_image": "Artistic_351468",
    "count_view": 0
  },
  {
    "link_thumb": "https://live.staticflickr.com/65535/50018340937_6ebd446787_n.jpg",
    "id_album": "-462831702",
    "description": "Cat_368051",
    "title": "Cat_368051",
    "link_img": "https://live.staticflickr.com/65535/50018340937_2e07d28c64_o.jpg",
    "id_image": "Cat_368051",
    "count_view": 0
  },
  {
    "link_thumb": "https://live.staticflickr.com/65535/50019428522_654c255914_n.jpg",
    "id_album": "-462831702",
    "description": "Cat_426009",
    "title": "Cat_426009",
    "link_img": "https://live.staticflickr.com/65535/50019428522_9a910cbaa7_o.jpg",
    "id_image": "Cat_426009",
    "count_view": 0
  },
  {
    "link_thumb": "https://live.staticflickr.com/65535/50021912267_97694d354c_n.jpg",
    "id_album": "1658866795",
    "description": "Insect_207687",
    "title": "Insect_207687",
    "link_img": "https://live.staticflickr.com/65535/50021912267_d8ab2dc4f1_o.jpg",
    "id_image": "Insect_207687",
    "count_view": 0
  },
  {
    "link_thumb": "https://live.staticflickr.com/65535/50016993793_70a68011e0_n.jpg",
    "id_album": "1696155652",
    "description": "Boxer_788531",
    "title": "Boxer_788531",
    "link_img": "https://live.staticflickr.com/65535/50016993793_29d40aea85_o.jpg",
    "id_image": "Boxer_788531",
    "count_view": 0
  },
  {
    "link_thumb": "https://live.staticflickr.com/65535/50023731758_94e3a77908_n.jpg",
    "id_album": "-1103743486",
    "description": "Toucan_260623",
    "title": "Toucan_260623",
    "link_img": "https://live.staticflickr.com/65535/50023731758_bfc6e07a7e_o.jpg",
    "id_image": "Toucan_260623",
    "count_view": 0
  },
  {
    "link_thumb": "https://live.staticflickr.com/65535/50019579217_c467f6e304_n.jpg",
    "id_album": "-462831703",
    "description": "Cat_852527",
    "title": "Cat_852527",
    "link_img": "https://live.staticflickr.com/65535/50019579217_ab95b4d4af_o.jpg",
    "id_image": "Cat_852527",
    "count_view": 0
  },
  {
    "link_thumb": "https://live.staticflickr.com/65535/50017315583_79c7ee6d52_n.jpg",
    "id_album": "-462831705",
    "description": "Cat_204842",
    "title": "Cat_204842",
    "link_img": "https://live.staticflickr.com/65535/50017315583_abb1a394f1_o.jpg",
    "id_image": "Cat_204842",
    "count_view": 0
  },
  {
    "link_thumb": "https://live.staticflickr.com/65535/50023688237_f657ee5abf_n.jpg",
    "id_album": "-1596347105",
    "description": "Shark_236412",
    "title": "Shark_236412",
    "link_img": "https://live.staticflickr.com/65535/50023688237_19bc5c186e_o.jpg",
    "id_image": "Shark_236412",
    "count_view": 0
  },
  {
    "link_thumb": "https://live.staticflickr.com/65535/50352862712_591312ecab_n.jpg",
    "id_album": "-462831702",
    "description": "Cat_71644",
    "title": "Cat_71644",
    "link_img": "https://live.staticflickr.com/65535/50352862712_bbdbda508e_o.jpg",
    "id_image": "Cat_71644",
    "count_view": 0
  },
  {
    "link_thumb": "https://live.staticflickr.com/65535/50019101958_de5c941352_n.jpg",
    "id_album": "1889777354",
    "description": "CGI_898702",
    "title": "CGI_898702",
    "link_img": "https://live.staticflickr.com/65535/50019101958_e524e85c98_o.jpg",
    "id_image": "CGI_898702",
    "count_view": 0
  },
  {
    "link_thumb": "https://live.staticflickr.com/65535/50019637772_48274781bc_n.jpg",
    "id_album": "-462831703",
    "description": "Cat_878122",
    "title": "Cat_878122",
    "link_img": "https://live.staticflickr.com/65535/50019637772_170ba6c3b9_o.jpg",
    "id_image": "Cat_878122",
    "count_view": 0
  },
  {
    "link_thumb": "https://live.staticflickr.com/65535/50018354387_13d2ab5cc9_n.jpg",
    "id_album": "-462831702",
    "description": "Cat_370612",
    "title": "Cat_370612",
    "link_img": "https://live.staticflickr.com/65535/50018354387_54829a1c3b_o.jpg",
    "id_image": "Cat_370612",
    "count_view": 0
  },
  {
    "link_thumb": "https://live.staticflickr.com/65535/50020141846_1210a1563f_n.jpg",
    "id_album": "-149330232",
    "description": "Dog_195037",
    "title": "Dog_195037",
    "link_img": "https://live.staticflickr.com/65535/50020141846_73ac5e94b0_o.jpg",
    "id_image": "Dog_195037",
    "count_view": 0
  },
  {
    "link_thumb": "https://live.staticflickr.com/65535/50017171598_233e9bf5c7_n.jpg",
    "id_album": "-401151552",
    "description": "Butterfly_926512",
    "title": "Butterfly_926512",
    "link_img": "https://live.staticflickr.com/65535/50017171598_135649cb41_o.jpg",
    "id_image": "Butterfly_926512",
    "count_view": 0
  },
  {
    "link_thumb": "https://live.staticflickr.com/65535/50022689723_96fc65e460_n.jpg",
    "id_album": "332874268",
    "description": "RedPanda_781473",
    "title": "RedPanda_781473",
    "link_img": "https://live.staticflickr.com/65535/50022689723_bc363718bd_o.jpg",
    "id_image": "RedPanda_781473",
    "count_view": 0
  },
  {
    "link_thumb": "https://live.staticflickr.com/65535/50021154506_ef12af2366_n.jpg",
    "id_album": "-462831704",
    "description": "Cat_658844",
    "title": "Cat_658844",
    "link_img": "https://live.staticflickr.com/65535/50021154506_3e1bcf946f_o.jpg",
    "id_image": "Cat_658844",
    "count_view": 0
  },
  {
    "link_thumb": "https://live.staticflickr.com/65535/50016344558_f8768cceb3_n.jpg",
    "id_album": "523598895",
    "description": "Artistic_159975",
    "title": "Artistic_159975",
    "link_img": "https://live.staticflickr.com/65535/50016344558_0ecffedf8b_o.jpg",
    "id_image": "Artistic_159975",
    "count_view": 0
  },
  {
    "link_thumb": "https://live.staticflickr.com/65535/50017047711_8035b6af5f_n.jpg",
    "id_album": "-422187261",
    "description": "Bear_449473",
    "title": "Bear_449473",
    "link_img": "https://live.staticflickr.com/65535/50017047711_fc066f230b_o.jpg",
    "id_image": "Bear_449473",
    "count_view": 0
  },
  {
    "link_thumb": "https://live.staticflickr.com/65535/50021289677_c46e602c8d_n.jpg",
    "id_album": "-128218148",
    "description": "Fox_993360",
    "title": "Fox_993360",
    "link_img": "https://live.staticflickr.com/65535/50021289677_2dab609a27_o.jpg",
    "id_image": "Fox_993360",
    "count_view": 0
  },
  {
    "link_thumb": "https://live.staticflickr.com/65535/50016371448_642ed22703_n.jpg",
    "id_album": "523598895",
    "description": "Artistic_345098",
    "title": "Artistic_345098",
    "link_img": "https://live.staticflickr.com/65535/50016371448_64d5034fea_o.jpg",
    "id_image": "Artistic_345098",
    "count_view": 0
  },
  {
    "link_thumb": "https://live.staticflickr.com/65535/50016511443_baa633d6c5_n.jpg",
    "id_album": "-422187261",
    "description": "Bear_386979",
    "title": "Bear_386979",
    "link_img": "https://live.staticflickr.com/65535/50016511443_93184d5cc5_o.jpg",
    "id_image": "Bear_386979",
    "count_view": 0
  },
  {
    "link_thumb": "https://live.staticflickr.com/65535/50022753686_d0db628b42_n.jpg",
    "id_album": "407660898",
    "description": "Pigeon_332140",
    "title": "Pigeon_332140",
    "link_img": "https://live.staticflickr.com/65535/50022753686_3cc5008e76_o.jpg",
    "id_image": "Pigeon_332140",
    "count_view": 0
  },
  {
    "link_thumb": "https://live.staticflickr.com/65535/50020931048_b7ae0ae6e4_n.jpg",
    "id_album": "-1933715543",
    "description": "Horse_247623",
    "title": "Horse_247623",
    "link_img": "https://live.staticflickr.com/65535/50020931048_ec0ce9d0ea_o.jpg",
    "id_image": "Horse_247623",
    "count_view": 0
  },
  {
    "link_thumb": "https://live.staticflickr.com/65535/50019642967_28f66dab53_n.jpg",
    "id_album": "-462831703",
    "description": "Cat_879753",
    "title": "Cat_879753",
    "link_img": "https://live.staticflickr.com/65535/50019642967_1924808690_o.jpg",
    "id_image": "Cat_879753",
    "count_view": 0
  },
  {
    "link_thumb": "https://live.staticflickr.com/65535/50021289118_9626fabaaf_n.jpg",
    "id_album": "1307335982",
    "description": "LabradorRetriever_714990",
    "title": "LabradorRetriever_714990",
    "link_img": "https://live.staticflickr.com/65535/50021289118_18ecf14fdb_o.jpg",
    "id_image": "LabradorRetriever_714990",
    "count_view": 0
  },
  {
    "link_thumb": "https://live.staticflickr.com/65535/50019740922_b344a633e7_n.jpg",
    "id_album": "-462831703",
    "description": "Cat_931338",
    "title": "Cat_931338",
    "link_img": "https://live.staticflickr.com/65535/50019740922_62f840bd72_o.jpg",
    "id_image": "Cat_931338",
    "count_view": 0
  },
  {
    "link_thumb": "https://live.staticflickr.com/65535/50021102961_b011e6ec54_n.jpg",
    "id_album": "-462831704",
    "description": "Cat_544022",
    "title": "Cat_544022",
    "link_img": "https://live.staticflickr.com/65535/50021102961_086cf4b059_o.jpg",
    "id_image": "Cat_544022",
    "count_view": 0
  },
  {
    "link_thumb": "https://live.staticflickr.com/65535/50018008257_f0b68a85ed_n.jpg",
    "id_album": "-462831705",
    "description": "Cat_103859",
    "title": "Cat_103859",
    "link_img": "https://live.staticflickr.com/65535/50018008257_f09200e776_o.jpg",
    "id_image": "Cat_103859",
    "count_view": 0
  },
  {
    "link_thumb": "https://live.staticflickr.com/65535/50017481833_3f6a342ce2_n.jpg",
    "id_album": "-462831702",
    "description": "Cat_339425",
    "title": "Cat_339425",
    "link_img": "https://live.staticflickr.com/65535/50017481833_58fca2b3b1_o.jpg",
    "id_image": "Cat_339425",
    "count_view": 0
  },
  {
    "link_thumb": "https://live.staticflickr.com/65535/50017548697_0bbe37a083_n.jpg",
    "id_album": "-1846011410",
    "description": "Bird_379672",
    "title": "Bird_379672",
    "link_img": "https://live.staticflickr.com/65535/50017548697_93b20aa971_o.jpg",
    "id_image": "Bird_379672",
    "count_view": 0
  },
  {
    "link_thumb": "https://live.staticflickr.com/65535/50021004666_f2b7f54f88_n.jpg",
    "id_album": "-128218148",
    "description": "Fox_786827",
    "title": "Fox_786827",
    "link_img": "https://live.staticflickr.com/65535/50021004666_61fec9577f_o.jpg",
    "id_image": "Fox_786827",
    "count_view": 0
  },
  {
    "link_thumb": "https://live.staticflickr.com/65535/50021637196_bbb79796de_n.jpg",
    "id_album": "-712553376",
    "description": "Husky_563449",
    "title": "Husky_563449",
    "link_img": "https://live.staticflickr.com/65535/50021637196_76055cfbff_o.jpg",
    "id_image": "Husky_563449",
    "count_view": 0
  },
  {
    "link_thumb": "https://live.staticflickr.com/65535/50021298641_5dbb8d02c2_n.jpg",
    "id_album": "-405626519",
    "description": "GermanShepherd_735032",
    "title": "GermanShepherd_735032",
    "link_img": "https://live.staticflickr.com/65535/50021298641_850ff35cb7_o.jpg",
    "id_image": "GermanShepherd_735032",
    "count_view": 0
  },
  {
    "link_thumb": "https://live.staticflickr.com/65535/50020579692_2a315abb42_n.jpg",
    "id_album": "-149330232",
    "description": "Dog_363350",
    "title": "Dog_363350",
    "link_img": "https://live.staticflickr.com/65535/50020579692_6ea09427d4_o.jpg",
    "id_image": "Dog_363350",
    "count_view": 0
  },
  {
    "link_thumb": "https://live.staticflickr.com/65535/50023717626_541160f233_n.jpg",
    "id_album": "-1082521515",
    "description": "Spider_109991",
    "title": "Spider_109991",
    "link_img": "https://live.staticflickr.com/65535/50023717626_c2be6c5abb_o.jpg",
    "id_image": "Spider_109991",
    "count_view": 0
  },
  {
    "link_thumb": "https://live.staticflickr.com/65535/50018392302_ab8161c88e_n.jpg",
    "id_album": "-462831702",
    "description": "Cat_396009",
    "title": "Cat_396009",
    "link_img": "https://live.staticflickr.com/65535/50018392302_32d7ca0952_o.jpg",
    "id_image": "Cat_396009",
    "count_view": 0
  },
  {
    "link_thumb": "https://live.staticflickr.com/65535/50023325722_1cb03f1535_n.jpg",
    "id_album": "-353898617",
    "description": "Puppy_890761",
    "title": "Puppy_890761",
    "link_img": "https://live.staticflickr.com/65535/50023325722_f08f4dc330_o.jpg",
    "id_image": "Puppy_890761",
    "count_view": 0
  },
  {
    "link_thumb": "https://live.staticflickr.com/65535/50021188912_fbcc7919c7_n.jpg",
    "id_album": "-128218148",
    "description": "Fox_188438",
    "title": "Fox_188438",
    "link_img": "https://live.staticflickr.com/65535/50021188912_00497b8e89_o.jpg",
    "id_image": "Fox_188438",
    "count_view": 0
  },
  {
    "link_thumb": "https://live.staticflickr.com/65535/50022360946_93322c3eb3_n.jpg",
    "id_album": "106807275",
    "description": "Otter_209081",
    "title": "Otter_209081",
    "link_img": "https://live.staticflickr.com/65535/50022360946_a6c99323e9_o.jpg",
    "id_image": "Otter_209081",
    "count_view": 0
  },
  {
    "link_thumb": "https://live.staticflickr.com/65535/50352430986_791c8d7489_n.jpg",
    "id_album": "-462831703",
    "description": "Cat_222341",
    "title": "Cat_222341",
    "link_img": "https://live.staticflickr.com/65535/50352430986_ed32c74a68_o.jpg",
    "id_image": "Cat_222341",
    "count_view": 0
  },
  {
    "link_thumb": "https://live.staticflickr.com/65535/50017880392_d94c371e5e_n.jpg",
    "id_album": "-401151552",
    "description": "Butterfly_524042",
    "title": "Butterfly_524042",
    "link_img": "https://live.staticflickr.com/65535/50017880392_653cbdd987_o.jpg",
    "id_image": "Butterfly_524042",
    "count_view": 0
  },
  {
    "link_thumb": "https://live.staticflickr.com/65535/50020435232_07b359611a_n.jpg",
    "id_album": "-149330232",
    "description": "Dog_245836",
    "title": "Dog_245836",
    "link_img": "https://live.staticflickr.com/65535/50020435232_168d5f7d90_o.jpg",
    "id_image": "Dog_245836",
    "count_view": 0
  },
  {
    "link_thumb": "https://live.staticflickr.com/65535/50019422547_c9a81f8fa5_n.jpg",
    "id_album": "-462831702",
    "description": "Cat_424044",
    "title": "Cat_424044",
    "link_img": "https://live.staticflickr.com/65535/50019422547_71373495b0_o.jpg",
    "id_image": "Cat_424044",
    "count_view": 0
  },
  {
    "link_thumb": "https://live.staticflickr.com/65535/50022211867_973b5c3794_n.jpg",
    "id_album": "1392348450",
    "description": "Leopard_876931",
    "title": "Leopard_876931",
    "link_img": "https://live.staticflickr.com/65535/50022211867_2ef33a0f7d_o.jpg",
    "id_image": "Leopard_876931",
    "count_view": 0
  },
  {
    "link_thumb": "https://live.staticflickr.com/65535/50023476642_4164a5377f_n.jpg",
    "id_album": "332874268",
    "description": "RedPanda_650172",
    "title": "RedPanda_650172",
    "link_img": "https://live.staticflickr.com/65535/50023476642_a80d920e41_o.jpg",
    "id_image": "RedPanda_650172",
    "count_view": 0
  },
  {
    "link_thumb": "https://live.staticflickr.com/65535/50024221791_b39d75723b_n.jpg",
    "id_album": "405170427",
    "description": "Tiger_836290",
    "title": "Tiger_836290",
    "link_img": "https://live.staticflickr.com/65535/50024221791_aa5121ee01_o.jpg",
    "id_image": "Tiger_836290",
    "count_view": 0
  },
  {
    "link_thumb": "https://live.staticflickr.com/65535/50017277191_bde2a774c0_n.jpg",
    "id_album": "-1846011410",
    "description": "Bird_367249",
    "title": "Bird_367249",
    "link_img": "https://live.staticflickr.com/65535/50017277191_1d28ae2b91_o.jpg",
    "id_image": "Bird_367249",
    "count_view": 0
  },
  {
    "link_thumb": "https://live.staticflickr.com/65535/50020534507_ff3153e9f9_n.jpg",
    "id_album": "-149330232",
    "description": "Dog_339838",
    "title": "Dog_339838",
    "link_img": "https://live.staticflickr.com/65535/50020534507_a8cb89c754_o.jpg",
    "id_image": "Dog_339838",
    "count_view": 0
  },
  {
    "link_thumb": "https://live.staticflickr.com/65535/50023454772_3ca10ec242_n.jpg",
    "id_album": "-1862965835",
    "description": "RedEyedTreeFrog_918968",
    "title": "RedEyedTreeFrog_918968",
    "link_img": "https://live.staticflickr.com/65535/50023454772_6223a7e7b5_o.jpg",
    "id_image": "RedEyedTreeFrog_918968",
    "count_view": 0
  },
  {
    "link_thumb": "https://live.staticflickr.com/65535/50018238917_3f388a7aa1_n.jpg",
    "id_album": "-462831702",
    "description": "Cat_326894",
    "title": "Cat_326894",
    "link_img": "https://live.staticflickr.com/65535/50018238917_408a349cff_o.jpg",
    "id_image": "Cat_326894",
    "count_view": 0
  },
  {
    "link_thumb": "https://live.staticflickr.com/65535/50024251057_c80d4f0a90_n.jpg",
    "id_album": "1244464375",
    "description": "Starfish_367672",
    "title": "Starfish_367672",
    "link_img": "https://live.staticflickr.com/65535/50024251057_0b853738e9_o.jpg",
    "id_image": "Starfish_367672",
    "count_view": 0
  },
  {
    "link_thumb": "https://live.staticflickr.com/65535/50020737163_39f8b2fe93_n.jpg",
    "id_album": "-34696179",
    "description": "Gecko_636464",
    "title": "Gecko_636464",
    "link_img": "https://live.staticflickr.com/65535/50020737163_3a678b5193_o.jpg",
    "id_image": "Gecko_636464",
    "count_view": 0
  },
  {
    "link_thumb": "https://live.staticflickr.com/65535/50022145227_28b0760dbf_n.jpg",
    "id_album": "1392348450",
    "description": "Leopard_218959",
    "title": "Leopard_218959",
    "link_img": "https://live.staticflickr.com/65535/50022145227_43366f7f1c_o.jpg",
    "id_image": "Leopard_218959",
    "count_view": 0
  },
  {
    "link_thumb": "https://live.staticflickr.com/65535/50022320008_565659dbbc_n.jpg",
    "id_album": "1008910300",
    "description": "PolarBear_857924",
    "title": "PolarBear_857924",
    "link_img": "https://live.staticflickr.com/65535/50022320008_2b83afc598_o.jpg",
    "id_image": "PolarBear_857924",
    "count_view": 0
  },
  {
    "link_thumb": "https://live.staticflickr.com/65535/50019382791_2d12b8a22d_n.jpg",
    "id_album": "-462831703",
    "description": "Cat_878665",
    "title": "Cat_878665",
    "link_img": "https://live.staticflickr.com/65535/50019382791_2380a178ec_o.jpg",
    "id_image": "Cat_878665",
    "count_view": 0
  },
  {
    "link_thumb": "https://live.staticflickr.com/65535/50019908351_284470397e_n.jpg",
    "id_album": "-392100404",
    "description": "Crow_601309",
    "title": "Crow_601309",
    "link_img": "https://live.staticflickr.com/65535/50019908351_d18b1b2587_o.jpg",
    "id_image": "Crow_601309",
    "count_view": 0
  },
  {
    "link_thumb": "https://live.staticflickr.com/65535/50023079081_2243fa874a_n.jpg",
    "id_album": "470794721",
    "description": "Python_522494",
    "title": "Python_522494",
    "link_img": "https://live.staticflickr.com/65535/50023079081_765173d82e_o.jpg",
    "id_image": "Python_522494",
    "count_view": 0
  },
  {
    "link_thumb": "https://live.staticflickr.com/65535/50017023618_16499d0300_n.jpg",
    "id_album": "-401151552",
    "description": "Butterfly_240260",
    "title": "Butterfly_240260",
    "link_img": "https://live.staticflickr.com/65535/50017023618_06156cd2ef_o.jpg",
    "id_image": "Butterfly_240260",
    "count_view": 0
  },
  {
    "link_thumb": "https://live.staticflickr.com/65535/50021745147_6a4787a778_n.jpg",
    "id_album": "-1933715543",
    "description": "Horse_340729",
    "title": "Horse_340729",
    "link_img": "https://live.staticflickr.com/65535/50021745147_8fa21830c0_o.jpg",
    "id_image": "Horse_340729",
    "count_view": 0
  },
  {
    "link_thumb": "https://live.staticflickr.com/65535/50021947702_702d7c2f2f_n.jpg",
    "id_album": "1658866795",
    "description": "Insect_404796",
    "title": "Insect_404796",
    "link_img": "https://live.staticflickr.com/65535/50021947702_e4387c9871_o.jpg",
    "id_image": "Insect_404796",
    "count_view": 0
  },
  {
    "link_thumb": "https://live.staticflickr.com/65535/50020213477_4059d35b46_n.jpg",
    "id_album": "1831085598",
    "description": "Dachshund_774172",
    "title": "Dachshund_774172",
    "link_img": "https://live.staticflickr.com/65535/50020213477_af0fa489c1_o.jpg",
    "id_image": "Dachshund_774172",
    "count_view": 0
  },
  {
    "link_thumb": "https://live.staticflickr.com/65535/50021133997_d2e2744186_n.jpg",
    "id_album": "-1118073211",
    "description": "Fish_939059",
    "title": "Fish_939059",
    "link_img": "https://live.staticflickr.com/65535/50021133997_99eeb90c96_o.jpg",
    "id_image": "Fish_939059",
    "count_view": 0
  },
  {
    "link_thumb": "https://live.staticflickr.com/65535/50023550128_33753a25f4_n.jpg",
    "id_album": "405170427",
    "description": "Tiger_374049",
    "title": "Tiger_374049",
    "link_img": "https://live.staticflickr.com/65535/50023550128_134d2aeb3c_o.jpg",
    "id_image": "Tiger_374049",
    "count_view": 0
  },
  {
    "link_thumb": "https://live.staticflickr.com/65535/50022186697_5eb1cf2f6f_n.jpg",
    "id_album": "1392348450",
    "description": "Leopard_458430",
    "title": "Leopard_458430",
    "link_img": "https://live.staticflickr.com/65535/50022186697_6071113907_o.jpg",
    "id_image": "Leopard_458430",
    "count_view": 0
  },
  {
    "link_thumb": "https://live.staticflickr.com/65535/50020523531_8663f65e9f_n.jpg",
    "id_album": "-149330231",
    "description": "Dog_852999",
    "title": "Dog_852999",
    "link_img": "https://live.staticflickr.com/65535/50020523531_f45cd8a296_o.jpg",
    "id_image": "Dog_852999",
    "count_view": 0
  },
  {
    "link_thumb": "https://live.staticflickr.com/65535/50020702891_ec7fe8c3b9_n.jpg",
    "id_album": "-39098563",
    "description": "Eagle_384821",
    "title": "Eagle_384821",
    "link_img": "https://live.staticflickr.com/65535/50020702891_72e6a6fc76_o.jpg",
    "id_image": "Eagle_384821",
    "count_view": 0
  },
  {
    "link_thumb": "https://live.staticflickr.com/65535/50016286668_b48907579e_n.jpg",
    "id_album": "-1473450542",
    "description": "Alpaca_458203",
    "title": "Alpaca_458203",
    "link_img": "https://live.staticflickr.com/65535/50016286668_898ab82d7f_o.jpg",
    "id_image": "Alpaca_458203",
    "count_view": 0
  },
  {
    "link_thumb": "https://live.staticflickr.com/65535/50017147308_9acfee2a11_n.jpg",
    "id_album": "-401151552",
    "description": "Butterfly_823011",
    "title": "Butterfly_823011",
    "link_img": "https://live.staticflickr.com/65535/50017147308_5c9b6a5d32_o.jpg",
    "id_image": "Butterfly_823011",
    "count_view": 0
  },
  {
    "link_thumb": "https://live.staticflickr.com/65535/50017187546_87bd88f2a4_n.jpg",
    "id_album": "325287329",
    "description": "Beetle_690452",
    "title": "Beetle_690452",
    "link_img": "https://live.staticflickr.com/65535/50017187546_16fe3becd3_o.jpg",
    "id_image": "Beetle_690452",
    "count_view": 0
  },
  {
    "link_thumb": "https://live.staticflickr.com/65535/50351766713_0ecfe2343e_n.jpg",
    "id_album": "-462831703",
    "description": "Cat_360084",
    "title": "Cat_360084",
    "link_img": "https://live.staticflickr.com/65535/50351766713_49d720edba_o.jpg",
    "id_image": "Cat_360084",
    "count_view": 0
  },
  {
    "link_thumb": "https://live.staticflickr.com/65535/50017618242_7b368e0d87_n.jpg",
    "id_album": "-1846011410",
    "description": "Bird_525231",
    "title": "Bird_525231",
    "link_img": "https://live.staticflickr.com/65535/50017618242_72df385ce7_o.jpg",
    "id_image": "Bird_525231",
    "count_view": 0
  },
  {
    "link_thumb": "https://live.staticflickr.com/65535/50023722443_281b3f8491_n.jpg",
    "id_album": "432140049",
    "description": "Toad_328251",
    "title": "Toad_328251",
    "link_img": "https://live.staticflickr.com/65535/50023722443_8369986165_o.jpg",
    "id_image": "Toad_328251",
    "count_view": 0
  },
  {
    "link_thumb": "https://live.staticflickr.com/65535/50020073293_36bc9a488d_n.jpg",
    "id_album": "-405058657",
    "description": "Dragonfly_26814",
    "title": "Dragonfly_26814",
    "link_img": "https://live.staticflickr.com/65535/50020073293_621b78cf82_o.jpg",
    "id_image": "Dragonfly_26814",
    "count_view": 0
  },
  {
    "link_thumb": "https://live.staticflickr.com/65535/50018271107_b3f7acc891_n.jpg",
    "id_album": "-462831702",
    "description": "Cat_341160",
    "title": "Cat_341160",
    "link_img": "https://live.staticflickr.com/65535/50018271107_ec0f801fe9_o.jpg",
    "id_image": "Cat_341160",
    "count_view": 0
  },
  {
    "link_thumb": "https://live.staticflickr.com/65535/50018870608_d138d020d3_n.jpg",
    "id_album": "-462831703",
    "description": "Cat_890420",
    "title": "Cat_890420",
    "link_img": "https://live.staticflickr.com/65535/50018870608_789f9b97a1_o.jpg",
    "id_image": "Cat_890420",
    "count_view": 0
  },
  {
    "link_thumb": "https://live.staticflickr.com/65535/50024141582_7bef070052_n.jpg",
    "id_album": "702283289",
    "description": "Squirrel_433279",
    "title": "Squirrel_433279",
    "link_img": "https://live.staticflickr.com/65535/50024141582_d1abfa1733_o.jpg",
    "id_image": "Squirrel_433279",
    "count_view": 0
  },
  {
    "link_thumb": "https://live.staticflickr.com/65535/50023894162_690d6fd197_n.jpg",
    "id_album": "-1131363127",
    "description": "SnowLeopard_368691",
    "title": "SnowLeopard_368691",
    "link_img": "https://live.staticflickr.com/65535/50023894162_86f41595dc_o.jpg",
    "id_image": "SnowLeopard_368691",
    "count_view": 0
  },
  {
    "link_thumb": "https://live.staticflickr.com/65535/50020300312_7d993ea690_n.jpg",
    "id_album": "1903411565",
    "description": "Deer_714529",
    "title": "Deer_714529",
    "link_img": "https://live.staticflickr.com/65535/50020300312_bfbecf1b43_o.jpg",
    "id_image": "Deer_714529",
    "count_view": 0
  },
  {
    "link_thumb": "https://live.staticflickr.com/65535/50021215691_7dab1a78f6_n.jpg",
    "id_album": "-462831703",
    "description": "Cat_736399",
    "title": "Cat_736399",
    "link_img": "https://live.staticflickr.com/65535/50021215691_b58509db3a_o.jpg",
    "id_image": "Cat_736399",
    "count_view": 0
  },
  {
    "link_thumb": "https://live.staticflickr.com/65535/50019524763_1a6ffac855_n.jpg",
    "id_album": "1903411565",
    "description": "Deer_800676",
    "title": "Deer_800676",
    "link_img": "https://live.staticflickr.com/65535/50019524763_6422afe06b_o.jpg",
    "id_image": "Deer_800676",
    "count_view": 0
  },
  {
    "link_thumb": "https://live.staticflickr.com/65535/50017711576_19f2b0f572_n.jpg",
    "id_album": "-401151552",
    "description": "Butterfly_928499",
    "title": "Butterfly_928499",
    "link_img": "https://live.staticflickr.com/65535/50017711576_c2d5cd4dd6_o.jpg",
    "id_image": "Butterfly_928499",
    "count_view": 0
  },
  {
    "link_thumb": "https://live.staticflickr.com/65535/50022158237_e5b4df46c5_n.jpg",
    "id_album": "1392348450",
    "description": "Leopard_347631",
    "title": "Leopard_347631",
    "link_img": "https://live.staticflickr.com/65535/50022158237_4829f1a443_o.jpg",
    "id_image": "Leopard_347631",
    "count_view": 0
  },
  {
    "link_thumb": "https://live.staticflickr.com/65535/50021440596_659073ed74_n.jpg",
    "id_album": "1469520430",
    "description": "Hedgehog_969710",
    "title": "Hedgehog_969710",
    "link_img": "https://live.staticflickr.com/65535/50021440596_cf6bcaa714_o.jpg",
    "id_image": "Hedgehog_969710",
    "count_view": 0
  },
  {
    "link_thumb": "https://live.staticflickr.com/65535/50021584228_ea2a2cd9cc_n.jpg",
    "id_album": "-656526748",
    "description": "Lizard_863661",
    "title": "Lizard_863661",
    "link_img": "https://live.staticflickr.com/65535/50021584228_bdaac1bfd9_o.jpg",
    "id_image": "Lizard_863661",
    "count_view": 0
  },
  {
    "link_thumb": "https://live.staticflickr.com/65535/50021714062_4020840846_n.jpg",
    "id_album": "-1933715543",
    "description": "Horse_114797",
    "title": "Horse_114797",
    "link_img": "https://live.staticflickr.com/65535/50021714062_6a89ca9590_o.jpg",
    "id_image": "Horse_114797",
    "count_view": 0
  },
  {
    "link_thumb": "https://live.staticflickr.com/65535/50352415216_e48f74781e_n.jpg",
    "id_album": "-462831703",
    "description": "Cat_190967",
    "title": "Cat_190967",
    "link_img": "https://live.staticflickr.com/65535/50352415216_193ce5b279_o.jpg",
    "id_image": "Cat_190967",
    "count_view": 0
  },
  {
    "link_thumb": "https://live.staticflickr.com/65535/50021515902_d0c91f2646_n.jpg",
    "id_album": "-462831703",
    "description": "Cat_814555",
    "title": "Cat_814555",
    "link_img": "https://live.staticflickr.com/65535/50021515902_d55d4db201_o.jpg",
    "id_image": "Cat_814555",
    "count_view": 0
  },
  {
    "link_thumb": "https://live.staticflickr.com/65535/50018007331_929fb320c5_n.jpg",
    "id_album": "-462831702",
    "description": "Cat_337819",
    "title": "Cat_337819",
    "link_img": "https://live.staticflickr.com/65535/50018007331_d2e58b535d_o.jpg",
    "id_image": "Cat_337819",
    "count_view": 0
  },
  {
    "link_thumb": "https://live.staticflickr.com/65535/50019795886_283dc8ea33_n.jpg",
    "id_album": "-1462118852",
    "description": "Corgi_866472",
    "title": "Corgi_866472",
    "link_img": "https://live.staticflickr.com/65535/50019795886_8ea575503f_o.jpg",
    "id_image": "Corgi_866472",
    "count_view": 0
  },
  {
    "link_thumb": "https://live.staticflickr.com/65535/50020126953_654492fba4_n.jpg",
    "id_album": "1168627767",
    "description": "Duck_444383",
    "title": "Duck_444383",
    "link_img": "https://live.staticflickr.com/65535/50020126953_b8a7e2c98b_o.jpg",
    "id_image": "Duck_444383",
    "count_view": 0
  },
  {
    "link_thumb": "https://live.staticflickr.com/65535/50017233387_c4b933b36c_n.jpg",
    "id_album": "231236068",
    "description": "BaldEagle_909851",
    "title": "BaldEagle_909851",
    "link_img": "https://live.staticflickr.com/65535/50017233387_2c27bb8dcd_o.jpg",
    "id_image": "BaldEagle_909851",
    "count_view": 0
  },
  {
    "link_thumb": "https://live.staticflickr.com/65535/50019830177_28a7e99730_n.jpg",
    "id_album": "-462831703",
    "description": "Cat_997037",
    "title": "Cat_997037",
    "link_img": "https://live.staticflickr.com/65535/50019830177_872944c124_o.jpg",
    "id_image": "Cat_997037",
    "count_view": 0
  },
  {
    "link_thumb": "https://live.staticflickr.com/65535/50022933522_8955a82f1c_n.jpg",
    "id_album": "1146438617",
    "description": "Pelican_932337",
    "title": "Pelican_932337",
    "link_img": "https://live.staticflickr.com/65535/50022933522_7db623dc42_o.jpg",
    "id_image": "Pelican_932337",
    "count_view": 0
  },
  {
    "link_thumb": "https://live.staticflickr.com/65535/50020184942_d7da5cd2c6_n.jpg",
    "id_album": "1273365283",
    "description": "Cute_277721",
    "title": "Cute_277721",
    "link_img": "https://live.staticflickr.com/65535/50020184942_d83417af42_o.jpg",
    "id_image": "Cute_277721",
    "count_view": 0
  },
  {
    "link_thumb": "https://live.staticflickr.com/65535/50023150617_d308325636_n.jpg",
    "id_album": "191452764",
    "description": "PrayingMantis_536219",
    "title": "PrayingMantis_536219",
    "link_img": "https://live.staticflickr.com/65535/50023150617_e43a8557fe_o.jpg",
    "id_image": "PrayingMantis_536219",
    "count_view": 0
  },
  {
    "link_thumb": "https://live.staticflickr.com/65535/50020277531_e1dbe1657b_n.jpg",
    "id_album": "-149330232",
    "description": "Dog_340167",
    "title": "Dog_340167",
    "link_img": "https://live.staticflickr.com/65535/50020277531_6519e08987_o.jpg",
    "id_image": "Dog_340167",
    "count_view": 0
  },
  {
    "link_thumb": "https://live.staticflickr.com/65535/50021929732_b8636b0d6b_n.jpg",
    "id_album": "1658866795",
    "description": "Insect_403328",
    "title": "Insect_403328",
    "link_img": "https://live.staticflickr.com/65535/50021929732_5457cbf5ff_o.jpg",
    "id_image": "Insect_403328",
    "count_view": 0
  },
  {
    "link_thumb": "https://live.staticflickr.com/65535/50020461032_f621bd74c1_n.jpg",
    "id_album": "-149330232",
    "description": "Dog_271711",
    "title": "Dog_271711",
    "link_img": "https://live.staticflickr.com/65535/50020461032_3dc9802d07_o.jpg",
    "id_image": "Dog_271711",
    "count_view": 0
  },
  {
    "link_thumb": "https://live.staticflickr.com/65535/50351817658_a0eb71612d_n.jpg",
    "id_album": "-462831703",
    "description": "Cat_427543",
    "title": "Cat_427543",
    "link_img": "https://live.staticflickr.com/65535/50351817658_8c267662d8_o.jpg",
    "id_image": "Cat_427543",
    "count_view": 0
  },
  {
    "link_thumb": "https://live.staticflickr.com/65535/50020632312_d3817936b0_n.jpg",
    "id_album": "-149330231",
    "description": "Dog_399024",
    "title": "Dog_399024",
    "link_img": "https://live.staticflickr.com/65535/50020632312_2491eaed5e_o.jpg",
    "id_image": "Dog_399024",
    "count_view": 0
  },
  {
    "link_thumb": "https://live.staticflickr.com/65535/50022158651_5cf4027a76_n.jpg",
    "id_album": "1894617400",
    "description": "Lynx_743375",
    "title": "Lynx_743375",
    "link_img": "https://live.staticflickr.com/65535/50022158651_2a950206bc_o.jpg",
    "id_image": "Lynx_743375",
    "count_view": 0
  },
  {
    "link_thumb": "https://live.staticflickr.com/65535/50020786122_a491347855_n.jpg",
    "id_album": "-149330231",
    "description": "Dog_870380",
    "title": "Dog_870380",
    "link_img": "https://live.staticflickr.com/65535/50020786122_549a9a06c9_o.jpg",
    "id_image": "Dog_870380",
    "count_view": 0
  },
  {
    "link_thumb": "https://live.staticflickr.com/65535/50022272683_2f22d5f2f5_n.jpg",
    "id_album": "1008910300",
    "description": "PolarBear_350083",
    "title": "PolarBear_350083",
    "link_img": "https://live.staticflickr.com/65535/50022272683_504bddf7a9_o.jpg",
    "id_image": "PolarBear_350083",
    "count_view": 0
  },
  {
    "link_thumb": "https://live.staticflickr.com/65535/50018876853_a533a7967e_n.jpg",
    "id_album": "-462831703",
    "description": "Cat_897318",
    "title": "Cat_897318",
    "link_img": "https://live.staticflickr.com/65535/50018876853_2847bcd71a_o.jpg",
    "id_image": "Cat_897318",
    "count_view": 0
  },
  {
    "link_thumb": "https://live.staticflickr.com/65535/50021720956_192555bd60_n.jpg",
    "id_album": "-843028318",
    "description": "Jaguar_329146",
    "title": "Jaguar_329146",
    "link_img": "https://live.staticflickr.com/65535/50021720956_f9b4082101_o.jpg",
    "id_image": "Jaguar_329146",
    "count_view": 0
  },
  {
    "link_thumb": "https://live.staticflickr.com/65535/50019778198_3a6b6b6ee8_n.jpg",
    "id_album": "-149330232",
    "description": "Dog_356048",
    "title": "Dog_356048",
    "link_img": "https://live.staticflickr.com/65535/50019778198_ab93691034_o.jpg",
    "id_image": "Dog_356048",
    "count_view": 0
  },
  {
    "link_thumb": "https://live.staticflickr.com/65535/50020662092_33813ed5f3_n.jpg",
    "id_album": "-149330231",
    "description": "Dog_425827",
    "title": "Dog_425827",
    "link_img": "https://live.staticflickr.com/65535/50020662092_03df9cb2d2_o.jpg",
    "id_image": "Dog_425827",
    "count_view": 0
  },
  {
    "link_thumb": "https://live.staticflickr.com/65535/50017552698_4918806d81_n.jpg",
    "id_album": "-462831702",
    "description": "Cat_368699",
    "title": "Cat_368699",
    "link_img": "https://live.staticflickr.com/65535/50017552698_5cba1420d0_o.jpg",
    "id_image": "Cat_368699",
    "count_view": 0
  },
  {
    "link_thumb": "https://live.staticflickr.com/65535/50020452881_5f8be43792_n.jpg",
    "id_album": "-149330231",
    "description": "Dog_531479",
    "title": "Dog_531479",
    "link_img": "https://live.staticflickr.com/65535/50020452881_ff28e2c718_o.jpg",
    "id_image": "Dog_531479",
    "count_view": 0
  },
  {
    "link_thumb": "https://live.staticflickr.com/65535/50021488646_8644ec6921_n.jpg",
    "id_album": "-1933715543",
    "description": "Horse_325855",
    "title": "Horse_325855",
    "link_img": "https://live.staticflickr.com/65535/50021488646_51799acc77_o.jpg",
    "id_image": "Horse_325855",
    "count_view": 0
  },
  {
    "link_thumb": "https://live.staticflickr.com/65535/50022135852_3d6deffaa8_n.jpg",
    "id_album": "1918884325",
    "description": "Lemur_766725",
    "title": "Lemur_766725",
    "link_img": "https://live.staticflickr.com/65535/50022135852_fa75a9d767_o.jpg",
    "id_image": "Lemur_766725",
    "count_view": 0
  },
  {
    "link_thumb": "https://live.staticflickr.com/65535/50019206176_7352780438_n.jpg",
    "id_album": "-462831704",
    "description": "Cat_439932",
    "title": "Cat_439932",
    "link_img": "https://live.staticflickr.com/65535/50019206176_d9edae7763_o.jpg",
    "id_image": "Cat_439932",
    "count_view": 0
  },
  {
    "link_thumb": "https://live.staticflickr.com/65535/50023692042_45dfc500ae_n.jpg",
    "id_album": "-1596347105",
    "description": "Shark_302330",
    "title": "Shark_302330",
    "link_img": "https://live.staticflickr.com/65535/50023692042_53be2efdba_o.jpg",
    "id_image": "Shark_302330",
    "count_view": 0
  },
  {
    "link_thumb": "https://live.staticflickr.com/65535/50018814453_48d8f8445b_n.jpg",
    "id_album": "-462831703",
    "description": "Cat_865642",
    "title": "Cat_865642",
    "link_img": "https://live.staticflickr.com/65535/50018814453_81311d8e31_o.jpg",
    "id_image": "Cat_865642",
    "count_view": 0
  },
  {
    "link_thumb": "https://live.staticflickr.com/65535/50017162642_a2f799f13e_n.jpg",
    "id_album": "523598895",
    "description": "Artistic_391292",
    "title": "Artistic_391292",
    "link_img": "https://live.staticflickr.com/65535/50017162642_3bf37f9bec_o.jpg",
    "id_image": "Artistic_391292",
    "count_view": 0
  },
  {
    "link_thumb": "https://live.staticflickr.com/65535/50024232857_bdf5c1e3b8_n.jpg",
    "id_album": "702283289",
    "description": "Squirrel_925234",
    "title": "Squirrel_925234",
    "link_img": "https://live.staticflickr.com/65535/50024232857_3dd77be527_o.jpg",
    "id_image": "Squirrel_925234",
    "count_view": 0
  },
  {
    "link_thumb": "https://live.staticflickr.com/65535/50017620716_5825d63694_n.jpg",
    "id_album": "-401151552",
    "description": "Butterfly_529263",
    "title": "Butterfly_529263",
    "link_img": "https://live.staticflickr.com/65535/50017620716_28abe70780_o.jpg",
    "id_image": "Butterfly_529263",
    "count_view": 0
  },
  {
    "link_thumb": "https://live.staticflickr.com/65535/50023061521_3704691be3_n.jpg",
    "id_album": "-353898617",
    "description": "Puppy_798356",
    "title": "Puppy_798356",
    "link_img": "https://live.staticflickr.com/65535/50023061521_e75fc4c86e_o.jpg",
    "id_image": "Puppy_798356",
    "count_view": 0
  },
  {
    "link_thumb": "https://live.staticflickr.com/65535/50019162946_66d3973923_n.jpg",
    "id_album": "-462831702",
    "description": "Cat_423617",
    "title": "Cat_423617",
    "link_img": "https://live.staticflickr.com/65535/50019162946_f322e60142_o.jpg",
    "id_image": "Cat_423617",
    "count_view": 0
  },
  {
    "link_thumb": "https://live.staticflickr.com/65535/50019922067_bcb3f93670_n.jpg",
    "id_album": "-766919393",
    "description": "Chameleon_792576",
    "title": "Chameleon_792576",
    "link_img": "https://live.staticflickr.com/65535/50019922067_d02be7f452_o.jpg",
    "id_image": "Chameleon_792576",
    "count_view": 0
  },
  {
    "link_thumb": "https://live.staticflickr.com/65535/50018625818_5cbba844ef_n.jpg",
    "id_album": "-462831702",
    "description": "Cat_421344",
    "title": "Cat_421344",
    "link_img": "https://live.staticflickr.com/65535/50018625818_2169b7b98d_o.jpg",
    "id_image": "Cat_421344",
    "count_view": 0
  },
  {
    "link_thumb": "https://live.staticflickr.com/65535/50016641043_975493e013_n.jpg",
    "id_album": "1699594607",
    "description": "Bee_926233",
    "title": "Bee_926233",
    "link_img": "https://live.staticflickr.com/65535/50016641043_720500d013_o.jpg",
    "id_image": "Bee_926233",
    "count_view": 0
  },
  {
    "link_thumb": "https://live.staticflickr.com/65535/50019755766_06affa2fe0_n.jpg",
    "id_album": "791455625",
    "description": "Chipmunk_294685",
    "title": "Chipmunk_294685",
    "link_img": "https://live.staticflickr.com/65535/50019755766_ac421fc37d_o.jpg",
    "id_image": "Chipmunk_294685",
    "count_view": 0
  },
  {
    "link_thumb": "https://live.staticflickr.com/65535/50022913066_0d23ecd728_n.jpg",
    "id_album": "-356780855",
    "description": "Puffin_349048",
    "title": "Puffin_349048",
    "link_img": "https://live.staticflickr.com/65535/50022913066_a0dfa872e4_o.jpg",
    "id_image": "Puffin_349048",
    "count_view": 0
  },
  {
    "link_thumb": "https://live.staticflickr.com/65535/50016817711_f7e20a2bab_n.jpg",
    "id_album": "-1473450542",
    "description": "Alpaca_548388",
    "title": "Alpaca_548388",
    "link_img": "https://live.staticflickr.com/65535/50016817711_911f3fc591_o.jpg",
    "id_image": "Alpaca_548388",
    "count_view": 0
  },
  {
    "link_thumb": "https://live.staticflickr.com/65535/50021447646_ae6111e3be_n.jpg",
    "id_album": "54253492",
    "description": "Heron_815637",
    "title": "Heron_815637",
    "link_img": "https://live.staticflickr.com/65535/50021447646_7deee40a62_o.jpg",
    "id_image": "Heron_815637",
    "count_view": 0
  },
  {
    "link_thumb": "https://live.staticflickr.com/65535/50023321231_b560a05c62_n.jpg",
    "id_album": "1512228924",
    "description": "ScarletMacaw_243019",
    "title": "ScarletMacaw_243019",
    "link_img": "https://live.staticflickr.com/65535/50023321231_a9414f2ebf_o.jpg",
    "id_image": "ScarletMacaw_243019",
    "count_view": 0
  },
  {
    "link_thumb": "https://live.staticflickr.com/65535/50021657586_42d67aba1e_n.jpg",
    "id_album": "-737856092",
    "description": "Iguana_88896",
    "title": "Iguana_88896",
    "link_img": "https://live.staticflickr.com/65535/50021657586_704058ea7e_o.jpg",
    "id_image": "Iguana_88896",
    "count_view": 0
  },
  {
    "link_thumb": "https://live.staticflickr.com/65535/50019389998_7411effac8_n.jpg",
    "id_album": "1273365283",
    "description": "Cute_267934",
    "title": "Cute_267934",
    "link_img": "https://live.staticflickr.com/65535/50019389998_2af321cd7f_o.jpg",
    "id_image": "Cute_267934",
    "count_view": 0
  },
  {
    "link_thumb": "https://live.staticflickr.com/65535/50352828267_e4f90f0a15_n.jpg",
    "id_album": "-462831703",
    "description": "Cat_918617",
    "title": "Cat_918617",
    "link_img": "https://live.staticflickr.com/65535/50352828267_1e9d005bd1_o.jpg",
    "id_image": "Cat_918617",
    "count_view": 0
  },
  {
    "link_thumb": "https://live.staticflickr.com/65535/50024792782_8622d79ec1_n.jpg",
    "id_album": "-709711865",
    "description": "Wolf_693499",
    "title": "Wolf_693499",
    "link_img": "https://live.staticflickr.com/65535/50024792782_be452db3ef_o.jpg",
    "id_image": "Wolf_693499",
    "count_view": 0
  },
  {
    "link_thumb": "https://live.staticflickr.com/65535/50020200592_1f29aa4655_n.jpg",
    "id_album": "1273365283",
    "description": "Cute_438963",
    "title": "Cute_438963",
    "link_img": "https://live.staticflickr.com/65535/50020200592_4b31e7b19e_o.jpg",
    "id_image": "Cute_438963",
    "count_view": 0
  },
  {
    "link_thumb": "https://live.staticflickr.com/65535/50019819563_65417cbf5b_n.jpg",
    "id_album": "-149330232",
    "description": "Dog_376124",
    "title": "Dog_376124",
    "link_img": "https://live.staticflickr.com/65535/50019819563_21ab95a384_o.jpg",
    "id_image": "Dog_376124",
    "count_view": 0
  },
  {
    "link_thumb": "https://live.staticflickr.com/65535/50023893748_37b837812c_n.jpg",
    "id_album": "766572659",
    "description": "WhiteTiger_387354",
    "title": "WhiteTiger_387354",
    "link_img": "https://live.staticflickr.com/65535/50023893748_799136f705_o.jpg",
    "id_image": "WhiteTiger_387354",
    "count_view": 0
  },
  {
    "link_thumb": "https://live.staticflickr.com/65535/50021247961_2cc4debb2c_n.jpg",
    "id_album": "-462831703",
    "description": "Cat_788800",
    "title": "Cat_788800",
    "link_img": "https://live.staticflickr.com/65535/50021247961_80ebda276f_o.jpg",
    "id_image": "Cat_788800",
    "count_view": 0
  },
  {
    "link_thumb": "https://live.staticflickr.com/65535/50022311208_a69c9849ce_n.jpg",
    "id_album": "1008910300",
    "description": "PolarBear_735336",
    "title": "PolarBear_735336",
    "link_img": "https://live.staticflickr.com/65535/50022311208_40185db714_o.jpg",
    "id_image": "PolarBear_735336",
    "count_view": 0
  },
  {
    "link_thumb": "https://live.staticflickr.com/65535/50024198927_fdc6a8d398_n.jpg",
    "id_album": "702283289",
    "description": "Squirrel_772241",
    "title": "Squirrel_772241",
    "link_img": "https://live.staticflickr.com/65535/50024198927_93a6423295_o.jpg",
    "id_image": "Squirrel_772241",
    "count_view": 0
  },
  {
    "link_thumb": "https://live.staticflickr.com/65535/50021920912_d48a4a1936_n.jpg",
    "id_album": "1658866795",
    "description": "Insect_389665",
    "title": "Insect_389665",
    "link_img": "https://live.staticflickr.com/65535/50021920912_0d11ea54cd_o.jpg",
    "id_image": "Insect_389665",
    "count_view": 0
  },
  {
    "link_thumb": "https://live.staticflickr.com/65535/50022323077_f7c2dceebc_n.jpg",
    "id_album": "416744915",
    "description": "Lion_815000",
    "title": "Lion_815000",
    "link_img": "https://live.staticflickr.com/65535/50022323077_cc9c89edcf_o.jpg",
    "id_image": "Lion_815000",
    "count_view": 0
  },
  {
    "link_thumb": "https://live.staticflickr.com/65535/50024789417_2c598af1ac_n.jpg",
    "id_album": "-709711865",
    "description": "Wolf_683050",
    "title": "Wolf_683050",
    "link_img": "https://live.staticflickr.com/65535/50024789417_7f4ea756df_o.jpg",
    "id_image": "Wolf_683050",
    "count_view": 0
  },
  {
    "link_thumb": "https://live.staticflickr.com/65535/50352690501_5e787e0faf_n.jpg",
    "id_album": "-462831702",
    "description": "Cat_148017",
    "title": "Cat_148017",
    "link_img": "https://live.staticflickr.com/65535/50352690501_0be07a6213_o.jpg",
    "id_image": "Cat_148017",
    "count_view": 0
  },
  {
    "link_thumb": "https://live.staticflickr.com/65535/50019067313_7d1458aeb0_n.jpg",
    "id_album": "-1930903528",
    "description": "CatDog_891858",
    "title": "CatDog_891858",
    "link_img": "https://live.staticflickr.com/65535/50019067313_06c2a96ff3_o.jpg",
    "id_image": "CatDog_891858",
    "count_view": 0
  },
  {
    "link_thumb": "https://live.staticflickr.com/65535/50019764218_2fa429a6f5_n.jpg",
    "id_album": "-149330232",
    "description": "Dog_349466",
    "title": "Dog_349466",
    "link_img": "https://live.staticflickr.com/65535/50019764218_f7130ea7ed_o.jpg",
    "id_image": "Dog_349466",
    "count_view": 0
  },
  {
    "link_thumb": "https://live.staticflickr.com/65535/50020675191_e18c6fcc4e_n.jpg",
    "id_album": "1168627767",
    "description": "Duck_866172",
    "title": "Duck_866172",
    "link_img": "https://live.staticflickr.com/65535/50020675191_b20606b333_o.jpg",
    "id_image": "Duck_866172",
    "count_view": 0
  },
  {
    "link_thumb": "https://live.staticflickr.com/65535/50016839036_28548f0be5_n.jpg",
    "id_album": "-1741290715",
    "description": "Ant_610075",
    "title": "Ant_610075",
    "link_img": "https://live.staticflickr.com/65535/50016839036_f6f185414c_o.jpg",
    "id_image": "Ant_610075",
    "count_view": 0
  },
  {
    "link_thumb": "https://live.staticflickr.com/65535/50017663231_7c4367a1d1_n.jpg",
    "id_album": "-401151552",
    "description": "Butterfly_771616",
    "title": "Butterfly_771616",
    "link_img": "https://live.staticflickr.com/65535/50017663231_f2e7d43612_o.jpg",
    "id_image": "Butterfly_771616",
    "count_view": 0
  },
  {
    "link_thumb": "https://live.staticflickr.com/65535/50017255917_ca78bac928_n.jpg",
    "id_album": "809937717",
    "description": "Beagle_790251",
    "title": "Beagle_790251",
    "link_img": "https://live.staticflickr.com/65535/50017255917_c874f58c18_o.jpg",
    "id_image": "Beagle_790251",
    "count_view": 0
  },
  {
    "link_thumb": "https://live.staticflickr.com/65535/50018241137_2fc7b17335_n.jpg",
    "id_album": "-462831702",
    "description": "Cat_327326",
    "title": "Cat_327326",
    "link_img": "https://live.staticflickr.com/65535/50018241137_05df4da1b2_o.jpg",
    "id_image": "Cat_327326",
    "count_view": 0
  },
  {
    "link_thumb": "https://live.staticflickr.com/65535/50019434878_4f9e7a022b_n.jpg",
    "id_album": "-1783645069",
    "description": "Dalmatian_368378",
    "title": "Dalmatian_368378",
    "link_img": "https://live.staticflickr.com/65535/50019434878_cb4eb35884_o.jpg",
    "id_image": "Dalmatian_368378",
    "count_view": 0
  },
  {
    "link_thumb": "https://live.staticflickr.com/65535/50016811238_9132c9c0ef_n.jpg",
    "id_album": "-1846011410",
    "description": "Bird_440377",
    "title": "Bird_440377",
    "link_img": "https://live.staticflickr.com/65535/50016811238_ca00396ab8_o.jpg",
    "id_image": "Bird_440377",
    "count_view": 0
  },
  {
    "link_thumb": "https://live.staticflickr.com/65535/50351747853_b40f7ece45_n.jpg",
    "id_album": "-462831703",
    "description": "Cat_253257",
    "title": "Cat_253257",
    "link_img": "https://live.staticflickr.com/65535/50351747853_fb053ee0e6_o.jpg",
    "id_image": "Cat_253257",
    "count_view": 0
  },
  {
    "link_thumb": "https://live.staticflickr.com/65535/50022881553_e85a776d03_n.jpg",
    "id_album": "1961094930",
    "description": "Seal_921937",
    "title": "Seal_921937",
    "link_img": "https://live.staticflickr.com/65535/50022881553_727f12332e_o.jpg",
    "id_image": "Seal_921937",
    "count_view": 0
  },
  {
    "link_thumb": "https://live.staticflickr.com/65535/50021083776_61b97de205_n.jpg",
    "id_album": "844170697",
    "description": "Frog_899259",
    "title": "Frog_899259",
    "link_img": "https://live.staticflickr.com/65535/50021083776_b9aed285e0_o.jpg",
    "id_image": "Frog_899259",
    "count_view": 0
  },
  {
    "link_thumb": "https://live.staticflickr.com/65535/50017581436_1f31f29873_n.jpg",
    "id_album": "-401151552",
    "description": "Butterfly_394022",
    "title": "Butterfly_394022",
    "link_img": "https://live.staticflickr.com/65535/50017581436_e7f841f98c_o.jpg",
    "id_image": "Butterfly_394022",
    "count_view": 0
  },
  {
    "link_thumb": "https://live.staticflickr.com/65535/50021499787_0fefce4116_n.jpg",
    "id_album": "-462831705",
    "description": "Cat_78691",
    "title": "Cat_78691",
    "link_img": "https://live.staticflickr.com/65535/50021499787_140ced37b2_o.jpg",
    "id_image": "Cat_78691",
    "count_view": 0
  },
  {
    "link_thumb": "https://live.staticflickr.com/65535/50018304582_0a662066dc_n.jpg",
    "id_album": "-462831702",
    "description": "Cat_356653",
    "title": "Cat_356653",
    "link_img": "https://live.staticflickr.com/65535/50018304582_458fa8f234_o.jpg",
    "id_image": "Cat_356653",
    "count_view": 0
  },
  {
    "link_thumb": "https://live.staticflickr.com/65535/50022985856_e85e86c083_n.jpg",
    "id_album": "-353898617",
    "description": "Puppy_410555",
    "title": "Puppy_410555",
    "link_img": "https://live.staticflickr.com/65535/50022985856_189d9a9069_o.jpg",
    "id_image": "Puppy_410555",
    "count_view": 0
  },
  {
    "link_thumb": "https://live.staticflickr.com/65535/50021276263_41b227c745_n.jpg",
    "id_album": "771796001",
    "description": "Koala_444038",
    "title": "Koala_444038",
    "link_img": "https://live.staticflickr.com/65535/50021276263_2fa41c76d7_o.jpg",
    "id_image": "Koala_444038",
    "count_view": 0
  },
  {
    "link_thumb": "https://live.staticflickr.com/65535/50023281638_11f53d4abc_n.jpg",
    "id_album": "702283289",
    "description": "Squirrel_324878",
    "title": "Squirrel_324878",
    "link_img": "https://live.staticflickr.com/65535/50023281638_15e173b9ed_o.jpg",
    "id_image": "Squirrel_324878",
    "count_view": 0
  },
  {
    "link_thumb": "https://live.staticflickr.com/65535/50017612972_39ee5989ba_n.jpg",
    "id_album": "-1846011410",
    "description": "Bird_497488",
    "title": "Bird_497488",
    "link_img": "https://live.staticflickr.com/65535/50017612972_eea903a0fe_o.jpg",
    "id_image": "Bird_497488",
    "count_view": 0
  },
  {
    "link_thumb": "https://live.staticflickr.com/65535/50020392457_96f6fb39f7_n.jpg",
    "id_album": "-149330232",
    "description": "Dog_177045",
    "title": "Dog_177045",
    "link_img": "https://live.staticflickr.com/65535/50020392457_8a95b16f3f_o.jpg",
    "id_image": "Dog_177045",
    "count_view": 0
  },
  {
    "link_thumb": "https://live.staticflickr.com/65535/50016424828_8592a90e8b_n.jpg",
    "id_album": "390697200",
    "description": "AustralianShepherd_997682",
    "title": "AustralianShepherd_997682",
    "link_img": "https://live.staticflickr.com/65535/50016424828_2568c6fb73_o.jpg",
    "id_image": "AustralianShepherd_997682",
    "count_view": 0
  },
  {
    "link_thumb": "https://live.staticflickr.com/65535/50023996947_0cc8fc2dd5_n.jpg",
    "id_album": "-1082521515",
    "description": "Spider_380546",
    "title": "Spider_380546",
    "link_img": "https://live.staticflickr.com/65535/50023996947_3b9e54880e_o.jpg",
    "id_image": "Spider_380546",
    "count_view": 0
  },
  {
    "link_thumb": "https://live.staticflickr.com/65535/50021843086_e89a78ba31_n.jpg",
    "id_album": "-1882491687",
    "description": "Ladybug_314429",
    "title": "Ladybug_314429",
    "link_img": "https://live.staticflickr.com/65535/50021843086_464ec216d5_o.jpg",
    "id_image": "Ladybug_314429",
    "count_view": 0
  },
  {
    "link_thumb": "https://live.staticflickr.com/65535/50021100853_6ddbb48f8e_n.jpg",
    "id_album": "-712553376",
    "description": "Husky_914552",
    "title": "Husky_914552",
    "link_img": "https://live.staticflickr.com/65535/50021100853_966de8b0c2_o.jpg",
    "id_image": "Husky_914552",
    "count_view": 0
  },
  {
    "link_thumb": "https://live.staticflickr.com/65535/50352634071_c506c6a274_n.jpg",
    "id_album": "-462831703",
    "description": "Cat_655658",
    "title": "Cat_655658",
    "link_img": "https://live.staticflickr.com/65535/50352634071_91f9640d5a_o.jpg",
    "id_image": "Cat_655658",
    "count_view": 0
  },
  {
    "link_thumb": "https://live.staticflickr.com/65535/50017387878_d67e5744ba_n.jpg",
    "id_album": "-462831705",
    "description": "Cat_263949",
    "title": "Cat_263949",
    "link_img": "https://live.staticflickr.com/65535/50017387878_17983af541_o.jpg",
    "id_image": "Cat_263949",
    "count_view": 0
  },
  {
    "link_thumb": "https://live.staticflickr.com/65535/50021398397_f54810061a_n.jpg",
    "id_album": "-462831704",
    "description": "Cat_617255",
    "title": "Cat_617255",
    "link_img": "https://live.staticflickr.com/65535/50021398397_5575a3af28_o.jpg",
    "id_image": "Cat_617255",
    "count_view": 0
  },
  {
    "link_thumb": "https://live.staticflickr.com/65535/50019157466_d52e516c44_n.jpg",
    "id_album": "-462831702",
    "description": "Cat_421548",
    "title": "Cat_421548",
    "link_img": "https://live.staticflickr.com/65535/50019157466_2056c62e50_o.jpg",
    "id_image": "Cat_421548",
    "count_view": 0
  },
  {
    "link_thumb": "https://live.staticflickr.com/65535/50016995733_74471ba42c_n.jpg",
    "id_album": "1696155652",
    "description": "Boxer_992964",
    "title": "Boxer_992964",
    "link_img": "https://live.staticflickr.com/65535/50016995733_e6d6d1b11c_o.jpg",
    "id_image": "Boxer_992964",
    "count_view": 0
  },
  {
    "link_thumb": "https://live.staticflickr.com/65535/50022078937_095c59a97b_n.jpg",
    "id_album": "771796001",
    "description": "Koala_784935",
    "title": "Koala_784935",
    "link_img": "https://live.staticflickr.com/65535/50022078937_8aec3bc20a_o.jpg",
    "id_image": "Koala_784935",
    "count_view": 0
  },
  {
    "link_thumb": "https://live.staticflickr.com/65535/50022054302_1c2d85c868_n.jpg",
    "id_album": "770105808",
    "description": "Kingfisher_394306",
    "title": "Kingfisher_394306",
    "link_img": "https://live.staticflickr.com/65535/50022054302_021829fe59_o.jpg",
    "id_image": "Kingfisher_394306",
    "count_view": 0
  },
  {
    "link_thumb": "https://live.staticflickr.com/65535/50017321357_6613d7b095_n.jpg",
    "id_album": "-422187261",
    "description": "Bear_592492",
    "title": "Bear_592492",
    "link_img": "https://live.staticflickr.com/65535/50017321357_4734696c44_o.jpg",
    "id_image": "Bear_592492",
    "count_view": 0
  },
  {
    "link_thumb": "https://live.staticflickr.com/65535/50021154878_c5bea83706_n.jpg",
    "id_album": "1658866795",
    "description": "Insect_410212",
    "title": "Insect_410212",
    "link_img": "https://live.staticflickr.com/65535/50021154878_1fcfedd541_o.jpg",
    "id_image": "Insect_410212",
    "count_view": 0
  },
  {
    "link_thumb": "https://live.staticflickr.com/65535/50351759718_0d47a356f9_n.jpg",
    "id_album": "-462831703",
    "description": "Cat_328499",
    "title": "Cat_328499",
    "link_img": "https://live.staticflickr.com/65535/50351759718_3d882b2648_o.jpg",
    "id_image": "Cat_328499",
    "count_view": 0
  },
  {
    "link_thumb": "https://live.staticflickr.com/65535/50020243026_30d540ddfc_n.jpg",
    "id_album": "-149330232",
    "description": "Dog_324324",
    "title": "Dog_324324",
    "link_img": "https://live.staticflickr.com/65535/50020243026_344c8256c3_o.jpg",
    "id_image": "Dog_324324",
    "count_view": 0
  },
  {
    "link_thumb": "https://live.staticflickr.com/65535/50017414907_005188727f_n.jpg",
    "id_album": "1699594607",
    "description": "Bee_682931",
    "title": "Bee_682931",
    "link_img": "https://live.staticflickr.com/65535/50017414907_87f04857c7_o.jpg",
    "id_image": "Bee_682931",
    "count_view": 0
  },
  {
    "link_thumb": "https://live.staticflickr.com/65535/50019689472_58856307c2_n.jpg",
    "id_album": "-462831703",
    "description": "Cat_908169",
    "title": "Cat_908169",
    "link_img": "https://live.staticflickr.com/65535/50019689472_dd64bc96ee_o.jpg",
    "id_image": "Cat_908169",
    "count_view": 0
  },
  {
    "link_thumb": "https://live.staticflickr.com/65535/50016727128_8dc094ca7c_n.jpg",
    "id_album": "-1846011410",
    "description": "Bird_342819",
    "title": "Bird_342819",
    "link_img": "https://live.staticflickr.com/65535/50016727128_1d4a569ae1_o.jpg",
    "id_image": "Bird_342819",
    "count_view": 0
  },
  {
    "link_thumb": "https://live.staticflickr.com/65535/50351859088_34b0de27f3_n.jpg",
    "id_album": "-462831703",
    "description": "Cat_478699",
    "title": "Cat_478699",
    "link_img": "https://live.staticflickr.com/65535/50351859088_76248de921_o.jpg",
    "id_image": "Cat_478699",
    "count_view": 0
  },
  {
    "link_thumb": "https://live.staticflickr.com/65535/50020715086_5ebdfb223d_n.jpg",
    "id_album": "-39098563",
    "description": "Eagle_555569",
    "title": "Eagle_555569",
    "link_img": "https://live.staticflickr.com/65535/50020715086_47c5925742_o.jpg",
    "id_image": "Eagle_555569",
    "count_view": 0
  },
  {
    "link_thumb": "https://live.staticflickr.com/65535/50017619223_abc064c46e_n.jpg",
    "id_album": "-462831702",
    "description": "Cat_407007",
    "title": "Cat_407007",
    "link_img": "https://live.staticflickr.com/65535/50017619223_ef1a84d89a_o.jpg",
    "id_image": "Cat_407007",
    "count_view": 0
  },
  {
    "link_thumb": "https://live.staticflickr.com/65535/50016338778_70016c96f6_n.jpg",
    "id_album": "523598895",
    "description": "Artistic_116197",
    "title": "Artistic_116197",
    "link_img": "https://live.staticflickr.com/65535/50016338778_3c4f8dd73a_o.jpg",
    "id_image": "Artistic_116197",
    "count_view": 0
  },
  {
    "link_thumb": "https://live.staticflickr.com/65535/50020538508_6f8b093213_n.jpg",
    "id_album": "844170697",
    "description": "Frog_874629",
    "title": "Frog_874629",
    "link_img": "https://live.staticflickr.com/65535/50020538508_797f12543a_o.jpg",
    "id_image": "Frog_874629",
    "count_view": 0
  },
  {
    "link_thumb": "https://live.staticflickr.com/65535/50023186017_5f9cd14039_n.jpg",
    "id_album": "-356780855",
    "description": "Puffin_614993",
    "title": "Puffin_614993",
    "link_img": "https://live.staticflickr.com/65535/50023186017_7860c2b6a2_o.jpg",
    "id_image": "Puffin_614993",
    "count_view": 0
  },
  {
    "link_thumb": "https://live.staticflickr.com/65535/50020655388_9b1c79e09a_n.jpg",
    "id_album": "-462831704",
    "description": "Cat_716009",
    "title": "Cat_716009",
    "link_img": "https://live.staticflickr.com/65535/50020655388_13995b4454_o.jpg",
    "id_image": "Cat_716009",
    "count_view": 0
  },
  {
    "link_thumb": "https://live.staticflickr.com/65535/50020721793_acebb722da_n.jpg",
    "id_album": "-462831703",
    "description": "Cat_818003",
    "title": "Cat_818003",
    "link_img": "https://live.staticflickr.com/65535/50020721793_27eb067d7c_o.jpg",
    "id_image": "Cat_818003",
    "count_view": 0
  },
  {
    "link_thumb": "https://live.staticflickr.com/65535/50024023736_d8b435a900_n.jpg",
    "id_album": "405170427",
    "description": "Tiger_106268",
    "title": "Tiger_106268",
    "link_img": "https://live.staticflickr.com/65535/50024023736_4b7f6fc785_o.jpg",
    "id_image": "Tiger_106268",
    "count_view": 0
  },
  {
    "link_thumb": "https://live.staticflickr.com/65535/50021132001_d41d761470_n.jpg",
    "id_album": "-462831704",
    "description": "Cat_593307",
    "title": "Cat_593307",
    "link_img": "https://live.staticflickr.com/65535/50021132001_4961557501_o.jpg",
    "id_image": "Cat_593307",
    "count_view": 0
  },
  {
    "link_thumb": "https://live.staticflickr.com/65535/50024723947_257225b15a_n.jpg",
    "id_album": "-709711865",
    "description": "Wolf_233581",
    "title": "Wolf_233581",
    "link_img": "https://live.staticflickr.com/65535/50024723947_8f41817345_o.jpg",
    "id_image": "Wolf_233581",
    "count_view": 0
  },
  {
    "link_thumb": "https://live.staticflickr.com/65535/50023920037_9f964d4537_n.jpg",
    "id_album": "-1131363127",
    "description": "SnowLeopard_585132",
    "title": "SnowLeopard_585132",
    "link_img": "https://live.staticflickr.com/65535/50023920037_60c3c93f93_o.jpg",
    "id_image": "SnowLeopard_585132",
    "count_view": 0
  },
  {
    "link_thumb": "https://live.staticflickr.com/65535/50017330252_7a187ba53a_n.jpg",
    "id_album": "-422187261",
    "description": "Bear_700868",
    "title": "Bear_700868",
    "link_img": "https://live.staticflickr.com/65535/50017330252_be4bf05d9c_o.jpg",
    "id_image": "Bear_700868",
    "count_view": 0
  },
  {
    "link_thumb": "https://live.staticflickr.com/65535/50019683818_8da3ea3607_n.jpg",
    "id_album": "-149330232",
    "description": "Dog_275634",
    "title": "Dog_275634",
    "link_img": "https://live.staticflickr.com/65535/50019683818_dfdceb398c_o.jpg",
    "id_image": "Dog_275634",
    "count_view": 0
  },
  {
    "link_thumb": "https://live.staticflickr.com/65535/50352660826_834999963e_n.jpg",
    "id_album": "-462831703",
    "description": "Cat_734404",
    "title": "Cat_734404",
    "link_img": "https://live.staticflickr.com/65535/50352660826_69748a96df_o.jpg",
    "id_image": "Cat_734404",
    "count_view": 0
  },
  {
    "link_thumb": "https://live.staticflickr.com/65535/50022955806_0f313ccf48_n.jpg",
    "id_album": "-1431524681",
    "description": "Pug_672853",
    "title": "Pug_672853",
    "link_img": "https://live.staticflickr.com/65535/50022955806_e3282efb0e_o.jpg",
    "id_image": "Pug_672853",
    "count_view": 0
  }
]