[
  {
    "link_thumb": "https://live.staticflickr.com/65535/50016980716_4e83665f28_n.jpg",
    "id_album": "-80092825",
    "description": "Barnowl_753287",
    "title": "Barnowl_753287",
    "link_img": "https://live.staticflickr.com/65535/50016980716_972078515d_o.jpg",
    "id_image": "Barnowl_753287",
    "count_view": 0
  },
  {
    "link_thumb": "https://live.staticflickr.com/65535/50020829847_f2bf782d9f_n.jpg",
    "id_album": "-54509188",
    "description": "Dolphin_416193",
    "title": "Dolphin_416193",
    "link_img": "https://live.staticflickr.com/65535/50020829847_4b478fbfaa_o.jpg",
    "id_image": "Dolphin_416193",
    "count_view": 0
  },
  {
    "link_thumb": "https://live.staticflickr.com/65535/50019122843_19ff489566_n.jpg",
    "id_album": "-766919393",
    "description": "Chameleon_516782",
    "title": "Chameleon_516782",
    "link_img": "https://live.staticflickr.com/65535/50019122843_ba98fed1e8_o.jpg",
    "id_image": "Chameleon_516782",
    "count_view": 0
  },
  {
    "link_thumb": "https://live.staticflickr.com/65535/50016952456_cf6078c8ce_n.jpg",
    "id_album": "231236068",
    "description": "BaldEagle_244478",
    "title": "BaldEagle_244478",
    "link_img": "https://live.staticflickr.com/65535/50016952456_a169f01da8_o.jpg",
    "id_image": "BaldEagle_244478",
    "count_view": 0
  },
  {
    "link_thumb": "https://live.staticflickr.com/65535/50021983228_a5b210d5cc_n.jpg",
    "id_album": "-358592519",
    "description": "Panda_361493",
    "title": "Panda_361493",
    "link_img": "https://live.staticflickr.com/65535/50021983228_8c9a244b00_o.jpg",
    "id_image": "Panda_361493",
    "count_view": 0
  },
  {
    "link_thumb": "https://live.staticflickr.com/65535/50018704528_84fcab952c_n.jpg",
    "id_album": "-462831704",
    "description": "Cat_462220",
    "title": "Cat_462220",
    "link_img": "https://live.staticflickr.com/65535/50018704528_999e36168c_o.jpg",
    "id_image": "Cat_462220",
    "count_view": 0
  },
  {
    "link_thumb": "https://live.staticflickr.com/65535/50019230688_20f330228c_n.jpg",
    "id_album": "791455625",
    "description": "Chipmunk_402717",
    "title": "Chipmunk_402717",
    "link_img": "https://live.staticflickr.com/65535/50019230688_42635e51c2_o.jpg",
    "id_image": "Chipmunk_402717",
    "count_view": 0
  },
  {
    "link_thumb": "https://live.staticflickr.com/65535/50021932191_efb0a3af4f_n.jpg",
    "id_album": "1392348450",
    "description": "Leopard_526893",
    "title": "Leopard_526893",
    "link_img": "https://live.staticflickr.com/65535/50021932191_8fd749b829_o.jpg",
    "id_image": "Leopard_526893",
    "count_view": 0
  },
  {
    "link_thumb": "https://live.staticflickr.com/65535/50022184601_4844e929f0_n.jpg",
    "id_album": "-1720012921",
    "description": "Meerkat_417893",
    "title": "Meerkat_417893",
    "link_img": "https://live.staticflickr.com/65535/50022184601_c4b238cbc9_o.jpg",
    "id_image": "Meerkat_417893",
    "count_view": 0
  },
  {
    "link_thumb": "https://live.staticflickr.com/65535/50021672756_f714b327ed_n.jpg",
    "id_album": "1658866795",
    "description": "Insect_393119",
    "title": "Insect_393119",
    "link_img": "https://live.staticflickr.com/65535/50021672756_1a3d99a118_o.jpg",
    "id_image": "Insect_393119",
    "count_view": 0
  },
  {
    "link_thumb": "https://live.staticflickr.com/65535/50020335357_854e89c7cd_n.jpg",
    "id_album": "297232732",
    "description": "Dinosaur_187017",
    "title": "Dinosaur_187017",
    "link_img": "https://live.staticflickr.com/65535/50020335357_a3bc1333d6_o.jpg",
    "id_image": "Dinosaur_187017",
    "count_view": 0
  },
  {
    "link_thumb": "https://live.staticflickr.com/65535/50021874928_daa377523e_n.jpg",
    "id_album": "-1384601601",
    "description": "Owl_410469",
    "title": "Owl_410469",
    "link_img": "https://live.staticflickr.com/65535/50021874928_a21cf9e65a_o.jpg",
    "id_image": "Owl_410469",
    "count_view": 0
  },
  {
    "link_thumb": "https://live.staticflickr.com/65535/50020595676_95c0652508_n.jpg",
    "id_album": "-1859457960",
    "description": "Dove_336371",
    "title": "Dove_336371",
    "link_img": "https://live.staticflickr.com/65535/50020595676_f927dbfbb8_o.jpg",
    "id_image": "Dove_336371",
    "count_view": 0
  },
  {
    "link_thumb": "https://live.staticflickr.com/65535/50020736838_9fa8465ded_n.jpg",
    "id_album": "-128218148",
    "description": "Fox_390975",
    "title": "Fox_390975",
    "link_img": "https://live.staticflickr.com/65535/50020736838_1138bf2278_o.jpg",
    "id_image": "Fox_390975",
    "count_view": 0
  },
  {
    "link_thumb": "https://live.staticflickr.com/65535/50020191457_1bff493705_n.jpg",
    "id_album": "1273365283",
    "description": "Cute_328623",
    "title": "Cute_328623",
    "link_img": "https://live.staticflickr.com/65535/50020191457_fd1a016453_o.jpg",
    "id_image": "Cute_328623",
    "count_view": 0
  },
  {
    "link_thumb": "https://live.staticflickr.com/65535/50019816368_958c02e37b_n.jpg",
    "id_album": "-149330232",
    "description": "Dog_373024",
    "title": "Dog_373024",
    "link_img": "https://live.staticflickr.com/65535/50019816368_0e3ed17cc9_o.jpg",
    "id_image": "Dog_373024",
    "count_view": 0
  },
  {
    "link_thumb": "https://live.staticflickr.com/65535/50351948003_d639ac504f_n.jpg",
    "id_album": "-462831703",
    "description": "Cat_686073",
    "title": "Cat_686073",
    "link_img": "https://live.staticflickr.com/65535/50351948003_7d04d6636d_o.jpg",
    "id_image": "Cat_686073",
    "count_view": 0
  },
  {
    "link_thumb": "https://live.staticflickr.com/65535/50022932957_7c4c68978e_n.jpg",
    "id_album": "1146438617",
    "description": "Pelican_929565",
    "title": "Pelican_929565",
    "link_img": "https://live.staticflickr.com/65535/50022932957_eea2014422_o.jpg",
    "id_image": "Pelican_929565",
    "count_view": 0
  },
  {
    "link_thumb": "https://live.staticflickr.com/65535/50021033816_76b2904446_n.jpg",
    "id_album": "-128218148",
    "description": "Fox_983088",
    "title": "Fox_983088",
    "link_img": "https://live.staticflickr.com/65535/50021033816_ed30a622c4_o.jpg",
    "id_image": "Fox_983088",
    "count_view": 0
  },
  {
    "link_thumb": "https://live.staticflickr.com/65535/50024000341_0dca33839d_n.jpg",
    "id_album": "1244464375",
    "description": "Starfish_8715",
    "title": "Starfish_8715",
    "link_img": "https://live.staticflickr.com/65535/50024000341_341dcbb847_o.jpg",
    "id_image": "Starfish_8715",
    "count_view": 0
  },
  {
    "link_thumb": "https://live.staticflickr.com/65535/50017536198_9fd84a8db7_n.jpg",
    "id_album": "-462831702",
    "description": "Cat_363621",
    "title": "Cat_363621",
    "link_img": "https://live.staticflickr.com/65535/50017536198_df3de8d845_o.jpg",
    "id_image": "Cat_363621",
    "count_view": 0
  },
  {
    "link_thumb": "https://live.staticflickr.com/65535/50021596036_5c5836c4ed_n.jpg",
    "id_album": "773713550",
    "description": "Hoverfly_267981",
    "title": "Hoverfly_267981",
    "link_img": "https://live.staticflickr.com/65535/50021596036_afc1e57e90_o.jpg",
    "id_image": "Hoverfly_267981",
    "count_view": 0
  },
  {
    "link_thumb": "https://live.staticflickr.com/65535/50020293773_5b4874b1e9_n.jpg",
    "id_album": "-1118073211",
    "description": "Fish_247107",
    "title": "Fish_247107",
    "link_img": "https://live.staticflickr.com/65535/50020293773_7ce3dffde4_o.jpg",
    "id_image": "Fish_247107",
    "count_view": 0
  },
  {
    "link_thumb": "https://live.staticflickr.com/65535/50017381736_9c45e8cbcb_n.jpg",
    "id_album": "-1846011410",
    "description": "Bird_594002",
    "title": "Bird_594002",
    "link_img": "https://live.staticflickr.com/65535/50017381736_ee502c34e6_o.jpg",
    "id_image": "Bird_594002",
    "count_view": 0
  },
  {
    "link_thumb": "https://live.staticflickr.com/65535/50022678911_4c8c36e373_n.jpg",
    "id_album": "392248205",
    "description": "Penguin_178001",
    "title": "Penguin_178001",
    "link_img": "https://live.staticflickr.com/65535/50022678911_e40ea8251f_o.jpg",
    "id_image": "Penguin_178001",
    "count_view": 0
  },
  {
    "link_thumb": "https://live.staticflickr.com/65535/50023885362_600d0b03be_n.jpg",
    "id_album": "-1131363127",
    "description": "SnowLeopard_276127",
    "title": "SnowLeopard_276127",
    "link_img": "https://live.staticflickr.com/65535/50023885362_1945314a87_o.jpg",
    "id_image": "SnowLeopard_276127",
    "count_view": 0
  },
  {
    "link_thumb": "https://live.staticflickr.com/65535/50019212686_f8159e2596_n.jpg",
    "id_album": "-462831704",
    "description": "Cat_443206",
    "title": "Cat_443206",
    "link_img": "https://live.staticflickr.com/65535/50019212686_2d2c1c8f09_o.jpg",
    "id_image": "Cat_443206",
    "count_view": 0
  },
  {
    "link_thumb": "https://live.staticflickr.com/65535/50018668683_e6a0bbb2e0_n.jpg",
    "id_album": "-462831704",
    "description": "Cat_437092",
    "title": "Cat_437092",
    "link_img": "https://live.staticflickr.com/65535/50018668683_8ca5cf0b2a_o.jpg",
    "id_image": "Cat_437092",
    "count_view": 0
  },
  {
    "link_thumb": "https://live.staticflickr.com/65535/50023160131_a316cde2da_n.jpg",
    "id_album": "248289288",
    "description": "Raccoon_730447",
    "title": "Raccoon_730447",
    "link_img": "https://live.staticflickr.com/65535/50023160131_ac046a6386_o.jpg",
    "id_image": "Raccoon_730447",
    "count_view": 0
  },
  {
    "link_thumb": "https://live.staticflickr.com/65535/50021723927_7b147f12e8_n.jpg",
    "id_album": "-1933715543",
    "description": "Horse_237612",
    "title": "Horse_237612",
    "link_img": "https://live.staticflickr.com/65535/50021723927_a11852d0cf_o.jpg",
    "id_image": "Horse_237612",
    "count_view": 0
  },
  {
    "link_thumb": "https://live.staticflickr.com/65535/50019709836_db5eacd29c_n.jpg",
    "id_album": "-1481843714",
    "description": "Cheetah_447464",
    "title": "Cheetah_447464",
    "link_img": "https://live.staticflickr.com/65535/50019709836_4f045896fd_o.jpg",
    "id_image": "Cheetah_447464",
    "count_view": 0
  },
  {
    "link_thumb": "https://live.staticflickr.com/65535/50351998128_76f18ccb46_n.jpg",
    "id_album": "-462831702",
    "description": "Cat_163691",
    "title": "Cat_163691",
    "link_img": "https://live.staticflickr.com/65535/50351998128_f73a773e97_o.jpg",
    "id_image": "Cat_163691",
    "count_view": 0
  },
  {
    "link_thumb": "https://live.staticflickr.com/65535/50021442318_473d0e3419_n.jpg",
    "id_album": "416744915",
    "description": "Lion_275655",
    "title": "Lion_275655",
    "link_img": "https://live.staticflickr.com/65535/50021442318_cd70521e7f_o.jpg",
    "id_image": "Lion_275655",
    "count_view": 0
  },
  {
    "link_thumb": "https://live.staticflickr.com/65535/50021960121_8dd21498fd_n.jpg",
    "id_album": "1392348450",
    "description": "Leopard_938082",
    "title": "Leopard_938082",
    "link_img": "https://live.staticflickr.com/65535/50021960121_dba772d7ee_o.jpg",
    "id_image": "Leopard_938082",
    "count_view": 0
  },
  {
    "link_thumb": "https://live.staticflickr.com/65535/50020705233_42b3610d0d_n.jpg",
    "id_album": "-462831703",
    "description": "Cat_787900",
    "title": "Cat_787900",
    "link_img": "https://live.staticflickr.com/65535/50020705233_823edcb265_o.jpg",
    "id_image": "Cat_787900",
    "count_view": 0
  },
  {
    "link_thumb": "https://live.staticflickr.com/65535/50023241956_c378b39271_n.jpg",
    "id_album": "-2087362619",
    "description": "RedandgreenMacaw_349239",
    "title": "RedandgreenMacaw_349239",
    "link_img": "https://live.staticflickr.com/65535/50023241956_05fbee130f_o.jpg",
    "id_image": "RedandgreenMacaw_349239",
    "count_view": 0
  },
  {
    "link_thumb": "https://live.staticflickr.com/65535/50017495421_933653681a_n.jpg",
    "id_album": "782930701",
    "description": "BorderCollie_826214",
    "title": "BorderCollie_826214",
    "link_img": "https://live.staticflickr.com/65535/50017495421_151b7916a2_o.jpg",
    "id_image": "BorderCollie_826214",
    "count_view": 0
  },
  {
    "link_thumb": "https://live.staticflickr.com/65535/50023479678_cb44717371_n.jpg",
    "id_album": "405170427",
    "description": "Tiger_114845",
    "title": "Tiger_114845",
    "link_img": "https://live.staticflickr.com/65535/50023479678_3a65b50d6f_o.jpg",
    "id_image": "Tiger_114845",
    "count_view": 0
  },
  {
    "link_thumb": "https://live.staticflickr.com/65535/50352696362_81f0c9ec7c_n.jpg",
    "id_album": "-462831703",
    "description": "Cat_458418",
    "title": "Cat_458418",
    "link_img": "https://live.staticflickr.com/65535/50352696362_2346c59a57_o.jpg",
    "id_image": "Cat_458418",
    "count_view": 0
  },
  {
    "link_thumb": "https://live.staticflickr.com/65535/50351746543_af7374f88e_n.jpg",
    "id_album": "-462831703",
    "description": "Cat_250324",
    "title": "Cat_250324",
    "link_img": "https://live.staticflickr.com/65535/50351746543_361c430d7e_o.jpg",
    "id_image": "Cat_250324",
    "count_view": 0
  },
  {
    "link_thumb": "https://live.staticflickr.com/65535/50017281873_2b64319849_n.jpg",
    "id_album": "-462831705",
    "description": "Cat_171581",
    "title": "Cat_171581",
    "link_img": "https://live.staticflickr.com/65535/50017281873_7470e095bf_o.jpg",
    "id_image": "Cat_171581",
    "count_view": 0
  },
  {
    "link_thumb": "https://live.staticflickr.com/65535/50020086042_d3b97bb6fc_n.jpg",
    "id_album": "-1868680171",
    "description": "Cougar_750365",
    "title": "Cougar_750365",
    "link_img": "https://live.staticflickr.com/65535/50020086042_8f60f5d033_o.jpg",
    "id_image": "Cougar_750365",
    "count_view": 0
  },
  {
    "link_thumb": "https://live.staticflickr.com/65535/50022156132_ae54db0d5b_n.jpg",
    "id_album": "1392348450",
    "description": "Leopard_340997",
    "title": "Leopard_340997",
    "link_img": "https://live.staticflickr.com/65535/50022156132_88af398d55_o.jpg",
    "id_image": "Leopard_340997",
    "count_view": 0
  },
  {
    "link_thumb": "https://live.staticflickr.com/65535/50017848456_0b66fac8ce_n.jpg",
    "id_album": "-462831705",
    "description": "Cat_20673",
    "title": "Cat_20673",
    "link_img": "https://live.staticflickr.com/65535/50017848456_985cebfe76_o.jpg",
    "id_image": "Cat_20673",
    "count_view": 0
  },
  {
    "link_thumb": "https://live.staticflickr.com/65535/50023610586_01ef241bed_n.jpg",
    "id_album": "-1182356179",
    "description": "Snake_867013",
    "title": "Snake_867013",
    "link_img": "https://live.staticflickr.com/65535/50023610586_0e39d5a152_o.jpg",
    "id_image": "Snake_867013",
    "count_view": 0
  },
  {
    "link_thumb": "https://live.staticflickr.com/65535/50352678261_1b815cd157_n.jpg",
    "id_album": "-462831703",
    "description": "Cat_996814",
    "title": "Cat_996814",
    "link_img": "https://live.staticflickr.com/65535/50352678261_f2ee9b2a1a_o.jpg",
    "id_image": "Cat_996814",
    "count_view": 0
  },
  {
    "link_thumb": "https://live.staticflickr.com/65535/50022143402_8dbd0ab366_n.jpg",
    "id_album": "1392348450",
    "description": "Leopard_209915",
    "title": "Leopard_209915",
    "link_img": "https://live.staticflickr.com/65535/50022143402_c6b1f0e4bd_o.jpg",
    "id_image": "Leopard_209915",
    "count_view": 0
  },
  {
    "link_thumb": "https://live.staticflickr.com/65535/50020916837_6fb781f1c2_n.jpg",
    "id_album": "1168627767",
    "description": "Duck_439409",
    "title": "Duck_439409",
    "link_img": "https://live.staticflickr.com/65535/50020916837_487ae23269_o.jpg",
    "id_image": "Duck_439409",
    "count_view": 0
  },
  {
    "link_thumb": "https://live.staticflickr.com/65535/50021470586_e0164e9dc2_n.jpg",
    "id_album": "-1933715543",
    "description": "Horse_224425",
    "title": "Horse_224425",
    "link_img": "https://live.staticflickr.com/65535/50021470586_4db5e00042_o.jpg",
    "id_image": "Horse_224425",
    "count_view": 0
  },
  {
    "link_thumb": "https://live.staticflickr.com/65535/50018007036_d6aab0c2d5_n.jpg",
    "id_album": "-462831702",
    "description": "Cat_337780",
    "title": "Cat_337780",
    "link_img": "https://live.staticflickr.com/65535/50018007036_b25e0ea869_o.jpg",
    "id_image": "Cat_337780",
    "count_view": 0
  },
  {
    "link_thumb": "https://live.staticflickr.com/65535/50022343251_ca55c61ec3_n.jpg",
    "id_album": "1015034486",
    "description": "Muteswan_937203",
    "title": "Muteswan_937203",
    "link_img": "https://live.staticflickr.com/65535/50022343251_8386d1c59d_o.jpg",
    "id_image": "Muteswan_937203",
    "count_view": 0
  },
  {
    "link_thumb": "https://live.staticflickr.com/65535/50023888982_dcd393a32d_n.jpg",
    "id_album": "-1131363127",
    "description": "SnowLeopard_335275",
    "title": "SnowLeopard_335275",
    "link_img": "https://live.staticflickr.com/65535/50023888982_7bd8c5aff8_o.jpg",
    "id_image": "SnowLeopard_335275",
    "count_view": 0
  },
  {
    "link_thumb": "https://live.staticflickr.com/65535/50021227482_c8fecfdb1d_n.jpg",
    "id_album": "-128218148",
    "description": "Fox_540988",
    "title": "Fox_540988",
    "link_img": "https://live.staticflickr.com/65535/50021227482_c4a7b82bf3_o.jpg",
    "id_image": "Fox_540988",
    "count_view": 0
  },
  {
    "link_thumb": "https://live.staticflickr.com/65535/50022408982_c293cf83eb_n.jpg",
    "id_album": "1894617400",
    "description": "Lynx_522970",
    "title": "Lynx_522970",
    "link_img": "https://live.staticflickr.com/65535/50022408982_d6f2a35ae8_o.jpg",
    "id_image": "Lynx_522970",
    "count_view": 0
  },
  {
    "link_thumb": "https://live.staticflickr.com/65535/50019790493_0287215c39_n.jpg",
    "id_album": "-149330232",
    "description": "Dog_364104",
    "title": "Dog_364104",
    "link_img": "https://live.staticflickr.com/65535/50019790493_408fa66a68_o.jpg",
    "id_image": "Dog_364104",
    "count_view": 0
  },
  {
    "link_thumb": "https://live.staticflickr.com/65535/50017253436_bfe6941d47_n.jpg",
    "id_album": "-1846011410",
    "description": "Bird_343091",
    "title": "Bird_343091",
    "link_img": "https://live.staticflickr.com/65535/50017253436_d870e5556b_o.jpg",
    "id_image": "Bird_343091",
    "count_view": 0
  },
  {
    "link_thumb": "https://live.staticflickr.com/65535/50019462098_c1a939716e_n.jpg",
    "id_album": "1903411565",
    "description": "Deer_334707",
    "title": "Deer_334707",
    "link_img": "https://live.staticflickr.com/65535/50019462098_57216d9e80_o.jpg",
    "id_image": "Deer_334707",
    "count_view": 0
  },
  {
    "link_thumb": "https://live.staticflickr.com/65535/50023173621_f22778f9ae_n.jpg",
    "id_album": "-434874555",
    "description": "RainbowLorikeet_452057",
    "title": "RainbowLorikeet_452057",
    "link_img": "https://live.staticflickr.com/65535/50023173621_d16cdef8db_o.jpg",
    "id_image": "RainbowLorikeet_452057",
    "count_view": 0
  },
  {
    "link_thumb": "https://live.staticflickr.com/65535/50022132577_15e420e09a_n.jpg",
    "id_album": "1918884325",
    "description": "Lemur_650150",
    "title": "Lemur_650150",
    "link_img": "https://live.staticflickr.com/65535/50022132577_b00566e3cb_o.jpg",
    "id_image": "Lemur_650150",
    "count_view": 0
  },
  {
    "link_thumb": "https://live.staticflickr.com/65535/50020633361_3d210dab3a_n.jpg",
    "id_album": "-405058657",
    "description": "Dragonfly_588153",
    "title": "Dragonfly_588153",
    "link_img": "https://live.staticflickr.com/65535/50020633361_f466f21cfe_o.jpg",
    "id_image": "Dragonfly_588153",
    "count_view": 0
  },
  {
    "link_thumb": "https://live.staticflickr.com/65535/50018341187_5bbe40ebde_n.jpg",
    "id_album": "-462831702",
    "description": "Cat_368146",
    "title": "Cat_368146",
    "link_img": "https://live.staticflickr.com/65535/50018341187_219c80e291_o.jpg",
    "id_image": "Cat_368146",
    "count_view": 0
  },
  {
    "link_thumb": "https://live.staticflickr.com/65535/50018978783_6c40297303_n.jpg",
    "id_album": "-462831703",
    "description": "Cat_948457",
    "title": "Cat_948457",
    "link_img": "https://live.staticflickr.com/65535/50018978783_98242f7144_o.jpg",
    "id_image": "Cat_948457",
    "count_view": 0
  },
  {
    "link_thumb": "https://live.staticflickr.com/65535/50022340797_a7bb2ae5ba_n.jpg",
    "id_album": "416744915",
    "description": "Lion_921622",
    "title": "Lion_921622",
    "link_img": "https://live.staticflickr.com/65535/50022340797_5865271235_o.jpg",
    "id_image": "Lion_921622",
    "count_view": 0
  },
  {
    "link_thumb": "https://live.staticflickr.com/65535/50020066368_16c17a61c9_n.jpg",
    "id_album": "-1859457960",
    "description": "Dove_516997",
    "title": "Dove_516997",
    "link_img": "https://live.staticflickr.com/65535/50020066368_0c92984dc9_o.jpg",
    "id_image": "Dove_516997",
    "count_view": 0
  },
  {
    "link_thumb": "https://live.staticflickr.com/65535/50024533842_4598a38d1a_n.jpg",
    "id_album": "432140049",
    "description": "Toad_737281",
    "title": "Toad_737281",
    "link_img": "https://live.staticflickr.com/65535/50024533842_34fe084829_o.jpg",
    "id_image": "Toad_737281",
    "count_view": 0
  },
  {
    "link_thumb": "https://live.staticflickr.com/65535/50021310497_b25a46f697_n.jpg",
    "id_album": "844170697",
    "description": "Frog_354142",
    "title": "Frog_354142",
    "link_img": "https://live.staticflickr.com/65535/50021310497_618ca5f803_o.jpg",
    "id_image": "Frog_354142",
    "count_view": 0
  },
  {
    "link_thumb": "https://live.staticflickr.com/65535/50019677091_3a29411395_n.jpg",
    "id_album": "-1481843714",
    "description": "Cheetah_102919",
    "title": "Cheetah_102919",
    "link_img": "https://live.staticflickr.com/65535/50019677091_91a67af3a5_o.jpg",
    "id_image": "Cheetah_102919",
    "count_view": 0
  },
  {
    "link_thumb": "https://live.staticflickr.com/65535/50017095352_a0590ca9e9_n.jpg",
    "id_album": "-1741290715",
    "description": "Ant_431242",
    "title": "Ant_431242",
    "link_img": "https://live.staticflickr.com/65535/50017095352_152b76b215_o.jpg",
    "id_image": "Ant_431242",
    "count_view": 0
  },
  {
    "link_thumb": "https://live.staticflickr.com/65535/50018292197_49921bbabc_n.jpg",
    "id_album": "-462831702",
    "description": "Cat_350369",
    "title": "Cat_350369",
    "link_img": "https://live.staticflickr.com/65535/50018292197_91acbf42c1_o.jpg",
    "id_image": "Cat_350369",
    "count_view": 0
  },
  {
    "link_thumb": "https://live.staticflickr.com/65535/50019886941_abbe586473_n.jpg",
    "id_album": "1475096665",
    "description": "Crocodile_262828",
    "title": "Crocodile_262828",
    "link_img": "https://live.staticflickr.com/65535/50019886941_80e6763f90_o.jpg",
    "id_image": "Crocodile_262828",
    "count_view": 0
  },
  {
    "link_thumb": "https://live.staticflickr.com/65535/50022027116_9b86930186_n.jpg",
    "id_album": "416744915",
    "description": "Lion_486684",
    "title": "Lion_486684",
    "link_img": "https://live.staticflickr.com/65535/50022027116_99b295a58c_o.jpg",
    "id_image": "Lion_486684",
    "count_view": 0
  },
  {
    "link_thumb": "https://live.staticflickr.com/65535/50021062547_646b953a19_n.jpg",
    "id_album": "822895535",
    "description": "Falcon_183545",
    "title": "Falcon_183545",
    "link_img": "https://live.staticflickr.com/65535/50021062547_a91ef2070d_o.jpg",
    "id_image": "Falcon_183545",
    "count_view": 0
  },
  {
    "link_thumb": "https://live.staticflickr.com/65535/50021387747_a073cc2cb0_n.jpg",
    "id_album": "-462831704",
    "description": "Cat_594912",
    "title": "Cat_594912",
    "link_img": "https://live.staticflickr.com/65535/50021387747_625348a9f7_o.jpg",
    "id_image": "Cat_594912",
    "count_view": 0
  },
  {
    "link_thumb": "https://live.staticflickr.com/65535/50016795718_71f5550f57_n.jpg",
    "id_album": "-1846011410",
    "description": "Bird_420096",
    "title": "Bird_420096",
    "link_img": "https://live.staticflickr.com/65535/50016795718_f06eb1f2df_o.jpg",
    "id_image": "Bird_420096",
    "count_view": 0
  },
  {
    "link_thumb": "https://live.staticflickr.com/65535/50017380578_279210888d_n.jpg",
    "id_album": "-462831705",
    "description": "Cat_254853",
    "title": "Cat_254853",
    "link_img": "https://live.staticflickr.com/65535/50017380578_e9d9fdc325_o.jpg",
    "id_image": "Cat_254853",
    "count_view": 0
  },
  {
    "link_thumb": "https://live.staticflickr.com/65535/50017340336_dee28e9420_n.jpg",
    "id_album": "-1846011410",
    "description": "Bird_444032",
    "title": "Bird_444032",
    "link_img": "https://live.staticflickr.com/65535/50017340336_d29dddfea0_o.jpg",
    "id_image": "Bird_444032",
    "count_view": 0
  },
  {
    "link_thumb": "https://live.staticflickr.com/65535/50021339101_96b06a334d_n.jpg",
    "id_album": "-804131074",
    "description": "Goat_325872",
    "title": "Goat_325872",
    "link_img": "https://live.staticflickr.com/65535/50021339101_c923d701aa_o.jpg",
    "id_image": "Goat_325872",
    "count_view": 0
  },
  {
    "link_thumb": "https://live.staticflickr.com/65535/50017007593_f6287498e9_n.jpg",
    "id_album": "-401151552",
    "description": "Butterfly_121557",
    "title": "Butterfly_121557",
    "link_img": "https://live.staticflickr.com/65535/50017007593_2f76ec978e_o.jpg",
    "id_image": "Butterfly_121557",
    "count_view": 0
  },
  {
    "link_thumb": "https://live.staticflickr.com/65535/50017561651_0a0c328c40_n.jpg",
    "id_album": "-401151552",
    "description": "Butterfly_327617",
    "title": "Butterfly_327617",
    "link_img": "https://live.staticflickr.com/65535/50017561651_4dec7eec0c_o.jpg",
    "id_image": "Butterfly_327617",
    "count_view": 0
  },
  {
    "link_thumb": "https://live.staticflickr.com/65535/50017736231_844908b7f8_n.jpg",
    "id_album": "189994021",
    "description": "Cardinal_713376",
    "title": "Cardinal_713376",
    "link_img": "https://live.staticflickr.com/65535/50017736231_589dda6bc6_o.jpg",
    "id_image": "Cardinal_713376",
    "count_view": 0
  },
  {
    "link_thumb": "https://live.staticflickr.com/65535/50019878896_7247968430_n.jpg",
    "id_album": "815329026",
    "description": "Crab_445323",
    "title": "Crab_445323",
    "link_img": "https://live.staticflickr.com/65535/50019878896_2370638f13_o.jpg",
    "id_image": "Crab_445323",
    "count_view": 0
  },
  {
    "link_thumb": "https://live.staticflickr.com/65535/50352659561_0c3bee133c_n.jpg",
    "id_album": "-462831703",
    "description": "Cat_724219",
    "title": "Cat_724219",
    "link_img": "https://live.staticflickr.com/65535/50352659561_9559c45f35_o.jpg",
    "id_image": "Cat_724219",
    "count_view": 0
  },
  {
    "link_thumb": "https://live.staticflickr.com/65535/50017863856_d876a68e54_n.jpg",
    "id_album": "-462831705",
    "description": "Cat_215975",
    "title": "Cat_215975",
    "link_img": "https://live.staticflickr.com/65535/50017863856_cbd1bab08d_o.jpg",
    "id_image": "Cat_215975",
    "count_view": 0
  },
  {
    "link_thumb": "https://live.staticflickr.com/65535/50020966066_d9ef3ae449_n.jpg",
    "id_album": "-128218148",
    "description": "Fox_432708",
    "title": "Fox_432708",
    "link_img": "https://live.staticflickr.com/65535/50020966066_939199a0fa_o.jpg",
    "id_image": "Fox_432708",
    "count_view": 0
  },
  {
    "link_thumb": "https://live.staticflickr.com/65535/50024139421_46841376ff_n.jpg",
    "id_album": "405170427",
    "description": "Tiger_462139",
    "title": "Tiger_462139",
    "link_img": "https://live.staticflickr.com/65535/50024139421_e3a8d03d31_o.jpg",
    "id_image": "Tiger_462139",
    "count_view": 0
  },
  {
    "link_thumb": "https://live.staticflickr.com/65535/50019721328_ee1772e545_n.jpg",
    "id_album": "-149330232",
    "description": "Dog_331849",
    "title": "Dog_331849",
    "link_img": "https://live.staticflickr.com/65535/50019721328_47d00b717d_o.jpg",
    "id_image": "Dog_331849",
    "count_view": 0
  },
  {
    "link_thumb": "https://live.staticflickr.com/65535/50021880211_40ff9175f7_n.jpg",
    "id_album": "1918884325",
    "description": "Lemur_812197",
    "title": "Lemur_812197",
    "link_img": "https://live.staticflickr.com/65535/50021880211_342b266186_o.jpg",
    "id_image": "Lemur_812197",
    "count_view": 0
  },
  {
    "link_thumb": "https://live.staticflickr.com/65535/50017223121_5609709bc1_n.jpg",
    "id_album": "-1846011410",
    "description": "Bird_264469",
    "title": "Bird_264469",
    "link_img": "https://live.staticflickr.com/65535/50017223121_c8ca47a24e_o.jpg",
    "id_image": "Bird_264469",
    "count_view": 0
  },
  {
    "link_thumb": "https://live.staticflickr.com/65535/50016856088_ecca0ddf06_n.jpg",
    "id_album": "-1846011410",
    "description": "Bird_594003",
    "title": "Bird_594003",
    "link_img": "https://live.staticflickr.com/65535/50016856088_eaa7aa8ec9_o.jpg",
    "id_image": "Bird_594003",
    "count_view": 0
  },
  {
    "link_thumb": "https://live.staticflickr.com/65535/50019423663_8efc5cb3ba_n.jpg",
    "id_album": "1831085598",
    "description": "Dachshund_737264",
    "title": "Dachshund_737264",
    "link_img": "https://live.staticflickr.com/65535/50019423663_e64f2ae30d_o.jpg",
    "id_image": "Dachshund_737264",
    "count_view": 0
  },
  {
    "link_thumb": "https://live.staticflickr.com/65535/50021901906_3eb28587db_n.jpg",
    "id_album": "1392348450",
    "description": "Leopard_350945",
    "title": "Leopard_350945",
    "link_img": "https://live.staticflickr.com/65535/50021901906_e2ec9aa2a1_o.jpg",
    "id_image": "Leopard_350945",
    "count_view": 0
  },
  {
    "link_thumb": "https://live.staticflickr.com/65535/50016890618_3a7338cfcc_n.jpg",
    "id_album": "-1846011410",
    "description": "Bird_73993",
    "title": "Bird_73993",
    "link_img": "https://live.staticflickr.com/65535/50016890618_41d776c6aa_o.jpg",
    "id_image": "Bird_73993",
    "count_view": 0
  },
  {
    "link_thumb": "https://live.staticflickr.com/65535/50018014917_a84c56ab17_n.jpg",
    "id_album": "-462831705",
    "description": "Cat_111674",
    "title": "Cat_111674",
    "link_img": "https://live.staticflickr.com/65535/50018014917_0cafb3edb0_o.jpg",
    "id_image": "Cat_111674",
    "count_view": 0
  },
  {
    "link_thumb": "https://live.staticflickr.com/65535/50018018226_ffd975f8f3_n.jpg",
    "id_album": "-462831702",
    "description": "Cat_343673",
    "title": "Cat_343673",
    "link_img": "https://live.staticflickr.com/65535/50018018226_fb8aa7c326_o.jpg",
    "id_image": "Cat_343673",
    "count_view": 0
  },
  {
    "link_thumb": "https://live.staticflickr.com/65535/50021321857_c9323e39c3_n.jpg",
    "id_album": "844170697",
    "description": "Frog_543307",
    "title": "Frog_543307",
    "link_img": "https://live.staticflickr.com/65535/50021321857_86f16a550a_o.jpg",
    "id_image": "Frog_543307",
    "count_view": 0
  },
  {
    "link_thumb": "https://live.staticflickr.com/65535/50021429742_b10c106977_n.jpg",
    "id_album": "-462831704",
    "description": "Cat_697578",
    "title": "Cat_697578",
    "link_img": "https://live.staticflickr.com/65535/50021429742_847c7905a8_o.jpg",
    "id_image": "Cat_697578",
    "count_view": 0
  },
  {
    "link_thumb": "https://live.staticflickr.com/65535/50020557081_8fcd5c7d67_n.jpg",
    "id_album": "-149330231",
    "description": "Dog_995263",
    "title": "Dog_995263",
    "link_img": "https://live.staticflickr.com/65535/50020557081_f8f21e0a45_o.jpg",
    "id_image": "Dog_995263",
    "count_view": 0
  },
  {
    "link_thumb": "https://live.staticflickr.com/65535/50017513667_6ce3f9024d_n.jpg",
    "id_album": "-1846011410",
    "description": "Bird_342821",
    "title": "Bird_342821",
    "link_img": "https://live.staticflickr.com/65535/50017513667_9a41cfe252_o.jpg",
    "id_image": "Bird_342821",
    "count_view": 0
  },
  {
    "link_thumb": "https://live.staticflickr.com/65535/50022218982_c1758a5fe8_n.jpg",
    "id_album": "1392348450",
    "description": "Leopard_945813",
    "title": "Leopard_945813",
    "link_img": "https://live.staticflickr.com/65535/50022218982_d3b50b9855_o.jpg",
    "id_image": "Leopard_945813",
    "count_view": 0
  },
  {
    "link_thumb": "https://live.staticflickr.com/65535/50018678088_c3c3bf2f14_n.jpg",
    "id_album": "-462831704",
    "description": "Cat_441301",
    "title": "Cat_441301",
    "link_img": "https://live.staticflickr.com/65535/50018678088_e342fe2d90_o.jpg",
    "id_image": "Cat_441301",
    "count_view": 0
  },
  {
    "link_thumb": "https://live.staticflickr.com/65535/50020141132_8864738f9e_n.jpg",
    "id_album": "815329026",
    "description": "Crab_791791",
    "title": "Crab_791791",
    "link_img": "https://live.staticflickr.com/65535/50020141132_6bdff833e9_o.jpg",
    "id_image": "Crab_791791",
    "count_view": 0
  },
  {
    "link_thumb": "https://live.staticflickr.com/65535/50352694986_02e63e471d_n.jpg",
    "id_album": "-462831702",
    "description": "Cat_159989",
    "title": "Cat_159989",
    "link_img": "https://live.staticflickr.com/65535/50352694986_bcf037dfa2_o.jpg",
    "id_image": "Cat_159989",
    "count_view": 0
  },
  {
    "link_thumb": "https://live.staticflickr.com/65535/50018370447_5a74e35c1c_n.jpg",
    "id_album": "-462831702",
    "description": "Cat_381414",
    "title": "Cat_381414",
    "link_img": "https://live.staticflickr.com/65535/50018370447_e31b6cc224_o.jpg",
    "id_image": "Cat_381414",
    "count_view": 0
  },
  {
    "link_thumb": "https://live.staticflickr.com/65535/50019533163_706a06ea49_n.jpg",
    "id_album": "1903411565",
    "description": "Deer_921184",
    "title": "Deer_921184",
    "link_img": "https://live.staticflickr.com/65535/50019533163_ff5543621a_o.jpg",
    "id_image": "Deer_921184",
    "count_view": 0
  },
  {
    "link_thumb": "https://live.staticflickr.com/65535/50022120392_56176d01f4_n.jpg",
    "id_album": "-1882491687",
    "description": "Ladybug_786511",
    "title": "Ladybug_786511",
    "link_img": "https://live.staticflickr.com/65535/50022120392_1936690fac_o.jpg",
    "id_image": "Ladybug_786511",
    "count_view": 0
  },
  {
    "link_thumb": "https://live.staticflickr.com/65535/50017731396_29dea84dc3_n.jpg",
    "id_album": "189994021",
    "description": "Cardinal_278063",
    "title": "Cardinal_278063",
    "link_img": "https://live.staticflickr.com/65535/50017731396_96e22a5404_o.jpg",
    "id_image": "Cardinal_278063",
    "count_view": 0
  },
  {
    "link_thumb": "https://live.staticflickr.com/65535/50016893303_5d082ac85e_n.jpg",
    "id_album": "-1846011410",
    "description": "Bird_744034",
    "title": "Bird_744034",
    "link_img": "https://live.staticflickr.com/65535/50016893303_2dce54e2fa_o.jpg",
    "id_image": "Bird_744034",
    "count_view": 0
  },
  {
    "link_thumb": "https://live.staticflickr.com/65535/50016873423_f9d4cd8172_n.jpg",
    "id_album": "-1846011410",
    "description": "Bird_658832",
    "title": "Bird_658832",
    "link_img": "https://live.staticflickr.com/65535/50016873423_4d1185314a_o.jpg",
    "id_image": "Bird_658832",
    "count_view": 0
  },
  {
    "link_thumb": "https://live.staticflickr.com/65535/50021325613_10ccae2aa5_n.jpg",
    "id_album": "-1882491687",
    "description": "Ladybug_883788",
    "title": "Ladybug_883788",
    "link_img": "https://live.staticflickr.com/65535/50021325613_16b4c3a5ce_o.jpg",
    "id_image": "Ladybug_883788",
    "count_view": 0
  },
  {
    "link_thumb": "https://live.staticflickr.com/65535/50023892132_e9e01c61cf_n.jpg",
    "id_album": "-1131363127",
    "description": "SnowLeopard_361680",
    "title": "SnowLeopard_361680",
    "link_img": "https://live.staticflickr.com/65535/50023892132_c8e0418b79_o.jpg",
    "id_image": "SnowLeopard_361680",
    "count_view": 0
  },
  {
    "link_thumb": "https://live.staticflickr.com/65535/50020688711_0965d84102_n.jpg",
    "id_album": "-39098563",
    "description": "Eagle_299802",
    "title": "Eagle_299802",
    "link_img": "https://live.staticflickr.com/65535/50020688711_5c66eeedb4_o.jpg",
    "id_image": "Eagle_299802",
    "count_view": 0
  },
  {
    "link_thumb": "https://live.staticflickr.com/65535/50017218547_46ba9046c3_n.jpg",
    "id_album": "231236068",
    "description": "BaldEagle_432595",
    "title": "BaldEagle_432595",
    "link_img": "https://live.staticflickr.com/65535/50017218547_bf08e84f7b_o.jpg",
    "id_image": "BaldEagle_432595",
    "count_view": 0
  },
  {
    "link_thumb": "https://live.staticflickr.com/65535/50020965466_7d690fd25a_n.jpg",
    "id_album": "-128218148",
    "description": "Fox_430844",
    "title": "Fox_430844",
    "link_img": "https://live.staticflickr.com/65535/50020965466_d32cd8b91d_o.jpg",
    "id_image": "Fox_430844",
    "count_view": 0
  },
  {
    "link_thumb": "https://live.staticflickr.com/65535/50022144526_7e476c4956_n.jpg",
    "id_album": "1894617400",
    "description": "Lynx_411420",
    "title": "Lynx_411420",
    "link_img": "https://live.staticflickr.com/65535/50022144526_16636793ae_o.jpg",
    "id_image": "Lynx_411420",
    "count_view": 0
  },
  {
    "link_thumb": "https://live.staticflickr.com/65535/50351939688_062300382c_n.jpg",
    "id_album": "-462831703",
    "description": "Cat_667826",
    "title": "Cat_667826",
    "link_img": "https://live.staticflickr.com/65535/50351939688_c367d04ec9_o.jpg",
    "id_image": "Cat_667826",
    "count_view": 0
  },
  {
    "link_thumb": "https://live.staticflickr.com/65535/50022684276_e9c34954de_n.jpg",
    "id_album": "392248205",
    "description": "Penguin_258398",
    "title": "Penguin_258398",
    "link_img": "https://live.staticflickr.com/65535/50022684276_3e2b82bbbb_o.jpg",
    "id_image": "Penguin_258398",
    "count_view": 0
  },
  {
    "link_thumb": "https://live.staticflickr.com/65535/50017719481_6a3a11be4d_n.jpg",
    "id_album": "-401151552",
    "description": "Butterfly_964654",
    "title": "Butterfly_964654",
    "link_img": "https://live.staticflickr.com/65535/50017719481_27c7521f6d_o.jpg",
    "id_image": "Butterfly_964654",
    "count_view": 0
  },
  {
    "link_thumb": "https://live.staticflickr.com/65535/50022177753_fbdf06c5c5_n.jpg",
    "id_album": "392248205",
    "description": "Penguin_777376",
    "title": "Penguin_777376",
    "link_img": "https://live.staticflickr.com/65535/50022177753_c7a7488d13_o.jpg",
    "id_image": "Penguin_777376",
    "count_view": 0
  },
  {
    "link_thumb": "https://live.staticflickr.com/65535/50022054152_605626392d_n.jpg",
    "id_album": "770105808",
    "description": "Kingfisher_382078",
    "title": "Kingfisher_382078",
    "link_img": "https://live.staticflickr.com/65535/50022054152_e8e9d3f7a5_o.jpg",
    "id_image": "Kingfisher_382078",
    "count_view": 0
  },
  {
    "link_thumb": "https://live.staticflickr.com/65535/50019498821_594ae35c52_n.jpg",
    "id_album": "-462831703",
    "description": "Cat_939159",
    "title": "Cat_939159",
    "link_img": "https://live.staticflickr.com/65535/50019498821_ed19014d50_o.jpg",
    "id_image": "Cat_939159",
    "count_view": 0
  },
  {
    "link_thumb": "https://live.staticflickr.com/65535/50024542257_e9901108ca_n.jpg",
    "id_album": "-1103743486",
    "description": "Toucan_684470",
    "title": "Toucan_684470",
    "link_img": "https://live.staticflickr.com/65535/50024542257_13e7c2f24b_o.jpg",
    "id_image": "Toucan_684470",
    "count_view": 0
  },
  {
    "link_thumb": "https://live.staticflickr.com/65535/50021444172_db0620d31e_n.jpg",
    "id_album": "-462831704",
    "description": "Cat_708649",
    "title": "Cat_708649",
    "link_img": "https://live.staticflickr.com/65535/50021444172_441c25348f_o.jpg",
    "id_image": "Cat_708649",
    "count_view": 0
  },
  {
    "link_thumb": "https://live.staticflickr.com/65535/50018056676_51a82e5888_n.jpg",
    "id_album": "-462831702",
    "description": "Cat_361699",
    "title": "Cat_361699",
    "link_img": "https://live.staticflickr.com/65535/50018056676_2f08b4d928_o.jpg",
    "id_image": "Cat_361699",
    "count_view": 0
  },
  {
    "link_thumb": "https://live.staticflickr.com/65535/50021290968_98197455ab_n.jpg",
    "id_album": "1307335982",
    "description": "LabradorRetriever_807735",
    "title": "LabradorRetriever_807735",
    "link_img": "https://live.staticflickr.com/65535/50021290968_af1dda517a_o.jpg",
    "id_image": "LabradorRetriever_807735",
    "count_view": 0
  },
  {
    "link_thumb": "https://live.staticflickr.com/65535/50017420027_3e380ff4f5_n.jpg",
    "id_album": "1699594607",
    "description": "Bee_737248",
    "title": "Bee_737248",
    "link_img": "https://live.staticflickr.com/65535/50017420027_ce1bbf9d95_o.jpg",
    "id_image": "Bee_737248",
    "count_view": 0
  },
  {
    "link_thumb": "https://live.staticflickr.com/65535/50023593678_eaa217d647_n.jpg",
    "id_album": "405170427",
    "description": "Tiger_460162",
    "title": "Tiger_460162",
    "link_img": "https://live.staticflickr.com/65535/50023593678_3b42494990_o.jpg",
    "id_image": "Tiger_460162",
    "count_view": 0
  },
  {
    "link_thumb": "https://live.staticflickr.com/65535/50021552501_b0695226ed_n.jpg",
    "id_album": "-1933715543",
    "description": "Horse_701561",
    "title": "Horse_701561",
    "link_img": "https://live.staticflickr.com/65535/50021552501_79099df472_o.jpg",
    "id_image": "Horse_701561",
    "count_view": 0
  },
  {
    "link_thumb": "https://live.staticflickr.com/65535/50017552007_f2bd592dea_n.jpg",
    "id_album": "-1846011410",
    "description": "Bird_385011",
    "title": "Bird_385011",
    "link_img": "https://live.staticflickr.com/65535/50017552007_7ee5932e2e_o.jpg",
    "id_image": "Bird_385011",
    "count_view": 0
  },
  {
    "link_thumb": "https://live.staticflickr.com/65535/50020556027_19a5247545_n.jpg",
    "id_album": "-149330232",
    "description": "Dog_350203",
    "title": "Dog_350203",
    "link_img": "https://live.staticflickr.com/65535/50020556027_4819686dbf_o.jpg",
    "id_image": "Dog_350203",
    "count_view": 0
  },
  {
    "link_thumb": "https://live.staticflickr.com/65535/50020176973_d6faa9083c_n.jpg",
    "id_album": "-39098563",
    "description": "Eagle_468893",
    "title": "Eagle_468893",
    "link_img": "https://live.staticflickr.com/65535/50020176973_948c6c51f0_o.jpg",
    "id_image": "Eagle_468893",
    "count_view": 0
  },
  {
    "link_thumb": "https://live.staticflickr.com/65535/50022827238_bdbeb2b6b2_n.jpg",
    "id_album": "1656131695",
    "description": "Seagull_468396",
    "title": "Seagull_468396",
    "link_img": "https://live.staticflickr.com/65535/50022827238_fd06ac2104_o.jpg",
    "id_image": "Seagull_468396",
    "count_view": 0
  },
  {
    "link_thumb": "https://live.staticflickr.com/65535/50017434128_04e34e05f0_n.jpg",
    "id_album": "-462831702",
    "description": "Cat_320610",
    "title": "Cat_320610",
    "link_img": "https://live.staticflickr.com/65535/50017434128_6c5a70025a_o.jpg",
    "id_image": "Cat_320610",
    "count_view": 0
  },
  {
    "link_thumb": "https://live.staticflickr.com/65535/50019621031_915d77222e_n.jpg",
    "id_album": "1889777354",
    "description": "CGI_188365",
    "title": "CGI_188365",
    "link_img": "https://live.staticflickr.com/65535/50019621031_75d76e0690_o.jpg",
    "id_image": "CGI_188365",
    "count_view": 0
  },
  {
    "link_thumb": "https://live.staticflickr.com/65535/50017510477_28443feb17_n.jpg",
    "id_album": "-1846011410",
    "description": "Bird_340666",
    "title": "Bird_340666",
    "link_img": "https://live.staticflickr.com/65535/50017510477_27ba90cee9_o.jpg",
    "id_image": "Bird_340666",
    "count_view": 0
  },
  {
    "link_thumb": "https://live.staticflickr.com/65535/50022148847_71b07468b7_n.jpg",
    "id_album": "1392348450",
    "description": "Leopard_247231",
    "title": "Leopard_247231",
    "link_img": "https://live.staticflickr.com/65535/50022148847_8c4fa033af_o.jpg",
    "id_image": "Leopard_247231",
    "count_view": 0
  },
  {
    "link_thumb": "https://live.staticflickr.com/65535/50017123742_52f3c13134_n.jpg",
    "id_album": "523598895",
    "description": "Artistic_115071",
    "title": "Artistic_115071",
    "link_img": "https://live.staticflickr.com/65535/50017123742_8af722167b_o.jpg",
    "id_image": "Artistic_115071",
    "count_view": 0
  },
  {
    "link_thumb": "https://live.staticflickr.com/65535/50018402872_4b61a15c5a_n.jpg",
    "id_album": "-462831702",
    "description": "Cat_401368",
    "title": "Cat_401368",
    "link_img": "https://live.staticflickr.com/65535/50018402872_845a3c8e7f_o.jpg",
    "id_image": "Cat_401368",
    "count_view": 0
  },
  {
    "link_thumb": "https://live.staticflickr.com/65535/50020664761_016e90a998_n.jpg",
    "id_album": "1168627767",
    "description": "Duck_571735",
    "title": "Duck_571735",
    "link_img": "https://live.staticflickr.com/65535/50020664761_fd7cefb28c_o.jpg",
    "id_image": "Duck_571735",
    "count_view": 0
  },
  {
    "link_thumb": "https://live.staticflickr.com/65535/50352009003_2ac239d399_n.jpg",
    "id_album": "-462831702",
    "description": "Cat_86688",
    "title": "Cat_86688",
    "link_img": "https://live.staticflickr.com/65535/50352009003_f95aafc41c_o.jpg",
    "id_image": "Cat_86688",
    "count_view": 0
  },
  {
    "link_thumb": "https://live.staticflickr.com/65535/50352660737_520ae09c68_n.jpg",
    "id_album": "-462831703",
    "description": "Cat_411190",
    "title": "Cat_411190",
    "link_img": "https://live.staticflickr.com/65535/50352660737_325641f481_o.jpg",
    "id_image": "Cat_411190",
    "count_view": 0
  },
  {
    "link_thumb": "https://live.staticflickr.com/65535/50020920673_f47c9a45cb_n.jpg",
    "id_album": "-1933715543",
    "description": "Horse_124148",
    "title": "Horse_124148",
    "link_img": "https://live.staticflickr.com/65535/50020920673_88ec5e2ea2_o.jpg",
    "id_image": "Horse_124148",
    "count_view": 0
  },
  {
    "link_thumb": "https://live.staticflickr.com/65535/50021800346_6fbc7f2dfa_n.jpg",
    "id_album": "770105808",
    "description": "Kingfisher_433202",
    "title": "Kingfisher_433202",
    "link_img": "https://live.staticflickr.com/65535/50021800346_d66c294db6_o.jpg",
    "id_image": "Kingfisher_433202",
    "count_view": 0
  },
  {
    "link_thumb": "https://live.staticflickr.com/65535/50023746843_5b22bb14c9_n.jpg",
    "id_album": "901523298",
    "description": "TreeFrog_425281",
    "title": "TreeFrog_425281",
    "link_img": "https://live.staticflickr.com/65535/50023746843_6a9a1bd024_o.jpg",
    "id_image": "TreeFrog_425281",
    "count_view": 0
  },
  {
    "link_thumb": "https://live.staticflickr.com/65535/50019217566_e842b1206f_n.jpg",
    "id_album": "-462831704",
    "description": "Cat_449028",
    "title": "Cat_449028",
    "link_img": "https://live.staticflickr.com/65535/50019217566_4beec38ab6_o.jpg",
    "id_image": "Cat_449028",
    "count_view": 0
  },
  {
    "link_thumb": "https://live.staticflickr.com/65535/50017763682_3fe82f7807_n.jpg",
    "id_album": "782930701",
    "description": "BorderCollie_866779",
    "title": "BorderCollie_866779",
    "link_img": "https://live.staticflickr.com/65535/50017763682_15aebceb35_o.jpg",
    "id_image": "BorderCollie_866779",
    "count_view": 0
  },
  {
    "link_thumb": "https://live.staticflickr.com/65535/50020346347_3991e1624c_n.jpg",
    "id_album": "297232732",
    "description": "Dinosaur_418774",
    "title": "Dinosaur_418774",
    "link_img": "https://live.staticflickr.com/65535/50020346347_b4f8803541_o.jpg",
    "id_image": "Dinosaur_418774",
    "count_view": 0
  },
  {
    "link_thumb": "https://live.staticflickr.com/65535/50023208561_c725a80d80_n.jpg",
    "id_album": "332874268",
    "description": "RedPanda_363226",
    "title": "RedPanda_363226",
    "link_img": "https://live.staticflickr.com/65535/50023208561_89671ed277_o.jpg",
    "id_image": "RedPanda_363226",
    "count_view": 0
  },
  {
    "link_thumb": "https://live.staticflickr.com/65535/50021471092_e04fdece1d_n.jpg",
    "id_album": "-462831703",
    "description": "Cat_738451",
    "title": "Cat_738451",
    "link_img": "https://live.staticflickr.com/65535/50021471092_2e0199532c_o.jpg",
    "id_image": "Cat_738451",
    "count_view": 0
  },
  {
    "link_thumb": "https://live.staticflickr.com/65535/50017462446_bed7840d11_n.jpg",
    "id_album": "-530283314",
    "description": "BlueandyellowMacaw_355048",
    "title": "BlueandyellowMacaw_355048",
    "link_img": "https://live.staticflickr.com/65535/50017462446_12716c4908_o.jpg",
    "id_image": "BlueandyellowMacaw_355048",
    "count_view": 0
  },
  {
    "link_thumb": "https://live.staticflickr.com/65535/50018283902_111dd9eed9_n.jpg",
    "id_album": "-462831702",
    "description": "Cat_346798",
    "title": "Cat_346798",
    "link_img": "https://live.staticflickr.com/65535/50018283902_921be960ef_o.jpg",
    "id_image": "Cat_346798",
    "count_view": 0
  },
  {
    "link_thumb": "https://live.staticflickr.com/65535/50020285528_ba60b1b89e_n.jpg",
    "id_album": "-1118073211",
    "description": "Fish_113782",
    "title": "Fish_113782",
    "link_img": "https://live.staticflickr.com/65535/50020285528_484e7b6f11_o.jpg",
    "id_image": "Fish_113782",
    "count_view": 0
  },
  {
    "link_thumb": "https://live.staticflickr.com/65535/50018867098_af6be7c0b4_n.jpg",
    "id_album": "-462831703",
    "description": "Cat_885608",
    "title": "Cat_885608",
    "link_img": "https://live.staticflickr.com/65535/50018867098_d263505ce6_o.jpg",
    "id_image": "Cat_885608",
    "count_view": 0
  },
  {
    "link_thumb": "https://live.staticflickr.com/65535/50020202006_499d64d74c_n.jpg",
    "id_album": "-149330232",
    "description": "Dog_271699",
    "title": "Dog_271699",
    "link_img": "https://live.staticflickr.com/65535/50020202006_d31bab48ed_o.jpg",
    "id_image": "Dog_271699",
    "count_view": 0
  },
  {
    "link_thumb": "https://live.staticflickr.com/65535/50022224187_9cbfd93830_n.jpg",
    "id_album": "416744915",
    "description": "Lion_112344",
    "title": "Lion_112344",
    "link_img": "https://live.staticflickr.com/65535/50022224187_50c219166a_o.jpg",
    "id_image": "Lion_112344",
    "count_view": 0
  },
  {
    "link_thumb": "https://live.staticflickr.com/65535/50021479367_3617a90f7c_n.jpg",
    "id_album": "-462831703",
    "description": "Cat_746710",
    "title": "Cat_746710",
    "link_img": "https://live.staticflickr.com/65535/50021479367_ed3ec6abe8_o.jpg",
    "id_image": "Cat_746710",
    "count_view": 0
  },
  {
    "link_thumb": "https://live.staticflickr.com/65535/50019700436_fa3c6d9105_n.jpg",
    "id_album": "-1481843714",
    "description": "Cheetah_384833",
    "title": "Cheetah_384833",
    "link_img": "https://live.staticflickr.com/65535/50019700436_153e2f30e3_o.jpg",
    "id_image": "Cheetah_384833",
    "count_view": 0
  },
  {
    "link_thumb": "https://live.staticflickr.com/65535/50020468213_4415bc3ba5_n.jpg",
    "id_album": "-128218148",
    "description": "Fox_833407",
    "title": "Fox_833407",
    "link_img": "https://live.staticflickr.com/65535/50020468213_f6fa496787_o.jpg",
    "id_image": "Fox_833407",
    "count_view": 0
  },
  {
    "link_thumb": "https://live.staticflickr.com/65535/50019643833_2158ff268e_n.jpg",
    "id_album": "-149330232",
    "description": "Dog_244343",
    "title": "Dog_244343",
    "link_img": "https://live.staticflickr.com/65535/50019643833_a5afb2e821_o.jpg",
    "id_image": "Dog_244343",
    "count_view": 0
  },
  {
    "link_thumb": "https://live.staticflickr.com/65535/50019439183_b68e88e5f5_n.jpg",
    "id_album": "-1783645069",
    "description": "Dalmatian_837354",
    "title": "Dalmatian_837354",
    "link_img": "https://live.staticflickr.com/65535/50019439183_516f8dc626_o.jpg",
    "id_image": "Dalmatian_837354",
    "count_view": 0
  },
  {
    "link_thumb": "https://live.staticflickr.com/65535/50018879058_ba914545a1_n.jpg",
    "id_album": "-462831703",
    "description": "Cat_898222",
    "title": "Cat_898222",
    "link_img": "https://live.staticflickr.com/65535/50018879058_d29aa0db05_o.jpg",
    "id_image": "Cat_898222",
    "count_view": 0
  },
  {
    "link_thumb": "https://live.staticflickr.com/65535/50017921092_d682b74507_n.jpg",
    "id_album": "-401151552",
    "description": "Butterfly_749989",
    "title": "Butterfly_749989",
    "link_img": "https://live.staticflickr.com/65535/50017921092_023ae4fcf1_o.jpg",
    "id_image": "Butterfly_749989",
    "count_view": 0
  },
  {
    "link_thumb": "https://live.staticflickr.com/65535/50022196942_6264e832c7_n.jpg",
    "id_album": "1392348450",
    "description": "Leopard_593061",
    "title": "Leopard_593061",
    "link_img": "https://live.staticflickr.com/65535/50022196942_0cdba4165b_o.jpg",
    "id_image": "Leopard_593061",
    "count_view": 0
  },
  {
    "link_thumb": "https://live.staticflickr.com/65535/50019698088_a42cf56720_n.jpg",
    "id_album": "-149330232",
    "description": "Dog_303552",
    "title": "Dog_303552",
    "link_img": "https://live.staticflickr.com/65535/50019698088_f8562731e1_o.jpg",
    "id_image": "Dog_303552",
    "count_view": 0
  },
  {
    "link_thumb": "https://live.staticflickr.com/65535/50019620126_44e36912a3_n.jpg",
    "id_album": "1889777354",
    "description": "CGI_179095",
    "title": "CGI_179095",
    "link_img": "https://live.staticflickr.com/65535/50019620126_f774698c84_o.jpg",
    "id_image": "CGI_179095",
    "count_view": 0
  },
  {
    "link_thumb": "https://live.staticflickr.com/65535/50022692418_33fe927563_n.jpg",
    "id_album": "332874268",
    "description": "RedPanda_806638",
    "title": "RedPanda_806638",
    "link_img": "https://live.staticflickr.com/65535/50022692418_a31f93c6ab_o.jpg",
    "id_image": "RedPanda_806638",
    "count_view": 0
  },
  {
    "link_thumb": "https://live.staticflickr.com/65535/50019398098_2c3fe2f485_n.jpg",
    "id_album": "1273365283",
    "description": "Cute_277822",
    "title": "Cute_277822",
    "link_img": "https://live.staticflickr.com/65535/50019398098_841a8278b9_o.jpg",
    "id_image": "Cute_277822",
    "count_view": 0
  },
  {
    "link_thumb": "https://live.staticflickr.com/65535/50020605386_4eb3fd1256_n.jpg",
    "id_album": "-405058657",
    "description": "Dragonfly_272315",
    "title": "Dragonfly_272315",
    "link_img": "https://live.staticflickr.com/65535/50020605386_197968212f_o.jpg",
    "id_image": "Dragonfly_272315",
    "count_view": 0
  },
  {
    "link_thumb": "https://live.staticflickr.com/65535/50023763367_1018db78e6_n.jpg",
    "id_album": "692487763",
    "description": "SiberianHusky_966226",
    "title": "SiberianHusky_966226",
    "link_img": "https://live.staticflickr.com/65535/50023763367_822e2ec514_o.jpg",
    "id_image": "SiberianHusky_966226",
    "count_view": 0
  },
  {
    "link_thumb": "https://live.staticflickr.com/65535/50022095622_f2cd7fcd3c_n.jpg",
    "id_album": "-1882491687",
    "description": "Ladybug_212176",
    "title": "Ladybug_212176",
    "link_img": "https://live.staticflickr.com/65535/50022095622_864998e9f4_o.jpg",
    "id_image": "Ladybug_212176",
    "count_view": 0
  },
  {
    "link_thumb": "https://live.staticflickr.com/65535/50017008321_de803a0548_n.jpg",
    "id_album": "-422187261",
    "description": "Bear_207881",
    "title": "Bear_207881",
    "link_img": "https://live.staticflickr.com/65535/50017008321_ac8207583a_o.jpg",
    "id_image": "Bear_207881",
    "count_view": 0
  },
  {
    "link_thumb": "https://live.staticflickr.com/65535/50022854358_fbc45a310e_n.jpg",
    "id_album": "1961094930",
    "description": "Seal_219175",
    "title": "Seal_219175",
    "link_img": "https://live.staticflickr.com/65535/50022854358_2d82773b7b_o.jpg",
    "id_image": "Seal_219175",
    "count_view": 0
  },
  {
    "link_thumb": "https://live.staticflickr.com/65535/50017875626_1d6ba37cbf_n.jpg",
    "id_album": "-462831705",
    "description": "Cat_225387",
    "title": "Cat_225387",
    "link_img": "https://live.staticflickr.com/65535/50017875626_d7db7b90c0_o.jpg",
    "id_image": "Cat_225387",
    "count_view": 0
  },
  {
    "link_thumb": "https://live.staticflickr.com/65535/50021073743_d1e5f5345e_n.jpg",
    "id_album": "2144294979",
    "description": "Hummingbird_577781",
    "title": "Hummingbird_577781",
    "link_img": "https://live.staticflickr.com/65535/50021073743_616d006e3c_o.jpg",
    "id_image": "Hummingbird_577781",
    "count_view": 0
  },
  {
    "link_thumb": "https://live.staticflickr.com/65535/50021100276_24aa34634f_n.jpg",
    "id_album": "-462831704",
    "description": "Cat_543076",
    "title": "Cat_543076",
    "link_img": "https://live.staticflickr.com/65535/50021100276_555bd982aa_o.jpg",
    "id_image": "Cat_543076",
    "count_view": 0
  },
  {
    "link_thumb": "https://live.staticflickr.com/65535/50018361817_58e94f4263_n.jpg",
    "id_album": "-462831702",
    "description": "Cat_375261",
    "title": "Cat_375261",
    "link_img": "https://live.staticflickr.com/65535/50018361817_2ed783f6a1_o.jpg",
    "id_image": "Cat_375261",
    "count_view": 0
  },
  {
    "link_thumb": "https://live.staticflickr.com/65535/50022008061_71498fdb9d_n.jpg",
    "id_album": "416744915",
    "description": "Lion_399080",
    "title": "Lion_399080",
    "link_img": "https://live.staticflickr.com/65535/50022008061_0d858b9966_o.jpg",
    "id_image": "Lion_399080",
    "count_view": 0
  },
  {
    "link_thumb": "https://live.staticflickr.com/65535/50022426437_ceffd598ca_n.jpg",
    "id_album": "1894617400",
    "description": "Lynx_888198",
    "title": "Lynx_888198",
    "link_img": "https://live.staticflickr.com/65535/50022426437_12fe0121fa_o.jpg",
    "id_image": "Lynx_888198",
    "count_view": 0
  },
  {
    "link_thumb": "https://live.staticflickr.com/65535/50022180542_847e2bf978_n.jpg",
    "id_album": "1392348450",
    "description": "Leopard_422915",
    "title": "Leopard_422915",
    "link_img": "https://live.staticflickr.com/65535/50022180542_a11a4f3d7c_o.jpg",
    "id_image": "Leopard_422915",
    "count_view": 0
  },
  {
    "link_thumb": "https://live.staticflickr.com/65535/50018188727_568aaa2978_n.jpg",
    "id_album": "-462831705",
    "description": "Cat_275306",
    "title": "Cat_275306",
    "link_img": "https://live.staticflickr.com/65535/50018188727_6865eb02ff_o.jpg",
    "id_image": "Cat_275306",
    "count_view": 0
  },
  {
    "link_thumb": "https://live.staticflickr.com/65535/50019576208_b4f40bd433_n.jpg",
    "id_album": "297232732",
    "description": "Dinosaur_875436",
    "title": "Dinosaur_875436",
    "link_img": "https://live.staticflickr.com/65535/50019576208_8362523994_o.jpg",
    "id_image": "Dinosaur_875436",
    "count_view": 0
  },
  {
    "link_thumb": "https://live.staticflickr.com/65535/50021716152_b051214882_n.jpg",
    "id_album": "-1933715543",
    "description": "Horse_148881",
    "title": "Horse_148881",
    "link_img": "https://live.staticflickr.com/65535/50021716152_0244f2a3ef_o.jpg",
    "id_image": "Horse_148881",
    "count_view": 0
  },
  {
    "link_thumb": "https://live.staticflickr.com/65535/50017235128_1d2ce56159_n.jpg",
    "id_album": "-462831705",
    "description": "Cat_115551",
    "title": "Cat_115551",
    "link_img": "https://live.staticflickr.com/65535/50017235128_638a2a0392_o.jpg",
    "id_image": "Cat_115551",
    "count_view": 0
  },
  {
    "link_thumb": "https://live.staticflickr.com/65535/50352425011_af97f9e7f0_n.jpg",
    "id_album": "-462831703",
    "description": "Cat_206959",
    "title": "Cat_206959",
    "link_img": "https://live.staticflickr.com/65535/50352425011_7660e839e5_o.jpg",
    "id_image": "Cat_206959",
    "count_view": 0
  },
  {
    "link_thumb": "https://live.staticflickr.com/65535/50021804261_af83111ecf_n.jpg",
    "id_album": "770105808",
    "description": "Kingfisher_593951",
    "title": "Kingfisher_593951",
    "link_img": "https://live.staticflickr.com/65535/50021804261_d3fc25d34d_o.jpg",
    "id_image": "Kingfisher_593951",
    "count_view": 0
  },
  {
    "link_thumb": "https://live.staticflickr.com/65535/50017524081_f762b07817_n.jpg",
    "id_album": "368532157",
    "description": "Bulldog_336442",
    "title": "Bulldog_336442",
    "link_img": "https://live.staticflickr.com/65535/50017524081_01a553fa2b_o.jpg",
    "id_image": "Bulldog_336442",
    "count_view": 0
  },
  {
    "link_thumb": "https://live.staticflickr.com/65535/50022803262_441ffdc658_n.jpg",
    "id_album": "-358592519",
    "description": "Panda_597452",
    "title": "Panda_597452",
    "link_img": "https://live.staticflickr.com/65535/50022803262_2eba16d4e1_o.jpg",
    "id_image": "Panda_597452",
    "count_view": 0
  },
  {
    "link_thumb": "https://live.staticflickr.com/65535/50017063671_95a3271ca4_n.jpg",
    "id_album": "-422187261",
    "description": "Bear_667839",
    "title": "Bear_667839",
    "link_img": "https://live.staticflickr.com/65535/50017063671_3f10017205_o.jpg",
    "id_image": "Bear_667839",
    "count_view": 0
  },
  {
    "link_thumb": "https://live.staticflickr.com/65535/50017386077_fd23d5e772_n.jpg",
    "id_album": "1699594607",
    "description": "Bee_337810",
    "title": "Bee_337810",
    "link_img": "https://live.staticflickr.com/65535/50017386077_d937c5858d_o.jpg",
    "id_image": "Bee_337810",
    "count_view": 0
  },
  {
    "link_thumb": "https://live.staticflickr.com/65535/50018086302_9e091278dd_n.jpg",
    "id_album": "-462831705",
    "description": "Cat_181130",
    "title": "Cat_181130",
    "link_img": "https://live.staticflickr.com/65535/50018086302_a625eef4fd_o.jpg",
    "id_image": "Cat_181130",
    "count_view": 0
  },
  {
    "link_thumb": "https://live.staticflickr.com/65535/50016306918_856bbbed91_n.jpg",
    "id_album": "-1741290715",
    "description": "Ant_440367",
    "title": "Ant_440367",
    "link_img": "https://live.staticflickr.com/65535/50016306918_69c814abe5_o.jpg",
    "id_image": "Ant_440367",
    "count_view": 0
  },
  {
    "link_thumb": "https://live.staticflickr.com/65535/50017170662_2d724cbd69_n.jpg",
    "id_album": "523598895",
    "description": "Artistic_55234",
    "title": "Artistic_55234",
    "link_img": "https://live.staticflickr.com/65535/50017170662_90940a396b_o.jpg",
    "id_image": "Artistic_55234",
    "count_view": 0
  },
  {
    "link_thumb": "https://live.staticflickr.com/65535/50020279712_c1d975f188_n.jpg",
    "id_album": "1903411565",
    "description": "Deer_546310",
    "title": "Deer_546310",
    "link_img": "https://live.staticflickr.com/65535/50020279712_eecf6fecf0_o.jpg",
    "id_image": "Deer_546310",
    "count_view": 0
  },
  {
    "link_thumb": "https://live.staticflickr.com/65535/50017159883_576db0a3be_n.jpg",
    "id_album": "-401151552",
    "description": "Butterfly_879452",
    "title": "Butterfly_879452",
    "link_img": "https://live.staticflickr.com/65535/50017159883_56054d308f_o.jpg",
    "id_image": "Butterfly_879452",
    "count_view": 0
  },
  {
    "link_thumb": "https://live.staticflickr.com/65535/50019781197_34921492f0_n.jpg",
    "id_album": "-462831703",
    "description": "Cat_960301",
    "title": "Cat_960301",
    "link_img": "https://live.staticflickr.com/65535/50019781197_59060ef791_o.jpg",
    "id_image": "Cat_960301",
    "count_view": 0
  },
  {
    "link_thumb": "https://live.staticflickr.com/65535/50019979733_9c8baa29e3_n.jpg",
    "id_album": "-149330231",
    "description": "Dog_778576",
    "title": "Dog_778576",
    "link_img": "https://live.staticflickr.com/65535/50019979733_cbb0ea603a_o.jpg",
    "id_image": "Dog_778576",
    "count_view": 0
  },
  {
    "link_thumb": "https://live.staticflickr.com/65535/50023969543_6c94435c8d_n.jpg",
    "id_album": "-709711865",
    "description": "Wolf_534860",
    "title": "Wolf_534860",
    "link_img": "https://live.staticflickr.com/65535/50023969543_88df3f9218_o.jpg",
    "id_image": "Wolf_534860",
    "count_view": 0
  },
  {
    "link_thumb": "https://live.staticflickr.com/65535/50021373181_c49e39ac9a_n.jpg",
    "id_album": "2060159334",
    "description": "GoldenRetriever_978395",
    "title": "GoldenRetriever_978395",
    "link_img": "https://live.staticflickr.com/65535/50021373181_c88e11d4ab_o.jpg",
    "id_image": "GoldenRetriever_978395",
    "count_view": 0
  },
  {
    "link_thumb": "https://live.staticflickr.com/65535/50020333551_f7d47d29ae_n.jpg",
    "id_album": "-149330232",
    "description": "Dog_366944",
    "title": "Dog_366944",
    "link_img": "https://live.staticflickr.com/65535/50020333551_920a5f8b14_o.jpg",
    "id_image": "Dog_366944",
    "count_view": 0
  },
  {
    "link_thumb": "https://live.staticflickr.com/65535/50024327212_4f78c022da_n.jpg",
    "id_album": "405170427",
    "description": "Tiger_343453",
    "title": "Tiger_343453",
    "link_img": "https://live.staticflickr.com/65535/50024327212_1c56fcb96e_o.jpg",
    "id_image": "Tiger_343453",
    "count_view": 0
  },
  {
    "link_thumb": "https://live.staticflickr.com/65535/50017345118_e249157c09_n.jpg",
    "id_album": "-462831705",
    "description": "Cat_223247",
    "title": "Cat_223247",
    "link_img": "https://live.staticflickr.com/65535/50017345118_0abd9e1201_o.jpg",
    "id_image": "Cat_223247",
    "count_view": 0
  },
  {
    "link_thumb": "https://live.staticflickr.com/65535/50352665217_0912140abd_n.jpg",
    "id_album": "-462831703",
    "description": "Cat_417295",
    "title": "Cat_417295",
    "link_img": "https://live.staticflickr.com/65535/50352665217_b64b067828_o.jpg",
    "id_image": "Cat_417295",
    "count_view": 0
  },
  {
    "link_thumb": "https://live.staticflickr.com/65535/50023644442_e100e21fda_n.jpg",
    "id_album": "1656131695",
    "description": "Seagull_712035",
    "title": "Seagull_712035",
    "link_img": "https://live.staticflickr.com/65535/50023644442_0b2d8e9389_o.jpg",
    "id_image": "Seagull_712035",
    "count_view": 0
  },
  {
    "link_thumb": "https://live.staticflickr.com/65535/50021798031_6a13b4666a_n.jpg",
    "id_album": "770105808",
    "description": "Kingfisher_367349",
    "title": "Kingfisher_367349",
    "link_img": "https://live.staticflickr.com/65535/50021798031_38425fc608_o.jpg",
    "id_image": "Kingfisher_367349",
    "count_view": 0
  },
  {
    "link_thumb": "https://live.staticflickr.com/65535/50021225612_4c1e0cdffa_n.jpg",
    "id_album": "-128218148",
    "description": "Fox_533674",
    "title": "Fox_533674",
    "link_img": "https://live.staticflickr.com/65535/50021225612_8baf996f7d_o.jpg",
    "id_image": "Fox_533674",
    "count_view": 0
  },
  {
    "link_thumb": "https://live.staticflickr.com/65535/50352584531_64880723e1_n.jpg",
    "id_album": "-462831703",
    "description": "Cat_522982",
    "title": "Cat_522982",
    "link_img": "https://live.staticflickr.com/65535/50352584531_6e33e7ed2f_o.jpg",
    "id_image": "Cat_522982",
    "count_view": 0
  },
  {
    "link_thumb": "https://live.staticflickr.com/65535/50022793796_24dbba4e55_n.jpg",
    "id_album": "1008910300",
    "description": "PolarBear_247544",
    "title": "PolarBear_247544",
    "link_img": "https://live.staticflickr.com/65535/50022793796_2329f7dfe9_o.jpg",
    "id_image": "PolarBear_247544",
    "count_view": 0
  },
  {
    "link_thumb": "https://live.staticflickr.com/65535/50020074537_8a0173b179_n.jpg",
    "id_album": "-1868680171",
    "description": "Cougar_435580",
    "title": "Cougar_435580",
    "link_img": "https://live.staticflickr.com/65535/50020074537_fb4156a8e6_o.jpg",
    "id_image": "Cougar_435580",
    "count_view": 0
  },
  {
    "link_thumb": "https://live.staticflickr.com/65535/50021607203_5472322916_n.jpg",
    "id_album": "1894617400",
    "description": "Lynx_454127",
    "title": "Lynx_454127",
    "link_img": "https://live.staticflickr.com/65535/50021607203_04c5c6b901_o.jpg",
    "id_image": "Lynx_454127",
    "count_view": 0
  },
  {
    "link_thumb": "https://live.staticflickr.com/65535/50352587751_7daee38b47_n.jpg",
    "id_album": "-462831703",
    "description": "Cat_526588",
    "title": "Cat_526588",
    "link_img": "https://live.staticflickr.com/65535/50352587751_117f7102df_o.jpg",
    "id_image": "Cat_526588",
    "count_view": 0
  },
  {
    "link_thumb": "https://live.staticflickr.com/65535/50016302963_484ac74e2c_n.jpg",
    "id_album": "-1741290715",
    "description": "Ant_370239",
    "title": "Ant_370239",
    "link_img": "https://live.staticflickr.com/65535/50016302963_0be189cb4d_o.jpg",
    "id_image": "Ant_370239",
    "count_view": 0
  },
  {
    "link_thumb": "https://live.staticflickr.com/65535/50017983347_dc07983b93_n.jpg",
    "id_album": "-401151552",
    "description": "Butterfly_99423",
    "title": "Butterfly_99423",
    "link_img": "https://live.staticflickr.com/65535/50017983347_5308a0bea9_o.jpg",
    "id_image": "Butterfly_99423",
    "count_view": 0
  },
  {
    "link_thumb": "https://live.staticflickr.com/65535/50022396026_ff776a51f7_n.jpg",
    "id_album": "-1384601601",
    "description": "Owl_343284",
    "title": "Owl_343284",
    "link_img": "https://live.staticflickr.com/65535/50022396026_aea1c96b56_o.jpg",
    "id_image": "Owl_343284",
    "count_view": 0
  },
  {
    "link_thumb": "https://live.staticflickr.com/65535/50021882242_610a46d407_n.jpg",
    "id_album": "-712553376",
    "description": "Husky_361464",
    "title": "Husky_361464",
    "link_img": "https://live.staticflickr.com/65535/50021882242_94b8970523_o.jpg",
    "id_image": "Husky_361464",
    "count_view": 0
  },
  {
    "link_thumb": "https://live.staticflickr.com/65535/50022747202_5f7e552b50_n.jpg",
    "id_album": "-1384601601",
    "description": "Owl_853206",
    "title": "Owl_853206",
    "link_img": "https://live.staticflickr.com/65535/50022747202_0befe3811d_o.jpg",
    "id_image": "Owl_853206",
    "count_view": 0
  },
  {
    "link_thumb": "https://live.staticflickr.com/65535/50018192617_21455f933e_n.jpg",
    "id_album": "-462831702",
    "description": "Cat_276089",
    "title": "Cat_276089",
    "link_img": "https://live.staticflickr.com/65535/50018192617_b4e9b8315b_o.jpg",
    "id_image": "Cat_276089",
    "count_view": 0
  },
  {
    "link_thumb": "https://live.staticflickr.com/65535/50023438637_c93026a16c_n.jpg",
    "id_album": "-434874555",
    "description": "RainbowLorikeet_792303",
    "title": "RainbowLorikeet_792303",
    "link_img": "https://live.staticflickr.com/65535/50023438637_3e12ff9139_o.jpg",
    "id_image": "RainbowLorikeet_792303",
    "count_view": 0
  },
  {
    "link_thumb": "https://live.staticflickr.com/65535/50019684062_00fbbb27e8_n.jpg",
    "id_album": "-462831703",
    "description": "Cat_905048",
    "title": "Cat_905048",
    "link_img": "https://live.staticflickr.com/65535/50019684062_4881e0a69b_o.jpg",
    "id_image": "Cat_905048",
    "count_view": 0
  },
  {
    "link_thumb": "https://live.staticflickr.com/65535/50020910401_e1bc574e5d_n.jpg",
    "id_album": "-1758557371",
    "description": "Flamingo_760770",
    "title": "Flamingo_760770",
    "link_img": "https://live.staticflickr.com/65535/50020910401_a6e0fbca8e_o.jpg",
    "id_image": "Flamingo_760770",
    "count_view": 0
  },
  {
    "link_thumb": "https://live.staticflickr.com/65535/50017459311_afca782c96_n.jpg",
    "id_album": "-530283314",
    "description": "BlueandyellowMacaw_124036",
    "title": "BlueandyellowMacaw_124036",
    "link_img": "https://live.staticflickr.com/65535/50017459311_83cc8238ef_o.jpg",
    "id_image": "BlueandyellowMacaw_124036",
    "count_view": 0
  },
  {
    "link_thumb": "https://live.staticflickr.com/65535/50019012098_472c81a803_n.jpg",
    "id_album": "-462831703",
    "description": "Cat_975039",
    "title": "Cat_975039",
    "link_img": "https://live.staticflickr.com/65535/50019012098_b4b2189f9f_o.jpg",
    "id_image": "Cat_975039",
    "count_view": 0
  },
  {
    "link_thumb": "https://live.staticflickr.com/65535/50022026208_92380ab78d_n.jpg",
    "id_album": "405592235",
    "description": "Parrot_414134",
    "title": "Parrot_414134",
    "link_img": "https://live.staticflickr.com/65535/50022026208_257d5b2586_o.jpg",
    "id_image": "Parrot_414134",
    "count_view": 0
  },
  {
    "link_thumb": "https://live.staticflickr.com/65535/50020758357_7049ee501b_n.jpg",
    "id_album": "-149330231",
    "description": "Dog_737949",
    "title": "Dog_737949",
    "link_img": "https://live.staticflickr.com/65535/50020758357_730f068753_o.jpg",
    "id_image": "Dog_737949",
    "count_view": 0
  },
  {
    "link_thumb": "https://live.staticflickr.com/65535/50351766713_0ecfe2343e_n.jpg",
    "id_album": "-462831703",
    "description": "Cat_360084",
    "title": "Cat_360084",
    "link_img": "https://live.staticflickr.com/65535/50351766713_49d720edba_o.jpg",
    "id_image": "Cat_360084",
    "count_view": 0
  },
  {
    "link_thumb": "https://live.staticflickr.com/65535/50017888277_03b070a318_n.jpg",
    "id_album": "-401151552",
    "description": "Butterfly_568599",
    "title": "Butterfly_568599",
    "link_img": "https://live.staticflickr.com/65535/50017888277_f168d44f79_o.jpg",
    "id_image": "Butterfly_568599",
    "count_view": 0
  },
  {
    "link_thumb": "https://live.staticflickr.com/65535/50021036666_4de89055c5_n.jpg",
    "id_album": "-128218148",
    "description": "Fox_994840",
    "title": "Fox_994840",
    "link_img": "https://live.staticflickr.com/65535/50021036666_bcf70f8222_o.jpg",
    "id_image": "Fox_994840",
    "count_view": 0
  },
  {
    "link_thumb": "https://live.staticflickr.com/65535/50022138787_a5f583d61b_n.jpg",
    "id_album": "1392348450",
    "description": "Leopard_103402",
    "title": "Leopard_103402",
    "link_img": "https://live.staticflickr.com/65535/50022138787_28b33a7665_o.jpg",
    "id_image": "Leopard_103402",
    "count_view": 0
  },
  {
    "link_thumb": "https://live.staticflickr.com/65535/50016504673_52d10673ea_n.jpg",
    "id_album": "-422187261",
    "description": "Bear_362633",
    "title": "Bear_362633",
    "link_img": "https://live.staticflickr.com/65535/50016504673_a8a0f3c7d9_o.jpg",
    "id_image": "Bear_362633",
    "count_view": 0
  },
  {
    "link_thumb": "https://live.staticflickr.com/65535/50019871207_e49efe3997_n.jpg",
    "id_album": "-420782796",
    "description": "Caterpillar_926957",
    "title": "Caterpillar_926957",
    "link_img": "https://live.staticflickr.com/65535/50019871207_7daf3da6f5_o.jpg",
    "id_image": "Caterpillar_926957",
    "count_view": 0
  },
  {
    "link_thumb": "https://live.staticflickr.com/65535/50022860801_32ffb60e49_n.jpg",
    "id_album": "1008910300",
    "description": "PolarBear_790822",
    "title": "PolarBear_790822",
    "link_img": "https://live.staticflickr.com/65535/50022860801_d1674e2761_o.jpg",
    "id_image": "PolarBear_790822",
    "count_view": 0
  },
  {
    "link_thumb": "https://live.staticflickr.com/65535/50024549907_ff4f9951e9_n.jpg",
    "id_album": "901523298",
    "description": "TreeFrog_384727",
    "title": "TreeFrog_384727",
    "link_img": "https://live.staticflickr.com/65535/50024549907_7d1d8c6648_o.jpg",
    "id_image": "TreeFrog_384727",
    "count_view": 0
  },
  {
    "link_thumb": "https://live.staticflickr.com/65535/50352618342_6e74ab6ef9_n.jpg",
    "id_album": "-462831703",
    "description": "Cat_352592",
    "title": "Cat_352592",
    "link_img": "https://live.staticflickr.com/65535/50352618342_10e6b07dcc_o.jpg",
    "id_image": "Cat_352592",
    "count_view": 0
  },
  {
    "link_thumb": "https://live.staticflickr.com/65535/50018408972_4e909cbe36_n.jpg",
    "id_album": "-462831702",
    "description": "Cat_406491",
    "title": "Cat_406491",
    "link_img": "https://live.staticflickr.com/65535/50018408972_1e7b40741d_o.jpg",
    "id_image": "Cat_406491",
    "count_view": 0
  },
  {
    "link_thumb": "https://live.staticflickr.com/65535/50018322782_76d635926c_n.jpg",
    "id_album": "-462831702",
    "description": "Cat_363212",
    "title": "Cat_363212",
    "link_img": "https://live.staticflickr.com/65535/50018322782_06954f6d4c_o.jpg",
    "id_image": "Cat_363212",
    "count_view": 0
  },
  {
    "link_thumb": "https://live.staticflickr.com/65535/50020420478_eb4de2ea68_n.jpg",
    "id_album": "-128218148",
    "description": "Fox_425422",
    "title": "Fox_425422",
    "link_img": "https://live.staticflickr.com/65535/50020420478_f5c2e9d27f_o.jpg",
    "id_image": "Fox_425422",
    "count_view": 0
  },
  {
    "link_thumb": "https://live.staticflickr.com/65535/50019329953_ff23365257_n.jpg",
    "id_album": "-2144640780",
    "description": "Cow_764096",
    "title": "Cow_764096",
    "link_img": "https://live.staticflickr.com/65535/50019329953_c68a29381d_o.jpg",
    "id_image": "Cow_764096",
    "count_view": 0
  },
  {
    "link_thumb": "https://live.staticflickr.com/65535/50017890007_635c703cae_n.jpg",
    "id_album": "-401151552",
    "description": "Butterfly_570950",
    "title": "Butterfly_570950",
    "link_img": "https://live.staticflickr.com/65535/50017890007_0484f02c58_o.jpg",
    "id_image": "Butterfly_570950",
    "count_view": 0
  },
  {
    "link_thumb": "https://live.staticflickr.com/65535/50020552051_7b43bf118b_n.jpg",
    "id_album": "-149330231",
    "description": "Dog_968466",
    "title": "Dog_968466",
    "link_img": "https://live.staticflickr.com/65535/50020552051_a2cf35dac2_o.jpg",
    "id_image": "Dog_968466",
    "count_view": 0
  },
  {
    "link_thumb": "https://live.staticflickr.com/65535/50021647066_a96ebec82c_n.jpg",
    "id_album": "-737856092",
    "description": "Iguana_331116",
    "title": "Iguana_331116",
    "link_img": "https://live.staticflickr.com/65535/50021647066_b03139598c_o.jpg",
    "id_image": "Iguana_331116",
    "count_view": 0
  },
  {
    "link_thumb": "https://live.staticflickr.com/65535/50022568337_fafdd26fe6_n.jpg",
    "id_album": "1015034486",
    "description": "Muteswan_325475",
    "title": "Muteswan_325475",
    "link_img": "https://live.staticflickr.com/65535/50022568337_ffed058bb8_o.jpg",
    "id_image": "Muteswan_325475",
    "count_view": 0
  },
  {
    "link_thumb": "https://live.staticflickr.com/65535/50022910018_4fedba9197_n.jpg",
    "id_album": "-1596347105",
    "description": "Shark_561847",
    "title": "Shark_561847",
    "link_img": "https://live.staticflickr.com/65535/50022910018_b2550a5ed6_o.jpg",
    "id_image": "Shark_561847",
    "count_view": 0
  },
  {
    "link_thumb": "https://live.staticflickr.com/65535/50017840616_cc0ffdf14e_n.jpg",
    "id_album": "-462831705",
    "description": "Cat_202976",
    "title": "Cat_202976",
    "link_img": "https://live.staticflickr.com/65535/50017840616_96dcabc38f_o.jpg",
    "id_image": "Cat_202976",
    "count_view": 0
  },
  {
    "link_thumb": "https://live.staticflickr.com/65535/50017903692_95488bf907_n.jpg",
    "id_album": "-401151552",
    "description": "Butterfly_687898",
    "title": "Butterfly_687898",
    "link_img": "https://live.staticflickr.com/65535/50017903692_0ec766b688_o.jpg",
    "id_image": "Butterfly_687898",
    "count_view": 0
  },
  {
    "link_thumb": "https://live.staticflickr.com/65535/50019620696_b961efb2a5_n.jpg",
    "id_album": "1889777354",
    "description": "CGI_185037",
    "title": "CGI_185037",
    "link_img": "https://live.staticflickr.com/65535/50019620696_958b28ab8d_o.jpg",
    "id_image": "CGI_185037",
    "count_view": 0
  },
  {
    "link_thumb": "https://live.staticflickr.com/65535/50018987428_47bd6938eb_n.jpg",
    "id_album": "-462831703",
    "description": "Cat_956657",
    "title": "Cat_956657",
    "link_img": "https://live.staticflickr.com/65535/50018987428_2cc18c9f16_o.jpg",
    "id_image": "Cat_956657",
    "count_view": 0
  },
  {
    "link_thumb": "https://live.staticflickr.com/65535/50017194842_63851fb979_n.jpg",
    "id_album": "390697200",
    "description": "AustralianShepherd_694770",
    "title": "AustralianShepherd_694770",
    "link_img": "https://live.staticflickr.com/65535/50017194842_b03402530e_o.jpg",
    "id_image": "AustralianShepherd_694770",
    "count_view": 0
  },
  {
    "link_thumb": "https://live.staticflickr.com/65535/50020620282_500059f37d_n.jpg",
    "id_album": "-149330231",
    "description": "Dog_385376",
    "title": "Dog_385376",
    "link_img": "https://live.staticflickr.com/65535/50020620282_a3c8651266_o.jpg",
    "id_image": "Dog_385376",
    "count_view": 0
  },
  {
    "link_thumb": "https://live.staticflickr.com/65535/50022553016_f167cf0c09_n.jpg",
    "id_album": "-358592519",
    "description": "Panda_928498",
    "title": "Panda_928498",
    "link_img": "https://live.staticflickr.com/65535/50022553016_9a48f10640_o.jpg",
    "id_image": "Panda_928498",
    "count_view": 0
  },
  {
    "link_thumb": "https://live.staticflickr.com/65535/50020727318_0ac2dbe985_n.jpg",
    "id_album": "-462831703",
    "description": "Cat_830420",
    "title": "Cat_830420",
    "link_img": "https://live.staticflickr.com/65535/50020727318_2d401d2dec_o.jpg",
    "id_image": "Cat_830420",
    "count_view": 0
  },
  {
    "link_thumb": "https://live.staticflickr.com/65535/50022400457_fedd029ee6_n.jpg",
    "id_album": "1894617400",
    "description": "Lynx_390049",
    "title": "Lynx_390049",
    "link_img": "https://live.staticflickr.com/65535/50022400457_006acbebc8_o.jpg",
    "id_image": "Lynx_390049",
    "count_view": 0
  },
  {
    "link_thumb": "https://live.staticflickr.com/65535/50021260512_ae720e066a_n.jpg",
    "id_album": "-128218148",
    "description": "Fox_800630",
    "title": "Fox_800630",
    "link_img": "https://live.staticflickr.com/65535/50021260512_c945c38bf3_o.jpg",
    "id_image": "Fox_800630",
    "count_view": 0
  },
  {
    "link_thumb": "https://live.staticflickr.com/65535/50019397078_81b20bae03_n.jpg",
    "id_album": "1273365283",
    "description": "Cute_277738",
    "title": "Cute_277738",
    "link_img": "https://live.staticflickr.com/65535/50019397078_55ce115f8e_o.jpg",
    "id_image": "Cute_277738",
    "count_view": 0
  },
  {
    "link_thumb": "https://live.staticflickr.com/65535/50019608511_c60b4110dd_n.jpg",
    "id_album": "-420782796",
    "description": "Caterpillar_436382",
    "title": "Caterpillar_436382",
    "link_img": "https://live.staticflickr.com/65535/50019608511_49b01ecd10_o.jpg",
    "id_image": "Caterpillar_436382",
    "count_view": 0
  },
  {
    "link_thumb": "https://live.staticflickr.com/65535/50352652741_0c1bd72453_n.jpg",
    "id_album": "-462831703",
    "description": "Cat_698434",
    "title": "Cat_698434",
    "link_img": "https://live.staticflickr.com/65535/50352652741_c2629a344b_o.jpg",
    "id_image": "Cat_698434",
    "count_view": 0
  },
  {
    "link_thumb": "https://live.staticflickr.com/65535/50017181337_d4ae37b3b7_n.jpg",
    "id_album": "523598895",
    "description": "Artistic_833444",
    "title": "Artistic_833444",
    "link_img": "https://live.staticflickr.com/65535/50017181337_c06f5d342b_o.jpg",
    "id_image": "Artistic_833444",
    "count_view": 0
  },
  {
    "link_thumb": "https://live.staticflickr.com/65535/50024032386_288e58bca6_n.jpg",
    "id_album": "405170427",
    "description": "Tiger_206154",
    "title": "Tiger_206154",
    "link_img": "https://live.staticflickr.com/65535/50024032386_ba0603ca9c_o.jpg",
    "id_image": "Tiger_206154",
    "count_view": 0
  },
  {
    "link_thumb": "https://live.staticflickr.com/65535/50019629353_239f2b8e4a_n.jpg",
    "id_album": "-149330232",
    "description": "Dog_222722",
    "title": "Dog_222722",
    "link_img": "https://live.staticflickr.com/65535/50019629353_5b717470dd_o.jpg",
    "id_image": "Dog_222722",
    "count_view": 0
  },
  {
    "link_thumb": "https://live.staticflickr.com/65535/50019643148_b4ff49f230_n.jpg",
    "id_album": "-149330232",
    "description": "Dog_244083",
    "title": "Dog_244083",
    "link_img": "https://live.staticflickr.com/65535/50019643148_7192d05b7a_o.jpg",
    "id_image": "Dog_244083",
    "count_view": 0
  },
  {
    "link_thumb": "https://live.staticflickr.com/65535/50020153763_5c4a6d739b_n.jpg",
    "id_album": "-39098563",
    "description": "Eagle_275177",
    "title": "Eagle_275177",
    "link_img": "https://live.staticflickr.com/65535/50020153763_eb9d935865_o.jpg",
    "id_image": "Eagle_275177",
    "count_view": 0
  },
  {
    "link_thumb": "https://live.staticflickr.com/65535/50020514232_cf6e23013c_n.jpg",
    "id_album": "-149330232",
    "description": "Dog_332070",
    "title": "Dog_332070",
    "link_img": "https://live.staticflickr.com/65535/50020514232_03b2632c4f_o.jpg",
    "id_image": "Dog_332070",
    "count_view": 0
  },
  {
    "link_thumb": "https://live.staticflickr.com/65535/50017896867_46549862cc_n.jpg",
    "id_album": "-401151552",
    "description": "Butterfly_592699",
    "title": "Butterfly_592699",
    "link_img": "https://live.staticflickr.com/65535/50017896867_54096c1613_o.jpg",
    "id_image": "Butterfly_592699",
    "count_view": 0
  },
  {
    "link_thumb": "https://live.staticflickr.com/65535/50024289152_6a8f918a13_n.jpg",
    "id_album": "405170427",
    "description": "Tiger_185464",
    "title": "Tiger_185464",
    "link_img": "https://live.staticflickr.com/65535/50024289152_67bd7b0dec_o.jpg",
    "id_image": "Tiger_185464",
    "count_view": 0
  },
  {
    "link_thumb": "https://live.staticflickr.com/65535/50017605986_333b0cbef3_n.jpg",
    "id_album": "-401151552",
    "description": "Butterfly_467081",
    "title": "Butterfly_467081",
    "link_img": "https://live.staticflickr.com/65535/50017605986_285ef76fde_o.jpg",
    "id_image": "Butterfly_467081",
    "count_view": 0
  },
  {
    "link_thumb": "https://live.staticflickr.com/65535/50022778867_59f07d1113_n.jpg",
    "id_album": "-358592519",
    "description": "Panda_245449",
    "title": "Panda_245449",
    "link_img": "https://live.staticflickr.com/65535/50022778867_c58cbc2c31_o.jpg",
    "id_image": "Panda_245449",
    "count_view": 0
  },
  {
    "link_thumb": "https://live.staticflickr.com/65535/50017853066_7241cb8b28_n.jpg",
    "id_album": "-462831705",
    "description": "Cat_209091",
    "title": "Cat_209091",
    "link_img": "https://live.staticflickr.com/65535/50017853066_5fddf541df_o.jpg",
    "id_image": "Cat_209091",
    "count_view": 0
  },
  {
    "link_thumb": "https://live.staticflickr.com/65535/50019140386_6fa5e30043_n.jpg",
    "id_album": "-462831702",
    "description": "Cat_411509",
    "title": "Cat_411509",
    "link_img": "https://live.staticflickr.com/65535/50019140386_805c9782b5_o.jpg",
    "id_image": "Cat_411509",
    "count_view": 0
  },
  {
    "link_thumb": "https://live.staticflickr.com/65535/50017784072_6aa49dc166_n.jpg",
    "id_album": "368532157",
    "description": "Bulldog_115096",
    "title": "Bulldog_115096",
    "link_img": "https://live.staticflickr.com/65535/50017784072_6f4106200b_o.jpg",
    "id_image": "Bulldog_115096",
    "count_view": 0
  },
  {
    "link_thumb": "https://live.staticflickr.com/65535/50019907532_5df45d03eb_n.jpg",
    "id_album": "-766919393",
    "description": "Chameleon_431592",
    "title": "Chameleon_431592",
    "link_img": "https://live.staticflickr.com/65535/50019907532_b597f6961e_o.jpg",
    "id_image": "Chameleon_431592",
    "count_view": 0
  },
  {
    "link_thumb": "https://live.staticflickr.com/65535/50020003612_71bc125efa_n.jpg",
    "id_album": "1949822052",
    "description": "Chimpanzee_649051",
    "title": "Chimpanzee_649051",
    "link_img": "https://live.staticflickr.com/65535/50020003612_b1cb9a45f7_o.jpg",
    "id_image": "Chimpanzee_649051",
    "count_view": 0
  },
  {
    "link_thumb": "https://live.staticflickr.com/65535/50023142886_b8160d5e76_n.jpg",
    "id_album": "248289288",
    "description": "Raccoon_339820",
    "title": "Raccoon_339820",
    "link_img": "https://live.staticflickr.com/65535/50023142886_793f3db57b_o.jpg",
    "id_image": "Raccoon_339820",
    "count_view": 0
  },
  {
    "link_thumb": "https://live.staticflickr.com/65535/50023127491_7634ff026e_n.jpg",
    "id_album": "-1940643173",
    "description": "Rabbit_795383",
    "title": "Rabbit_795383",
    "link_img": "https://live.staticflickr.com/65535/50023127491_5a34f608e9_o.jpg",
    "id_image": "Rabbit_795383",
    "count_view": 0
  },
  {
    "link_thumb": "https://live.staticflickr.com/65535/50020594763_dde362edb5_n.jpg",
    "id_album": "-462831704",
    "description": "Cat_596233",
    "title": "Cat_596233",
    "link_img": "https://live.staticflickr.com/65535/50020594763_e88b6a7899_o.jpg",
    "id_image": "Cat_596233",
    "count_view": 0
  },
  {
    "link_thumb": "https://live.staticflickr.com/65535/50021301833_df7c38dfc6_n.jpg",
    "id_album": "-1882491687",
    "description": "Ladybug_343157",
    "title": "Ladybug_343157",
    "link_img": "https://live.staticflickr.com/65535/50021301833_fb0a396504_o.jpg",
    "id_image": "Ladybug_343157",
    "count_view": 0
  },
  {
    "link_thumb": "https://live.staticflickr.com/65535/50024248206_54e6b9dda7_n.jpg",
    "id_album": "405170427",
    "description": "Tiger_942849",
    "title": "Tiger_942849",
    "link_img": "https://live.staticflickr.com/65535/50024248206_bbd29107b4_o.jpg",
    "id_image": "Tiger_942849",
    "count_view": 0
  },
  {
    "link_thumb": "https://live.staticflickr.com/65535/50018274747_f3a714de1d_n.jpg",
    "id_album": "-462831702",
    "description": "Cat_342717",
    "title": "Cat_342717",
    "link_img": "https://live.staticflickr.com/65535/50018274747_10bc8e5376_o.jpg",
    "id_image": "Cat_342717",
    "count_view": 0
  },
  {
    "link_thumb": "https://live.staticflickr.com/65535/50017422813_4bbf90e83c_n.jpg",
    "id_album": "-462831702",
    "description": "Cat_306566",
    "title": "Cat_306566",
    "link_img": "https://live.staticflickr.com/65535/50017422813_4cb6a778de_o.jpg",
    "id_image": "Cat_306566",
    "count_view": 0
  },
  {
    "link_thumb": "https://live.staticflickr.com/65535/50023147831_e38a7aea16_n.jpg",
    "id_album": "248289288",
    "description": "Raccoon_438519",
    "title": "Raccoon_438519",
    "link_img": "https://live.staticflickr.com/65535/50023147831_c651636d70_o.jpg",
    "id_image": "Raccoon_438519",
    "count_view": 0
  },
  {
    "link_thumb": "https://live.staticflickr.com/65535/50020936222_1266211be8_n.jpg",
    "id_album": "-39098563",
    "description": "Eagle_102185",
    "title": "Eagle_102185",
    "link_img": "https://live.staticflickr.com/65535/50020936222_c2bc5d36b5_o.jpg",
    "id_image": "Eagle_102185",
    "count_view": 0
  },
  {
    "link_thumb": "https://live.staticflickr.com/65535/50021946117_08ac21f99d_n.jpg",
    "id_album": "1658866795",
    "description": "Insect_404785",
    "title": "Insect_404785",
    "link_img": "https://live.staticflickr.com/65535/50021946117_6b2e0d40a2_o.jpg",
    "id_image": "Insect_404785",
    "count_view": 0
  },
  {
    "link_thumb": "https://live.staticflickr.com/65535/50023198902_cbf224ff53_n.jpg",
    "id_album": "-1431524681",
    "description": "Pug_247333",
    "title": "Pug_247333",
    "link_img": "https://live.staticflickr.com/65535/50023198902_125d363d0a_o.jpg",
    "id_image": "Pug_247333",
    "count_view": 0
  },
  {
    "link_thumb": "https://live.staticflickr.com/65535/50023764432_57d140638a_n.jpg",
    "id_album": "692487763",
    "description": "SiberianHusky_997801",
    "title": "SiberianHusky_997801",
    "link_img": "https://live.staticflickr.com/65535/50023764432_42468ce87d_o.jpg",
    "id_image": "SiberianHusky_997801",
    "count_view": 0
  },
  {
    "link_thumb": "https://live.staticflickr.com/65535/50020744607_0490388ca8_n.jpg",
    "id_album": "-149330231",
    "description": "Dog_705650",
    "title": "Dog_705650",
    "link_img": "https://live.staticflickr.com/65535/50020744607_93c0ce9d38_o.jpg",
    "id_image": "Dog_705650",
    "count_view": 0
  },
  {
    "link_thumb": "https://live.staticflickr.com/65535/50020377512_1562f3ecc4_n.jpg",
    "id_album": "-149330232",
    "description": "Dog_113927",
    "title": "Dog_113927",
    "link_img": "https://live.staticflickr.com/65535/50020377512_bd6bb8e05c_o.jpg",
    "id_image": "Dog_113927",
    "count_view": 0
  },
  {
    "link_thumb": "https://live.staticflickr.com/65535/50022306008_6c8bde233e_n.jpg",
    "id_album": "1008910300",
    "description": "PolarBear_680693",
    "title": "PolarBear_680693",
    "link_img": "https://live.staticflickr.com/65535/50022306008_15fab5fc74_o.jpg",
    "id_image": "PolarBear_680693",
    "count_view": 0
  },
  {
    "link_thumb": "https://live.staticflickr.com/65535/50021728297_942b999e1d_n.jpg",
    "id_album": "-1933715543",
    "description": "Horse_263160",
    "title": "Horse_263160",
    "link_img": "https://live.staticflickr.com/65535/50021728297_b122525a66_o.jpg",
    "id_image": "Horse_263160",
    "count_view": 0
  },
  {
    "link_thumb": "https://live.staticflickr.com/65535/50017512207_ed113cedfa_n.jpg",
    "id_album": "-1846011410",
    "description": "Bird_342014",
    "title": "Bird_342014",
    "link_img": "https://live.staticflickr.com/65535/50017512207_cfb5e853eb_o.jpg",
    "id_image": "Bird_342014",
    "count_view": 0
  },
  {
    "link_thumb": "https://live.staticflickr.com/65535/50020246222_8f6bf4f850_n.jpg",
    "id_album": "1903411565",
    "description": "Deer_291090",
    "title": "Deer_291090",
    "link_img": "https://live.staticflickr.com/65535/50020246222_446063c309_o.jpg",
    "id_image": "Deer_291090",
    "count_view": 0
  },
  {
    "link_thumb": "https://live.staticflickr.com/65535/50021014192_7246747b3f_n.jpg",
    "id_album": "1270947998",
    "description": "Elephant_435961",
    "title": "Elephant_435961",
    "link_img": "https://live.staticflickr.com/65535/50021014192_a08147e935_o.jpg",
    "id_image": "Elephant_435961",
    "count_view": 0
  },
  {
    "link_thumb": "https://live.staticflickr.com/65535/50021620487_70fa26ea18_n.jpg",
    "id_album": "2060159334",
    "description": "GoldenRetriever_892239",
    "title": "GoldenRetriever_892239",
    "link_img": "https://live.staticflickr.com/65535/50021620487_2d920757b3_o.jpg",
    "id_image": "GoldenRetriever_892239",
    "count_view": 0
  },
  {
    "link_thumb": "https://live.staticflickr.com/65535/50022057112_c815f87b16_n.jpg",
    "id_album": "770105808",
    "description": "Kingfisher_528077",
    "title": "Kingfisher_528077",
    "link_img": "https://live.staticflickr.com/65535/50022057112_ae707a5e56_o.jpg",
    "id_image": "Kingfisher_528077",
    "count_view": 0
  },
  {
    "link_thumb": "https://live.staticflickr.com/65535/50020407102_d244996399_n.jpg",
    "id_album": "-149330232",
    "description": "Dog_207674",
    "title": "Dog_207674",
    "link_img": "https://live.staticflickr.com/65535/50020407102_7710327340_o.jpg",
    "id_image": "Dog_207674",
    "count_view": 0
  },
  {
    "link_thumb": "https://live.staticflickr.com/65535/50019300811_9f3f2ceae7_n.jpg",
    "id_album": "-462831704",
    "description": "Cat_533631",
    "title": "Cat_533631",
    "link_img": "https://live.staticflickr.com/65535/50019300811_fcca55cb44_o.jpg",
    "id_image": "Cat_533631",
    "count_view": 0
  },
  {
    "link_thumb": "https://live.staticflickr.com/65535/50351843668_9cd8ab28d5_n.jpg",
    "id_album": "-462831703",
    "description": "Cat_459987",
    "title": "Cat_459987",
    "link_img": "https://live.staticflickr.com/65535/50351843668_fe7e280d63_o.jpg",
    "id_image": "Cat_459987",
    "count_view": 0
  },
  {
    "link_thumb": "https://live.staticflickr.com/65535/50020506586_2db9a4f002_n.jpg",
    "id_album": "-149330231",
    "description": "Dog_750396",
    "title": "Dog_750396",
    "link_img": "https://live.staticflickr.com/65535/50020506586_4812c0ac01_o.jpg",
    "id_image": "Dog_750396",
    "count_view": 0
  },
  {
    "link_thumb": "https://live.staticflickr.com/65535/50017563796_b5a69630ed_n.jpg",
    "id_album": "-401151552",
    "description": "Butterfly_337083",
    "title": "Butterfly_337083",
    "link_img": "https://live.staticflickr.com/65535/50017563796_15961e36a6_o.jpg",
    "id_image": "Butterfly_337083",
    "count_view": 0
  },
  {
    "link_thumb": "https://live.staticflickr.com/65535/50022422392_080b36f26a_n.jpg",
    "id_album": "1894617400",
    "description": "Lynx_793719",
    "title": "Lynx_793719",
    "link_img": "https://live.staticflickr.com/65535/50022422392_ecd6ea58a5_o.jpg",
    "id_image": "Lynx_793719",
    "count_view": 0
  },
  {
    "link_thumb": "https://live.staticflickr.com/65535/50020412908_4c6b064aa6_n.jpg",
    "id_album": "-128218148",
    "description": "Fox_370627",
    "title": "Fox_370627",
    "link_img": "https://live.staticflickr.com/65535/50020412908_9d2c89bfa2_o.jpg",
    "id_image": "Fox_370627",
    "count_view": 0
  },
  {
    "link_thumb": "https://live.staticflickr.com/65535/50020834492_925ce4c5c0_n.jpg",
    "id_album": "-54509188",
    "description": "Dolphin_466098",
    "title": "Dolphin_466098",
    "link_img": "https://live.staticflickr.com/65535/50020834492_a9ae1e77b4_o.jpg",
    "id_image": "Dolphin_466098",
    "count_view": 0
  },
  {
    "link_thumb": "https://live.staticflickr.com/65535/50023445413_06e3687345_n.jpg",
    "id_album": "1244464375",
    "description": "Starfish_311906",
    "title": "Starfish_311906",
    "link_img": "https://live.staticflickr.com/65535/50023445413_3ce0edbfd1_o.jpg",
    "id_image": "Starfish_311906",
    "count_view": 0
  },
  {
    "link_thumb": "https://live.staticflickr.com/65535/50016302773_09221e53c1_n.jpg",
    "id_album": "-1741290715",
    "description": "Ant_368595",
    "title": "Ant_368595",
    "link_img": "https://live.staticflickr.com/65535/50016302773_7f0d3eeed9_o.jpg",
    "id_image": "Ant_368595",
    "count_view": 0
  },
  {
    "link_thumb": "https://live.staticflickr.com/65535/50016691473_9e222bd1de_n.jpg",
    "id_album": "-1846011410",
    "description": "Bird_231953",
    "title": "Bird_231953",
    "link_img": "https://live.staticflickr.com/65535/50016691473_360a517538_o.jpg",
    "id_image": "Bird_231953",
    "count_view": 0
  }
]