[
  {
    "link_thumb": "https://live.staticflickr.com/65535/50020031191_949394fb81_n.jpg",
    "id_album": "1903411565",
    "description": "Deer_635550",
    "title": "Deer_635550",
    "link_img": "https://live.staticflickr.com/65535/50020031191_4003df6bba_o.jpg",
    "id_image": "Deer_635550",
    "count_view": 0
  },
  {
    "link_thumb": "https://live.staticflickr.com/65535/50020290497_eb41b64267_n.jpg",
    "id_album": "1903411565",
    "description": "Deer_652297",
    "title": "Deer_652297",
    "link_img": "https://live.staticflickr.com/65535/50020290497_81b162d61e_o.jpg",
    "id_image": "Deer_652297",
    "count_view": 0
  },
  {
    "link_thumb": "https://live.staticflickr.com/65535/50019502398_0037c24d78_n.jpg",
    "id_album": "1903411565",
    "description": "Deer_652303",
    "title": "Deer_652303",
    "link_img": "https://live.staticflickr.com/65535/50019502398_8258520c3c_o.jpg",
    "id_image": "Deer_652303",
    "count_view": 0
  },
  {
    "link_thumb": "https://live.staticflickr.com/65535/50019502793_847f3ed19a_n.jpg",
    "id_album": "1903411565",
    "description": "Deer_652318",
    "title": "Deer_652318",
    "link_img": "https://live.staticflickr.com/65535/50019502793_e5aaeb89d4_o.jpg",
    "id_image": "Deer_652318",
    "count_view": 0
  },
  {
    "link_thumb": "https://live.staticflickr.com/65535/50020033861_69df8e1bf3_n.jpg",
    "id_album": "1903411565",
    "description": "Deer_652330",
    "title": "Deer_652330",
    "link_img": "https://live.staticflickr.com/65535/50020033861_1be9e4a89c_o.jpg",
    "id_image": "Deer_652330",
    "count_view": 0
  },
  {
    "link_thumb": "https://live.staticflickr.com/65535/50020035431_0632e803f0_n.jpg",
    "id_album": "1903411565",
    "description": "Deer_662992",
    "title": "Deer_662992",
    "link_img": "https://live.staticflickr.com/65535/50020035431_dc98df7bcc_o.jpg",
    "id_image": "Deer_662992",
    "count_view": 0
  },
  {
    "link_thumb": "https://live.staticflickr.com/65535/50019505458_73037bdca9_n.jpg",
    "id_album": "1903411565",
    "description": "Deer_662998",
    "title": "Deer_662998",
    "link_img": "https://live.staticflickr.com/65535/50019505458_9b87121db5_o.jpg",
    "id_image": "Deer_662998",
    "count_view": 0
  },
  {
    "link_thumb": "https://live.staticflickr.com/65535/50020294422_97b3cea4ce_n.jpg",
    "id_album": "1903411565",
    "description": "Deer_670268",
    "title": "Deer_670268",
    "link_img": "https://live.staticflickr.com/65535/50020294422_661618c43d_o.jpg",
    "id_image": "Deer_670268",
    "count_view": 0
  },
  {
    "link_thumb": "https://live.staticflickr.com/65535/50020295147_71c1c16e65_n.jpg",
    "id_album": "1903411565",
    "description": "Deer_671504",
    "title": "Deer_671504",
    "link_img": "https://live.staticflickr.com/65535/50020295147_7eefdc1b7e_o.jpg",
    "id_image": "Deer_671504",
    "count_view": 0
  },
  {
    "link_thumb": "https://live.staticflickr.com/65535/50020296202_b9b9703beb_n.jpg",
    "id_album": "1903411565",
    "description": "Deer_687543",
    "title": "Deer_687543",
    "link_img": "https://live.staticflickr.com/65535/50020296202_81cfe45628_o.jpg",
    "id_image": "Deer_687543",
    "count_view": 0
  },
  {
    "link_thumb": "https://live.staticflickr.com/65535/50019508148_7d1004a679_n.jpg",
    "id_album": "1903411565",
    "description": "Deer_690497",
    "title": "Deer_690497",
    "link_img": "https://live.staticflickr.com/65535/50019508148_1af1db608c_o.jpg",
    "id_image": "Deer_690497",
    "count_view": 0
  },
  {
    "link_thumb": "https://live.staticflickr.com/65535/50020296962_a7693dd6c8_n.jpg",
    "id_album": "1903411565",
    "description": "Deer_691692",
    "title": "Deer_691692",
    "link_img": "https://live.staticflickr.com/65535/50020296962_dd60717eaf_o.jpg",
    "id_image": "Deer_691692",
    "count_view": 0
  },
  {
    "link_thumb": "https://live.staticflickr.com/65535/50020297162_4ba0fb413f_n.jpg",
    "id_album": "1903411565",
    "description": "Deer_691696",
    "title": "Deer_691696",
    "link_img": "https://live.staticflickr.com/65535/50020297162_9daf1a94c7_o.jpg",
    "id_image": "Deer_691696",
    "count_view": 0
  },
  {
    "link_thumb": "https://live.staticflickr.com/65535/50020039546_3e93debb77_n.jpg",
    "id_album": "1903411565",
    "description": "Deer_691704",
    "title": "Deer_691704",
    "link_img": "https://live.staticflickr.com/65535/50020039546_62d519e56a_o.jpg",
    "id_image": "Deer_691704",
    "count_view": 0
  },
  {
    "link_thumb": "https://live.staticflickr.com/65535/50020297707_9caf89fd77_n.jpg",
    "id_album": "1903411565",
    "description": "Deer_692884",
    "title": "Deer_692884",
    "link_img": "https://live.staticflickr.com/65535/50020297707_67e819841f_o.jpg",
    "id_image": "Deer_692884",
    "count_view": 0
  },
  {
    "link_thumb": "https://live.staticflickr.com/65535/50019509708_0d33f6ae84_n.jpg",
    "id_album": "1903411565",
    "description": "Deer_696192",
    "title": "Deer_696192",
    "link_img": "https://live.staticflickr.com/65535/50019509708_f69b577f56_o.jpg",
    "id_image": "Deer_696192",
    "count_view": 0
  },
  {
    "link_thumb": "https://live.staticflickr.com/65535/50019510148_6d32d3de40_n.jpg",
    "id_album": "1903411565",
    "description": "Deer_698956",
    "title": "Deer_698956",
    "link_img": "https://live.staticflickr.com/65535/50019510148_5d2c736548_o.jpg",
    "id_image": "Deer_698956",
    "count_view": 0
  },
  {
    "link_thumb": "https://live.staticflickr.com/65535/50020299547_da8a74ef9e_n.jpg",
    "id_album": "1903411565",
    "description": "Deer_705325",
    "title": "Deer_705325",
    "link_img": "https://live.staticflickr.com/65535/50020299547_ab338a61ce_o.jpg",
    "id_image": "Deer_705325",
    "count_view": 0
  },
  {
    "link_thumb": "https://live.staticflickr.com/65535/50020041951_1294643a94_n.jpg",
    "id_album": "1903411565",
    "description": "Deer_706678",
    "title": "Deer_706678",
    "link_img": "https://live.staticflickr.com/65535/50020041951_a491d47bbd_o.jpg",
    "id_image": "Deer_706678",
    "count_view": 0
  },
  {
    "link_thumb": "https://live.staticflickr.com/65535/50019511788_0b1d80b861_n.jpg",
    "id_album": "1903411565",
    "description": "Deer_709389",
    "title": "Deer_709389",
    "link_img": "https://live.staticflickr.com/65535/50019511788_3fb9de6f94_o.jpg",
    "id_image": "Deer_709389",
    "count_view": 0
  },
  {
    "link_thumb": "https://live.staticflickr.com/65535/50020300312_7d993ea690_n.jpg",
    "id_album": "1903411565",
    "description": "Deer_714529",
    "title": "Deer_714529",
    "link_img": "https://live.staticflickr.com/65535/50020300312_bfbecf1b43_o.jpg",
    "id_image": "Deer_714529",
    "count_view": 0
  },
  {
    "link_thumb": "https://live.staticflickr.com/65535/50020300477_17abea24f4_n.jpg",
    "id_album": "1903411565",
    "description": "Deer_714531",
    "title": "Deer_714531",
    "link_img": "https://live.staticflickr.com/65535/50020300477_227352a88c_o.jpg",
    "id_image": "Deer_714531",
    "count_view": 0
  },
  {
    "link_thumb": "https://live.staticflickr.com/65535/50019512883_bcf2af6fbf_n.jpg",
    "id_album": "1903411565",
    "description": "Deer_715159",
    "title": "Deer_715159",
    "link_img": "https://live.staticflickr.com/65535/50019512883_daf2fe7fdf_o.jpg",
    "id_image": "Deer_715159",
    "count_view": 0
  },
  {
    "link_thumb": "https://live.staticflickr.com/65535/50020301462_f257058d8b_n.jpg",
    "id_album": "1903411565",
    "description": "Deer_716703",
    "title": "Deer_716703",
    "link_img": "https://live.staticflickr.com/65535/50020301462_8e21135894_o.jpg",
    "id_image": "Deer_716703",
    "count_view": 0
  },
  {
    "link_thumb": "https://live.staticflickr.com/65535/50020301847_e0532be345_n.jpg",
    "id_album": "1903411565",
    "description": "Deer_719358",
    "title": "Deer_719358",
    "link_img": "https://live.staticflickr.com/65535/50020301847_a37ecc55c8_o.jpg",
    "id_image": "Deer_719358",
    "count_view": 0
  },
  {
    "link_thumb": "https://live.staticflickr.com/65535/50020044511_50439a4a29_n.jpg",
    "id_album": "1903411565",
    "description": "Deer_721811",
    "title": "Deer_721811",
    "link_img": "https://live.staticflickr.com/65535/50020044511_af99c9bf88_o.jpg",
    "id_image": "Deer_721811",
    "count_view": 0
  },
  {
    "link_thumb": "https://live.staticflickr.com/65535/50020303352_2fdeee0960_n.jpg",
    "id_album": "1903411565",
    "description": "Deer_722934",
    "title": "Deer_722934",
    "link_img": "https://live.staticflickr.com/65535/50020303352_4dc6ec8533_o.jpg",
    "id_image": "Deer_722934",
    "count_view": 0
  },
  {
    "link_thumb": "https://live.staticflickr.com/65535/50020303517_4ca5eae640_n.jpg",
    "id_album": "1903411565",
    "description": "Deer_722936",
    "title": "Deer_722936",
    "link_img": "https://live.staticflickr.com/65535/50020303517_74fd9ccd66_o.jpg",
    "id_image": "Deer_722936",
    "count_view": 0
  },
  {
    "link_thumb": "https://live.staticflickr.com/65535/50020303752_3693ede8bd_n.jpg",
    "id_album": "1903411565",
    "description": "Deer_724069",
    "title": "Deer_724069",
    "link_img": "https://live.staticflickr.com/65535/50020303752_4b001d1774_o.jpg",
    "id_image": "Deer_724069",
    "count_view": 0
  },
  {
    "link_thumb": "https://live.staticflickr.com/65535/50020046396_974f8368c6_n.jpg",
    "id_album": "1903411565",
    "description": "Deer_734177",
    "title": "Deer_734177",
    "link_img": "https://live.staticflickr.com/65535/50020046396_aa32938596_o.jpg",
    "id_image": "Deer_734177",
    "count_view": 0
  },
  {
    "link_thumb": "https://live.staticflickr.com/65535/50020304987_6cf6622aaf_n.jpg",
    "id_album": "1903411565",
    "description": "Deer_738014",
    "title": "Deer_738014",
    "link_img": "https://live.staticflickr.com/65535/50020304987_b4ff060bb2_o.jpg",
    "id_image": "Deer_738014",
    "count_view": 0
  },
  {
    "link_thumb": "https://live.staticflickr.com/65535/50020048591_0ff0826972_n.jpg",
    "id_album": "1903411565",
    "description": "Deer_742511",
    "title": "Deer_742511",
    "link_img": "https://live.staticflickr.com/65535/50020048591_af8f3ee7bc_o.jpg",
    "id_image": "Deer_742511",
    "count_view": 0
  },
  {
    "link_thumb": "https://live.staticflickr.com/65535/50020307022_1b99279394_n.jpg",
    "id_album": "1903411565",
    "description": "Deer_743816",
    "title": "Deer_743816",
    "link_img": "https://live.staticflickr.com/65535/50020307022_a206172bb2_o.jpg",
    "id_image": "Deer_743816",
    "count_view": 0
  },
  {
    "link_thumb": "https://live.staticflickr.com/65535/50020307922_b6c39d4b3b_n.jpg",
    "id_album": "1903411565",
    "description": "Deer_747208",
    "title": "Deer_747208",
    "link_img": "https://live.staticflickr.com/65535/50020307922_938b2e887b_o.jpg",
    "id_image": "Deer_747208",
    "count_view": 0
  },
  {
    "link_thumb": "https://live.staticflickr.com/65535/50020050356_2444e64e62_n.jpg",
    "id_album": "1903411565",
    "description": "Deer_755373",
    "title": "Deer_755373",
    "link_img": "https://live.staticflickr.com/65535/50020050356_1a830d8bc6_o.jpg",
    "id_image": "Deer_755373",
    "count_view": 0
  },
  {
    "link_thumb": "https://live.staticflickr.com/65535/50019520883_573c79fa3e_n.jpg",
    "id_album": "1903411565",
    "description": "Deer_758242",
    "title": "Deer_758242",
    "link_img": "https://live.staticflickr.com/65535/50019520883_cefe82dc45_o.jpg",
    "id_image": "Deer_758242",
    "count_view": 0
  },
  {
    "link_thumb": "https://live.staticflickr.com/65535/50020051041_b89d971d6a_n.jpg",
    "id_album": "1903411565",
    "description": "Deer_761648",
    "title": "Deer_761648",
    "link_img": "https://live.staticflickr.com/65535/50020051041_5166de78b2_o.jpg",
    "id_image": "Deer_761648",
    "count_view": 0
  },
  {
    "link_thumb": "https://live.staticflickr.com/65535/50019521683_29179ac626_n.jpg",
    "id_album": "1903411565",
    "description": "Deer_766512",
    "title": "Deer_766512",
    "link_img": "https://live.staticflickr.com/65535/50019521683_979e26eaca_o.jpg",
    "id_image": "Deer_766512",
    "count_view": 0
  },
  {
    "link_thumb": "https://live.staticflickr.com/65535/50019522258_c282921839_n.jpg",
    "id_album": "1903411565",
    "description": "Deer_773403",
    "title": "Deer_773403",
    "link_img": "https://live.staticflickr.com/65535/50019522258_a533074026_o.jpg",
    "id_image": "Deer_773403",
    "count_view": 0
  },
  {
    "link_thumb": "https://live.staticflickr.com/65535/50019522533_4b45a1a88d_n.jpg",
    "id_album": "1903411565",
    "description": "Deer_781428",
    "title": "Deer_781428",
    "link_img": "https://live.staticflickr.com/65535/50019522533_6c9bb74785_o.jpg",
    "id_image": "Deer_781428",
    "count_view": 0
  },
  {
    "link_thumb": "https://live.staticflickr.com/65535/50019522713_445c35fe55_n.jpg",
    "id_album": "1903411565",
    "description": "Deer_782336",
    "title": "Deer_782336",
    "link_img": "https://live.staticflickr.com/65535/50019522713_4680c47a24_o.jpg",
    "id_image": "Deer_782336",
    "count_view": 0
  },
  {
    "link_thumb": "https://live.staticflickr.com/65535/50019522863_748b5dfd65_n.jpg",
    "id_album": "1903411565",
    "description": "Deer_783624",
    "title": "Deer_783624",
    "link_img": "https://live.staticflickr.com/65535/50019522863_fb19fea9f5_o.jpg",
    "id_image": "Deer_783624",
    "count_view": 0
  },
  {
    "link_thumb": "https://live.staticflickr.com/65535/50020311692_a6c48fd05a_n.jpg",
    "id_album": "1903411565",
    "description": "Deer_790756",
    "title": "Deer_790756",
    "link_img": "https://live.staticflickr.com/65535/50020311692_265c7ac73c_o.jpg",
    "id_image": "Deer_790756",
    "count_view": 0
  },
  {
    "link_thumb": "https://live.staticflickr.com/65535/50020053761_5175a1972a_n.jpg",
    "id_album": "1903411565",
    "description": "Deer_794904",
    "title": "Deer_794904",
    "link_img": "https://live.staticflickr.com/65535/50020053761_a8259afb6d_o.jpg",
    "id_image": "Deer_794904",
    "count_view": 0
  },
  {
    "link_thumb": "https://live.staticflickr.com/65535/50020311827_2cfc9dd4ba_n.jpg",
    "id_album": "1903411565",
    "description": "Deer_796139",
    "title": "Deer_796139",
    "link_img": "https://live.staticflickr.com/65535/50020311827_5bdd86ebf9_o.jpg",
    "id_image": "Deer_796139",
    "count_view": 0
  },
  {
    "link_thumb": "https://live.staticflickr.com/65535/50020312352_3b24ba05dc_n.jpg",
    "id_album": "1903411565",
    "description": "Deer_797418",
    "title": "Deer_797418",
    "link_img": "https://live.staticflickr.com/65535/50020312352_7db4cb7e19_o.jpg",
    "id_image": "Deer_797418",
    "count_view": 0
  },
  {
    "link_thumb": "https://live.staticflickr.com/65535/50020054891_a51d243f8a_n.jpg",
    "id_album": "1903411565",
    "description": "Deer_800035",
    "title": "Deer_800035",
    "link_img": "https://live.staticflickr.com/65535/50020054891_09796f20ff_o.jpg",
    "id_image": "Deer_800035",
    "count_view": 0
  },
  {
    "link_thumb": "https://live.staticflickr.com/65535/50019524763_1a6ffac855_n.jpg",
    "id_album": "1903411565",
    "description": "Deer_800676",
    "title": "Deer_800676",
    "link_img": "https://live.staticflickr.com/65535/50019524763_6422afe06b_o.jpg",
    "id_image": "Deer_800676",
    "count_view": 0
  },
  {
    "link_thumb": "https://live.staticflickr.com/65535/50020055141_e38a63172c_n.jpg",
    "id_album": "1903411565",
    "description": "Deer_800677",
    "title": "Deer_800677",
    "link_img": "https://live.staticflickr.com/65535/50020055141_58793465d3_o.jpg",
    "id_image": "Deer_800677",
    "count_view": 0
  },
  {
    "link_thumb": "https://live.staticflickr.com/65535/50020313282_9aeaa62139_n.jpg",
    "id_album": "1903411565",
    "description": "Deer_803283",
    "title": "Deer_803283",
    "link_img": "https://live.staticflickr.com/65535/50020313282_7337b0fb6e_o.jpg",
    "id_image": "Deer_803283",
    "count_view": 0
  },
  {
    "link_thumb": "https://live.staticflickr.com/65535/50019525338_c1096aa9e2_n.jpg",
    "id_album": "1903411565",
    "description": "Deer_811945",
    "title": "Deer_811945",
    "link_img": "https://live.staticflickr.com/65535/50019525338_c419865546_o.jpg",
    "id_image": "Deer_811945",
    "count_view": 0
  },
  {
    "link_thumb": "https://live.staticflickr.com/65535/50019526463_dd11685772_n.jpg",
    "id_album": "1903411565",
    "description": "Deer_831924",
    "title": "Deer_831924",
    "link_img": "https://live.staticflickr.com/65535/50019526463_e4e188122c_o.jpg",
    "id_image": "Deer_831924",
    "count_view": 0
  },
  {
    "link_thumb": "https://live.staticflickr.com/65535/50020315687_44875fd25a_n.jpg",
    "id_album": "1903411565",
    "description": "Deer_861015",
    "title": "Deer_861015",
    "link_img": "https://live.staticflickr.com/65535/50020315687_793a45f2d1_o.jpg",
    "id_image": "Deer_861015",
    "count_view": 0
  },
  {
    "link_thumb": "https://live.staticflickr.com/65535/50020315857_e30271ebb2_n.jpg",
    "id_album": "1903411565",
    "description": "Deer_863818",
    "title": "Deer_863818",
    "link_img": "https://live.staticflickr.com/65535/50020315857_ec653a31c1_o.jpg",
    "id_image": "Deer_863818",
    "count_view": 0
  },
  {
    "link_thumb": "https://live.staticflickr.com/65535/50019527623_69f6f80174_n.jpg",
    "id_album": "1903411565",
    "description": "Deer_865065",
    "title": "Deer_865065",
    "link_img": "https://live.staticflickr.com/65535/50019527623_809ded1b1d_o.jpg",
    "id_image": "Deer_865065",
    "count_view": 0
  },
  {
    "link_thumb": "https://live.staticflickr.com/65535/50019527813_f25efcfe4b_n.jpg",
    "id_album": "1903411565",
    "description": "Deer_867750",
    "title": "Deer_867750",
    "link_img": "https://live.staticflickr.com/65535/50019527813_8971ece2af_o.jpg",
    "id_image": "Deer_867750",
    "count_view": 0
  },
  {
    "link_thumb": "https://live.staticflickr.com/65535/50020317087_3cb723ed69_n.jpg",
    "id_album": "1903411565",
    "description": "Deer_86894",
    "title": "Deer_86894",
    "link_img": "https://live.staticflickr.com/65535/50020317087_196ca6fdbe_o.jpg",
    "id_image": "Deer_86894",
    "count_view": 0
  },
  {
    "link_thumb": "https://live.staticflickr.com/65535/50020317577_4bbf808038_n.jpg",
    "id_album": "1903411565",
    "description": "Deer_873970",
    "title": "Deer_873970",
    "link_img": "https://live.staticflickr.com/65535/50020317577_6f24015c47_o.jpg",
    "id_image": "Deer_873970",
    "count_view": 0
  },
  {
    "link_thumb": "https://live.staticflickr.com/65535/50020317737_77a88e5f04_n.jpg",
    "id_album": "1903411565",
    "description": "Deer_874524",
    "title": "Deer_874524",
    "link_img": "https://live.staticflickr.com/65535/50020317737_836ccbf2ea_o.jpg",
    "id_image": "Deer_874524",
    "count_view": 0
  },
  {
    "link_thumb": "https://live.staticflickr.com/65535/50019529513_b21aab42f1_n.jpg",
    "id_album": "1903411565",
    "description": "Deer_875583",
    "title": "Deer_875583",
    "link_img": "https://live.staticflickr.com/65535/50019529513_9539b1f6b2_o.jpg",
    "id_image": "Deer_875583",
    "count_view": 0
  },
  {
    "link_thumb": "https://live.staticflickr.com/65535/50019529743_401e2c418f_n.jpg",
    "id_album": "1903411565",
    "description": "Deer_876157",
    "title": "Deer_876157",
    "link_img": "https://live.staticflickr.com/65535/50019529743_fa64367370_o.jpg",
    "id_image": "Deer_876157",
    "count_view": 0
  },
  {
    "link_thumb": "https://live.staticflickr.com/65535/50020060326_881165b6bd_n.jpg",
    "id_album": "1903411565",
    "description": "Deer_876286",
    "title": "Deer_876286",
    "link_img": "https://live.staticflickr.com/65535/50020060326_0431f4de99_o.jpg",
    "id_image": "Deer_876286",
    "count_view": 0
  },
  {
    "link_thumb": "https://live.staticflickr.com/65535/50020318817_05fb6019d1_n.jpg",
    "id_album": "1903411565",
    "description": "Deer_879086",
    "title": "Deer_879086",
    "link_img": "https://live.staticflickr.com/65535/50020318817_23f0e0c49b_o.jpg",
    "id_image": "Deer_879086",
    "count_view": 0
  },
  {
    "link_thumb": "https://live.staticflickr.com/65535/50020318942_1cb3feb439_n.jpg",
    "id_album": "1903411565",
    "description": "Deer_880439",
    "title": "Deer_880439",
    "link_img": "https://live.staticflickr.com/65535/50020318942_e77d931ce4_o.jpg",
    "id_image": "Deer_880439",
    "count_view": 0
  },
  {
    "link_thumb": "https://live.staticflickr.com/65535/50020319582_38acc48d49_n.jpg",
    "id_album": "1903411565",
    "description": "Deer_882828",
    "title": "Deer_882828",
    "link_img": "https://live.staticflickr.com/65535/50020319582_d181aae9c8_o.jpg",
    "id_image": "Deer_882828",
    "count_view": 0
  },
  {
    "link_thumb": "https://live.staticflickr.com/65535/50020319772_f86f884709_n.jpg",
    "id_album": "1903411565",
    "description": "Deer_886307",
    "title": "Deer_886307",
    "link_img": "https://live.staticflickr.com/65535/50020319772_6c88a60342_o.jpg",
    "id_image": "Deer_886307",
    "count_view": 0
  },
  {
    "link_thumb": "https://live.staticflickr.com/65535/50020061691_1616825c33_n.jpg",
    "id_album": "1903411565",
    "description": "Deer_886581",
    "title": "Deer_886581",
    "link_img": "https://live.staticflickr.com/65535/50020061691_8275ac0440_o.jpg",
    "id_image": "Deer_886581",
    "count_view": 0
  },
  {
    "link_thumb": "https://live.staticflickr.com/65535/50020320142_80e4288b37_n.jpg",
    "id_album": "1903411565",
    "description": "Deer_887802",
    "title": "Deer_887802",
    "link_img": "https://live.staticflickr.com/65535/50020320142_32a6e4d2c6_o.jpg",
    "id_image": "Deer_887802",
    "count_view": 0
  },
  {
    "link_thumb": "https://live.staticflickr.com/65535/50019531778_3804c04b1b_n.jpg",
    "id_album": "1903411565",
    "description": "Deer_892663",
    "title": "Deer_892663",
    "link_img": "https://live.staticflickr.com/65535/50019531778_0fcea4db2f_o.jpg",
    "id_image": "Deer_892663",
    "count_view": 0
  },
  {
    "link_thumb": "https://live.staticflickr.com/65535/50020062131_cbd7dc9efd_n.jpg",
    "id_album": "1903411565",
    "description": "Deer_897345",
    "title": "Deer_897345",
    "link_img": "https://live.staticflickr.com/65535/50020062131_c4b0db5812_o.jpg",
    "id_image": "Deer_897345",
    "count_view": 0
  },
  {
    "link_thumb": "https://live.staticflickr.com/65535/50020062406_fa4277c50d_n.jpg",
    "id_album": "1903411565",
    "description": "Deer_909404",
    "title": "Deer_909404",
    "link_img": "https://live.staticflickr.com/65535/50020062406_e502503df7_o.jpg",
    "id_image": "Deer_909404",
    "count_view": 0
  },
  {
    "link_thumb": "https://live.staticflickr.com/65535/50020062586_e30a49bf38_n.jpg",
    "id_album": "1903411565",
    "description": "Deer_910523",
    "title": "Deer_910523",
    "link_img": "https://live.staticflickr.com/65535/50020062586_94f13b39de_o.jpg",
    "id_image": "Deer_910523",
    "count_view": 0
  },
  {
    "link_thumb": "https://live.staticflickr.com/65535/50020062746_806091a2fe_n.jpg",
    "id_album": "1903411565",
    "description": "Deer_910540",
    "title": "Deer_910540",
    "link_img": "https://live.staticflickr.com/65535/50020062746_bb11036fd9_o.jpg",
    "id_image": "Deer_910540",
    "count_view": 0
  },
  {
    "link_thumb": "https://live.staticflickr.com/65535/50020062896_404191d16d_n.jpg",
    "id_album": "1903411565",
    "description": "Deer_917708",
    "title": "Deer_917708",
    "link_img": "https://live.staticflickr.com/65535/50020062896_c5aa70332d_o.jpg",
    "id_image": "Deer_917708",
    "count_view": 0
  },
  {
    "link_thumb": "https://live.staticflickr.com/65535/50020321357_06ea48a6e0_n.jpg",
    "id_album": "1903411565",
    "description": "Deer_920487",
    "title": "Deer_920487",
    "link_img": "https://live.staticflickr.com/65535/50020321357_058b6e1c64_o.jpg",
    "id_image": "Deer_920487",
    "count_view": 0
  },
  {
    "link_thumb": "https://live.staticflickr.com/65535/50019533163_706a06ea49_n.jpg",
    "id_album": "1903411565",
    "description": "Deer_921184",
    "title": "Deer_921184",
    "link_img": "https://live.staticflickr.com/65535/50019533163_ff5543621a_o.jpg",
    "id_image": "Deer_921184",
    "count_view": 0
  },
  {
    "link_thumb": "https://live.staticflickr.com/65535/50020321642_b6376daab7_n.jpg",
    "id_album": "1903411565",
    "description": "Deer_921200",
    "title": "Deer_921200",
    "link_img": "https://live.staticflickr.com/65535/50020321642_273b300ff4_o.jpg",
    "id_image": "Deer_921200",
    "count_view": 0
  },
  {
    "link_thumb": "https://live.staticflickr.com/65535/50020063771_812d6e7efb_n.jpg",
    "id_album": "1903411565",
    "description": "Deer_929578",
    "title": "Deer_929578",
    "link_img": "https://live.staticflickr.com/65535/50020063771_72e8dc1faf_o.jpg",
    "id_image": "Deer_929578",
    "count_view": 0
  },
  {
    "link_thumb": "https://live.staticflickr.com/65535/50020322222_bf915161d9_n.jpg",
    "id_album": "1903411565",
    "description": "Deer_935258",
    "title": "Deer_935258",
    "link_img": "https://live.staticflickr.com/65535/50020322222_123c3227a1_o.jpg",
    "id_image": "Deer_935258",
    "count_view": 0
  },
  {
    "link_thumb": "https://live.staticflickr.com/65535/50020064151_c654aeb1a4_n.jpg",
    "id_album": "1903411565",
    "description": "Deer_936924",
    "title": "Deer_936924",
    "link_img": "https://live.staticflickr.com/65535/50020064151_ddff84216c_o.jpg",
    "id_image": "Deer_936924",
    "count_view": 0
  },
  {
    "link_thumb": "https://live.staticflickr.com/65535/50019534258_d660437547_n.jpg",
    "id_album": "1903411565",
    "description": "Deer_940182",
    "title": "Deer_940182",
    "link_img": "https://live.staticflickr.com/65535/50019534258_e6b776e1ee_o.jpg",
    "id_image": "Deer_940182",
    "count_view": 0
  },
  {
    "link_thumb": "https://live.staticflickr.com/65535/50020322837_ff580092c4_n.jpg",
    "id_album": "1903411565",
    "description": "Deer_946705",
    "title": "Deer_946705",
    "link_img": "https://live.staticflickr.com/65535/50020322837_f1557e9be7_o.jpg",
    "id_image": "Deer_946705",
    "count_view": 0
  },
  {
    "link_thumb": "https://live.staticflickr.com/65535/50020064921_2536db5a1d_n.jpg",
    "id_album": "1903411565",
    "description": "Deer_948262",
    "title": "Deer_948262",
    "link_img": "https://live.staticflickr.com/65535/50020064921_cf620aebcd_o.jpg",
    "id_image": "Deer_948262",
    "count_view": 0
  },
  {
    "link_thumb": "https://live.staticflickr.com/65535/50020323162_85c7bfc07e_n.jpg",
    "id_album": "1903411565",
    "description": "Deer_949137",
    "title": "Deer_949137",
    "link_img": "https://live.staticflickr.com/65535/50020323162_bdeb353abf_o.jpg",
    "id_image": "Deer_949137",
    "count_view": 0
  },
  {
    "link_thumb": "https://live.staticflickr.com/65535/50019534993_a59469cb7e_n.jpg",
    "id_album": "1903411565",
    "description": "Deer_952294",
    "title": "Deer_952294",
    "link_img": "https://live.staticflickr.com/65535/50019534993_9c40804d39_o.jpg",
    "id_image": "Deer_952294",
    "count_view": 0
  },
  {
    "link_thumb": "https://live.staticflickr.com/65535/50020323677_8e589b5fcd_n.jpg",
    "id_album": "1903411565",
    "description": "Deer_954499",
    "title": "Deer_954499",
    "link_img": "https://live.staticflickr.com/65535/50020323677_406168c561_o.jpg",
    "id_image": "Deer_954499",
    "count_view": 0
  },
  {
    "link_thumb": "https://live.staticflickr.com/65535/50020325247_9d18fae4c6_n.jpg",
    "id_album": "1903411565",
    "description": "Deer_955055",
    "title": "Deer_955055",
    "link_img": "https://live.staticflickr.com/65535/50020325247_b5b84bf4d7_o.jpg",
    "id_image": "Deer_955055",
    "count_view": 0
  },
  {
    "link_thumb": "https://live.staticflickr.com/65535/50020326517_12647bfae4_n.jpg",
    "id_album": "1903411565",
    "description": "Deer_956359",
    "title": "Deer_956359",
    "link_img": "https://live.staticflickr.com/65535/50020326517_ed953f9c69_o.jpg",
    "id_image": "Deer_956359",
    "count_view": 0
  },
  {
    "link_thumb": "https://live.staticflickr.com/65535/50019538333_482bb04e8b_n.jpg",
    "id_album": "1903411565",
    "description": "Deer_958864",
    "title": "Deer_958864",
    "link_img": "https://live.staticflickr.com/65535/50019538333_537342f79a_o.jpg",
    "id_image": "Deer_958864",
    "count_view": 0
  },
  {
    "link_thumb": "https://live.staticflickr.com/65535/50020069146_95c53f58df_n.jpg",
    "id_album": "1903411565",
    "description": "Deer_975984",
    "title": "Deer_975984",
    "link_img": "https://live.staticflickr.com/65535/50020069146_a6a6a257e2_o.jpg",
    "id_image": "Deer_975984",
    "count_view": 0
  },
  {
    "link_thumb": "https://live.staticflickr.com/65535/50019538833_135a99dcca_n.jpg",
    "id_album": "1903411565",
    "description": "Deer_976127",
    "title": "Deer_976127",
    "link_img": "https://live.staticflickr.com/65535/50019538833_f9614b44a2_o.jpg",
    "id_image": "Deer_976127",
    "count_view": 0
  },
  {
    "link_thumb": "https://live.staticflickr.com/65535/50019539123_2153faac1b_n.jpg",
    "id_album": "1903411565",
    "description": "Deer_982305",
    "title": "Deer_982305",
    "link_img": "https://live.staticflickr.com/65535/50019539123_84064f56e0_o.jpg",
    "id_image": "Deer_982305",
    "count_view": 0
  },
  {
    "link_thumb": "https://live.staticflickr.com/65535/50020328227_508bcc86b2_n.jpg",
    "id_album": "1903411565",
    "description": "Deer_985936",
    "title": "Deer_985936",
    "link_img": "https://live.staticflickr.com/65535/50020328227_8d4f774253_o.jpg",
    "id_image": "Deer_985936",
    "count_view": 0
  },
  {
    "link_thumb": "https://live.staticflickr.com/65535/50020328417_0ffbc349b6_n.jpg",
    "id_album": "1903411565",
    "description": "Deer_990162",
    "title": "Deer_990162",
    "link_img": "https://live.staticflickr.com/65535/50020328417_a3a2d85a2e_o.jpg",
    "id_image": "Deer_990162",
    "count_view": 0
  },
  {
    "link_thumb": "https://live.staticflickr.com/65535/50020071076_ae7277913f_n.jpg",
    "id_album": "1903411565",
    "description": "Deer_992223",
    "title": "Deer_992223",
    "link_img": "https://live.staticflickr.com/65535/50020071076_09259bb1c8_o.jpg",
    "id_image": "Deer_992223",
    "count_view": 0
  },
  {
    "link_thumb": "https://live.staticflickr.com/65535/50019540528_bbd77f64c5_n.jpg",
    "id_album": "1903411565",
    "description": "Deer_993528",
    "title": "Deer_993528",
    "link_img": "https://live.staticflickr.com/65535/50019540528_bcf32aacb0_o.jpg",
    "id_image": "Deer_993528",
    "count_view": 0
  }
]