[
  {
    "link_thumb": "https://live.staticflickr.com/65535/50017863882_1021c74f05_n.jpg",
    "id_album": "-401151552",
    "description": "Butterfly_454431",
    "title": "Butterfly_454431",
    "link_img": "https://live.staticflickr.com/65535/50017863882_af6dcae986_o.jpg",
    "id_image": "Butterfly_454431",
    "count_view": 0
  },
  {
    "link_thumb": "https://live.staticflickr.com/65535/50019803633_6823025555_n.jpg",
    "id_album": "-149330232",
    "description": "Dog_368017",
    "title": "Dog_368017",
    "link_img": "https://live.staticflickr.com/65535/50019803633_40d47690ef_o.jpg",
    "id_image": "Dog_368017",
    "count_view": 0
  },
  {
    "link_thumb": "https://live.staticflickr.com/65535/50019155608_0ceab39bb0_n.jpg",
    "id_album": "-1481843714",
    "description": "Cheetah_249768",
    "title": "Cheetah_249768",
    "link_img": "https://live.staticflickr.com/65535/50019155608_ddacebb58a_o.jpg",
    "id_image": "Cheetah_249768",
    "count_view": 0
  },
  {
    "link_thumb": "https://live.staticflickr.com/65535/50020525317_9d22687712_n.jpg",
    "id_album": "-149330232",
    "description": "Dog_336138",
    "title": "Dog_336138",
    "link_img": "https://live.staticflickr.com/65535/50020525317_26336ea538_o.jpg",
    "id_image": "Dog_336138",
    "count_view": 0
  },
  {
    "link_thumb": "https://live.staticflickr.com/65535/50017377632_c13e70e6ab_n.jpg",
    "id_album": "1699594607",
    "description": "Bee_153472",
    "title": "Bee_153472",
    "link_img": "https://live.staticflickr.com/65535/50017377632_ab4dbf2878_o.jpg",
    "id_image": "Bee_153472",
    "count_view": 0
  },
  {
    "link_thumb": "https://live.staticflickr.com/65535/50016752038_a29bf2ff1e_n.jpg",
    "id_album": "-1846011410",
    "description": "Bird_367253",
    "title": "Bird_367253",
    "link_img": "https://live.staticflickr.com/65535/50016752038_3d5ccd274a_o.jpg",
    "id_image": "Bird_367253",
    "count_view": 0
  },
  {
    "link_thumb": "https://live.staticflickr.com/65535/50020195036_a4262a8b85_n.jpg",
    "id_album": "-149330232",
    "description": "Dog_264780",
    "title": "Dog_264780",
    "link_img": "https://live.staticflickr.com/65535/50020195036_222f495c85_o.jpg",
    "id_image": "Dog_264780",
    "count_view": 0
  },
  {
    "link_thumb": "https://live.staticflickr.com/65535/50020498463_1682b03c48_n.jpg",
    "id_album": "704811092",
    "description": "FrenchBulldog_461839",
    "title": "FrenchBulldog_461839",
    "link_img": "https://live.staticflickr.com/65535/50020498463_4ee382d989_o.jpg",
    "id_image": "FrenchBulldog_461839",
    "count_view": 0
  },
  {
    "link_thumb": "https://live.staticflickr.com/65535/50016430618_0cdfd1cac8_n.jpg",
    "id_album": "231236068",
    "description": "BaldEagle_421979",
    "title": "BaldEagle_421979",
    "link_img": "https://live.staticflickr.com/65535/50016430618_80ff4d97e0_o.jpg",
    "id_image": "BaldEagle_421979",
    "count_view": 0
  },
  {
    "link_thumb": "https://live.staticflickr.com/65535/50017049108_92d72d5d37_n.jpg",
    "id_album": "-401151552",
    "description": "Butterfly_376765",
    "title": "Butterfly_376765",
    "link_img": "https://live.staticflickr.com/65535/50017049108_ce170bd8ed_o.jpg",
    "id_image": "Butterfly_376765",
    "count_view": 0
  },
  {
    "link_thumb": "https://live.staticflickr.com/65535/50019251113_09828ce242_n.jpg",
    "id_album": "643379324",
    "description": "Clownfish_340672",
    "title": "Clownfish_340672",
    "link_img": "https://live.staticflickr.com/65535/50019251113_9ab8c89598_o.jpg",
    "id_image": "Clownfish_340672",
    "count_view": 0
  },
  {
    "link_thumb": "https://live.staticflickr.com/65535/50020464998_2d5ae7e46f_n.jpg",
    "id_album": "-128218148",
    "description": "Fox_805136",
    "title": "Fox_805136",
    "link_img": "https://live.staticflickr.com/65535/50020464998_d56565acc5_o.jpg",
    "id_image": "Fox_805136",
    "count_view": 0
  },
  {
    "link_thumb": "https://live.staticflickr.com/65535/50351964688_b12931830c_n.jpg",
    "id_album": "-462831703",
    "description": "Cat_746308",
    "title": "Cat_746308",
    "link_img": "https://live.staticflickr.com/65535/50351964688_b017c9aac7_o.jpg",
    "id_image": "Cat_746308",
    "count_view": 0
  },
  {
    "link_thumb": "https://live.staticflickr.com/65535/50019576578_99656123fe_n.jpg",
    "id_album": "297232732",
    "description": "Dinosaur_905718",
    "title": "Dinosaur_905718",
    "link_img": "https://live.staticflickr.com/65535/50019576578_2c011eb55e_o.jpg",
    "id_image": "Dinosaur_905718",
    "count_view": 0
  },
  {
    "link_thumb": "https://live.staticflickr.com/65535/50020511522_3bf42f503d_n.jpg",
    "id_album": "-149330232",
    "description": "Dog_331851",
    "title": "Dog_331851",
    "link_img": "https://live.staticflickr.com/65535/50020511522_149167b9bf_o.jpg",
    "id_image": "Dog_331851",
    "count_view": 0
  },
  {
    "link_thumb": "https://live.staticflickr.com/65535/50018028352_53240f4632_n.jpg",
    "id_album": "-462831705",
    "description": "Cat_117249",
    "title": "Cat_117249",
    "link_img": "https://live.staticflickr.com/65535/50018028352_0e30034bd2_o.jpg",
    "id_image": "Cat_117249",
    "count_view": 0
  },
  {
    "link_thumb": "https://live.staticflickr.com/65535/50023511616_a61bbf8898_n.jpg",
    "id_album": "-800019164",
    "description": "Snail_330060",
    "title": "Snail_330060",
    "link_img": "https://live.staticflickr.com/65535/50023511616_8657038ebd_o.jpg",
    "id_image": "Snail_330060",
    "count_view": 0
  },
  {
    "link_thumb": "https://live.staticflickr.com/65535/50024281946_2a0ed95d9a_n.jpg",
    "id_album": "-1103743486",
    "description": "Toucan_592985",
    "title": "Toucan_592985",
    "link_img": "https://live.staticflickr.com/65535/50024281946_ff1f387a1c_o.jpg",
    "id_image": "Toucan_592985",
    "count_view": 0
  },
  {
    "link_thumb": "https://live.staticflickr.com/65535/50019924378_bd51bd805e_n.jpg",
    "id_album": "-149330231",
    "description": "Dog_543690",
    "title": "Dog_543690",
    "link_img": "https://live.staticflickr.com/65535/50019924378_edd3fccbb0_o.jpg",
    "id_image": "Dog_543690",
    "count_view": 0
  },
  {
    "link_thumb": "https://live.staticflickr.com/65535/50021247857_af9ae3c4b6_n.jpg",
    "id_album": "-128218148",
    "description": "Fox_718625",
    "title": "Fox_718625",
    "link_img": "https://live.staticflickr.com/65535/50021247857_e1b67829a8_o.jpg",
    "id_image": "Fox_718625",
    "count_view": 0
  },
  {
    "link_thumb": "https://live.staticflickr.com/65535/50021766276_ef56dbeccd_n.jpg",
    "id_album": "1562047127",
    "description": "Jellyfish_477623",
    "title": "Jellyfish_477623",
    "link_img": "https://live.staticflickr.com/65535/50021766276_ae82301789_o.jpg",
    "id_image": "Jellyfish_477623",
    "count_view": 0
  },
  {
    "link_thumb": "https://live.staticflickr.com/65535/50021313551_fda0505c13_n.jpg",
    "id_album": "-405626519",
    "description": "GermanShepherd_974432",
    "title": "GermanShepherd_974432",
    "link_img": "https://live.staticflickr.com/65535/50021313551_812c930d62_o.jpg",
    "id_image": "GermanShepherd_974432",
    "count_view": 0
  },
  {
    "link_thumb": "https://live.staticflickr.com/65535/50023194778_bf00ed1967_n.jpg",
    "id_album": "-1082521515",
    "description": "Spider_382572",
    "title": "Spider_382572",
    "link_img": "https://live.staticflickr.com/65535/50023194778_11ebf92425_o.jpg",
    "id_image": "Spider_382572",
    "count_view": 0
  },
  {
    "link_thumb": "https://live.staticflickr.com/65535/50019515586_6858a5b07a_n.jpg",
    "id_album": "-462831703",
    "description": "Cat_951684",
    "title": "Cat_951684",
    "link_img": "https://live.staticflickr.com/65535/50019515586_ee40556556_o.jpg",
    "id_image": "Cat_951684",
    "count_view": 0
  },
  {
    "link_thumb": "https://live.staticflickr.com/65535/50019733253_2d7ff6240b_n.jpg",
    "id_album": "-149330232",
    "description": "Dog_334914",
    "title": "Dog_334914",
    "link_img": "https://live.staticflickr.com/65535/50019733253_a80414206a_o.jpg",
    "id_image": "Dog_334914",
    "count_view": 0
  },
  {
    "link_thumb": "https://live.staticflickr.com/65535/50017341168_af58d58e12_n.jpg",
    "id_album": "-462831705",
    "description": "Cat_219006",
    "title": "Cat_219006",
    "link_img": "https://live.staticflickr.com/65535/50017341168_bff71100f5_o.jpg",
    "id_image": "Cat_219006",
    "count_view": 0
  },
  {
    "link_thumb": "https://live.staticflickr.com/65535/50021212193_a3b364afbe_n.jpg",
    "id_album": "665694624",
    "description": "JapaneseMacaque_718868",
    "title": "JapaneseMacaque_718868",
    "link_img": "https://live.staticflickr.com/65535/50021212193_b3b0d80b69_o.jpg",
    "id_image": "JapaneseMacaque_718868",
    "count_view": 0
  },
  {
    "link_thumb": "https://live.staticflickr.com/65535/50016417368_0c611c7404_n.jpg",
    "id_album": "390697200",
    "description": "AustralianShepherd_875857",
    "title": "AustralianShepherd_875857",
    "link_img": "https://live.staticflickr.com/65535/50016417368_a91741fafe_o.jpg",
    "id_image": "AustralianShepherd_875857",
    "count_view": 0
  },
  {
    "link_thumb": "https://live.staticflickr.com/65535/50020335357_854e89c7cd_n.jpg",
    "id_album": "297232732",
    "description": "Dinosaur_187017",
    "title": "Dinosaur_187017",
    "link_img": "https://live.staticflickr.com/65535/50020335357_a3bc1333d6_o.jpg",
    "id_image": "Dinosaur_187017",
    "count_view": 0
  },
  {
    "link_thumb": "https://live.staticflickr.com/65535/50017259763_b60cf59061_n.jpg",
    "id_album": "-462831705",
    "description": "Cat_155494",
    "title": "Cat_155494",
    "link_img": "https://live.staticflickr.com/65535/50017259763_0dcababf30_o.jpg",
    "id_image": "Cat_155494",
    "count_view": 0
  },
  {
    "link_thumb": "https://live.staticflickr.com/65535/50023741928_bb8883c10b_n.jpg",
    "id_album": "-1103743486",
    "description": "Toucan_900366",
    "title": "Toucan_900366",
    "link_img": "https://live.staticflickr.com/65535/50023741928_b49b9eef3c_o.jpg",
    "id_image": "Toucan_900366",
    "count_view": 0
  },
  {
    "link_thumb": "https://live.staticflickr.com/65535/50352673116_e47b3c95ee_n.jpg",
    "id_album": "-462831703",
    "description": "Cat_968609",
    "title": "Cat_968609",
    "link_img": "https://live.staticflickr.com/65535/50352673116_dd413819c5_o.jpg",
    "id_image": "Cat_968609",
    "count_view": 0
  },
  {
    "link_thumb": "https://live.staticflickr.com/65535/50021608511_84eedf42a7_n.jpg",
    "id_album": "2144294979",
    "description": "Hummingbird_382340",
    "title": "Hummingbird_382340",
    "link_img": "https://live.staticflickr.com/65535/50021608511_c66969db0a_o.jpg",
    "id_image": "Hummingbird_382340",
    "count_view": 0
  },
  {
    "link_thumb": "https://live.staticflickr.com/65535/50024304042_bc3557f337_n.jpg",
    "id_album": "405170427",
    "description": "Tiger_237975",
    "title": "Tiger_237975",
    "link_img": "https://live.staticflickr.com/65535/50024304042_fc4ba8966f_o.jpg",
    "id_image": "Tiger_237975",
    "count_view": 0
  },
  {
    "link_thumb": "https://live.staticflickr.com/65535/50017715116_383a969675_n.jpg",
    "id_album": "-401151552",
    "description": "Butterfly_938884",
    "title": "Butterfly_938884",
    "link_img": "https://live.staticflickr.com/65535/50017715116_4a617ef583_o.jpg",
    "id_image": "Butterfly_938884",
    "count_view": 0
  },
  {
    "link_thumb": "https://live.staticflickr.com/65535/50019904262_9305919a47_n.jpg",
    "id_album": "-766919393",
    "description": "Chameleon_398614",
    "title": "Chameleon_398614",
    "link_img": "https://live.staticflickr.com/65535/50019904262_b6929dd621_o.jpg",
    "id_image": "Chameleon_398614",
    "count_view": 0
  },
  {
    "link_thumb": "https://live.staticflickr.com/65535/50016862096_4f8a9a9c67_n.jpg",
    "id_album": "523598895",
    "description": "Artistic_113689",
    "title": "Artistic_113689",
    "link_img": "https://live.staticflickr.com/65535/50016862096_7c7d3e28e1_o.jpg",
    "id_image": "Artistic_113689",
    "count_view": 0
  },
  {
    "link_thumb": "https://live.staticflickr.com/65535/50023844721_da8cba24e1_n.jpg",
    "id_album": "702283289",
    "description": "Squirrel_361586",
    "title": "Squirrel_361586",
    "link_img": "https://live.staticflickr.com/65535/50023844721_770caaa1f1_o.jpg",
    "id_image": "Squirrel_361586",
    "count_view": 0
  },
  {
    "link_thumb": "https://live.staticflickr.com/65535/50016878236_0e6fc7a7bc_n.jpg",
    "id_album": "523598895",
    "description": "Artistic_197041",
    "title": "Artistic_197041",
    "link_img": "https://live.staticflickr.com/65535/50016878236_91c8e11ba4_o.jpg",
    "id_image": "Artistic_197041",
    "count_view": 0
  },
  {
    "link_thumb": "https://live.staticflickr.com/65535/50020754177_d174e1a3d6_n.jpg",
    "id_album": "-149330231",
    "description": "Dog_729680",
    "title": "Dog_729680",
    "link_img": "https://live.staticflickr.com/65535/50020754177_e85f62aaf5_o.jpg",
    "id_image": "Dog_729680",
    "count_view": 0
  },
  {
    "link_thumb": "https://live.staticflickr.com/65535/50020724968_10e74d53d3_n.jpg",
    "id_album": "-462831703",
    "description": "Cat_825893",
    "title": "Cat_825893",
    "link_img": "https://live.staticflickr.com/65535/50020724968_c4edbc0a85_o.jpg",
    "id_image": "Cat_825893",
    "count_view": 0
  },
  {
    "link_thumb": "https://live.staticflickr.com/65535/50024556186_5e669e0ca1_n.jpg",
    "id_album": "-709711865",
    "description": "Wolf_887142",
    "title": "Wolf_887142",
    "link_img": "https://live.staticflickr.com/65535/50024556186_8684ed4d57_o.jpg",
    "id_image": "Wolf_887142",
    "count_view": 0
  },
  {
    "link_thumb": "https://live.staticflickr.com/65535/50021151443_b464f1d786_n.jpg",
    "id_album": "1658866795",
    "description": "Insect_404801",
    "title": "Insect_404801",
    "link_img": "https://live.staticflickr.com/65535/50021151443_4dc8937e7c_o.jpg",
    "id_image": "Insect_404801",
    "count_view": 0
  },
  {
    "link_thumb": "https://live.staticflickr.com/65535/50019220616_e93f83044a_n.jpg",
    "id_album": "-462831704",
    "description": "Cat_453846",
    "title": "Cat_453846",
    "link_img": "https://live.staticflickr.com/65535/50019220616_3effddd5e0_o.jpg",
    "id_image": "Cat_453846",
    "count_view": 0
  },
  {
    "link_thumb": "https://live.staticflickr.com/65535/50020898196_f2bd159676_n.jpg",
    "id_album": "-1758557371",
    "description": "Flamingo_457989",
    "title": "Flamingo_457989",
    "link_img": "https://live.staticflickr.com/65535/50020898196_eb16ac4c85_o.jpg",
    "id_image": "Flamingo_457989",
    "count_view": 0
  },
  {
    "link_thumb": "https://live.staticflickr.com/65535/50024032386_288e58bca6_n.jpg",
    "id_album": "405170427",
    "description": "Tiger_206154",
    "title": "Tiger_206154",
    "link_img": "https://live.staticflickr.com/65535/50024032386_ba0603ca9c_o.jpg",
    "id_image": "Tiger_206154",
    "count_view": 0
  },
  {
    "link_thumb": "https://live.staticflickr.com/65535/50021974212_5f9d4a06b1_n.jpg",
    "id_album": "-843028318",
    "description": "Jaguar_322879",
    "title": "Jaguar_322879",
    "link_img": "https://live.staticflickr.com/65535/50021974212_f45f12a6de_o.jpg",
    "id_image": "Jaguar_322879",
    "count_view": 0
  },
  {
    "link_thumb": "https://live.staticflickr.com/65535/50021097791_84537dde6a_n.jpg",
    "id_album": "-462831704",
    "description": "Cat_536234",
    "title": "Cat_536234",
    "link_img": "https://live.staticflickr.com/65535/50021097791_92ef23a45e_o.jpg",
    "id_image": "Cat_536234",
    "count_view": 0
  },
  {
    "link_thumb": "https://live.staticflickr.com/65535/50020277327_ae1bca2c57_n.jpg",
    "id_album": "1903411565",
    "description": "Deer_526343",
    "title": "Deer_526343",
    "link_img": "https://live.staticflickr.com/65535/50020277327_96712dd0ca_o.jpg",
    "id_image": "Deer_526343",
    "count_view": 0
  },
  {
    "link_thumb": "https://live.staticflickr.com/65535/50023124687_fe88c911ba_n.jpg",
    "id_album": "1008910300",
    "description": "PolarBear_897605",
    "title": "PolarBear_897605",
    "link_img": "https://live.staticflickr.com/65535/50023124687_bd472f5079_o.jpg",
    "id_image": "PolarBear_897605",
    "count_view": 0
  },
  {
    "link_thumb": "https://live.staticflickr.com/65535/50018128642_beb63833e1_n.jpg",
    "id_album": "-462831705",
    "description": "Cat_218197",
    "title": "Cat_218197",
    "link_img": "https://live.staticflickr.com/65535/50018128642_9965b72c35_o.jpg",
    "id_image": "Cat_218197",
    "count_view": 0
  },
  {
    "link_thumb": "https://live.staticflickr.com/65535/50016931313_e07d88a06b_n.jpg",
    "id_album": "-1561645279",
    "description": "BlackPanther_571641",
    "title": "BlackPanther_571641",
    "link_img": "https://live.staticflickr.com/65535/50016931313_a3781af461_o.jpg",
    "id_image": "BlackPanther_571641",
    "count_view": 0
  },
  {
    "link_thumb": "https://live.staticflickr.com/65535/50022627363_cef6ddb7a0_n.jpg",
    "id_album": "-434874555",
    "description": "RainbowLorikeet_104633",
    "title": "RainbowLorikeet_104633",
    "link_img": "https://live.staticflickr.com/65535/50022627363_1f32f77f5b_o.jpg",
    "id_image": "RainbowLorikeet_104633",
    "count_view": 0
  },
  {
    "link_thumb": "https://live.staticflickr.com/65535/50021387747_a073cc2cb0_n.jpg",
    "id_album": "-462831704",
    "description": "Cat_594912",
    "title": "Cat_594912",
    "link_img": "https://live.staticflickr.com/65535/50021387747_625348a9f7_o.jpg",
    "id_image": "Cat_594912",
    "count_view": 0
  },
  {
    "link_thumb": "https://live.staticflickr.com/65535/50021623953_f512324173_n.jpg",
    "id_album": "1894617400",
    "description": "Lynx_881371",
    "title": "Lynx_881371",
    "link_img": "https://live.staticflickr.com/65535/50021623953_637927abfc_o.jpg",
    "id_image": "Lynx_881371",
    "count_view": 0
  },
  {
    "link_thumb": "https://live.staticflickr.com/65535/50019617641_1cfffa21da_n.jpg",
    "id_album": "1889777354",
    "description": "CGI_106358",
    "title": "CGI_106358",
    "link_img": "https://live.staticflickr.com/65535/50019617641_f410f76494_o.jpg",
    "id_image": "CGI_106358",
    "count_view": 0
  },
  {
    "link_thumb": "https://live.staticflickr.com/65535/50020229257_c61ffe7201_n.jpg",
    "id_album": "-1783645069",
    "description": "Dalmatian_872111",
    "title": "Dalmatian_872111",
    "link_img": "https://live.staticflickr.com/65535/50020229257_3592d2cb08_o.jpg",
    "id_image": "Dalmatian_872111",
    "count_view": 0
  },
  {
    "link_thumb": "https://live.staticflickr.com/65535/50023530098_df116d4797_n.jpg",
    "id_album": "405170427",
    "description": "Tiger_351444",
    "title": "Tiger_351444",
    "link_img": "https://live.staticflickr.com/65535/50023530098_76c03b4414_o.jpg",
    "id_image": "Tiger_351444",
    "count_view": 0
  },
  {
    "link_thumb": "https://live.staticflickr.com/65535/50020539658_76e0bc2fa5_n.jpg",
    "id_album": "844170697",
    "description": "Frog_883781",
    "title": "Frog_883781",
    "link_img": "https://live.staticflickr.com/65535/50020539658_b65248ff9d_o.jpg",
    "id_image": "Frog_883781",
    "count_view": 0
  },
  {
    "link_thumb": "https://live.staticflickr.com/65535/50022184762_b5df1db46e_n.jpg",
    "id_album": "1392348450",
    "description": "Leopard_433898",
    "title": "Leopard_433898",
    "link_img": "https://live.staticflickr.com/65535/50022184762_e21641da3f_o.jpg",
    "id_image": "Leopard_433898",
    "count_view": 0
  },
  {
    "link_thumb": "https://live.staticflickr.com/65535/50020295673_33f39ba25e_n.jpg",
    "id_album": "-1118073211",
    "description": "Fish_277253",
    "title": "Fish_277253",
    "link_img": "https://live.staticflickr.com/65535/50020295673_f616697aed_o.jpg",
    "id_image": "Fish_277253",
    "count_view": 0
  },
  {
    "link_thumb": "https://live.staticflickr.com/65535/50019675088_031fb15412_n.jpg",
    "id_album": "-149330232",
    "description": "Dog_275571",
    "title": "Dog_275571",
    "link_img": "https://live.staticflickr.com/65535/50019675088_1fd3cff9e2_o.jpg",
    "id_image": "Dog_275571",
    "count_view": 0
  },
  {
    "link_thumb": "https://live.staticflickr.com/65535/50021191826_834bfddec4_n.jpg",
    "id_album": "-462831704",
    "description": "Cat_708998",
    "title": "Cat_708998",
    "link_img": "https://live.staticflickr.com/65535/50021191826_4e3fcfcb27_o.jpg",
    "id_image": "Cat_708998",
    "count_view": 0
  },
  {
    "link_thumb": "https://live.staticflickr.com/65535/50020158931_112db74a98_n.jpg",
    "id_album": "-149330232",
    "description": "Dog_219169",
    "title": "Dog_219169",
    "link_img": "https://live.staticflickr.com/65535/50020158931_34a2592a00_o.jpg",
    "id_image": "Dog_219169",
    "count_view": 0
  },
  {
    "link_thumb": "https://live.staticflickr.com/65535/50020545258_fd3b043ffb_n.jpg",
    "id_album": "844170697",
    "description": "Frog_945456",
    "title": "Frog_945456",
    "link_img": "https://live.staticflickr.com/65535/50020545258_771bb15010_o.jpg",
    "id_image": "Frog_945456",
    "count_view": 0
  },
  {
    "link_thumb": "https://live.staticflickr.com/65535/50022219622_de0d5bc063_n.jpg",
    "id_album": "1392348450",
    "description": "Leopard_958176",
    "title": "Leopard_958176",
    "link_img": "https://live.staticflickr.com/65535/50022219622_c091fafa5e_o.jpg",
    "id_image": "Leopard_958176",
    "count_view": 0
  },
  {
    "link_thumb": "https://live.staticflickr.com/65535/50017958576_298b309381_n.jpg",
    "id_album": "-462831702",
    "description": "Cat_313196",
    "title": "Cat_313196",
    "link_img": "https://live.staticflickr.com/65535/50017958576_bbf4c8e6e6_o.jpg",
    "id_image": "Cat_313196",
    "count_view": 0
  },
  {
    "link_thumb": "https://live.staticflickr.com/65535/50018879058_ba914545a1_n.jpg",
    "id_album": "-462831703",
    "description": "Cat_898222",
    "title": "Cat_898222",
    "link_img": "https://live.staticflickr.com/65535/50018879058_d29aa0db05_o.jpg",
    "id_image": "Cat_898222",
    "count_view": 0
  },
  {
    "link_thumb": "https://live.staticflickr.com/65535/50021190596_cdb6f8a3db_n.jpg",
    "id_album": "-462831704",
    "description": "Cat_708294",
    "title": "Cat_708294",
    "link_img": "https://live.staticflickr.com/65535/50021190596_24f892a765_o.jpg",
    "id_image": "Cat_708294",
    "count_view": 0
  },
  {
    "link_thumb": "https://live.staticflickr.com/65535/50020888883_27bdfb56a3_n.jpg",
    "id_album": "1469520430",
    "description": "Hedgehog_383805",
    "title": "Hedgehog_383805",
    "link_img": "https://live.staticflickr.com/65535/50020888883_6d8c304cc7_o.jpg",
    "id_image": "Hedgehog_383805",
    "count_view": 0
  },
  {
    "link_thumb": "https://live.staticflickr.com/65535/50019869443_1e538b8878_n.jpg",
    "id_album": "-149330231",
    "description": "Dog_421941",
    "title": "Dog_421941",
    "link_img": "https://live.staticflickr.com/65535/50019869443_5519eb0b31_o.jpg",
    "id_image": "Dog_421941",
    "count_view": 0
  },
  {
    "link_thumb": "https://live.staticflickr.com/65535/50021087948_46484f9616_n.jpg",
    "id_album": "-712553376",
    "description": "Husky_365157",
    "title": "Husky_365157",
    "link_img": "https://live.staticflickr.com/65535/50021087948_5495df5d84_o.jpg",
    "id_image": "Husky_365157",
    "count_view": 0
  },
  {
    "link_thumb": "https://live.staticflickr.com/65535/50021263721_e157c4d6a7_n.jpg",
    "id_album": "-462831703",
    "description": "Cat_818952",
    "title": "Cat_818952",
    "link_img": "https://live.staticflickr.com/65535/50021263721_a60fbf0d7d_o.jpg",
    "id_image": "Cat_818952",
    "count_view": 0
  },
  {
    "link_thumb": "https://live.staticflickr.com/65535/50022517617_89eccb1898_n.jpg",
    "id_album": "-784970094",
    "description": "Monkey_688162",
    "title": "Monkey_688162",
    "link_img": "https://live.staticflickr.com/65535/50022517617_e66f3abdbc_o.jpg",
    "id_image": "Monkey_688162",
    "count_view": 0
  },
  {
    "link_thumb": "https://live.staticflickr.com/65535/50022683888_193d675fd3_n.jpg",
    "id_album": "332874268",
    "description": "RedPanda_682192",
    "title": "RedPanda_682192",
    "link_img": "https://live.staticflickr.com/65535/50022683888_d9e0c64dd4_o.jpg",
    "id_image": "RedPanda_682192",
    "count_view": 0
  },
  {
    "link_thumb": "https://live.staticflickr.com/65535/50022111952_26852e5742_n.jpg",
    "id_album": "-1882491687",
    "description": "Ladybug_542920",
    "title": "Ladybug_542920",
    "link_img": "https://live.staticflickr.com/65535/50022111952_b539f36e9b_o.jpg",
    "id_image": "Ladybug_542920",
    "count_view": 0
  },
  {
    "link_thumb": "https://live.staticflickr.com/65535/50021081012_315187921e_n.jpg",
    "id_album": "-1118073211",
    "description": "Fish_201192",
    "title": "Fish_201192",
    "link_img": "https://live.staticflickr.com/65535/50021081012_6bd73736b5_o.jpg",
    "id_image": "Fish_201192",
    "count_view": 0
  },
  {
    "link_thumb": "https://live.staticflickr.com/65535/50021457576_89e8728706_n.jpg",
    "id_album": "-1933715543",
    "description": "Horse_102904",
    "title": "Horse_102904",
    "link_img": "https://live.staticflickr.com/65535/50021457576_45e8fd4a6e_o.jpg",
    "id_image": "Horse_102904",
    "count_view": 0
  },
  {
    "link_thumb": "https://live.staticflickr.com/65535/50017968866_07029da99f_n.jpg",
    "id_album": "-462831702",
    "description": "Cat_323912",
    "title": "Cat_323912",
    "link_img": "https://live.staticflickr.com/65535/50017968866_3bc9457f43_o.jpg",
    "id_image": "Cat_323912",
    "count_view": 0
  },
  {
    "link_thumb": "https://live.staticflickr.com/65535/50017084488_daff523e23_n.jpg",
    "id_album": "-401151552",
    "description": "Butterfly_476247",
    "title": "Butterfly_476247",
    "link_img": "https://live.staticflickr.com/65535/50017084488_d2c624f581_o.jpg",
    "id_image": "Butterfly_476247",
    "count_view": 0
  },
  {
    "link_thumb": "https://live.staticflickr.com/65535/50016843396_5397cd57b8_n.jpg",
    "id_album": "-834314226",
    "description": "ArcticFox_346941",
    "title": "ArcticFox_346941",
    "link_img": "https://live.staticflickr.com/65535/50016843396_74a7ca4a20_o.jpg",
    "id_image": "ArcticFox_346941",
    "count_view": 0
  },
  {
    "link_thumb": "https://live.staticflickr.com/65535/50019392101_5663312b87_n.jpg",
    "id_album": "-462831703",
    "description": "Cat_882596",
    "title": "Cat_882596",
    "link_img": "https://live.staticflickr.com/65535/50019392101_ee3c053b05_o.jpg",
    "id_image": "Cat_882596",
    "count_view": 0
  },
  {
    "link_thumb": "https://live.staticflickr.com/65535/50023749398_96e7d9d7a1_n.jpg",
    "id_album": "901523298",
    "description": "TreeFrog_592522",
    "title": "TreeFrog_592522",
    "link_img": "https://live.staticflickr.com/65535/50023749398_57d9b9bb66_o.jpg",
    "id_image": "TreeFrog_592522",
    "count_view": 0
  },
  {
    "link_thumb": "https://live.staticflickr.com/65535/50019010823_8e3cdb07e0_n.jpg",
    "id_album": "-462831703",
    "description": "Cat_972340",
    "title": "Cat_972340",
    "link_img": "https://live.staticflickr.com/65535/50019010823_bd18bf0dd2_o.jpg",
    "id_image": "Cat_972340",
    "count_view": 0
  },
  {
    "link_thumb": "https://live.staticflickr.com/65535/50021292067_52d9625903_n.jpg",
    "id_album": "704811092",
    "description": "FrenchBulldog_379580",
    "title": "FrenchBulldog_379580",
    "link_img": "https://live.staticflickr.com/65535/50021292067_c64a46f94e_o.jpg",
    "id_image": "FrenchBulldog_379580",
    "count_view": 0
  },
  {
    "link_thumb": "https://live.staticflickr.com/65535/50017198653_f4cb550aeb_n.jpg",
    "id_album": "-1131161368",
    "description": "Camel_408776",
    "title": "Camel_408776",
    "link_img": "https://live.staticflickr.com/65535/50017198653_eb692b8ed4_o.jpg",
    "id_image": "Camel_408776",
    "count_view": 0
  },
  {
    "link_thumb": "https://live.staticflickr.com/65535/50017530313_4fa386ecac_n.jpg",
    "id_album": "-462831702",
    "description": "Cat_361877",
    "title": "Cat_361877",
    "link_img": "https://live.staticflickr.com/65535/50017530313_b8a340475f_o.jpg",
    "id_image": "Cat_361877",
    "count_view": 0
  },
  {
    "link_thumb": "https://live.staticflickr.com/65535/50023127488_d9f99efa96_n.jpg",
    "id_album": "-1131363127",
    "description": "SnowLeopard_770980",
    "title": "SnowLeopard_770980",
    "link_img": "https://live.staticflickr.com/65535/50023127488_70d33c74ea_o.jpg",
    "id_image": "SnowLeopard_770980",
    "count_view": 0
  },
  {
    "link_thumb": "https://live.staticflickr.com/65535/50019730171_4c6cd0d099_n.jpg",
    "id_album": "-1481843714",
    "description": "Cheetah_793683",
    "title": "Cheetah_793683",
    "link_img": "https://live.staticflickr.com/65535/50019730171_77c4d64ceb_o.jpg",
    "id_image": "Cheetah_793683",
    "count_view": 0
  },
  {
    "link_thumb": "https://live.staticflickr.com/65535/50016902143_7d6eecb374_n.jpg",
    "id_album": "-1846011410",
    "description": "Bird_811852",
    "title": "Bird_811852",
    "link_img": "https://live.staticflickr.com/65535/50016902143_a23c547151_o.jpg",
    "id_image": "Bird_811852",
    "count_view": 0
  },
  {
    "link_thumb": "https://live.staticflickr.com/65535/50019655852_ba08657040_n.jpg",
    "id_album": "-462831703",
    "description": "Cat_888426",
    "title": "Cat_888426",
    "link_img": "https://live.staticflickr.com/65535/50019655852_49af1ee379_o.jpg",
    "id_image": "Cat_888426",
    "count_view": 0
  },
  {
    "link_thumb": "https://live.staticflickr.com/65535/50020145522_280e213509_n.jpg",
    "id_album": "1475096665",
    "description": "Crocodile_267053",
    "title": "Crocodile_267053",
    "link_img": "https://live.staticflickr.com/65535/50020145522_e32881848a_o.jpg",
    "id_image": "Crocodile_267053",
    "count_view": 0
  },
  {
    "link_thumb": "https://live.staticflickr.com/65535/50021080946_7da61b6442_n.jpg",
    "id_album": "844170697",
    "description": "Frog_865637",
    "title": "Frog_865637",
    "link_img": "https://live.staticflickr.com/65535/50021080946_c93cd97a05_o.jpg",
    "id_image": "Frog_865637",
    "count_view": 0
  },
  {
    "link_thumb": "https://live.staticflickr.com/65535/50021403302_45236b700d_n.jpg",
    "id_album": "-462831704",
    "description": "Cat_650931",
    "title": "Cat_650931",
    "link_img": "https://live.staticflickr.com/65535/50021403302_3232d389c0_o.jpg",
    "id_image": "Cat_650931",
    "count_view": 0
  },
  {
    "link_thumb": "https://live.staticflickr.com/65535/50021263417_2d2a3478b3_n.jpg",
    "id_album": "-128218148",
    "description": "Fox_829907",
    "title": "Fox_829907",
    "link_img": "https://live.staticflickr.com/65535/50021263417_154e628e98_o.jpg",
    "id_image": "Fox_829907",
    "count_view": 0
  },
  {
    "link_thumb": "https://live.staticflickr.com/65535/50020062746_806091a2fe_n.jpg",
    "id_album": "1903411565",
    "description": "Deer_910540",
    "title": "Deer_910540",
    "link_img": "https://live.staticflickr.com/65535/50020062746_bb11036fd9_o.jpg",
    "id_image": "Deer_910540",
    "count_view": 0
  },
  {
    "link_thumb": "https://live.staticflickr.com/65535/50019674122_c1ded1d408_n.jpg",
    "id_album": "-462831703",
    "description": "Cat_901704",
    "title": "Cat_901704",
    "link_img": "https://live.staticflickr.com/65535/50019674122_574c6049a7_o.jpg",
    "id_image": "Cat_901704",
    "count_view": 0
  },
  {
    "link_thumb": "https://live.staticflickr.com/65535/50352729262_8541d2e088_n.jpg",
    "id_album": "-462831703",
    "description": "Cat_498999",
    "title": "Cat_498999",
    "link_img": "https://live.staticflickr.com/65535/50352729262_37f5774fcc_o.jpg",
    "id_image": "Cat_498999",
    "count_view": 0
  },
  {
    "link_thumb": "https://live.staticflickr.com/65535/50016638583_71ef7e2433_n.jpg",
    "id_album": "1699594607",
    "description": "Bee_903467",
    "title": "Bee_903467",
    "link_img": "https://live.staticflickr.com/65535/50016638583_b95174e9ee_o.jpg",
    "id_image": "Bee_903467",
    "count_view": 0
  },
  {
    "link_thumb": "https://live.staticflickr.com/65535/50019012098_472c81a803_n.jpg",
    "id_album": "-462831703",
    "description": "Cat_975039",
    "title": "Cat_975039",
    "link_img": "https://live.staticflickr.com/65535/50019012098_b4b2189f9f_o.jpg",
    "id_image": "Cat_975039",
    "count_view": 0
  },
  {
    "link_thumb": "https://live.staticflickr.com/65535/50022178101_8b84ce8b93_n.jpg",
    "id_album": "-1173056085",
    "description": "Macaw_595747",
    "title": "Macaw_595747",
    "link_img": "https://live.staticflickr.com/65535/50022178101_ea07bc3896_o.jpg",
    "id_image": "Macaw_595747",
    "count_view": 0
  },
  {
    "link_thumb": "https://live.staticflickr.com/65535/50021323837_68b9f471e3_n.jpg",
    "id_album": "844170697",
    "description": "Frog_61061",
    "title": "Frog_61061",
    "link_img": "https://live.staticflickr.com/65535/50021323837_b3cf42f2d1_o.jpg",
    "id_image": "Frog_61061",
    "count_view": 0
  },
  {
    "link_thumb": "https://live.staticflickr.com/65535/50019769728_8ef7614bde_n.jpg",
    "id_album": "-149330232",
    "description": "Dog_352641",
    "title": "Dog_352641",
    "link_img": "https://live.staticflickr.com/65535/50019769728_5d47a4d00f_o.jpg",
    "id_image": "Dog_352641",
    "count_view": 0
  },
  {
    "link_thumb": "https://live.staticflickr.com/65535/50023145386_8a3686a3a2_n.jpg",
    "id_album": "248289288",
    "description": "Raccoon_397618",
    "title": "Raccoon_397618",
    "link_img": "https://live.staticflickr.com/65535/50023145386_6b1e6fa76e_o.jpg",
    "id_image": "Raccoon_397618",
    "count_view": 0
  },
  {
    "link_thumb": "https://live.staticflickr.com/65535/50020729608_50f6e70ed7_n.jpg",
    "id_album": "-462831703",
    "description": "Cat_833424",
    "title": "Cat_833424",
    "link_img": "https://live.staticflickr.com/65535/50020729608_991e92d127_o.jpg",
    "id_image": "Cat_833424",
    "count_view": 0
  },
  {
    "link_thumb": "https://live.staticflickr.com/65535/50021200352_ec19f38b10_n.jpg",
    "id_album": "-128218148",
    "description": "Fox_331045",
    "title": "Fox_331045",
    "link_img": "https://live.staticflickr.com/65535/50021200352_2a9e9f5ce3_o.jpg",
    "id_image": "Fox_331045",
    "count_view": 0
  },
  {
    "link_thumb": "https://live.staticflickr.com/65535/50019708438_23f6aa87da_n.jpg",
    "id_album": "-149330232",
    "description": "Dog_323407",
    "title": "Dog_323407",
    "link_img": "https://live.staticflickr.com/65535/50019708438_48d9043536_o.jpg",
    "id_image": "Dog_323407",
    "count_view": 0
  },
  {
    "link_thumb": "https://live.staticflickr.com/65535/50352532556_773c099fee_n.jpg",
    "id_album": "-462831703",
    "description": "Cat_453841",
    "title": "Cat_453841",
    "link_img": "https://live.staticflickr.com/65535/50352532556_5ff0eb622e_o.jpg",
    "id_image": "Cat_453841",
    "count_view": 0
  },
  {
    "link_thumb": "https://live.staticflickr.com/65535/50017632966_c0beeb946a_n.jpg",
    "id_album": "-401151552",
    "description": "Butterfly_574409",
    "title": "Butterfly_574409",
    "link_img": "https://live.staticflickr.com/65535/50017632966_4d75a72936_o.jpg",
    "id_image": "Butterfly_574409",
    "count_view": 0
  },
  {
    "link_thumb": "https://live.staticflickr.com/65535/50017731092_4c5e2d70a7_n.jpg",
    "id_album": "-530283314",
    "description": "BlueandyellowMacaw_606145",
    "title": "BlueandyellowMacaw_606145",
    "link_img": "https://live.staticflickr.com/65535/50017731092_1259c96fd3_o.jpg",
    "id_image": "BlueandyellowMacaw_606145",
    "count_view": 0
  },
  {
    "link_thumb": "https://live.staticflickr.com/65535/50023242102_854de3691a_n.jpg",
    "id_album": "-353898617",
    "description": "Puppy_409590",
    "title": "Puppy_409590",
    "link_img": "https://live.staticflickr.com/65535/50023242102_22d583372a_o.jpg",
    "id_image": "Puppy_409590",
    "count_view": 0
  },
  {
    "link_thumb": "https://live.staticflickr.com/65535/50023932943_693735c5fd_n.jpg",
    "id_album": "-709711865",
    "description": "Wolf_333991",
    "title": "Wolf_333991",
    "link_img": "https://live.staticflickr.com/65535/50023932943_018f54faff_o.jpg",
    "id_image": "Wolf_333991",
    "count_view": 0
  },
  {
    "link_thumb": "https://live.staticflickr.com/65535/50023066616_1a1aba1ae4_n.jpg",
    "id_album": "-353898617",
    "description": "Puppy_865704",
    "title": "Puppy_865704",
    "link_img": "https://live.staticflickr.com/65535/50023066616_5f82be3ea7_o.jpg",
    "id_image": "Puppy_865704",
    "count_view": 0
  },
  {
    "link_thumb": "https://live.staticflickr.com/65535/50017884917_6690005a3d_n.jpg",
    "id_album": "-401151552",
    "description": "Butterfly_544170",
    "title": "Butterfly_544170",
    "link_img": "https://live.staticflickr.com/65535/50017884917_fcabf6144f_o.jpg",
    "id_image": "Butterfly_544170",
    "count_view": 0
  },
  {
    "link_thumb": "https://live.staticflickr.com/65535/50022507638_0b4c735fbc_n.jpg",
    "id_album": "-353898617",
    "description": "Puppy_686341",
    "title": "Puppy_686341",
    "link_img": "https://live.staticflickr.com/65535/50022507638_832b9c2a20_o.jpg",
    "id_image": "Puppy_686341",
    "count_view": 0
  },
  {
    "link_thumb": "https://live.staticflickr.com/65535/50017078321_2cc2633be9_n.jpg",
    "id_album": "-422187261",
    "description": "Bear_770870",
    "title": "Bear_770870",
    "link_img": "https://live.staticflickr.com/65535/50017078321_139e99c50b_o.jpg",
    "id_image": "Bear_770870",
    "count_view": 0
  },
  {
    "link_thumb": "https://live.staticflickr.com/65535/50018269067_af6a06b426_n.jpg",
    "id_album": "-462831702",
    "description": "Cat_339418",
    "title": "Cat_339418",
    "link_img": "https://live.staticflickr.com/65535/50018269067_9997ac5ef8_o.jpg",
    "id_image": "Cat_339418",
    "count_view": 0
  },
  {
    "link_thumb": "https://live.staticflickr.com/65535/50021420143_7fd33f3b90_n.jpg",
    "id_album": "1392348450",
    "description": "Leopard_951474",
    "title": "Leopard_951474",
    "link_img": "https://live.staticflickr.com/65535/50021420143_d925a1aa24_o.jpg",
    "id_image": "Leopard_951474",
    "count_view": 0
  },
  {
    "link_thumb": "https://live.staticflickr.com/65535/50017710107_3da490314b_n.jpg",
    "id_album": "-1561645279",
    "description": "BlackPanther_347196",
    "title": "BlackPanther_347196",
    "link_img": "https://live.staticflickr.com/65535/50017710107_4a174806c5_o.jpg",
    "id_image": "BlackPanther_347196",
    "count_view": 0
  },
  {
    "link_thumb": "https://live.staticflickr.com/65535/50021905676_1a56011c75_n.jpg",
    "id_album": "1392348450",
    "description": "Leopard_361679",
    "title": "Leopard_361679",
    "link_img": "https://live.staticflickr.com/65535/50021905676_a0791a9165_o.jpg",
    "id_image": "Leopard_361679",
    "count_view": 0
  },
  {
    "link_thumb": "https://live.staticflickr.com/65535/50020510278_aa198824fe_n.jpg",
    "id_album": "844170697",
    "description": "Frog_276172",
    "title": "Frog_276172",
    "link_img": "https://live.staticflickr.com/65535/50020510278_6c123a4141_o.jpg",
    "id_image": "Frog_276172",
    "count_view": 0
  },
  {
    "link_thumb": "https://live.staticflickr.com/65535/50020346206_5e8de14fe6_n.jpg",
    "id_album": "-149330232",
    "description": "Dog_371442",
    "title": "Dog_371442",
    "link_img": "https://live.staticflickr.com/65535/50020346206_0e57aa22a8_o.jpg",
    "id_image": "Dog_371442",
    "count_view": 0
  },
  {
    "link_thumb": "https://live.staticflickr.com/65535/50020890692_51d3d50d8f_n.jpg",
    "id_album": "-405058657",
    "description": "Dragonfly_595076",
    "title": "Dragonfly_595076",
    "link_img": "https://live.staticflickr.com/65535/50020890692_fcf715026a_o.jpg",
    "id_image": "Dragonfly_595076",
    "count_view": 0
  },
  {
    "link_thumb": "https://live.staticflickr.com/65535/50352653807_d8e1ec839c_n.jpg",
    "id_album": "-462831703",
    "description": "Cat_396388",
    "title": "Cat_396388",
    "link_img": "https://live.staticflickr.com/65535/50352653807_a7369d04cc_o.jpg",
    "id_image": "Cat_396388",
    "count_view": 0
  },
  {
    "link_thumb": "https://live.staticflickr.com/65535/50023266542_4e27d0c685_n.jpg",
    "id_album": "-353898617",
    "description": "Puppy_519864",
    "title": "Puppy_519864",
    "link_img": "https://live.staticflickr.com/65535/50023266542_7164ae0687_o.jpg",
    "id_image": "Puppy_519864",
    "count_view": 0
  },
  {
    "link_thumb": "https://live.staticflickr.com/65535/50017668751_c09aa478e9_n.jpg",
    "id_album": "-401151552",
    "description": "Butterfly_787950",
    "title": "Butterfly_787950",
    "link_img": "https://live.staticflickr.com/65535/50017668751_8d861145b5_o.jpg",
    "id_image": "Butterfly_787950",
    "count_view": 0
  },
  {
    "link_thumb": "https://live.staticflickr.com/65535/50017520142_9b4d295d08_n.jpg",
    "id_album": "-1846011410",
    "description": "Bird_348025",
    "title": "Bird_348025",
    "link_img": "https://live.staticflickr.com/65535/50017520142_2aee507df7_o.jpg",
    "id_image": "Bird_348025",
    "count_view": 0
  },
  {
    "link_thumb": "https://live.staticflickr.com/65535/50018812668_e96377ee6a_n.jpg",
    "id_album": "-462831705",
    "description": "Cat_86537",
    "title": "Cat_86537",
    "link_img": "https://live.staticflickr.com/65535/50018812668_90d8f665a0_o.jpg",
    "id_image": "Cat_86537",
    "count_view": 0
  },
  {
    "link_thumb": "https://live.staticflickr.com/65535/50019225813_967a1c9a39_n.jpg",
    "id_album": "791455625",
    "description": "Chipmunk_225652",
    "title": "Chipmunk_225652",
    "link_img": "https://live.staticflickr.com/65535/50019225813_0d0d07490d_o.jpg",
    "id_image": "Chipmunk_225652",
    "count_view": 0
  },
  {
    "link_thumb": "https://live.staticflickr.com/65535/50024521692_b146fe79a4_n.jpg",
    "id_album": "-809392728",
    "description": "Titmouse_738372",
    "title": "Titmouse_738372",
    "link_img": "https://live.staticflickr.com/65535/50024521692_c2ea82ab81_o.jpg",
    "id_image": "Titmouse_738372",
    "count_view": 0
  },
  {
    "link_thumb": "https://live.staticflickr.com/65535/50018177602_a53b7161d5_n.jpg",
    "id_album": "-462831705",
    "description": "Cat_265625",
    "title": "Cat_265625",
    "link_img": "https://live.staticflickr.com/65535/50018177602_f4e70a424f_o.jpg",
    "id_image": "Cat_265625",
    "count_view": 0
  },
  {
    "link_thumb": "https://live.staticflickr.com/65535/50020801448_4b9d900d12_n.jpg",
    "id_album": "-804131074",
    "description": "Goat_572363",
    "title": "Goat_572363",
    "link_img": "https://live.staticflickr.com/65535/50020801448_f3e9e10560_o.jpg",
    "id_image": "Goat_572363",
    "count_view": 0
  },
  {
    "link_thumb": "https://live.staticflickr.com/65535/50021017532_5be80fbfbb_n.jpg",
    "id_album": "1270947998",
    "description": "Elephant_458696",
    "title": "Elephant_458696",
    "link_img": "https://live.staticflickr.com/65535/50021017532_ca79a59f61_o.jpg",
    "id_image": "Elephant_458696",
    "count_view": 0
  },
  {
    "link_thumb": "https://live.staticflickr.com/65535/50017434732_333edd7f7e_n.jpg",
    "id_album": "172748811",
    "description": "Beeeater_571330",
    "title": "Beeeater_571330",
    "link_img": "https://live.staticflickr.com/65535/50017434732_2e2e625019_o.jpg",
    "id_image": "Beeeater_571330",
    "count_view": 0
  },
  {
    "link_thumb": "https://live.staticflickr.com/65535/50021010052_b088ebce9c_n.jpg",
    "id_album": "1270947998",
    "description": "Elephant_410044",
    "title": "Elephant_410044",
    "link_img": "https://live.staticflickr.com/65535/50021010052_c68f4904f3_o.jpg",
    "id_image": "Elephant_410044",
    "count_view": 0
  },
  {
    "link_thumb": "https://live.staticflickr.com/65535/50017659137_1c195b8f9d_n.jpg",
    "id_album": "-1846011410",
    "description": "Bird_652336",
    "title": "Bird_652336",
    "link_img": "https://live.staticflickr.com/65535/50017659137_7e9e50d798_o.jpg",
    "id_image": "Bird_652336",
    "count_view": 0
  },
  {
    "link_thumb": "https://live.staticflickr.com/65535/50021401178_1791023839_n.jpg",
    "id_album": "1392348450",
    "description": "Leopard_687616",
    "title": "Leopard_687616",
    "link_img": "https://live.staticflickr.com/65535/50021401178_083456673a_o.jpg",
    "id_image": "Leopard_687616",
    "count_view": 0
  },
  {
    "link_thumb": "https://live.staticflickr.com/65535/50023497458_d5d9811c39_n.jpg",
    "id_album": "405170427",
    "description": "Tiger_235901",
    "title": "Tiger_235901",
    "link_img": "https://live.staticflickr.com/65535/50023497458_94f5e6aaf2_o.jpg",
    "id_image": "Tiger_235901",
    "count_view": 0
  },
  {
    "link_thumb": "https://live.staticflickr.com/65535/50018152821_cd3cb0538b_n.jpg",
    "id_album": "-462831702",
    "description": "Cat_407702",
    "title": "Cat_407702",
    "link_img": "https://live.staticflickr.com/65535/50018152821_f9761e0227_o.jpg",
    "id_image": "Cat_407702",
    "count_view": 0
  },
  {
    "link_thumb": "https://live.staticflickr.com/65535/50019415212_bf8d5761aa_n.jpg",
    "id_album": "-462831702",
    "description": "Cat_421529",
    "title": "Cat_421529",
    "link_img": "https://live.staticflickr.com/65535/50019415212_33d4e9efa6_o.jpg",
    "id_image": "Cat_421529",
    "count_view": 0
  },
  {
    "link_thumb": "https://live.staticflickr.com/65535/50023852278_0140dd7824_n.jpg",
    "id_album": "786934945",
    "description": "Whale_345303",
    "title": "Whale_345303",
    "link_img": "https://live.staticflickr.com/65535/50023852278_a53b78cbda_o.jpg",
    "id_image": "Whale_345303",
    "count_view": 0
  },
  {
    "link_thumb": "https://live.staticflickr.com/65535/50020558427_9f214157ed_n.jpg",
    "id_album": "-149330232",
    "description": "Dog_351452",
    "title": "Dog_351452",
    "link_img": "https://live.staticflickr.com/65535/50020558427_7184b03c1b_o.jpg",
    "id_image": "Dog_351452",
    "count_view": 0
  },
  {
    "link_thumb": "https://live.staticflickr.com/65535/50022046286_4368fb6a93_n.jpg",
    "id_album": "416744915",
    "description": "Lion_703461",
    "title": "Lion_703461",
    "link_img": "https://live.staticflickr.com/65535/50022046286_776d3176b8_o.jpg",
    "id_image": "Lion_703461",
    "count_view": 0
  },
  {
    "link_thumb": "https://live.staticflickr.com/65535/50017097748_f7b4723e01_n.jpg",
    "id_album": "-401151552",
    "description": "Butterfly_544051",
    "title": "Butterfly_544051",
    "link_img": "https://live.staticflickr.com/65535/50017097748_4920ee70c9_o.jpg",
    "id_image": "Butterfly_544051",
    "count_view": 0
  },
  {
    "link_thumb": "https://live.staticflickr.com/65535/50022725038_9f8cf625f4_n.jpg",
    "id_album": "48367914",
    "description": "Rhino_262308",
    "title": "Rhino_262308",
    "link_img": "https://live.staticflickr.com/65535/50022725038_b9841d9291_o.jpg",
    "id_image": "Rhino_262308",
    "count_view": 0
  },
  {
    "link_thumb": "https://live.staticflickr.com/65535/50352580426_7c7b555eac_n.jpg",
    "id_album": "-462831703",
    "description": "Cat_514505",
    "title": "Cat_514505",
    "link_img": "https://live.staticflickr.com/65535/50352580426_73705679ec_o.jpg",
    "id_image": "Cat_514505",
    "count_view": 0
  },
  {
    "link_thumb": "https://live.staticflickr.com/65535/50020170191_55b43b0e3f_n.jpg",
    "id_album": "-149330232",
    "description": "Dog_238318",
    "title": "Dog_238318",
    "link_img": "https://live.staticflickr.com/65535/50020170191_ae2b70dab0_o.jpg",
    "id_image": "Dog_238318",
    "count_view": 0
  },
  {
    "link_thumb": "https://live.staticflickr.com/65535/50017408963_88e10ed0d2_n.jpg",
    "id_album": "-462831702",
    "description": "Cat_284909",
    "title": "Cat_284909",
    "link_img": "https://live.staticflickr.com/65535/50017408963_c495033a70_o.jpg",
    "id_image": "Cat_284909",
    "count_view": 0
  },
  {
    "link_thumb": "https://live.staticflickr.com/65535/50020628881_5850f346e1_n.jpg",
    "id_album": "-405058657",
    "description": "Dragonfly_521457",
    "title": "Dragonfly_521457",
    "link_img": "https://live.staticflickr.com/65535/50020628881_0d4effefcf_o.jpg",
    "id_image": "Dragonfly_521457",
    "count_view": 0
  },
  {
    "link_thumb": "https://live.staticflickr.com/65535/50020458958_b209bf659e_n.jpg",
    "id_album": "-128218148",
    "description": "Fox_771404",
    "title": "Fox_771404",
    "link_img": "https://live.staticflickr.com/65535/50020458958_d3eef6c59a_o.jpg",
    "id_image": "Fox_771404",
    "count_view": 0
  },
  {
    "link_thumb": "https://live.staticflickr.com/65535/50352656551_14384b037e_n.jpg",
    "id_album": "-462831703",
    "description": "Cat_707137",
    "title": "Cat_707137",
    "link_img": "https://live.staticflickr.com/65535/50352656551_d16f4b80cc_o.jpg",
    "id_image": "Cat_707137",
    "count_view": 0
  },
  {
    "link_thumb": "https://live.staticflickr.com/65535/50017701362_4081c30246_n.jpg",
    "id_album": "-1846011410",
    "description": "Bird_922662",
    "title": "Bird_922662",
    "link_img": "https://live.staticflickr.com/65535/50017701362_3aa95d63e8_o.jpg",
    "id_image": "Bird_922662",
    "count_view": 0
  },
  {
    "link_thumb": "https://live.staticflickr.com/65535/50017985687_0bc7753cf4_n.jpg",
    "id_album": "-1131161368",
    "description": "Camel_330409",
    "title": "Camel_330409",
    "link_img": "https://live.staticflickr.com/65535/50017985687_d7a066829e_o.jpg",
    "id_image": "Camel_330409",
    "count_view": 0
  },
  {
    "link_thumb": "https://live.staticflickr.com/65535/50016968003_b9c11c1011_n.jpg",
    "id_album": "782930701",
    "description": "BorderCollie_816846",
    "title": "BorderCollie_816846",
    "link_img": "https://live.staticflickr.com/65535/50016968003_cd19c9878c_o.jpg",
    "id_image": "BorderCollie_816846",
    "count_view": 0
  },
  {
    "link_thumb": "https://live.staticflickr.com/65535/50352415216_e48f74781e_n.jpg",
    "id_album": "-462831703",
    "description": "Cat_190967",
    "title": "Cat_190967",
    "link_img": "https://live.staticflickr.com/65535/50352415216_193ce5b279_o.jpg",
    "id_image": "Cat_190967",
    "count_view": 0
  },
  {
    "link_thumb": "https://live.staticflickr.com/65535/50021833021_cc26042165_n.jpg",
    "id_album": "1307335982",
    "description": "LabradorRetriever_785683",
    "title": "LabradorRetriever_785683",
    "link_img": "https://live.staticflickr.com/65535/50021833021_1fc89b5079_o.jpg",
    "id_image": "LabradorRetriever_785683",
    "count_view": 0
  },
  {
    "link_thumb": "https://live.staticflickr.com/65535/50022494378_55f69d17bc_n.jpg",
    "id_album": "-353898617",
    "description": "Puppy_592709",
    "title": "Puppy_592709",
    "link_img": "https://live.staticflickr.com/65535/50022494378_0355977cae_o.jpg",
    "id_image": "Puppy_592709",
    "count_view": 0
  },
  {
    "link_thumb": "https://live.staticflickr.com/65535/50019614136_aebc156f9d_n.jpg",
    "id_album": "-420782796",
    "description": "Caterpillar_927020",
    "title": "Caterpillar_927020",
    "link_img": "https://live.staticflickr.com/65535/50019614136_b340517d00_o.jpg",
    "id_image": "Caterpillar_927020",
    "count_view": 0
  },
  {
    "link_thumb": "https://live.staticflickr.com/65535/50022091137_6ec2036a8d_n.jpg",
    "id_album": "1307335982",
    "description": "LabradorRetriever_881441",
    "title": "LabradorRetriever_881441",
    "link_img": "https://live.staticflickr.com/65535/50022091137_b3d3d6846b_o.jpg",
    "id_image": "LabradorRetriever_881441",
    "count_view": 0
  },
  {
    "link_thumb": "https://live.staticflickr.com/65535/50016738873_f57a25fa12_n.jpg",
    "id_album": "-1846011410",
    "description": "Bird_352401",
    "title": "Bird_352401",
    "link_img": "https://live.staticflickr.com/65535/50016738873_da8308c48c_o.jpg",
    "id_image": "Bird_352401",
    "count_view": 0
  },
  {
    "link_thumb": "https://live.staticflickr.com/65535/50022925851_6be5b4e592_n.jpg",
    "id_album": "-356780855",
    "description": "Puffin_479462",
    "title": "Puffin_479462",
    "link_img": "https://live.staticflickr.com/65535/50022925851_532d92a7fd_o.jpg",
    "id_image": "Puffin_479462",
    "count_view": 0
  },
  {
    "link_thumb": "https://live.staticflickr.com/65535/50020005058_db91c81430_n.jpg",
    "id_album": "-149330231",
    "description": "Dog_893730",
    "title": "Dog_893730",
    "link_img": "https://live.staticflickr.com/65535/50020005058_248d99280a_o.jpg",
    "id_image": "Dog_893730",
    "count_view": 0
  },
  {
    "link_thumb": "https://live.staticflickr.com/65535/50019405921_f365f1ec8a_n.jpg",
    "id_album": "-462831703",
    "description": "Cat_896731",
    "title": "Cat_896731",
    "link_img": "https://live.staticflickr.com/65535/50019405921_7f01fe029a_o.jpg",
    "id_image": "Cat_896731",
    "count_view": 0
  },
  {
    "link_thumb": "https://live.staticflickr.com/65535/50022155361_da3a1e929a_n.jpg",
    "id_album": "1894617400",
    "description": "Lynx_686468",
    "title": "Lynx_686468",
    "link_img": "https://live.staticflickr.com/65535/50022155361_aa0b50665e_o.jpg",
    "id_image": "Lynx_686468",
    "count_view": 0
  },
  {
    "link_thumb": "https://live.staticflickr.com/65535/50021248356_7f8055355e_n.jpg",
    "id_album": "-462831703",
    "description": "Cat_789309",
    "title": "Cat_789309",
    "link_img": "https://live.staticflickr.com/65535/50021248356_fdf8a72d51_o.jpg",
    "id_image": "Cat_789309",
    "count_view": 0
  },
  {
    "link_thumb": "https://live.staticflickr.com/65535/50022522448_c2d392e159_n.jpg",
    "id_album": "-353898617",
    "description": "Puppy_847232",
    "title": "Puppy_847232",
    "link_img": "https://live.staticflickr.com/65535/50022522448_73e9434a46_o.jpg",
    "id_image": "Puppy_847232",
    "count_view": 0
  },
  {
    "link_thumb": "https://live.staticflickr.com/65535/50018250532_41e23ae73b_n.jpg",
    "id_album": "-462831702",
    "description": "Cat_331127",
    "title": "Cat_331127",
    "link_img": "https://live.staticflickr.com/65535/50018250532_5bf946589d_o.jpg",
    "id_image": "Cat_331127",
    "count_view": 0
  },
  {
    "link_thumb": "https://live.staticflickr.com/65535/50017394478_6338b8d1fe_n.jpg",
    "id_album": "-462831705",
    "description": "Cat_270406",
    "title": "Cat_270406",
    "link_img": "https://live.staticflickr.com/65535/50017394478_b26341a33f_o.jpg",
    "id_image": "Cat_270406",
    "count_view": 0
  },
  {
    "link_thumb": "https://live.staticflickr.com/65535/50352618191_7b8831b6ed_n.jpg",
    "id_album": "-462831703",
    "description": "Cat_593619",
    "title": "Cat_593619",
    "link_img": "https://live.staticflickr.com/65535/50352618191_e56a08f272_o.jpg",
    "id_image": "Cat_593619",
    "count_view": 0
  },
  {
    "link_thumb": "https://live.staticflickr.com/65535/50022953588_8691b8ece8_n.jpg",
    "id_album": "692487763",
    "description": "SiberianHusky_114614",
    "title": "SiberianHusky_114614",
    "link_img": "https://live.staticflickr.com/65535/50022953588_257169cf7b_o.jpg",
    "id_image": "SiberianHusky_114614",
    "count_view": 0
  },
  {
    "link_thumb": "https://live.staticflickr.com/65535/50022103617_86339feb29_n.jpg",
    "id_album": "-1882491687",
    "description": "Ladybug_397117",
    "title": "Ladybug_397117",
    "link_img": "https://live.staticflickr.com/65535/50022103617_4735221e14_o.jpg",
    "id_image": "Ladybug_397117",
    "count_view": 0
  },
  {
    "link_thumb": "https://live.staticflickr.com/65535/50021640422_d03226e446_n.jpg",
    "id_album": "-817970789",
    "description": "Goose_826249",
    "title": "Goose_826249",
    "link_img": "https://live.staticflickr.com/65535/50021640422_e222c6e57c_o.jpg",
    "id_image": "Goose_826249",
    "count_view": 0
  },
  {
    "link_thumb": "https://live.staticflickr.com/65535/50020090507_ff015092be_n.jpg",
    "id_album": "-2144640780",
    "description": "Cow_113988",
    "title": "Cow_113988",
    "link_img": "https://live.staticflickr.com/65535/50020090507_29b7dd789c_o.jpg",
    "id_image": "Cow_113988",
    "count_view": 0
  },
  {
    "link_thumb": "https://live.staticflickr.com/65535/50023767302_06344a8260_n.jpg",
    "id_album": "-800019164",
    "description": "Snail_311137",
    "title": "Snail_311137",
    "link_img": "https://live.staticflickr.com/65535/50023767302_38c9a0c49b_o.jpg",
    "id_image": "Snail_311137",
    "count_view": 0
  },
  {
    "link_thumb": "https://live.staticflickr.com/65535/50351731558_47b5233188_n.jpg",
    "id_album": "-462831703",
    "description": "Cat_213430",
    "title": "Cat_213430",
    "link_img": "https://live.staticflickr.com/65535/50351731558_aceea78609_o.jpg",
    "id_image": "Cat_213430",
    "count_view": 0
  },
  {
    "link_thumb": "https://live.staticflickr.com/65535/50022088082_2404fa2d7b_n.jpg",
    "id_album": "1307335982",
    "description": "LabradorRetriever_75657",
    "title": "LabradorRetriever_75657",
    "link_img": "https://live.staticflickr.com/65535/50022088082_6bdec8c527_o.jpg",
    "id_image": "LabradorRetriever_75657",
    "count_view": 0
  },
  {
    "link_thumb": "https://live.staticflickr.com/65535/50024510907_5658e01e96_n.jpg",
    "id_album": "405170427",
    "description": "Tiger_964650",
    "title": "Tiger_964650",
    "link_img": "https://live.staticflickr.com/65535/50024510907_742a9b7daf_o.jpg",
    "id_image": "Tiger_964650",
    "count_view": 0
  },
  {
    "link_thumb": "https://live.staticflickr.com/65535/50019769951_23f3e9195c_n.jpg",
    "id_album": "791455625",
    "description": "Chipmunk_771848",
    "title": "Chipmunk_771848",
    "link_img": "https://live.staticflickr.com/65535/50019769951_fa123e04cd_o.jpg",
    "id_image": "Chipmunk_771848",
    "count_view": 0
  },
  {
    "link_thumb": "https://live.staticflickr.com/65535/50022291271_5fc4c63c87_n.jpg",
    "id_album": "1957967135",
    "description": "Mouse_671629",
    "title": "Mouse_671629",
    "link_img": "https://live.staticflickr.com/65535/50022291271_f98e475c34_o.jpg",
    "id_image": "Mouse_671629",
    "count_view": 0
  },
  {
    "link_thumb": "https://live.staticflickr.com/65535/50021083351_6885728560_n.jpg",
    "id_album": "844170697",
    "description": "Frog_896686",
    "title": "Frog_896686",
    "link_img": "https://live.staticflickr.com/65535/50021083351_47712c4bd9_o.jpg",
    "id_image": "Frog_896686",
    "count_view": 0
  },
  {
    "link_thumb": "https://live.staticflickr.com/65535/50023309917_2a99a652ba_n.jpg",
    "id_album": "-353898617",
    "description": "Puppy_700019",
    "title": "Puppy_700019",
    "link_img": "https://live.staticflickr.com/65535/50023309917_401c0549a6_o.jpg",
    "id_image": "Puppy_700019",
    "count_view": 0
  },
  {
    "link_thumb": "https://live.staticflickr.com/65535/50021790811_fba212067e_n.jpg",
    "id_album": "-649286029",
    "description": "Kangaroo_291797",
    "title": "Kangaroo_291797",
    "link_img": "https://live.staticflickr.com/65535/50021790811_72ea35bfa4_o.jpg",
    "id_image": "Kangaroo_291797",
    "count_view": 0
  },
  {
    "link_thumb": "https://live.staticflickr.com/65535/50016296753_e546286fd1_n.jpg",
    "id_album": "-229810103",
    "description": "AmericanBison_553747",
    "title": "AmericanBison_553747",
    "link_img": "https://live.staticflickr.com/65535/50016296753_794f3a1958_o.jpg",
    "id_image": "AmericanBison_553747",
    "count_view": 0
  },
  {
    "link_thumb": "https://live.staticflickr.com/65535/50019738163_a62cbd5c82_n.jpg",
    "id_album": "-149330232",
    "description": "Dog_337143",
    "title": "Dog_337143",
    "link_img": "https://live.staticflickr.com/65535/50019738163_621ee3f3ca_o.jpg",
    "id_image": "Dog_337143",
    "count_view": 0
  },
  {
    "link_thumb": "https://live.staticflickr.com/65535/50016941658_3017cacb06_n.jpg",
    "id_album": "-530283314",
    "description": "BlueandyellowMacaw_556327",
    "title": "BlueandyellowMacaw_556327",
    "link_img": "https://live.staticflickr.com/65535/50016941658_9529ea45f8_o.jpg",
    "id_image": "BlueandyellowMacaw_556327",
    "count_view": 0
  },
  {
    "link_thumb": "https://live.staticflickr.com/65535/50016372168_63b2dd6096_n.jpg",
    "id_album": "523598895",
    "description": "Artistic_351468",
    "title": "Artistic_351468",
    "link_img": "https://live.staticflickr.com/65535/50016372168_9149089a65_o.jpg",
    "id_image": "Artistic_351468",
    "count_view": 0
  },
  {
    "link_thumb": "https://live.staticflickr.com/65535/50017523681_22e48fc06a_n.jpg",
    "id_album": "368532157",
    "description": "Bulldog_309044",
    "title": "Bulldog_309044",
    "link_img": "https://live.staticflickr.com/65535/50017523681_24305df17c_o.jpg",
    "id_image": "Bulldog_309044",
    "count_view": 0
  },
  {
    "link_thumb": "https://live.staticflickr.com/65535/50020394091_72b81ae97f_n.jpg",
    "id_album": "-149330231",
    "description": "Dog_412576",
    "title": "Dog_412576",
    "link_img": "https://live.staticflickr.com/65535/50020394091_72b6edb99f_o.jpg",
    "id_image": "Dog_412576",
    "count_view": 0
  },
  {
    "link_thumb": "https://live.staticflickr.com/65535/50021674511_13384b1d87_n.jpg",
    "id_album": "1658866795",
    "description": "Insect_403225",
    "title": "Insect_403225",
    "link_img": "https://live.staticflickr.com/65535/50021674511_fb0eedf95c_o.jpg",
    "id_image": "Insect_403225",
    "count_view": 0
  },
  {
    "link_thumb": "https://live.staticflickr.com/65535/50022969252_6a567e6fba_n.jpg",
    "id_album": "392248205",
    "description": "Penguin_660795",
    "title": "Penguin_660795",
    "link_img": "https://live.staticflickr.com/65535/50022969252_ae8ba3774f_o.jpg",
    "id_image": "Penguin_660795",
    "count_view": 0
  },
  {
    "link_thumb": "https://live.staticflickr.com/65535/50021645196_d7df28e17d_n.jpg",
    "id_album": "-712553376",
    "description": "Husky_998528",
    "title": "Husky_998528",
    "link_img": "https://live.staticflickr.com/65535/50021645196_c50a38373e_o.jpg",
    "id_image": "Husky_998528",
    "count_view": 0
  },
  {
    "link_thumb": "https://live.staticflickr.com/65535/50023512971_ecbcfb50ac_n.jpg",
    "id_album": "-800019164",
    "description": "Snail_335692",
    "title": "Snail_335692",
    "link_img": "https://live.staticflickr.com/65535/50023512971_916350e6f7_o.jpg",
    "id_image": "Snail_335692",
    "count_view": 0
  },
  {
    "link_thumb": "https://live.staticflickr.com/65535/50019981336_542efda8dd_n.jpg",
    "id_album": "1903411565",
    "description": "Deer_234101",
    "title": "Deer_234101",
    "link_img": "https://live.staticflickr.com/65535/50019981336_a117969389_o.jpg",
    "id_image": "Deer_234101",
    "count_view": 0
  },
  {
    "link_thumb": "https://live.staticflickr.com/65535/50020263171_a11c8a80c0_n.jpg",
    "id_album": "-149330232",
    "description": "Dog_334595",
    "title": "Dog_334595",
    "link_img": "https://live.staticflickr.com/65535/50020263171_246bf456a9_o.jpg",
    "id_image": "Dog_334595",
    "count_view": 0
  },
  {
    "link_thumb": "https://live.staticflickr.com/65535/50022196747_2e22861eaa_n.jpg",
    "id_album": "1392348450",
    "description": "Leopard_592847",
    "title": "Leopard_592847",
    "link_img": "https://live.staticflickr.com/65535/50022196747_3afc99b35c_o.jpg",
    "id_image": "Leopard_592847",
    "count_view": 0
  },
  {
    "link_thumb": "https://live.staticflickr.com/65535/50017624403_5dff4c9ecb_n.jpg",
    "id_album": "-462831702",
    "description": "Cat_407999",
    "title": "Cat_407999",
    "link_img": "https://live.staticflickr.com/65535/50017624403_7bc22e00b2_o.jpg",
    "id_image": "Cat_407999",
    "count_view": 0
  },
  {
    "link_thumb": "https://live.staticflickr.com/65535/50023824802_1c8de19347_n.jpg",
    "id_album": "-1182356179",
    "description": "Snake_331282",
    "title": "Snake_331282",
    "link_img": "https://live.staticflickr.com/65535/50023824802_52e3f8164c_o.jpg",
    "id_image": "Snake_331282",
    "count_view": 0
  },
  {
    "link_thumb": "https://live.staticflickr.com/65535/50019688448_b0f447e5ca_n.jpg",
    "id_album": "-149330232",
    "description": "Dog_282113",
    "title": "Dog_282113",
    "link_img": "https://live.staticflickr.com/65535/50019688448_19a0ee58cf_o.jpg",
    "id_image": "Dog_282113",
    "count_view": 0
  },
  {
    "link_thumb": "https://live.staticflickr.com/65535/50021143882_525486f16e_n.jpg",
    "id_album": "-1758557371",
    "description": "Flamingo_390681",
    "title": "Flamingo_390681",
    "link_img": "https://live.staticflickr.com/65535/50021143882_fab5476ed4_o.jpg",
    "id_image": "Flamingo_390681",
    "count_view": 0
  },
  {
    "link_thumb": "https://live.staticflickr.com/65535/50023261443_1f2e4f08e7_n.jpg",
    "id_album": "-1082521515",
    "description": "Spider_9275",
    "title": "Spider_9275",
    "link_img": "https://live.staticflickr.com/65535/50023261443_73436eedb6_o.jpg",
    "id_image": "Spider_9275",
    "count_view": 0
  },
  {
    "link_thumb": "https://live.staticflickr.com/65535/50017851552_c7e1bc25d7_n.jpg",
    "id_album": "-401151552",
    "description": "Butterfly_419724",
    "title": "Butterfly_419724",
    "link_img": "https://live.staticflickr.com/65535/50017851552_db133b036a_o.jpg",
    "id_image": "Butterfly_419724",
    "count_view": 0
  },
  {
    "link_thumb": "https://live.staticflickr.com/65535/50352587101_174d2a5e48_n.jpg",
    "id_album": "-462831703",
    "description": "Cat_526060",
    "title": "Cat_526060",
    "link_img": "https://live.staticflickr.com/65535/50352587101_2fd4a1edc7_o.jpg",
    "id_image": "Cat_526060",
    "count_view": 0
  },
  {
    "link_thumb": "https://live.staticflickr.com/65535/50019361376_0e07d825db_n.jpg",
    "id_album": "-462831703",
    "description": "Cat_872908",
    "title": "Cat_872908",
    "link_img": "https://live.staticflickr.com/65535/50019361376_8e6da82883_o.jpg",
    "id_image": "Cat_872908",
    "count_view": 0
  },
  {
    "link_thumb": "https://live.staticflickr.com/65535/50352000343_f2fa76cb99_n.jpg",
    "id_album": "-462831702",
    "description": "Cat_18263",
    "title": "Cat_18263",
    "link_img": "https://live.staticflickr.com/65535/50352000343_17cf95696d_o.jpg",
    "id_image": "Cat_18263",
    "count_view": 0
  },
  {
    "link_thumb": "https://live.staticflickr.com/65535/50019740922_b344a633e7_n.jpg",
    "id_album": "-462831703",
    "description": "Cat_931338",
    "title": "Cat_931338",
    "link_img": "https://live.staticflickr.com/65535/50019740922_62f840bd72_o.jpg",
    "id_image": "Cat_931338",
    "count_view": 0
  },
  {
    "link_thumb": "https://live.staticflickr.com/65535/50020719817_f9e9021b63_n.jpg",
    "id_album": "-149330231",
    "description": "Dog_591217",
    "title": "Dog_591217",
    "link_img": "https://live.staticflickr.com/65535/50020719817_f5c234a8a9_o.jpg",
    "id_image": "Dog_591217",
    "count_view": 0
  },
  {
    "link_thumb": "https://live.staticflickr.com/65535/50021259668_ea809af0d5_n.jpg",
    "id_album": "770105808",
    "description": "Kingfisher_534843",
    "title": "Kingfisher_534843",
    "link_img": "https://live.staticflickr.com/65535/50021259668_e3060234fa_o.jpg",
    "id_image": "Kingfisher_534843",
    "count_view": 0
  },
  {
    "link_thumb": "https://live.staticflickr.com/65535/50020174811_5398b5d34f_n.jpg",
    "id_album": "-149330232",
    "description": "Dog_244236",
    "title": "Dog_244236",
    "link_img": "https://live.staticflickr.com/65535/50020174811_1845bb6586_o.jpg",
    "id_image": "Dog_244236",
    "count_view": 0
  },
  {
    "link_thumb": "https://live.staticflickr.com/65535/50018892513_469f450471_n.jpg",
    "id_album": "-462831703",
    "description": "Cat_903501",
    "title": "Cat_903501",
    "link_img": "https://live.staticflickr.com/65535/50018892513_6f27eaa16b_o.jpg",
    "id_image": "Cat_903501",
    "count_view": 0
  },
  {
    "link_thumb": "https://live.staticflickr.com/65535/50020199948_4b273e7a94_n.jpg",
    "id_album": "1270947998",
    "description": "Elephant_236105",
    "title": "Elephant_236105",
    "link_img": "https://live.staticflickr.com/65535/50020199948_28a149fe8a_o.jpg",
    "id_image": "Elephant_236105",
    "count_view": 0
  },
  {
    "link_thumb": "https://live.staticflickr.com/65535/50021015531_1d734b2631_n.jpg",
    "id_album": "-128218148",
    "description": "Fox_877833",
    "title": "Fox_877833",
    "link_img": "https://live.staticflickr.com/65535/50021015531_8ffc450549_o.jpg",
    "id_image": "Fox_877833",
    "count_view": 0
  },
  {
    "link_thumb": "https://live.staticflickr.com/65535/50016821906_16a7555f9a_n.jpg",
    "id_album": "-1473450542",
    "description": "Alpaca_840628",
    "title": "Alpaca_840628",
    "link_img": "https://live.staticflickr.com/65535/50016821906_2cd0f1ec39_o.jpg",
    "id_image": "Alpaca_840628",
    "count_view": 0
  },
  {
    "link_thumb": "https://live.staticflickr.com/65535/50021401536_4f2b45dab5_n.jpg",
    "id_album": "-1168906494",
    "description": "Grasshopper_425173",
    "title": "Grasshopper_425173",
    "link_img": "https://live.staticflickr.com/65535/50021401536_4d658f7979_o.jpg",
    "id_image": "Grasshopper_425173",
    "count_view": 0
  },
  {
    "link_thumb": "https://live.staticflickr.com/65535/50018633843_9a87cb3cba_n.jpg",
    "id_album": "-462831702",
    "description": "Cat_423900",
    "title": "Cat_423900",
    "link_img": "https://live.staticflickr.com/65535/50018633843_53ae81bd85_o.jpg",
    "id_image": "Cat_423900",
    "count_view": 0
  },
  {
    "link_thumb": "https://live.staticflickr.com/65535/50017763682_3fe82f7807_n.jpg",
    "id_album": "782930701",
    "description": "BorderCollie_866779",
    "title": "BorderCollie_866779",
    "link_img": "https://live.staticflickr.com/65535/50017763682_15aebceb35_o.jpg",
    "id_image": "BorderCollie_866779",
    "count_view": 0
  },
  {
    "link_thumb": "https://live.staticflickr.com/65535/50021154446_df92c23315_n.jpg",
    "id_album": "-462831704",
    "description": "Cat_658833",
    "title": "Cat_658833",
    "link_img": "https://live.staticflickr.com/65535/50021154446_eb8698fce1_o.jpg",
    "id_image": "Cat_658833",
    "count_view": 0
  },
  {
    "link_thumb": "https://live.staticflickr.com/65535/50016804078_f77a87c2fc_n.jpg",
    "id_album": "-1846011410",
    "description": "Bird_432555",
    "title": "Bird_432555",
    "link_img": "https://live.staticflickr.com/65535/50016804078_5d26e0f540_o.jpg",
    "id_image": "Bird_432555",
    "count_view": 0
  },
  {
    "link_thumb": "https://live.staticflickr.com/65535/50020068318_eb61afcafd_n.jpg",
    "id_album": "-1859457960",
    "description": "Dove_595412",
    "title": "Dove_595412",
    "link_img": "https://live.staticflickr.com/65535/50020068318_5318d2d82a_o.jpg",
    "id_image": "Dove_595412",
    "count_view": 0
  },
  {
    "link_thumb": "https://live.staticflickr.com/65535/50020727728_e8205b9ac1_n.jpg",
    "id_album": "-462831703",
    "description": "Cat_830505",
    "title": "Cat_830505",
    "link_img": "https://live.staticflickr.com/65535/50020727728_a12b3c8b67_o.jpg",
    "id_image": "Cat_830505",
    "count_view": 0
  },
  {
    "link_thumb": "https://live.staticflickr.com/65535/50017535726_8965a59d9d_n.jpg",
    "id_album": "-401151552",
    "description": "Butterfly_133237",
    "title": "Butterfly_133237",
    "link_img": "https://live.staticflickr.com/65535/50017535726_b459b0a5d2_o.jpg",
    "id_image": "Butterfly_133237",
    "count_view": 0
  },
  {
    "link_thumb": "https://live.staticflickr.com/65535/50017914807_69eef6362c_n.jpg",
    "id_album": "-401151552",
    "description": "Butterfly_718480",
    "title": "Butterfly_718480",
    "link_img": "https://live.staticflickr.com/65535/50017914807_7fba04aacd_o.jpg",
    "id_image": "Butterfly_718480",
    "count_view": 0
  },
  {
    "link_thumb": "https://live.staticflickr.com/65535/50021628373_8836d78768_n.jpg",
    "id_album": "1894617400",
    "description": "Lynx_956366",
    "title": "Lynx_956366",
    "link_img": "https://live.staticflickr.com/65535/50021628373_c892439a83_o.jpg",
    "id_image": "Lynx_956366",
    "count_view": 0
  },
  {
    "link_thumb": "https://live.staticflickr.com/65535/50023396006_04321b9bbc_n.jpg",
    "id_album": "1961094930",
    "description": "Seal_110683",
    "title": "Seal_110683",
    "link_img": "https://live.staticflickr.com/65535/50023396006_f0f9581ccc_o.jpg",
    "id_image": "Seal_110683",
    "count_view": 0
  },
  {
    "link_thumb": "https://live.staticflickr.com/65535/50021336418_b26f967c6b_n.jpg",
    "id_album": "1918884325",
    "description": "Lemur_735392",
    "title": "Lemur_735392",
    "link_img": "https://live.staticflickr.com/65535/50021336418_14539aa855_o.jpg",
    "id_image": "Lemur_735392",
    "count_view": 0
  },
  {
    "link_thumb": "https://live.staticflickr.com/65535/50017329228_304969b95d_n.jpg",
    "id_album": "-462831705",
    "description": "Cat_210812",
    "title": "Cat_210812",
    "link_img": "https://live.staticflickr.com/65535/50017329228_b4cb471bcf_o.jpg",
    "id_image": "Cat_210812",
    "count_view": 0
  },
  {
    "link_thumb": "https://live.staticflickr.com/65535/50018307142_7bda8042e8_n.jpg",
    "id_album": "-462831702",
    "description": "Cat_357946",
    "title": "Cat_357946",
    "link_img": "https://live.staticflickr.com/65535/50018307142_c46d2b3bdb_o.jpg",
    "id_image": "Cat_357946",
    "count_view": 0
  },
  {
    "link_thumb": "https://live.staticflickr.com/65535/50020695863_bcceb8149c_n.jpg",
    "id_album": "-462831703",
    "description": "Cat_775598",
    "title": "Cat_775598",
    "link_img": "https://live.staticflickr.com/65535/50020695863_ba61dddca9_o.jpg",
    "id_image": "Cat_775598",
    "count_view": 0
  },
  {
    "link_thumb": "https://live.staticflickr.com/65535/50024515121_ae7f140f0b_n.jpg",
    "id_album": "-709711865",
    "description": "Wolf_543484",
    "title": "Wolf_543484",
    "link_img": "https://live.staticflickr.com/65535/50024515121_ea8d083429_o.jpg",
    "id_image": "Wolf_543484",
    "count_view": 0
  },
  {
    "link_thumb": "https://live.staticflickr.com/65535/50023812452_d052ffded8_n.jpg",
    "id_album": "-800019164",
    "description": "Snail_987054",
    "title": "Snail_987054",
    "link_img": "https://live.staticflickr.com/65535/50023812452_4bf86a013b_o.jpg",
    "id_image": "Snail_987054",
    "count_view": 0
  },
  {
    "link_thumb": "https://live.staticflickr.com/65535/50023746458_e9451fa166_n.jpg",
    "id_album": "901523298",
    "description": "TreeFrog_423377",
    "title": "TreeFrog_423377",
    "link_img": "https://live.staticflickr.com/65535/50023746458_d251d80eb2_o.jpg",
    "id_image": "TreeFrog_423377",
    "count_view": 0
  },
  {
    "link_thumb": "https://live.staticflickr.com/65535/50022145366_d1cc1196f3_n.jpg",
    "id_album": "1894617400",
    "description": "Lynx_414944",
    "title": "Lynx_414944",
    "link_img": "https://live.staticflickr.com/65535/50022145366_b9c0e20554_o.jpg",
    "id_image": "Lynx_414944",
    "count_view": 0
  },
  {
    "link_thumb": "https://live.staticflickr.com/65535/50018307027_edb7daef65_n.jpg",
    "id_album": "-462831702",
    "description": "Cat_357938",
    "title": "Cat_357938",
    "link_img": "https://live.staticflickr.com/65535/50018307027_accde81fe9_o.jpg",
    "id_image": "Cat_357938",
    "count_view": 0
  },
  {
    "link_thumb": "https://live.staticflickr.com/65535/50022052867_eb086ee5bd_n.jpg",
    "id_album": "770105808",
    "description": "Kingfisher_346536",
    "title": "Kingfisher_346536",
    "link_img": "https://live.staticflickr.com/65535/50022052867_aa633cf0e9_o.jpg",
    "id_image": "Kingfisher_346536",
    "count_view": 0
  },
  {
    "link_thumb": "https://live.staticflickr.com/65535/50017060133_bcf0574c17_n.jpg",
    "id_album": "-401151552",
    "description": "Butterfly_409134",
    "title": "Butterfly_409134",
    "link_img": "https://live.staticflickr.com/65535/50017060133_64fd899a19_o.jpg",
    "id_image": "Butterfly_409134",
    "count_view": 0
  },
  {
    "link_thumb": "https://live.staticflickr.com/65535/50019790493_0287215c39_n.jpg",
    "id_album": "-149330232",
    "description": "Dog_364104",
    "title": "Dog_364104",
    "link_img": "https://live.staticflickr.com/65535/50019790493_408fa66a68_o.jpg",
    "id_image": "Dog_364104",
    "count_view": 0
  },
  {
    "link_thumb": "https://live.staticflickr.com/65535/50021386673_c1e912d0a8_n.jpg",
    "id_album": "1392348450",
    "description": "Leopard_454447",
    "title": "Leopard_454447",
    "link_img": "https://live.staticflickr.com/65535/50021386673_d959ddf14e_o.jpg",
    "id_image": "Leopard_454447",
    "count_view": 0
  },
  {
    "link_thumb": "https://live.staticflickr.com/65535/50019152746_9c7006a768_n.jpg",
    "id_album": "-462831702",
    "description": "Cat_417984",
    "title": "Cat_417984",
    "link_img": "https://live.staticflickr.com/65535/50019152746_1ba0998d7e_o.jpg",
    "id_image": "Cat_417984",
    "count_view": 0
  },
  {
    "link_thumb": "https://live.staticflickr.com/65535/50021254451_182ed88250_n.jpg",
    "id_album": "-462831703",
    "description": "Cat_794572",
    "title": "Cat_794572",
    "link_img": "https://live.staticflickr.com/65535/50021254451_d2d2ac9dc4_o.jpg",
    "id_image": "Cat_794572",
    "count_view": 0
  },
  {
    "link_thumb": "https://live.staticflickr.com/65535/50351913198_54652141b0_n.jpg",
    "id_album": "-462831703",
    "description": "Cat_567463",
    "title": "Cat_567463",
    "link_img": "https://live.staticflickr.com/65535/50351913198_39218e473e_o.jpg",
    "id_image": "Cat_567463",
    "count_view": 0
  },
  {
    "link_thumb": "https://live.staticflickr.com/65535/50019292423_0b983f7695_n.jpg",
    "id_album": "-1868680171",
    "description": "Cougar_555301",
    "title": "Cougar_555301",
    "link_img": "https://live.staticflickr.com/65535/50019292423_d94a144207_o.jpg",
    "id_image": "Cougar_555301",
    "count_view": 0
  },
  {
    "link_thumb": "https://live.staticflickr.com/65535/50019162641_db979a3722_n.jpg",
    "id_album": "-462831702",
    "description": "Cat_423394",
    "title": "Cat_423394",
    "link_img": "https://live.staticflickr.com/65535/50019162641_6cb3f95b87_o.jpg",
    "id_image": "Cat_423394",
    "count_view": 0
  },
  {
    "link_thumb": "https://live.staticflickr.com/65535/50019996412_e4ca7c7df7_n.jpg",
    "id_album": "1949822052",
    "description": "Chimpanzee_185215",
    "title": "Chimpanzee_185215",
    "link_img": "https://live.staticflickr.com/65535/50019996412_a3b856427d_o.jpg",
    "id_image": "Chimpanzee_185215",
    "count_view": 0
  },
  {
    "link_thumb": "https://live.staticflickr.com/65535/50017896101_b7be4b22d5_n.jpg",
    "id_album": "-462831705",
    "description": "Cat_241062",
    "title": "Cat_241062",
    "link_img": "https://live.staticflickr.com/65535/50017896101_4729bb4b53_o.jpg",
    "id_image": "Cat_241062",
    "count_view": 0
  },
  {
    "link_thumb": "https://live.staticflickr.com/65535/50024252681_41fe812cf3_n.jpg",
    "id_album": "405170427",
    "description": "Tiger_966544",
    "title": "Tiger_966544",
    "link_img": "https://live.staticflickr.com/65535/50024252681_5acd35e65d_o.jpg",
    "id_image": "Tiger_966544",
    "count_view": 0
  },
  {
    "link_thumb": "https://live.staticflickr.com/65535/50017746196_b2dd1e9183_n.jpg",
    "id_album": "-462831705",
    "description": "Cat_102491",
    "title": "Cat_102491",
    "link_img": "https://live.staticflickr.com/65535/50017746196_5bb284ef44_o.jpg",
    "id_image": "Cat_102491",
    "count_view": 0
  },
  {
    "link_thumb": "https://live.staticflickr.com/65535/50020091213_6decfe3b68_n.jpg",
    "id_album": "-405058657",
    "description": "Dragonfly_453160",
    "title": "Dragonfly_453160",
    "link_img": "https://live.staticflickr.com/65535/50020091213_95a27ef6ff_o.jpg",
    "id_image": "Dragonfly_453160",
    "count_view": 0
  },
  {
    "link_thumb": "https://live.staticflickr.com/65535/50017703761_d9a93e1a11_n.jpg",
    "id_album": "-401151552",
    "description": "Butterfly_926701",
    "title": "Butterfly_926701",
    "link_img": "https://live.staticflickr.com/65535/50017703761_37a16aa677_o.jpg",
    "id_image": "Butterfly_926701",
    "count_view": 0
  },
  {
    "link_thumb": "https://live.staticflickr.com/65535/50019941726_a641b1f199_n.jpg",
    "id_album": "1273365283",
    "description": "Cute_422920",
    "title": "Cute_422920",
    "link_img": "https://live.staticflickr.com/65535/50019941726_4c2f657b0b_o.jpg",
    "id_image": "Cute_422920",
    "count_view": 0
  },
  {
    "link_thumb": "https://live.staticflickr.com/65535/50023577632_a7408a363e_n.jpg",
    "id_album": "1926701726",
    "description": "Robin_953680",
    "title": "Robin_953680",
    "link_img": "https://live.staticflickr.com/65535/50023577632_64e1cb0807_o.jpg",
    "id_image": "Robin_953680",
    "count_view": 0
  },
  {
    "link_thumb": "https://live.staticflickr.com/65535/50020110381_8be829b604_n.jpg",
    "id_album": "297232732",
    "description": "Dinosaur_998263",
    "title": "Dinosaur_998263",
    "link_img": "https://live.staticflickr.com/65535/50020110381_8b84855067_o.jpg",
    "id_image": "Dinosaur_998263",
    "count_view": 0
  },
  {
    "link_thumb": "https://live.staticflickr.com/65535/50021895443_8cb5a4c81c_n.jpg",
    "id_album": "-1384601601",
    "description": "Owl_543330",
    "title": "Owl_543330",
    "link_img": "https://live.staticflickr.com/65535/50021895443_f4b564ebb3_o.jpg",
    "id_image": "Owl_543330",
    "count_view": 0
  },
  {
    "link_thumb": "https://live.staticflickr.com/65535/50017099957_7871a73a86_n.jpg",
    "id_album": "-1741290715",
    "description": "Ant_780043",
    "title": "Ant_780043",
    "link_img": "https://live.staticflickr.com/65535/50017099957_f9ab4da6cb_o.jpg",
    "id_image": "Ant_780043",
    "count_view": 0
  },
  {
    "link_thumb": "https://live.staticflickr.com/65535/50019299146_c86c1fc6e5_n.jpg",
    "id_album": "-462831704",
    "description": "Cat_532997",
    "title": "Cat_532997",
    "link_img": "https://live.staticflickr.com/65535/50019299146_43508f73d5_o.jpg",
    "id_image": "Cat_532997",
    "count_view": 0
  },
  {
    "link_thumb": "https://live.staticflickr.com/65535/50018042122_c5c475bd67_n.jpg",
    "id_album": "-462831705",
    "description": "Cat_145272",
    "title": "Cat_145272",
    "link_img": "https://live.staticflickr.com/65535/50018042122_eac32d1b43_o.jpg",
    "id_image": "Cat_145272",
    "count_view": 0
  },
  {
    "link_thumb": "https://live.staticflickr.com/65535/50023702443_6a0c5a10c6_n.jpg",
    "id_album": "405170427",
    "description": "Tiger_939789",
    "title": "Tiger_939789",
    "link_img": "https://live.staticflickr.com/65535/50023702443_7ff540e40e_o.jpg",
    "id_image": "Tiger_939789",
    "count_view": 0
  },
  {
    "link_thumb": "https://live.staticflickr.com/65535/50017608932_c9206d20cc_n.jpg",
    "id_album": "-1846011410",
    "description": "Bird_473119",
    "title": "Bird_473119",
    "link_img": "https://live.staticflickr.com/65535/50017608932_7854da6477_o.jpg",
    "id_image": "Bird_473119",
    "count_view": 0
  },
  {
    "link_thumb": "https://live.staticflickr.com/65535/50018012437_44e36ae6bb_n.jpg",
    "id_album": "-462831705",
    "description": "Cat_111004",
    "title": "Cat_111004",
    "link_img": "https://live.staticflickr.com/65535/50018012437_2d44fb8c50_o.jpg",
    "id_image": "Cat_111004",
    "count_view": 0
  },
  {
    "link_thumb": "https://live.staticflickr.com/65535/50020169468_ef5b966d9c_n.jpg",
    "id_album": "-39098563",
    "description": "Eagle_397597",
    "title": "Eagle_397597",
    "link_img": "https://live.staticflickr.com/65535/50020169468_b582ee5306_o.jpg",
    "id_image": "Eagle_397597",
    "count_view": 0
  },
  {
    "link_thumb": "https://live.staticflickr.com/65535/50019427568_9f3225bd6d_n.jpg",
    "id_album": "1831085598",
    "description": "Dachshund_839404",
    "title": "Dachshund_839404",
    "link_img": "https://live.staticflickr.com/65535/50019427568_2c88b34519_o.jpg",
    "id_image": "Dachshund_839404",
    "count_view": 0
  },
  {
    "link_thumb": "https://live.staticflickr.com/65535/50021597201_4acdc695cd_n.jpg",
    "id_album": "773713550",
    "description": "Hoverfly_430104",
    "title": "Hoverfly_430104",
    "link_img": "https://live.staticflickr.com/65535/50021597201_b55823738f_o.jpg",
    "id_image": "Hoverfly_430104",
    "count_view": 0
  },
  {
    "link_thumb": "https://live.staticflickr.com/65535/50021874748_5ccb6b46cd_n.jpg",
    "id_album": "-1384601601",
    "description": "Owl_409807",
    "title": "Owl_409807",
    "link_img": "https://live.staticflickr.com/65535/50021874748_b207dfbdef_o.jpg",
    "id_image": "Owl_409807",
    "count_view": 0
  },
  {
    "link_thumb": "https://live.staticflickr.com/65535/50020173623_5bd10344ca_n.jpg",
    "id_album": "-39098563",
    "description": "Eagle_426576",
    "title": "Eagle_426576",
    "link_img": "https://live.staticflickr.com/65535/50020173623_5b12b88b39_o.jpg",
    "id_image": "Eagle_426576",
    "count_view": 0
  },
  {
    "link_thumb": "https://live.staticflickr.com/65535/50017820387_a1fe44ba6e_n.jpg",
    "id_album": "-401151552",
    "description": "Butterfly_299460",
    "title": "Butterfly_299460",
    "link_img": "https://live.staticflickr.com/65535/50017820387_ea375b0dfc_o.jpg",
    "id_image": "Butterfly_299460",
    "count_view": 0
  },
  {
    "link_thumb": "https://live.staticflickr.com/65535/50023259077_1cf91e2e06_n.jpg",
    "id_album": "-353898617",
    "description": "Puppy_459418",
    "title": "Puppy_459418",
    "link_img": "https://live.staticflickr.com/65535/50023259077_18f060d8f9_o.jpg",
    "id_image": "Puppy_459418",
    "count_view": 0
  },
  {
    "link_thumb": "https://live.staticflickr.com/65535/50017837181_95898f584a_n.jpg",
    "id_album": "-462831705",
    "description": "Cat_195501",
    "title": "Cat_195501",
    "link_img": "https://live.staticflickr.com/65535/50017837181_61af1a9e1f_o.jpg",
    "id_image": "Cat_195501",
    "count_view": 0
  },
  {
    "link_thumb": "https://live.staticflickr.com/65535/50018027356_8e3e6bb23f_n.jpg",
    "id_album": "-462831702",
    "description": "Cat_347971",
    "title": "Cat_347971",
    "link_img": "https://live.staticflickr.com/65535/50018027356_97d34ce321_o.jpg",
    "id_image": "Cat_347971",
    "count_view": 0
  },
  {
    "link_thumb": "https://live.staticflickr.com/65535/50017435532_4b1c869167_n.jpg",
    "id_album": "172748811",
    "description": "Beeeater_597189",
    "title": "Beeeater_597189",
    "link_img": "https://live.staticflickr.com/65535/50017435532_b7b5898c4a_o.jpg",
    "id_image": "Beeeater_597189",
    "count_view": 0
  },
  {
    "link_thumb": "https://live.staticflickr.com/65535/50018944733_624ff0c8de_n.jpg",
    "id_album": "-462831703",
    "description": "Cat_924334",
    "title": "Cat_924334",
    "link_img": "https://live.staticflickr.com/65535/50018944733_3a7e7c0154_o.jpg",
    "id_image": "Cat_924334",
    "count_view": 0
  },
  {
    "link_thumb": "https://live.staticflickr.com/65535/50017426668_a62561796d_n.jpg",
    "id_album": "-462831702",
    "description": "Cat_310174",
    "title": "Cat_310174",
    "link_img": "https://live.staticflickr.com/65535/50017426668_090cafc7b6_o.jpg",
    "id_image": "Cat_310174",
    "count_view": 0
  },
  {
    "link_thumb": "https://live.staticflickr.com/65535/50019599283_a15eab5973_n.jpg",
    "id_album": "-149330232",
    "description": "Dog_175705",
    "title": "Dog_175705",
    "link_img": "https://live.staticflickr.com/65535/50019599283_94901590e5_o.jpg",
    "id_image": "Dog_175705",
    "count_view": 0
  },
  {
    "link_thumb": "https://live.staticflickr.com/65535/50021283166_b5f5a56272_n.jpg",
    "id_album": "-405626519",
    "description": "GermanShepherd_323454",
    "title": "GermanShepherd_323454",
    "link_img": "https://live.staticflickr.com/65535/50021283166_c89ebdfd96_o.jpg",
    "id_image": "GermanShepherd_323454",
    "count_view": 0
  },
  {
    "link_thumb": "https://live.staticflickr.com/65535/50023743038_0d8790d386_n.jpg",
    "id_album": "-1103743486",
    "description": "Toucan_924884",
    "title": "Toucan_924884",
    "link_img": "https://live.staticflickr.com/65535/50023743038_385aa09b03_o.jpg",
    "id_image": "Toucan_924884",
    "count_view": 0
  },
  {
    "link_thumb": "https://live.staticflickr.com/65535/50017095462_2d6d1ed760_n.jpg",
    "id_album": "-1741290715",
    "description": "Ant_433565",
    "title": "Ant_433565",
    "link_img": "https://live.staticflickr.com/65535/50017095462_b1f0a0b6f0_o.jpg",
    "id_image": "Ant_433565",
    "count_view": 0
  },
  {
    "link_thumb": "https://live.staticflickr.com/65535/50017169967_715d24e387_n.jpg",
    "id_album": "523598895",
    "description": "Artistic_529959",
    "title": "Artistic_529959",
    "link_img": "https://live.staticflickr.com/65535/50017169967_dc2c94cc41_o.jpg",
    "id_image": "Artistic_529959",
    "count_view": 0
  },
  {
    "link_thumb": "https://live.staticflickr.com/65535/50017980921_0567a455d6_n.jpg",
    "id_album": "-462831702",
    "description": "Cat_327167",
    "title": "Cat_327167",
    "link_img": "https://live.staticflickr.com/65535/50017980921_dd11fae46b_o.jpg",
    "id_image": "Cat_327167",
    "count_view": 0
  },
  {
    "link_thumb": "https://live.staticflickr.com/65535/50017085751_b4d6f8b7d9_n.jpg",
    "id_album": "-422187261",
    "description": "Bear_819602",
    "title": "Bear_819602",
    "link_img": "https://live.staticflickr.com/65535/50017085751_be254d5723_o.jpg",
    "id_image": "Bear_819602",
    "count_view": 0
  },
  {
    "link_thumb": "https://live.staticflickr.com/65535/50352682367_1ae829374f_n.jpg",
    "id_album": "-462831703",
    "description": "Cat_439084",
    "title": "Cat_439084",
    "link_img": "https://live.staticflickr.com/65535/50352682367_7f21dd9d47_o.jpg",
    "id_image": "Cat_439084",
    "count_view": 0
  },
  {
    "link_thumb": "https://live.staticflickr.com/65535/50019819502_e4227e02f1_n.jpg",
    "id_album": "-462831703",
    "description": "Cat_989214",
    "title": "Cat_989214",
    "link_img": "https://live.staticflickr.com/65535/50019819502_f629ed3b95_o.jpg",
    "id_image": "Cat_989214",
    "count_view": 0
  },
  {
    "link_thumb": "https://live.staticflickr.com/65535/50021473686_665061938c_n.jpg",
    "id_album": "-1933715543",
    "description": "Horse_247573",
    "title": "Horse_247573",
    "link_img": "https://live.staticflickr.com/65535/50021473686_a18dfca0d5_o.jpg",
    "id_image": "Horse_247573",
    "count_view": 0
  },
  {
    "link_thumb": "https://live.staticflickr.com/65535/50020467933_368d9f6c7b_n.jpg",
    "id_album": "-128218148",
    "description": "Fox_831459",
    "title": "Fox_831459",
    "link_img": "https://live.staticflickr.com/65535/50020467933_632afce920_o.jpg",
    "id_image": "Fox_831459",
    "count_view": 0
  },
  {
    "link_thumb": "https://live.staticflickr.com/65535/50019782223_e16f5cf6d6_n.jpg",
    "id_album": "-149330232",
    "description": "Dog_357813",
    "title": "Dog_357813",
    "link_img": "https://live.staticflickr.com/65535/50019782223_f496634ca8_o.jpg",
    "id_image": "Dog_357813",
    "count_view": 0
  },
  {
    "link_thumb": "https://live.staticflickr.com/65535/50023600667_ea1a519e74_n.jpg",
    "id_album": "-419757464",
    "description": "SeaLife_326570",
    "title": "SeaLife_326570",
    "link_img": "https://live.staticflickr.com/65535/50023600667_4160662bc3_o.jpg",
    "id_image": "SeaLife_326570",
    "count_view": 0
  },
  {
    "link_thumb": "https://live.staticflickr.com/65535/50020797206_9a4e651d77_n.jpg",
    "id_album": "1270947998",
    "description": "Elephant_874525",
    "title": "Elephant_874525",
    "link_img": "https://live.staticflickr.com/65535/50020797206_6116351361_o.jpg",
    "id_image": "Elephant_874525",
    "count_view": 0
  },
  {
    "link_thumb": "https://live.staticflickr.com/65535/50352738012_fb2f131bf7_n.jpg",
    "id_album": "-462831703",
    "description": "Cat_511423",
    "title": "Cat_511423",
    "link_img": "https://live.staticflickr.com/65535/50352738012_310ec19083_o.jpg",
    "id_image": "Cat_511423",
    "count_view": 0
  },
  {
    "link_thumb": "https://live.staticflickr.com/65535/50022108861_fc0dafdd28_n.jpg",
    "id_album": "-656526748",
    "description": "Lizard_342793",
    "title": "Lizard_342793",
    "link_img": "https://live.staticflickr.com/65535/50022108861_bdeefbf172_o.jpg",
    "id_image": "Lizard_342793",
    "count_view": 0
  },
  {
    "link_thumb": "https://live.staticflickr.com/65535/50019188136_12ba48e97d_n.jpg",
    "id_album": "-462831702",
    "description": "Cat_432743",
    "title": "Cat_432743",
    "link_img": "https://live.staticflickr.com/65535/50019188136_ca18e842e7_o.jpg",
    "id_image": "Cat_432743",
    "count_view": 0
  },
  {
    "link_thumb": "https://live.staticflickr.com/65535/50018050826_8520ea3e80_n.jpg",
    "id_album": "-462831702",
    "description": "Cat_359654",
    "title": "Cat_359654",
    "link_img": "https://live.staticflickr.com/65535/50018050826_4624b423b4_o.jpg",
    "id_image": "Cat_359654",
    "count_view": 0
  },
  {
    "link_thumb": "https://live.staticflickr.com/65535/50021850847_f58a595ac5_n.jpg",
    "id_album": "773713550",
    "description": "Hoverfly_706515",
    "title": "Hoverfly_706515",
    "link_img": "https://live.staticflickr.com/65535/50021850847_b54962cd51_o.jpg",
    "id_image": "Hoverfly_706515",
    "count_view": 0
  },
  {
    "link_thumb": "https://live.staticflickr.com/65535/50018019556_dfecf397e0_n.jpg",
    "id_album": "-462831702",
    "description": "Cat_344648",
    "title": "Cat_344648",
    "link_img": "https://live.staticflickr.com/65535/50018019556_8ca1cdbe99_o.jpg",
    "id_image": "Cat_344648",
    "count_view": 0
  },
  {
    "link_thumb": "https://live.staticflickr.com/65535/50018044561_8d17c39664_n.jpg",
    "id_album": "-462831702",
    "description": "Cat_356647",
    "title": "Cat_356647",
    "link_img": "https://live.staticflickr.com/65535/50018044561_ae25f41899_o.jpg",
    "id_image": "Cat_356647",
    "count_view": 0
  },
  {
    "link_thumb": "https://live.staticflickr.com/65535/50021952952_d4b9742c0c_n.jpg",
    "id_album": "1658866795",
    "description": "Insect_431055",
    "title": "Insect_431055",
    "link_img": "https://live.staticflickr.com/65535/50021952952_d0d2442546_o.jpg",
    "id_image": "Insect_431055",
    "count_view": 0
  },
  {
    "link_thumb": "https://live.staticflickr.com/65535/50019202946_4574c48929_n.jpg",
    "id_album": "-462831704",
    "description": "Cat_439085",
    "title": "Cat_439085",
    "link_img": "https://live.staticflickr.com/65535/50019202946_bc586b059c_o.jpg",
    "id_image": "Cat_439085",
    "count_view": 0
  },
  {
    "link_thumb": "https://live.staticflickr.com/65535/50020724811_580db5447a_n.jpg",
    "id_album": "-39098563",
    "description": "Eagle_847779",
    "title": "Eagle_847779",
    "link_img": "https://live.staticflickr.com/65535/50020724811_b3bda2caf3_o.jpg",
    "id_image": "Eagle_847779",
    "count_view": 0
  },
  {
    "link_thumb": "https://live.staticflickr.com/65535/50023685028_b86b5f1ac0_n.jpg",
    "id_album": "405170427",
    "description": "Tiger_883567",
    "title": "Tiger_883567",
    "link_img": "https://live.staticflickr.com/65535/50023685028_3d4defeb5d_o.jpg",
    "id_image": "Tiger_883567",
    "count_view": 0
  },
  {
    "link_thumb": "https://live.staticflickr.com/65535/50017994141_73644f1386_n.jpg",
    "id_album": "-462831702",
    "description": "Cat_333081",
    "title": "Cat_333081",
    "link_img": "https://live.staticflickr.com/65535/50017994141_236e237e09_o.jpg",
    "id_image": "Cat_333081",
    "count_view": 0
  },
  {
    "link_thumb": "https://live.staticflickr.com/65535/50020709242_587cc7c480_n.jpg",
    "id_album": "-149330231",
    "description": "Dog_529900",
    "title": "Dog_529900",
    "link_img": "https://live.staticflickr.com/65535/50020709242_ff41aedbb2_o.jpg",
    "id_image": "Dog_529900",
    "count_view": 0
  },
  {
    "link_thumb": "https://live.staticflickr.com/65535/50022249692_e28ea24b75_n.jpg",
    "id_album": "416744915",
    "description": "Lion_339615",
    "title": "Lion_339615",
    "link_img": "https://live.staticflickr.com/65535/50022249692_e3e1b99673_o.jpg",
    "id_image": "Lion_339615",
    "count_view": 0
  },
  {
    "link_thumb": "https://live.staticflickr.com/65535/50020311827_2cfc9dd4ba_n.jpg",
    "id_album": "1903411565",
    "description": "Deer_796139",
    "title": "Deer_796139",
    "link_img": "https://live.staticflickr.com/65535/50020311827_5bdd86ebf9_o.jpg",
    "id_image": "Deer_796139",
    "count_view": 0
  },
  {
    "link_thumb": "https://live.staticflickr.com/65535/50021470586_e0164e9dc2_n.jpg",
    "id_album": "-1933715543",
    "description": "Horse_224425",
    "title": "Horse_224425",
    "link_img": "https://live.staticflickr.com/65535/50021470586_4db5e00042_o.jpg",
    "id_image": "Horse_224425",
    "count_view": 0
  },
  {
    "link_thumb": "https://live.staticflickr.com/65535/50021517728_049d21ba64_n.jpg",
    "id_album": "416744915",
    "description": "Lion_785861",
    "title": "Lion_785861",
    "link_img": "https://live.staticflickr.com/65535/50021517728_cd4a442a8f_o.jpg",
    "id_image": "Lion_785861",
    "count_view": 0
  }
]