[
  {
    "link_thumb": "https://live.staticflickr.com/65535/50022016943_ee1eb9e579_n.jpg",
    "id_album": "405592235",
    "description": "Parrot_241125",
    "title": "Parrot_241125",
    "link_img": "https://live.staticflickr.com/65535/50022016943_c564c34a57_o.jpg",
    "id_image": "Parrot_241125",
    "count_view": 0
  },
  {
    "link_thumb": "https://live.staticflickr.com/65535/50023524078_56a46e26d2_n.jpg",
    "id_album": "405170427",
    "description": "Tiger_343810",
    "title": "Tiger_343810",
    "link_img": "https://live.staticflickr.com/65535/50023524078_ecbec9aa95_o.jpg",
    "id_image": "Tiger_343810",
    "count_view": 0
  },
  {
    "link_thumb": "https://live.staticflickr.com/65535/50019483681_27ca73fb9b_n.jpg",
    "id_album": "-462831703",
    "description": "Cat_930918",
    "title": "Cat_930918",
    "link_img": "https://live.staticflickr.com/65535/50019483681_fecef451fb_o.jpg",
    "id_image": "Cat_930918",
    "count_view": 0
  },
  {
    "link_thumb": "https://live.staticflickr.com/65535/50017248967_f6f1fc26bc_n.jpg",
    "id_album": "809937717",
    "description": "Beagle_471883",
    "title": "Beagle_471883",
    "link_img": "https://live.staticflickr.com/65535/50017248967_8105afab06_o.jpg",
    "id_image": "Beagle_471883",
    "count_view": 0
  },
  {
    "link_thumb": "https://live.staticflickr.com/65535/50020311827_2cfc9dd4ba_n.jpg",
    "id_album": "1903411565",
    "description": "Deer_796139",
    "title": "Deer_796139",
    "link_img": "https://live.staticflickr.com/65535/50020311827_5bdd86ebf9_o.jpg",
    "id_image": "Deer_796139",
    "count_view": 0
  },
  {
    "link_thumb": "https://live.staticflickr.com/65535/50023904483_4cfdfa2600_n.jpg",
    "id_album": "766572659",
    "description": "WhiteTiger_725265",
    "title": "WhiteTiger_725265",
    "link_img": "https://live.staticflickr.com/65535/50023904483_c8ea7b0cfd_o.jpg",
    "id_image": "WhiteTiger_725265",
    "count_view": 0
  },
  {
    "link_thumb": "https://live.staticflickr.com/65535/50022497643_eb1b8cb27e_n.jpg",
    "id_album": "-353898617",
    "description": "Puppy_652356",
    "title": "Puppy_652356",
    "link_img": "https://live.staticflickr.com/65535/50022497643_8a09da6f62_o.jpg",
    "id_image": "Puppy_652356",
    "count_view": 0
  },
  {
    "link_thumb": "https://live.staticflickr.com/65535/50020137933_8fa6f85e9b_n.jpg",
    "id_album": "1168627767",
    "description": "Duck_740982",
    "title": "Duck_740982",
    "link_img": "https://live.staticflickr.com/65535/50020137933_fc74b4a7d0_o.jpg",
    "id_image": "Duck_740982",
    "count_view": 0
  },
  {
    "link_thumb": "https://live.staticflickr.com/65535/50017766072_7bc16ff7bf_n.jpg",
    "id_album": "782930701",
    "description": "BorderCollie_874482",
    "title": "BorderCollie_874482",
    "link_img": "https://live.staticflickr.com/65535/50017766072_aabc0158af_o.jpg",
    "id_image": "BorderCollie_874482",
    "count_view": 0
  },
  {
    "link_thumb": "https://live.staticflickr.com/65535/50022162082_d5dc3df1b8_n.jpg",
    "id_album": "1392348450",
    "description": "Leopard_359813",
    "title": "Leopard_359813",
    "link_img": "https://live.staticflickr.com/65535/50022162082_1845f68a1b_o.jpg",
    "id_image": "Leopard_359813",
    "count_view": 0
  },
  {
    "link_thumb": "https://live.staticflickr.com/65535/50020880611_8be2222d29_n.jpg",
    "id_album": "-1118073211",
    "description": "Fish_968598",
    "title": "Fish_968598",
    "link_img": "https://live.staticflickr.com/65535/50020880611_0dbd34eeb6_o.jpg",
    "id_image": "Fish_968598",
    "count_view": 0
  },
  {
    "link_thumb": "https://live.staticflickr.com/65535/50019827732_78258c9c77_n.jpg",
    "id_album": "-462831703",
    "description": "Cat_995517",
    "title": "Cat_995517",
    "link_img": "https://live.staticflickr.com/65535/50019827732_346f298bfa_o.jpg",
    "id_image": "Cat_995517",
    "count_view": 0
  },
  {
    "link_thumb": "https://live.staticflickr.com/65535/50019340486_c5d03a33d8_n.jpg",
    "id_album": "-462831703",
    "description": "Cat_865186",
    "title": "Cat_865186",
    "link_img": "https://live.staticflickr.com/65535/50019340486_d6d36fdd82_o.jpg",
    "id_image": "Cat_865186",
    "count_view": 0
  },
  {
    "link_thumb": "https://live.staticflickr.com/65535/50023882177_1351a668bc_n.jpg",
    "id_album": "-1131363127",
    "description": "SnowLeopard_247233",
    "title": "SnowLeopard_247233",
    "link_img": "https://live.staticflickr.com/65535/50023882177_262a0c7cb3_o.jpg",
    "id_image": "SnowLeopard_247233",
    "count_view": 0
  },
  {
    "link_thumb": "https://live.staticflickr.com/65535/50351826823_c87c462af8_n.jpg",
    "id_album": "-462831703",
    "description": "Cat_439172",
    "title": "Cat_439172",
    "link_img": "https://live.staticflickr.com/65535/50351826823_bcbc6eda8b_o.jpg",
    "id_image": "Cat_439172",
    "count_view": 0
  },
  {
    "link_thumb": "https://live.staticflickr.com/65535/50023273802_6ee560fa98_n.jpg",
    "id_album": "-353898617",
    "description": "Puppy_548550",
    "title": "Puppy_548550",
    "link_img": "https://live.staticflickr.com/65535/50023273802_11ba4ca854_o.jpg",
    "id_image": "Puppy_548550",
    "count_view": 0
  },
  {
    "link_thumb": "https://live.staticflickr.com/65535/50021649938_638605227c_n.jpg",
    "id_album": "-1720012921",
    "description": "Meerkat_874583",
    "title": "Meerkat_874583",
    "link_img": "https://live.staticflickr.com/65535/50021649938_fa4e8f3232_o.jpg",
    "id_image": "Meerkat_874583",
    "count_view": 0
  },
  {
    "link_thumb": "https://live.staticflickr.com/65535/50021634327_46d27b2f73_n.jpg",
    "id_album": "-817970789",
    "description": "Goose_277993",
    "title": "Goose_277993",
    "link_img": "https://live.staticflickr.com/65535/50021634327_61787c54cc_o.jpg",
    "id_image": "Goose_277993",
    "count_view": 0
  },
  {
    "link_thumb": "https://live.staticflickr.com/65535/50019522863_748b5dfd65_n.jpg",
    "id_album": "1903411565",
    "description": "Deer_783624",
    "title": "Deer_783624",
    "link_img": "https://live.staticflickr.com/65535/50019522863_fb19fea9f5_o.jpg",
    "id_image": "Deer_783624",
    "count_view": 0
  },
  {
    "link_thumb": "https://live.staticflickr.com/65535/50021466357_e59c2e4931_n.jpg",
    "id_album": "-462831704",
    "description": "Cat_734306",
    "title": "Cat_734306",
    "link_img": "https://live.staticflickr.com/65535/50021466357_054386fa07_o.jpg",
    "id_image": "Cat_734306",
    "count_view": 0
  },
  {
    "link_thumb": "https://live.staticflickr.com/65535/50022010916_9fd451f9f6_n.jpg",
    "id_album": "416744915",
    "description": "Lion_412298",
    "title": "Lion_412298",
    "link_img": "https://live.staticflickr.com/65535/50022010916_cba804e3eb_o.jpg",
    "id_image": "Lion_412298",
    "count_view": 0
  },
  {
    "link_thumb": "https://live.staticflickr.com/65535/50020535741_aaac8dd054_n.jpg",
    "id_album": "-149330231",
    "description": "Dog_887852",
    "title": "Dog_887852",
    "link_img": "https://live.staticflickr.com/65535/50020535741_c0032f7d64_o.jpg",
    "id_image": "Dog_887852",
    "count_view": 0
  },
  {
    "link_thumb": "https://live.staticflickr.com/65535/50352775817_715a53ab1e_n.jpg",
    "id_album": "-462831703",
    "description": "Cat_592531",
    "title": "Cat_592531",
    "link_img": "https://live.staticflickr.com/65535/50352775817_626a5a56f5_o.jpg",
    "id_image": "Cat_592531",
    "count_view": 0
  },
  {
    "link_thumb": "https://live.staticflickr.com/65535/50023446347_6a702b9fba_n.jpg",
    "id_album": "-1862965835",
    "description": "RedEyedTreeFrog_485834",
    "title": "RedEyedTreeFrog_485834",
    "link_img": "https://live.staticflickr.com/65535/50023446347_af1b0dcd83_o.jpg",
    "id_image": "RedEyedTreeFrog_485834",
    "count_view": 0
  },
  {
    "link_thumb": "https://live.staticflickr.com/65535/50019692627_cf45c0c255_n.jpg",
    "id_album": "-462831703",
    "description": "Cat_909996",
    "title": "Cat_909996",
    "link_img": "https://live.staticflickr.com/65535/50019692627_58f5a76481_o.jpg",
    "id_image": "Cat_909996",
    "count_view": 0
  },
  {
    "link_thumb": "https://live.staticflickr.com/65535/50019189586_db59ba6901_n.jpg",
    "id_album": "-462831702",
    "description": "Cat_433148",
    "title": "Cat_433148",
    "link_img": "https://live.staticflickr.com/65535/50019189586_7a2a4d602f_o.jpg",
    "id_image": "Cat_433148",
    "count_view": 0
  },
  {
    "link_thumb": "https://live.staticflickr.com/65535/50351713348_87d62b2c1a_n.jpg",
    "id_album": "-462831703",
    "description": "Cat_176153",
    "title": "Cat_176153",
    "link_img": "https://live.staticflickr.com/65535/50351713348_b2ca82eb0f_o.jpg",
    "id_image": "Cat_176153",
    "count_view": 0
  },
  {
    "link_thumb": "https://live.staticflickr.com/65535/50020807641_89474ddc7c_n.jpg",
    "id_album": "822895535",
    "description": "Falcon_329908",
    "title": "Falcon_329908",
    "link_img": "https://live.staticflickr.com/65535/50020807641_c569533f6f_o.jpg",
    "id_image": "Falcon_329908",
    "count_view": 0
  },
  {
    "link_thumb": "https://live.staticflickr.com/65535/50018400327_7cb289c706_n.jpg",
    "id_album": "-462831702",
    "description": "Cat_399302",
    "title": "Cat_399302",
    "link_img": "https://live.staticflickr.com/65535/50018400327_5292d3c8a0_o.jpg",
    "id_image": "Cat_399302",
    "count_view": 0
  },
  {
    "link_thumb": "https://live.staticflickr.com/65535/50021647947_2c5752c334_n.jpg",
    "id_album": "1950225324",
    "description": "Gorilla_596060",
    "title": "Gorilla_596060",
    "link_img": "https://live.staticflickr.com/65535/50021647947_70c0cea98b_o.jpg",
    "id_image": "Gorilla_596060",
    "count_view": 0
  },
  {
    "link_thumb": "https://live.staticflickr.com/65535/50019965636_40687dc335_n.jpg",
    "id_album": "-1783645069",
    "description": "Dalmatian_436671",
    "title": "Dalmatian_436671",
    "link_img": "https://live.staticflickr.com/65535/50019965636_f9983c5932_o.jpg",
    "id_image": "Dalmatian_436671",
    "count_view": 0
  },
  {
    "link_thumb": "https://live.staticflickr.com/65535/50019431161_01c8684191_n.jpg",
    "id_album": "-462831703",
    "description": "Cat_907578",
    "title": "Cat_907578",
    "link_img": "https://live.staticflickr.com/65535/50019431161_b3a21d88fa_o.jpg",
    "id_image": "Cat_907578",
    "count_view": 0
  },
  {
    "link_thumb": "https://live.staticflickr.com/65535/50017354188_1d55fd4b51_n.jpg",
    "id_album": "-462831705",
    "description": "Cat_236142",
    "title": "Cat_236142",
    "link_img": "https://live.staticflickr.com/65535/50017354188_574470b0e8_o.jpg",
    "id_image": "Cat_236142",
    "count_view": 0
  },
  {
    "link_thumb": "https://live.staticflickr.com/65535/50021263702_f37be212c1_n.jpg",
    "id_album": "-128218148",
    "description": "Fox_830425",
    "title": "Fox_830425",
    "link_img": "https://live.staticflickr.com/65535/50021263702_2ce3337cc4_o.jpg",
    "id_image": "Fox_830425",
    "count_view": 0
  },
  {
    "link_thumb": "https://live.staticflickr.com/65535/50020120056_19b09e3134_n.jpg",
    "id_album": "-149330232",
    "description": "Dog_114813",
    "title": "Dog_114813",
    "link_img": "https://live.staticflickr.com/65535/50020120056_0dd08646cd_o.jpg",
    "id_image": "Dog_114813",
    "count_view": 0
  },
  {
    "link_thumb": "https://live.staticflickr.com/65535/50020492787_ccdf3a6976_n.jpg",
    "id_album": "-149330232",
    "description": "Dog_313577",
    "title": "Dog_313577",
    "link_img": "https://live.staticflickr.com/65535/50020492787_4e9f627cb1_o.jpg",
    "id_image": "Dog_313577",
    "count_view": 0
  },
  {
    "link_thumb": "https://live.staticflickr.com/65535/50352458351_037a7fe0ba_n.jpg",
    "id_album": "-462831703",
    "description": "Cat_346340",
    "title": "Cat_346340",
    "link_img": "https://live.staticflickr.com/65535/50352458351_d56670165f_o.jpg",
    "id_image": "Cat_346340",
    "count_view": 0
  },
  {
    "link_thumb": "https://live.staticflickr.com/65535/50018055591_1f71628920_n.jpg",
    "id_album": "-462831702",
    "description": "Cat_361307",
    "title": "Cat_361307",
    "link_img": "https://live.staticflickr.com/65535/50018055591_5ee8ee40f6_o.jpg",
    "id_image": "Cat_361307",
    "count_view": 0
  },
  {
    "link_thumb": "https://live.staticflickr.com/65535/50352649392_8c4bf3357c_n.jpg",
    "id_album": "-462831703",
    "description": "Cat_393377",
    "title": "Cat_393377",
    "link_img": "https://live.staticflickr.com/65535/50352649392_4506b94213_o.jpg",
    "id_image": "Cat_393377",
    "count_view": 0
  },
  {
    "link_thumb": "https://live.staticflickr.com/65535/50023133651_0b1061c314_n.jpg",
    "id_album": "-1940643173",
    "description": "Rabbit_909973",
    "title": "Rabbit_909973",
    "link_img": "https://live.staticflickr.com/65535/50023133651_43509e0480_o.jpg",
    "id_image": "Rabbit_909973",
    "count_view": 0
  },
  {
    "link_thumb": "https://live.staticflickr.com/65535/50017385147_2a2b6e5dc3_n.jpg",
    "id_album": "1699594607",
    "description": "Bee_327793",
    "title": "Bee_327793",
    "link_img": "https://live.staticflickr.com/65535/50017385147_3365f34cf5_o.jpg",
    "id_image": "Bee_327793",
    "count_view": 0
  },
  {
    "link_thumb": "https://live.staticflickr.com/65535/50017194247_3fce7b0b90_n.jpg",
    "id_album": "390697200",
    "description": "AustralianShepherd_651129",
    "title": "AustralianShepherd_651129",
    "link_img": "https://live.staticflickr.com/65535/50017194247_f24d56f46a_o.jpg",
    "id_image": "AustralianShepherd_651129",
    "count_view": 0
  },
  {
    "link_thumb": "https://live.staticflickr.com/65535/50020152118_7a29c236d7_n.jpg",
    "id_album": "-39098563",
    "description": "Eagle_260401",
    "title": "Eagle_260401",
    "link_img": "https://live.staticflickr.com/65535/50020152118_a87c01dcb8_o.jpg",
    "id_image": "Eagle_260401",
    "count_view": 0
  },
  {
    "link_thumb": "https://live.staticflickr.com/65535/50022106287_c694b13b7c_n.jpg",
    "id_album": "-1882491687",
    "description": "Ladybug_429504",
    "title": "Ladybug_429504",
    "link_img": "https://live.staticflickr.com/65535/50022106287_1e8b44bc50_o.jpg",
    "id_image": "Ladybug_429504",
    "count_view": 0
  },
  {
    "link_thumb": "https://live.staticflickr.com/65535/50018212017_ecee6cd433_n.jpg",
    "id_album": "-462831702",
    "description": "Cat_308425",
    "title": "Cat_308425",
    "link_img": "https://live.staticflickr.com/65535/50018212017_e80bb3086c_o.jpg",
    "id_image": "Cat_308425",
    "count_view": 0
  },
  {
    "link_thumb": "https://live.staticflickr.com/65535/50020697423_75f2961b28_n.jpg",
    "id_album": "-462831703",
    "description": "Cat_777962",
    "title": "Cat_777962",
    "link_img": "https://live.staticflickr.com/65535/50020697423_728e78d186_o.jpg",
    "id_image": "Cat_777962",
    "count_view": 0
  },
  {
    "link_thumb": "https://live.staticflickr.com/65535/50023735172_19b430c0f8_n.jpg",
    "id_album": "-755466332",
    "description": "Sheep_404947",
    "title": "Sheep_404947",
    "link_img": "https://live.staticflickr.com/65535/50023735172_3b8b90ffcb_o.jpg",
    "id_image": "Sheep_404947",
    "count_view": 0
  },
  {
    "link_thumb": "https://live.staticflickr.com/65535/50021376738_f2c23b1267_n.jpg",
    "id_album": "1392348450",
    "description": "Leopard_398751",
    "title": "Leopard_398751",
    "link_img": "https://live.staticflickr.com/65535/50021376738_fde0807e6d_o.jpg",
    "id_image": "Leopard_398751",
    "count_view": 0
  },
  {
    "link_thumb": "https://live.staticflickr.com/65535/50352457796_e8e20c5e28_n.jpg",
    "id_album": "-462831703",
    "description": "Cat_337909",
    "title": "Cat_337909",
    "link_img": "https://live.staticflickr.com/65535/50352457796_ed53675844_o.jpg",
    "id_image": "Cat_337909",
    "count_view": 0
  },
  {
    "link_thumb": "https://live.staticflickr.com/65535/50021603401_ff21a9bcde_n.jpg",
    "id_album": "2144294979",
    "description": "Hummingbird_307343",
    "title": "Hummingbird_307343",
    "link_img": "https://live.staticflickr.com/65535/50021603401_fd136106f8_o.jpg",
    "id_image": "Hummingbird_307343",
    "count_view": 0
  },
  {
    "link_thumb": "https://live.staticflickr.com/65535/50017997596_546415287b_n.jpg",
    "id_album": "-462831702",
    "description": "Cat_334547",
    "title": "Cat_334547",
    "link_img": "https://live.staticflickr.com/65535/50017997596_8d8329ebdb_o.jpg",
    "id_image": "Cat_334547",
    "count_view": 0
  },
  {
    "link_thumb": "https://live.staticflickr.com/65535/50021675856_dd0677168d_n.jpg",
    "id_album": "1658866795",
    "description": "Insect_403322",
    "title": "Insect_403322",
    "link_img": "https://live.staticflickr.com/65535/50021675856_ea6b2ebcce_o.jpg",
    "id_image": "Insect_403322",
    "count_view": 0
  },
  {
    "link_thumb": "https://live.staticflickr.com/65535/50024111851_9bbf7b5eb6_n.jpg",
    "id_album": "405170427",
    "description": "Tiger_394118",
    "title": "Tiger_394118",
    "link_img": "https://live.staticflickr.com/65535/50024111851_e1eceba0b2_o.jpg",
    "id_image": "Tiger_394118",
    "count_view": 0
  },
  {
    "link_thumb": "https://live.staticflickr.com/65535/50023424941_d54eae377e_n.jpg",
    "id_album": "1961094930",
    "description": "Seal_895303",
    "title": "Seal_895303",
    "link_img": "https://live.staticflickr.com/65535/50023424941_5416456f88_o.jpg",
    "id_image": "Seal_895303",
    "count_view": 0
  },
  {
    "link_thumb": "https://live.staticflickr.com/65535/50018297312_73bfdb82ff_n.jpg",
    "id_album": "-462831702",
    "description": "Cat_352757",
    "title": "Cat_352757",
    "link_img": "https://live.staticflickr.com/65535/50018297312_3a86f04762_o.jpg",
    "id_image": "Cat_352757",
    "count_view": 0
  },
  {
    "link_thumb": "https://live.staticflickr.com/65535/50019660268_93a09de151_n.jpg",
    "id_album": "-149330232",
    "description": "Dog_263503",
    "title": "Dog_263503",
    "link_img": "https://live.staticflickr.com/65535/50019660268_e32399d7db_o.jpg",
    "id_image": "Dog_263503",
    "count_view": 0
  },
  {
    "link_thumb": "https://live.staticflickr.com/65535/50017336597_f412ee70b3_n.jpg",
    "id_album": "-422187261",
    "description": "Bear_728876",
    "title": "Bear_728876",
    "link_img": "https://live.staticflickr.com/65535/50017336597_80beed6762_o.jpg",
    "id_image": "Bear_728876",
    "count_view": 0
  },
  {
    "link_thumb": "https://live.staticflickr.com/65535/50021571102_33a7b1ee27_n.jpg",
    "id_album": "713572662",
    "description": "Giraffe_193045",
    "title": "Giraffe_193045",
    "link_img": "https://live.staticflickr.com/65535/50021571102_4e9072b1dc_o.jpg",
    "id_image": "Giraffe_193045",
    "count_view": 0
  },
  {
    "link_thumb": "https://live.staticflickr.com/65535/50020881411_4fe4590f08_n.jpg",
    "id_album": "-1758557371",
    "description": "Flamingo_105779",
    "title": "Flamingo_105779",
    "link_img": "https://live.staticflickr.com/65535/50020881411_b4569c2b1e_o.jpg",
    "id_image": "Flamingo_105779",
    "count_view": 0
  },
  {
    "link_thumb": "https://live.staticflickr.com/65535/50019685742_e197e6d43e_n.jpg",
    "id_album": "-462831703",
    "description": "Cat_905438",
    "title": "Cat_905438",
    "link_img": "https://live.staticflickr.com/65535/50019685742_10db9f53a4_o.jpg",
    "id_image": "Cat_905438",
    "count_view": 0
  },
  {
    "link_thumb": "https://live.staticflickr.com/65535/50021248683_2dfa4cc876_n.jpg",
    "id_album": "-649286029",
    "description": "Kangaroo_368303",
    "title": "Kangaroo_368303",
    "link_img": "https://live.staticflickr.com/65535/50021248683_d4d987f1d3_o.jpg",
    "id_image": "Kangaroo_368303",
    "count_view": 0
  },
  {
    "link_thumb": "https://live.staticflickr.com/65535/50021270072_c5ab2ef0c1_n.jpg",
    "id_album": "-128218148",
    "description": "Fox_886689",
    "title": "Fox_886689",
    "link_img": "https://live.staticflickr.com/65535/50021270072_030dd37b9e_o.jpg",
    "id_image": "Fox_886689",
    "count_view": 0
  },
  {
    "link_thumb": "https://live.staticflickr.com/65535/50021254653_483f110fbe_n.jpg",
    "id_album": "770105808",
    "description": "Kingfisher_340660",
    "title": "Kingfisher_340660",
    "link_img": "https://live.staticflickr.com/65535/50021254653_ae5ea1b6c3_o.jpg",
    "id_image": "Kingfisher_340660",
    "count_view": 0
  },
  {
    "link_thumb": "https://live.staticflickr.com/65535/50024012146_3bf83634eb_n.jpg",
    "id_album": "1579675410",
    "description": "Swan_680029",
    "title": "Swan_680029",
    "link_img": "https://live.staticflickr.com/65535/50024012146_d33a670534_o.jpg",
    "id_image": "Swan_680029",
    "count_view": 0
  },
  {
    "link_thumb": "https://live.staticflickr.com/65535/50017040448_b1d1eefe75_n.jpg",
    "id_album": "-401151552",
    "description": "Butterfly_346824",
    "title": "Butterfly_346824",
    "link_img": "https://live.staticflickr.com/65535/50017040448_0bdfab06fa_o.jpg",
    "id_image": "Butterfly_346824",
    "count_view": 0
  },
  {
    "link_thumb": "https://live.staticflickr.com/65535/50016318228_4a1b847408_n.jpg",
    "id_album": "-834314226",
    "description": "ArcticFox_516088",
    "title": "ArcticFox_516088",
    "link_img": "https://live.staticflickr.com/65535/50016318228_c48a02c1b9_o.jpg",
    "id_image": "ArcticFox_516088",
    "count_view": 0
  },
  {
    "link_thumb": "https://live.staticflickr.com/65535/50024159281_3830b32b6b_n.jpg",
    "id_album": "405170427",
    "description": "Tiger_551961",
    "title": "Tiger_551961",
    "link_img": "https://live.staticflickr.com/65535/50024159281_e46e33fcf8_o.jpg",
    "id_image": "Tiger_551961",
    "count_view": 0
  },
  {
    "link_thumb": "https://live.staticflickr.com/65535/50020863341_414d4b1c09_n.jpg",
    "id_album": "-1118073211",
    "description": "Fish_541507",
    "title": "Fish_541507",
    "link_img": "https://live.staticflickr.com/65535/50020863341_0095c71f0d_o.jpg",
    "id_image": "Fish_541507",
    "count_view": 0
  },
  {
    "link_thumb": "https://live.staticflickr.com/65535/50021419253_a3cb42ed19_n.jpg",
    "id_album": "1392348450",
    "description": "Leopard_941748",
    "title": "Leopard_941748",
    "link_img": "https://live.staticflickr.com/65535/50021419253_d35b0d9987_o.jpg",
    "id_image": "Leopard_941748",
    "count_view": 0
  },
  {
    "link_thumb": "https://live.staticflickr.com/65535/50022158651_5cf4027a76_n.jpg",
    "id_album": "1894617400",
    "description": "Lynx_743375",
    "title": "Lynx_743375",
    "link_img": "https://live.staticflickr.com/65535/50022158651_2a950206bc_o.jpg",
    "id_image": "Lynx_743375",
    "count_view": 0
  },
  {
    "link_thumb": "https://live.staticflickr.com/65535/50023042586_f47f1e4412_n.jpg",
    "id_album": "-353898617",
    "description": "Puppy_661285",
    "title": "Puppy_661285",
    "link_img": "https://live.staticflickr.com/65535/50023042586_dbf3cd2570_o.jpg",
    "id_image": "Puppy_661285",
    "count_view": 0
  },
  {
    "link_thumb": "https://live.staticflickr.com/65535/50021737056_01754150d6_n.jpg",
    "id_album": "-843028318",
    "description": "Jaguar_690173",
    "title": "Jaguar_690173",
    "link_img": "https://live.staticflickr.com/65535/50021737056_2aee115368_o.jpg",
    "id_image": "Jaguar_690173",
    "count_view": 0
  },
  {
    "link_thumb": "https://live.staticflickr.com/65535/50021343021_8f9e881693_n.jpg",
    "id_album": "-804131074",
    "description": "Goat_572358",
    "title": "Goat_572358",
    "link_img": "https://live.staticflickr.com/65535/50021343021_bf014bd0b6_o.jpg",
    "id_image": "Goat_572358",
    "count_view": 0
  },
  {
    "link_thumb": "https://live.staticflickr.com/65535/50021447646_ae6111e3be_n.jpg",
    "id_album": "54253492",
    "description": "Heron_815637",
    "title": "Heron_815637",
    "link_img": "https://live.staticflickr.com/65535/50021447646_7deee40a62_o.jpg",
    "id_image": "Heron_815637",
    "count_view": 0
  },
  {
    "link_thumb": "https://live.staticflickr.com/65535/50024259812_a6e0facab4_n.jpg",
    "id_album": "1244464375",
    "description": "Starfish_876000",
    "title": "Starfish_876000",
    "link_img": "https://live.staticflickr.com/65535/50024259812_35e20d3134_o.jpg",
    "id_image": "Starfish_876000",
    "count_view": 0
  },
  {
    "link_thumb": "https://live.staticflickr.com/65535/50017189506_e8ff527e1f_n.jpg",
    "id_album": "-1846011410",
    "description": "Bird_102074",
    "title": "Bird_102074",
    "link_img": "https://live.staticflickr.com/65535/50017189506_5ae56c7d1d_o.jpg",
    "id_image": "Bird_102074",
    "count_view": 0
  },
  {
    "link_thumb": "https://live.staticflickr.com/65535/50352482231_b7c25d5e91_n.jpg",
    "id_album": "-462831703",
    "description": "Cat_377259",
    "title": "Cat_377259",
    "link_img": "https://live.staticflickr.com/65535/50352482231_a28a96620c_o.jpg",
    "id_image": "Cat_377259",
    "count_view": 0
  },
  {
    "link_thumb": "https://live.staticflickr.com/65535/50021811676_5bc9e045cd_n.jpg",
    "id_album": "770105808",
    "description": "Kingfisher_880843",
    "title": "Kingfisher_880843",
    "link_img": "https://live.staticflickr.com/65535/50021811676_7690d06321_o.jpg",
    "id_image": "Kingfisher_880843",
    "count_view": 0
  },
  {
    "link_thumb": "https://live.staticflickr.com/65535/50021364138_37a36ca15c_n.jpg",
    "id_album": "1392348450",
    "description": "Leopard_365010",
    "title": "Leopard_365010",
    "link_img": "https://live.staticflickr.com/65535/50021364138_7f4f99165c_o.jpg",
    "id_image": "Leopard_365010",
    "count_view": 0
  },
  {
    "link_thumb": "https://live.staticflickr.com/65535/50019761238_79acee13ba_n.jpg",
    "id_album": "-149330232",
    "description": "Dog_347428",
    "title": "Dog_347428",
    "link_img": "https://live.staticflickr.com/65535/50019761238_478e7347fe_o.jpg",
    "id_image": "Dog_347428",
    "count_view": 0
  },
  {
    "link_thumb": "https://live.staticflickr.com/65535/50023736607_04c914d98b_n.jpg",
    "id_album": "-755466332",
    "description": "Sheep_422543",
    "title": "Sheep_422543",
    "link_img": "https://live.staticflickr.com/65535/50023736607_f4790226e0_o.jpg",
    "id_image": "Sheep_422543",
    "count_view": 0
  },
  {
    "link_thumb": "https://live.staticflickr.com/65535/50016991568_5a76928ae5_n.jpg",
    "id_album": "1696155652",
    "description": "Boxer_431136",
    "title": "Boxer_431136",
    "link_img": "https://live.staticflickr.com/65535/50016991568_5409c63260_o.jpg",
    "id_image": "Boxer_431136",
    "count_view": 0
  },
  {
    "link_thumb": "https://live.staticflickr.com/65535/50020688386_d88bba4c53_n.jpg",
    "id_album": "-39098563",
    "description": "Eagle_275813",
    "title": "Eagle_275813",
    "link_img": "https://live.staticflickr.com/65535/50020688386_c96d435a5d_o.jpg",
    "id_image": "Eagle_275813",
    "count_view": 0
  },
  {
    "link_thumb": "https://live.staticflickr.com/65535/50017592456_01cf851971_n.jpg",
    "id_album": "-401151552",
    "description": "Butterfly_426847",
    "title": "Butterfly_426847",
    "link_img": "https://live.staticflickr.com/65535/50017592456_28c1571f15_o.jpg",
    "id_image": "Butterfly_426847",
    "count_view": 0
  },
  {
    "link_thumb": "https://live.staticflickr.com/65535/50019031903_d32501197a_n.jpg",
    "id_album": "-462831703",
    "description": "Cat_990755",
    "title": "Cat_990755",
    "link_img": "https://live.staticflickr.com/65535/50019031903_57990874f5_o.jpg",
    "id_image": "Cat_990755",
    "count_view": 0
  },
  {
    "link_thumb": "https://live.staticflickr.com/65535/50021040011_1c294125e4_n.jpg",
    "id_album": "704811092",
    "description": "FrenchBulldog_419563",
    "title": "FrenchBulldog_419563",
    "link_img": "https://live.staticflickr.com/65535/50021040011_07d4a9718d_o.jpg",
    "id_image": "FrenchBulldog_419563",
    "count_view": 0
  },
  {
    "link_thumb": "https://live.staticflickr.com/65535/50016562163_11b0332a2d_n.jpg",
    "id_album": "-422187261",
    "description": "Bear_854869",
    "title": "Bear_854869",
    "link_img": "https://live.staticflickr.com/65535/50016562163_99d59ab78c_o.jpg",
    "id_image": "Bear_854869",
    "count_view": 0
  },
  {
    "link_thumb": "https://live.staticflickr.com/65535/50021078557_ceb4506e0c_n.jpg",
    "id_album": "-1118073211",
    "description": "Fish_152142",
    "title": "Fish_152142",
    "link_img": "https://live.staticflickr.com/65535/50021078557_885d7f5584_o.jpg",
    "id_image": "Fish_152142",
    "count_view": 0
  },
  {
    "link_thumb": "https://live.staticflickr.com/65535/50021374281_b63151d345_n.jpg",
    "id_album": "2060159334",
    "description": "GoldenRetriever_983301",
    "title": "GoldenRetriever_983301",
    "link_img": "https://live.staticflickr.com/65535/50021374281_b9ee77d15f_o.jpg",
    "id_image": "GoldenRetriever_983301",
    "count_view": 0
  },
  {
    "link_thumb": "https://live.staticflickr.com/65535/50352511026_e6c209f8f5_n.jpg",
    "id_album": "-462831703",
    "description": "Cat_426275",
    "title": "Cat_426275",
    "link_img": "https://live.staticflickr.com/65535/50352511026_a750c5a7cc_o.jpg",
    "id_image": "Cat_426275",
    "count_view": 0
  },
  {
    "link_thumb": "https://live.staticflickr.com/65535/50020038877_af21084f0d_n.jpg",
    "id_album": "643379324",
    "description": "Clownfish_407205",
    "title": "Clownfish_407205",
    "link_img": "https://live.staticflickr.com/65535/50020038877_5a217a2d9e_o.jpg",
    "id_image": "Clownfish_407205",
    "count_view": 0
  },
  {
    "link_thumb": "https://live.staticflickr.com/65535/50021275227_c75ce0f460_n.jpg",
    "id_album": "-128218148",
    "description": "Fox_905771",
    "title": "Fox_905771",
    "link_img": "https://live.staticflickr.com/65535/50021275227_306ccd95fe_o.jpg",
    "id_image": "Fox_905771",
    "count_view": 0
  },
  {
    "link_thumb": "https://live.staticflickr.com/65535/50021668516_02efd399f6_n.jpg",
    "id_album": "1658866795",
    "description": "Insect_391732",
    "title": "Insect_391732",
    "link_img": "https://live.staticflickr.com/65535/50021668516_8a4bc51c29_o.jpg",
    "id_image": "Insect_391732",
    "count_view": 0
  },
  {
    "link_thumb": "https://live.staticflickr.com/65535/50021976886_2989c7b642_n.jpg",
    "id_album": "416744915",
    "description": "Lion_239548",
    "title": "Lion_239548",
    "link_img": "https://live.staticflickr.com/65535/50021976886_14e5a94f43_o.jpg",
    "id_image": "Lion_239548",
    "count_view": 0
  },
  {
    "link_thumb": "https://live.staticflickr.com/65535/50021275867_4784c5db15_n.jpg",
    "id_album": "-128218148",
    "description": "Fox_909162",
    "title": "Fox_909162",
    "link_img": "https://live.staticflickr.com/65535/50021275867_7f5c0972e1_o.jpg",
    "id_image": "Fox_909162",
    "count_view": 0
  },
  {
    "link_thumb": "https://live.staticflickr.com/65535/50017948231_6bc0ee659b_n.jpg",
    "id_album": "-462831702",
    "description": "Cat_301765",
    "title": "Cat_301765",
    "link_img": "https://live.staticflickr.com/65535/50017948231_707d6fc669_o.jpg",
    "id_image": "Cat_301765",
    "count_view": 0
  },
  {
    "link_thumb": "https://live.staticflickr.com/65535/50020465728_6c8d26dbb5_n.jpg",
    "id_album": "-128218148",
    "description": "Fox_809685",
    "title": "Fox_809685",
    "link_img": "https://live.staticflickr.com/65535/50020465728_dff277514d_o.jpg",
    "id_image": "Fox_809685",
    "count_view": 0
  },
  {
    "link_thumb": "https://live.staticflickr.com/65535/50020558427_9f214157ed_n.jpg",
    "id_album": "-149330232",
    "description": "Dog_351452",
    "title": "Dog_351452",
    "link_img": "https://live.staticflickr.com/65535/50020558427_7184b03c1b_o.jpg",
    "id_image": "Dog_351452",
    "count_view": 0
  },
  {
    "link_thumb": "https://live.staticflickr.com/65535/50019802418_95268299b0_n.jpg",
    "id_album": "-149330232",
    "description": "Dog_367338",
    "title": "Dog_367338",
    "link_img": "https://live.staticflickr.com/65535/50019802418_50f82d675a_o.jpg",
    "id_image": "Dog_367338",
    "count_view": 0
  },
  {
    "link_thumb": "https://live.staticflickr.com/65535/50022035676_f785467daf_n.jpg",
    "id_album": "416744915",
    "description": "Lion_594384",
    "title": "Lion_594384",
    "link_img": "https://live.staticflickr.com/65535/50022035676_d39c5df3df_o.jpg",
    "id_image": "Lion_594384",
    "count_view": 0
  },
  {
    "link_thumb": "https://live.staticflickr.com/65535/50019574462_c5b971dba8_n.jpg",
    "id_album": "-462831703",
    "description": "Cat_847555",
    "title": "Cat_847555",
    "link_img": "https://live.staticflickr.com/65535/50019574462_623f411eb3_o.jpg",
    "id_image": "Cat_847555",
    "count_view": 0
  },
  {
    "link_thumb": "https://live.staticflickr.com/65535/50020886002_8d0b9c0968_n.jpg",
    "id_album": "-405058657",
    "description": "Dragonfly_533732",
    "title": "Dragonfly_533732",
    "link_img": "https://live.staticflickr.com/65535/50020886002_0c3d5498ea_o.jpg",
    "id_image": "Dragonfly_533732",
    "count_view": 0
  },
  {
    "link_thumb": "https://live.staticflickr.com/65535/50022197757_99eb9061cd_n.jpg",
    "id_album": "1392348450",
    "description": "Leopard_602494",
    "title": "Leopard_602494",
    "link_img": "https://live.staticflickr.com/65535/50022197757_9a2c33eca1_o.jpg",
    "id_image": "Leopard_602494",
    "count_view": 0
  },
  {
    "link_thumb": "https://live.staticflickr.com/65535/50020494861_bdc5231b34_n.jpg",
    "id_album": "-149330231",
    "description": "Dog_719411",
    "title": "Dog_719411",
    "link_img": "https://live.staticflickr.com/65535/50020494861_729b595edc_o.jpg",
    "id_image": "Dog_719411",
    "count_view": 0
  },
  {
    "link_thumb": "https://live.staticflickr.com/65535/50022123587_4866bd60ce_n.jpg",
    "id_album": "-1882491687",
    "description": "Ladybug_882988",
    "title": "Ladybug_882988",
    "link_img": "https://live.staticflickr.com/65535/50022123587_4aaba5543a_o.jpg",
    "id_image": "Ladybug_882988",
    "count_view": 0
  },
  {
    "link_thumb": "https://live.staticflickr.com/65535/50021277382_116820ab20_n.jpg",
    "id_album": "-128218148",
    "description": "Fox_913675",
    "title": "Fox_913675",
    "link_img": "https://live.staticflickr.com/65535/50021277382_a338b2d473_o.jpg",
    "id_image": "Fox_913675",
    "count_view": 0
  },
  {
    "link_thumb": "https://live.staticflickr.com/65535/50016645123_5c5874a547_n.jpg",
    "id_album": "172748811",
    "description": "Beeeater_262390",
    "title": "Beeeater_262390",
    "link_img": "https://live.staticflickr.com/65535/50016645123_88d15bcf1b_o.jpg",
    "id_image": "Beeeater_262390",
    "count_view": 0
  },
  {
    "link_thumb": "https://live.staticflickr.com/65535/50017246872_fe72d9691c_n.jpg",
    "id_album": "809937717",
    "description": "Beagle_385124",
    "title": "Beagle_385124",
    "link_img": "https://live.staticflickr.com/65535/50017246872_6c422d79cb_o.jpg",
    "id_image": "Beagle_385124",
    "count_view": 0
  },
  {
    "link_thumb": "https://live.staticflickr.com/65535/50019824012_4b871cec9b_n.jpg",
    "id_album": "-462831703",
    "description": "Cat_993352",
    "title": "Cat_993352",
    "link_img": "https://live.staticflickr.com/65535/50019824012_29c653526a_o.jpg",
    "id_image": "Cat_993352",
    "count_view": 0
  },
  {
    "link_thumb": "https://live.staticflickr.com/65535/50020576792_7d7c4999e6_n.jpg",
    "id_album": "-149330232",
    "description": "Dog_361484",
    "title": "Dog_361484",
    "link_img": "https://live.staticflickr.com/65535/50020576792_de00f583a9_o.jpg",
    "id_image": "Dog_361484",
    "count_view": 0
  },
  {
    "link_thumb": "https://live.staticflickr.com/65535/50023351891_9440c316c3_n.jpg",
    "id_album": "1656131695",
    "description": "Seagull_316925",
    "title": "Seagull_316925",
    "link_img": "https://live.staticflickr.com/65535/50023351891_4b42932acf_o.jpg",
    "id_image": "Seagull_316925",
    "count_view": 0
  },
  {
    "link_thumb": "https://live.staticflickr.com/65535/50024556186_5e669e0ca1_n.jpg",
    "id_album": "-709711865",
    "description": "Wolf_887142",
    "title": "Wolf_887142",
    "link_img": "https://live.staticflickr.com/65535/50024556186_8684ed4d57_o.jpg",
    "id_image": "Wolf_887142",
    "count_view": 0
  },
  {
    "link_thumb": "https://live.staticflickr.com/65535/50017089162_5cbb2b7274_n.jpg",
    "id_album": "-229810103",
    "description": "AmericanBison_856206",
    "title": "AmericanBison_856206",
    "link_img": "https://live.staticflickr.com/65535/50017089162_634ab28bb0_o.jpg",
    "id_image": "AmericanBison_856206",
    "count_view": 0
  },
  {
    "link_thumb": "https://live.staticflickr.com/65535/50352587307_8666945b11_n.jpg",
    "id_album": "-462831703",
    "description": "Cat_212671",
    "title": "Cat_212671",
    "link_img": "https://live.staticflickr.com/65535/50352587307_d4fc82da27_o.jpg",
    "id_image": "Cat_212671",
    "count_view": 0
  },
  {
    "link_thumb": "https://live.staticflickr.com/65535/50019246176_d3343a13f8_n.jpg",
    "id_album": "-462831704",
    "description": "Cat_478874",
    "title": "Cat_478874",
    "link_img": "https://live.staticflickr.com/65535/50019246176_1049a07173_o.jpg",
    "id_image": "Cat_478874",
    "count_view": 0
  },
  {
    "link_thumb": "https://live.staticflickr.com/65535/50023230567_585b98a77c_n.jpg",
    "id_album": "-353898617",
    "description": "Puppy_364947",
    "title": "Puppy_364947",
    "link_img": "https://live.staticflickr.com/65535/50023230567_cc6773176b_o.jpg",
    "id_image": "Puppy_364947",
    "count_view": 0
  },
  {
    "link_thumb": "https://live.staticflickr.com/65535/50021091626_1894bf8974_n.jpg",
    "id_album": "-34696179",
    "description": "Gecko_405014",
    "title": "Gecko_405014",
    "link_img": "https://live.staticflickr.com/65535/50021091626_d47abb57b2_o.jpg",
    "id_image": "Gecko_405014",
    "count_view": 0
  },
  {
    "link_thumb": "https://live.staticflickr.com/65535/50020947561_de9198a99d_n.jpg",
    "id_album": "-128218148",
    "description": "Fox_333824",
    "title": "Fox_333824",
    "link_img": "https://live.staticflickr.com/65535/50020947561_c36f2f1902_o.jpg",
    "id_image": "Fox_333824",
    "count_view": 0
  },
  {
    "link_thumb": "https://live.staticflickr.com/65535/50020856333_78bffc08ba_n.jpg",
    "id_album": "-1168906494",
    "description": "Grasshopper_235811",
    "title": "Grasshopper_235811",
    "link_img": "https://live.staticflickr.com/65535/50020856333_f7ca21a727_o.jpg",
    "id_image": "Grasshopper_235811",
    "count_view": 0
  },
  {
    "link_thumb": "https://live.staticflickr.com/65535/50017323163_af31f0f492_n.jpg",
    "id_album": "-462831705",
    "description": "Cat_207600",
    "title": "Cat_207600",
    "link_img": "https://live.staticflickr.com/65535/50017323163_749204ab6c_o.jpg",
    "id_image": "Cat_207600",
    "count_view": 0
  },
  {
    "link_thumb": "https://live.staticflickr.com/65535/50351824383_5361a9aa13_n.jpg",
    "id_album": "-462831703",
    "description": "Cat_436462",
    "title": "Cat_436462",
    "link_img": "https://live.staticflickr.com/65535/50351824383_53b7a10437_o.jpg",
    "id_image": "Cat_436462",
    "count_view": 0
  },
  {
    "link_thumb": "https://live.staticflickr.com/65535/50020523211_40427768c8_n.jpg",
    "id_album": "-149330231",
    "description": "Dog_851827",
    "title": "Dog_851827",
    "link_img": "https://live.staticflickr.com/65535/50020523211_4c8031e74c_o.jpg",
    "id_image": "Dog_851827",
    "count_view": 0
  },
  {
    "link_thumb": "https://live.staticflickr.com/65535/50019137513_ae65f4b8bf_n.jpg",
    "id_album": "-766919393",
    "description": "Chameleon_820269",
    "title": "Chameleon_820269",
    "link_img": "https://live.staticflickr.com/65535/50019137513_43cfccaf79_o.jpg",
    "id_image": "Chameleon_820269",
    "count_view": 0
  },
  {
    "link_thumb": "https://live.staticflickr.com/65535/50351750433_0dd980a803_n.jpg",
    "id_album": "-462831703",
    "description": "Cat_264051",
    "title": "Cat_264051",
    "link_img": "https://live.staticflickr.com/65535/50351750433_aaa8523416_o.jpg",
    "id_image": "Cat_264051",
    "count_view": 0
  },
  {
    "link_thumb": "https://live.staticflickr.com/65535/50021103263_5b2c9f65f2_n.jpg",
    "id_album": "-737856092",
    "description": "Iguana_320259",
    "title": "Iguana_320259",
    "link_img": "https://live.staticflickr.com/65535/50021103263_38cc11bbf4_o.jpg",
    "id_image": "Iguana_320259",
    "count_view": 0
  },
  {
    "link_thumb": "https://live.staticflickr.com/65535/50021174391_0034bf4486_n.jpg",
    "id_album": "-462831704",
    "description": "Cat_695554",
    "title": "Cat_695554",
    "link_img": "https://live.staticflickr.com/65535/50021174391_0fb0648e35_o.jpg",
    "id_image": "Cat_695554",
    "count_view": 0
  },
  {
    "link_thumb": "https://live.staticflickr.com/65535/50019170708_d712e3660c_n.jpg",
    "id_album": "-1481843714",
    "description": "Cheetah_384339",
    "title": "Cheetah_384339",
    "link_img": "https://live.staticflickr.com/65535/50019170708_50f04a92cf_o.jpg",
    "id_image": "Cheetah_384339",
    "count_view": 0
  },
  {
    "link_thumb": "https://live.staticflickr.com/65535/50021833691_2f06f15b10_n.jpg",
    "id_album": "1307335982",
    "description": "LabradorRetriever_838602",
    "title": "LabradorRetriever_838602",
    "link_img": "https://live.staticflickr.com/65535/50021833691_5300930509_o.jpg",
    "id_image": "LabradorRetriever_838602",
    "count_view": 0
  },
  {
    "link_thumb": "https://live.staticflickr.com/65535/50017730847_3a9d4fce13_n.jpg",
    "id_album": "-530283314",
    "description": "BlueandyellowMacaw_595762",
    "title": "BlueandyellowMacaw_595762",
    "link_img": "https://live.staticflickr.com/65535/50017730847_72ce7df640_o.jpg",
    "id_image": "BlueandyellowMacaw_595762",
    "count_view": 0
  },
  {
    "link_thumb": "https://live.staticflickr.com/65535/50020752863_0b1aa872bc_n.jpg",
    "id_album": "-405626519",
    "description": "GermanShepherd_673967",
    "title": "GermanShepherd_673967",
    "link_img": "https://live.staticflickr.com/65535/50020752863_4af9b36a6f_o.jpg",
    "id_image": "GermanShepherd_673967",
    "count_view": 0
  },
  {
    "link_thumb": "https://live.staticflickr.com/65535/50022507638_0b4c735fbc_n.jpg",
    "id_album": "-353898617",
    "description": "Puppy_686341",
    "title": "Puppy_686341",
    "link_img": "https://live.staticflickr.com/65535/50022507638_832b9c2a20_o.jpg",
    "id_image": "Puppy_686341",
    "count_view": 0
  },
  {
    "link_thumb": "https://live.staticflickr.com/65535/50018633348_865c003977_n.jpg",
    "id_album": "-462831702",
    "description": "Cat_423696",
    "title": "Cat_423696",
    "link_img": "https://live.staticflickr.com/65535/50018633348_903fd29d8f_o.jpg",
    "id_image": "Cat_423696",
    "count_view": 0
  },
  {
    "link_thumb": "https://live.staticflickr.com/65535/50018394012_9b150937a0_n.jpg",
    "id_album": "-462831702",
    "description": "Cat_396501",
    "title": "Cat_396501",
    "link_img": "https://live.staticflickr.com/65535/50018394012_b9166a2a20_o.jpg",
    "id_image": "Cat_396501",
    "count_view": 0
  },
  {
    "link_thumb": "https://live.staticflickr.com/65535/50021599371_c825e1e656_n.jpg",
    "id_album": "773713550",
    "description": "Hoverfly_926091",
    "title": "Hoverfly_926091",
    "link_img": "https://live.staticflickr.com/65535/50021599371_228fbeb213_o.jpg",
    "id_image": "Hoverfly_926091",
    "count_view": 0
  },
  {
    "link_thumb": "https://live.staticflickr.com/65535/50020551906_9c9cff13fb_n.jpg",
    "id_album": "-149330231",
    "description": "Dog_967928",
    "title": "Dog_967928",
    "link_img": "https://live.staticflickr.com/65535/50020551906_b667baee94_o.jpg",
    "id_image": "Dog_967928",
    "count_view": 0
  },
  {
    "link_thumb": "https://live.staticflickr.com/65535/50020664166_56ed7fc417_n.jpg",
    "id_album": "1168627767",
    "description": "Duck_554047",
    "title": "Duck_554047",
    "link_img": "https://live.staticflickr.com/65535/50020664166_53c8a50024_o.jpg",
    "id_image": "Duck_554047",
    "count_view": 0
  },
  {
    "link_thumb": "https://live.staticflickr.com/65535/50021865426_18b81908f7_n.jpg",
    "id_album": "-1882491687",
    "description": "Ladybug_801788",
    "title": "Ladybug_801788",
    "link_img": "https://live.staticflickr.com/65535/50021865426_6e2a55ddf6_o.jpg",
    "id_image": "Ladybug_801788",
    "count_view": 0
  },
  {
    "link_thumb": "https://live.staticflickr.com/65535/50020243122_bb6e7d43e1_n.jpg",
    "id_album": "1903411565",
    "description": "Deer_271693",
    "title": "Deer_271693",
    "link_img": "https://live.staticflickr.com/65535/50020243122_c5b3d9f855_o.jpg",
    "id_image": "Deer_271693",
    "count_view": 0
  },
  {
    "link_thumb": "https://live.staticflickr.com/65535/50020414497_d4860d3dd6_n.jpg",
    "id_album": "-149330232",
    "description": "Dog_216564",
    "title": "Dog_216564",
    "link_img": "https://live.staticflickr.com/65535/50020414497_efd3ea958c_o.jpg",
    "id_image": "Dog_216564",
    "count_view": 0
  },
  {
    "link_thumb": "https://live.staticflickr.com/65535/50022178101_8b84ce8b93_n.jpg",
    "id_album": "-1173056085",
    "description": "Macaw_595747",
    "title": "Macaw_595747",
    "link_img": "https://live.staticflickr.com/65535/50022178101_ea07bc3896_o.jpg",
    "id_image": "Macaw_595747",
    "count_view": 0
  },
  {
    "link_thumb": "https://live.staticflickr.com/65535/50021842836_95ae328e6c_n.jpg",
    "id_album": "-1882491687",
    "description": "Ladybug_288704",
    "title": "Ladybug_288704",
    "link_img": "https://live.staticflickr.com/65535/50021842836_8cf39faf03_o.jpg",
    "id_image": "Ladybug_288704",
    "count_view": 0
  },
  {
    "link_thumb": "https://live.staticflickr.com/65535/50018253487_94cda621e9_n.jpg",
    "id_album": "-462831702",
    "description": "Cat_333078",
    "title": "Cat_333078",
    "link_img": "https://live.staticflickr.com/65535/50018253487_1012ba0e83_o.jpg",
    "id_image": "Cat_333078",
    "count_view": 0
  },
  {
    "link_thumb": "https://live.staticflickr.com/65535/50017482731_d888716d9d_n.jpg",
    "id_album": "782930701",
    "description": "BorderCollie_529388",
    "title": "BorderCollie_529388",
    "link_img": "https://live.staticflickr.com/65535/50017482731_0b85ff0596_o.jpg",
    "id_image": "BorderCollie_529388",
    "count_view": 0
  },
  {
    "link_thumb": "https://live.staticflickr.com/65535/50022985922_cc3f9746c4_n.jpg",
    "id_album": "392248205",
    "description": "Penguin_882840",
    "title": "Penguin_882840",
    "link_img": "https://live.staticflickr.com/65535/50022985922_83969cb57d_o.jpg",
    "id_image": "Penguin_882840",
    "count_view": 0
  },
  {
    "link_thumb": "https://live.staticflickr.com/65535/50020181148_159db3a4d3_n.jpg",
    "id_album": "-39098563",
    "description": "Eagle_564756",
    "title": "Eagle_564756",
    "link_img": "https://live.staticflickr.com/65535/50020181148_9e27ebabfd_o.jpg",
    "id_image": "Eagle_564756",
    "count_view": 0
  },
  {
    "link_thumb": "https://live.staticflickr.com/65535/50019896268_39dc56e046_n.jpg",
    "id_album": "-149330231",
    "description": "Dog_464586",
    "title": "Dog_464586",
    "link_img": "https://live.staticflickr.com/65535/50019896268_da2431fcea_o.jpg",
    "id_image": "Dog_464586",
    "count_view": 0
  },
  {
    "link_thumb": "https://live.staticflickr.com/65535/50020328416_1d7b2cdd9c_n.jpg",
    "id_album": "-149330232",
    "description": "Dog_365211",
    "title": "Dog_365211",
    "link_img": "https://live.staticflickr.com/65535/50020328416_c02dd05642_o.jpg",
    "id_image": "Dog_365211",
    "count_view": 0
  },
  {
    "link_thumb": "https://live.staticflickr.com/65535/50352558621_0c3d9d08eb_n.jpg",
    "id_album": "-462831703",
    "description": "Cat_483739",
    "title": "Cat_483739",
    "link_img": "https://live.staticflickr.com/65535/50352558621_140f5a488a_o.jpg",
    "id_image": "Cat_483739",
    "count_view": 0
  },
  {
    "link_thumb": "https://live.staticflickr.com/65535/50017491501_7292697f0f_n.jpg",
    "id_album": "782930701",
    "description": "BorderCollie_753813",
    "title": "BorderCollie_753813",
    "link_img": "https://live.staticflickr.com/65535/50017491501_b93c13514d_o.jpg",
    "id_image": "BorderCollie_753813",
    "count_view": 0
  },
  {
    "link_thumb": "https://live.staticflickr.com/65535/50017514243_156347e272_n.jpg",
    "id_album": "-462831702",
    "description": "Cat_355267",
    "title": "Cat_355267",
    "link_img": "https://live.staticflickr.com/65535/50017514243_9a92ac1abb_o.jpg",
    "id_image": "Cat_355267",
    "count_view": 0
  },
  {
    "link_thumb": "https://live.staticflickr.com/65535/50023315522_c487db31ec_n.jpg",
    "id_album": "-353898617",
    "description": "Puppy_748167",
    "title": "Puppy_748167",
    "link_img": "https://live.staticflickr.com/65535/50023315522_72eebee0f7_o.jpg",
    "id_image": "Puppy_748167",
    "count_view": 0
  },
  {
    "link_thumb": "https://live.staticflickr.com/65535/50021409831_25feb72c9a_n.jpg",
    "id_album": "82558972",
    "description": "GuineaPig_685756",
    "title": "GuineaPig_685756",
    "link_img": "https://live.staticflickr.com/65535/50021409831_e9ec190eb5_o.jpg",
    "id_image": "GuineaPig_685756",
    "count_view": 0
  },
  {
    "link_thumb": "https://live.staticflickr.com/65535/50021328263_701dab022b_n.jpg",
    "id_album": "-1882491687",
    "description": "Ladybug_995080",
    "title": "Ladybug_995080",
    "link_img": "https://live.staticflickr.com/65535/50021328263_9fb9d49837_o.jpg",
    "id_image": "Ladybug_995080",
    "count_view": 0
  },
  {
    "link_thumb": "https://live.staticflickr.com/65535/50018411877_064d09ec31_n.jpg",
    "id_album": "-462831702",
    "description": "Cat_407327",
    "title": "Cat_407327",
    "link_img": "https://live.staticflickr.com/65535/50018411877_a328074f31_o.jpg",
    "id_image": "Cat_407327",
    "count_view": 0
  },
  {
    "link_thumb": "https://live.staticflickr.com/65535/50020250652_e1da3277a3_n.jpg",
    "id_album": "1903411565",
    "description": "Deer_338631",
    "title": "Deer_338631",
    "link_img": "https://live.staticflickr.com/65535/50020250652_95aaed7007_o.jpg",
    "id_image": "Deer_338631",
    "count_view": 0
  },
  {
    "link_thumb": "https://live.staticflickr.com/65535/50352657796_a67ce219d5_n.jpg",
    "id_album": "-462831703",
    "description": "Cat_711564",
    "title": "Cat_711564",
    "link_img": "https://live.staticflickr.com/65535/50352657796_12668a6475_o.jpg",
    "id_image": "Cat_711564",
    "count_view": 0
  },
  {
    "link_thumb": "https://live.staticflickr.com/65535/50020783991_1587d454bb_n.jpg",
    "id_album": "1270947998",
    "description": "Elephant_726798",
    "title": "Elephant_726798",
    "link_img": "https://live.staticflickr.com/65535/50020783991_232fdb7f05_o.jpg",
    "id_image": "Elephant_726798",
    "count_view": 0
  },
  {
    "link_thumb": "https://live.staticflickr.com/65535/50352413221_7c4172b7f1_n.jpg",
    "id_album": "-462831703",
    "description": "Cat_185501",
    "title": "Cat_185501",
    "link_img": "https://live.staticflickr.com/65535/50352413221_8958efe806_o.jpg",
    "id_image": "Cat_185501",
    "count_view": 0
  },
  {
    "link_thumb": "https://live.staticflickr.com/65535/50021879412_77194187b1_n.jpg",
    "id_album": "-712553376",
    "description": "Husky_236471",
    "title": "Husky_236471",
    "link_img": "https://live.staticflickr.com/65535/50021879412_a805a2e9e6_o.jpg",
    "id_image": "Husky_236471",
    "count_view": 0
  },
  {
    "link_thumb": "https://live.staticflickr.com/65535/50020565903_d04f7286f8_n.jpg",
    "id_album": "-462831704",
    "description": "Cat_549002",
    "title": "Cat_549002",
    "link_img": "https://live.staticflickr.com/65535/50020565903_e9a64ec80a_o.jpg",
    "id_image": "Cat_549002",
    "count_view": 0
  },
  {
    "link_thumb": "https://live.staticflickr.com/65535/50351832958_7098b467e5_n.jpg",
    "id_album": "-462831703",
    "description": "Cat_448432",
    "title": "Cat_448432",
    "link_img": "https://live.staticflickr.com/65535/50351832958_a6400444e3_o.jpg",
    "id_image": "Cat_448432",
    "count_view": 0
  },
  {
    "link_thumb": "https://live.staticflickr.com/65535/50021485638_1aa2f93454_n.jpg",
    "id_album": "416744915",
    "description": "Lion_487131",
    "title": "Lion_487131",
    "link_img": "https://live.staticflickr.com/65535/50021485638_bdcf19e684_o.jpg",
    "id_image": "Lion_487131",
    "count_view": 0
  },
  {
    "link_thumb": "https://live.staticflickr.com/65535/50020203786_2696e7afe4_n.jpg",
    "id_album": "-149330232",
    "description": "Dog_273365",
    "title": "Dog_273365",
    "link_img": "https://live.staticflickr.com/65535/50020203786_eaf49524e6_o.jpg",
    "id_image": "Dog_273365",
    "count_view": 0
  },
  {
    "link_thumb": "https://live.staticflickr.com/65535/50021974067_aef27bc228_n.jpg",
    "id_album": "-843028318",
    "description": "Jaguar_315644",
    "title": "Jaguar_315644",
    "link_img": "https://live.staticflickr.com/65535/50021974067_0946149141_o.jpg",
    "id_image": "Jaguar_315644",
    "count_view": 0
  },
  {
    "link_thumb": "https://live.staticflickr.com/65535/50021863701_593fa39c14_n.jpg",
    "id_album": "-1882491687",
    "description": "Ladybug_774512",
    "title": "Ladybug_774512",
    "link_img": "https://live.staticflickr.com/65535/50021863701_45a699680e_o.jpg",
    "id_image": "Ladybug_774512",
    "count_view": 0
  },
  {
    "link_thumb": "https://live.staticflickr.com/65535/50021305998_01355777a3_n.jpg",
    "id_album": "-1882491687",
    "description": "Ladybug_397503",
    "title": "Ladybug_397503",
    "link_img": "https://live.staticflickr.com/65535/50021305998_627b2222af_o.jpg",
    "id_image": "Ladybug_397503",
    "count_view": 0
  },
  {
    "link_thumb": "https://live.staticflickr.com/65535/50022459007_9fe77002f7_n.jpg",
    "id_album": "-784970094",
    "description": "Monkey_326112",
    "title": "Monkey_326112",
    "link_img": "https://live.staticflickr.com/65535/50022459007_5215d08e93_o.jpg",
    "id_image": "Monkey_326112",
    "count_view": 0
  },
  {
    "link_thumb": "https://live.staticflickr.com/65535/50020504148_46976d90aa_n.jpg",
    "id_album": "704811092",
    "description": "FrenchBulldog_788787",
    "title": "FrenchBulldog_788787",
    "link_img": "https://live.staticflickr.com/65535/50020504148_4d46e7b133_o.jpg",
    "id_image": "FrenchBulldog_788787",
    "count_view": 0
  },
  {
    "link_thumb": "https://live.staticflickr.com/65535/50020742571_b7f2be895b_n.jpg",
    "id_album": "1270947998",
    "description": "Elephant_324223",
    "title": "Elephant_324223",
    "link_img": "https://live.staticflickr.com/65535/50020742571_a169a080a9_o.jpg",
    "id_image": "Elephant_324223",
    "count_view": 0
  },
  {
    "link_thumb": "https://live.staticflickr.com/65535/50021616342_a631092448_n.jpg",
    "id_album": "2060159334",
    "description": "GoldenRetriever_864309",
    "title": "GoldenRetriever_864309",
    "link_img": "https://live.staticflickr.com/65535/50021616342_312406da14_o.jpg",
    "id_image": "GoldenRetriever_864309",
    "count_view": 0
  },
  {
    "link_thumb": "https://live.staticflickr.com/65535/50022518343_5427f84364_n.jpg",
    "id_album": "-353898617",
    "description": "Puppy_778135",
    "title": "Puppy_778135",
    "link_img": "https://live.staticflickr.com/65535/50022518343_79210a63a9_o.jpg",
    "id_image": "Puppy_778135",
    "count_view": 0
  },
  {
    "link_thumb": "https://live.staticflickr.com/65535/50351940093_42fdce9729_n.jpg",
    "id_album": "-462831703",
    "description": "Cat_667884",
    "title": "Cat_667884",
    "link_img": "https://live.staticflickr.com/65535/50351940093_66b3575723_o.jpg",
    "id_image": "Cat_667884",
    "count_view": 0
  },
  {
    "link_thumb": "https://live.staticflickr.com/65535/50022221047_5ca0c10500_n.jpg",
    "id_album": "1392348450",
    "description": "Leopard_987322",
    "title": "Leopard_987322",
    "link_img": "https://live.staticflickr.com/65535/50022221047_602edc7c6c_o.jpg",
    "id_image": "Leopard_987322",
    "count_view": 0
  },
  {
    "link_thumb": "https://live.staticflickr.com/65535/50020041372_6876d546c3_n.jpg",
    "id_album": "643379324",
    "description": "Clownfish_496817",
    "title": "Clownfish_496817",
    "link_img": "https://live.staticflickr.com/65535/50020041372_60d23be7ba_o.jpg",
    "id_image": "Clownfish_496817",
    "count_view": 0
  },
  {
    "link_thumb": "https://live.staticflickr.com/65535/50020870247_f039212b52_n.jpg",
    "id_album": "-405058657",
    "description": "Dragonfly_353625",
    "title": "Dragonfly_353625",
    "link_img": "https://live.staticflickr.com/65535/50020870247_bdb54b1711_o.jpg",
    "id_image": "Dragonfly_353625",
    "count_view": 0
  },
  {
    "link_thumb": "https://live.staticflickr.com/65535/50020983467_eb93d3ebf1_n.jpg",
    "id_album": "1270947998",
    "description": "Elephant_104203",
    "title": "Elephant_104203",
    "link_img": "https://live.staticflickr.com/65535/50020983467_acff9829e7_o.jpg",
    "id_image": "Elephant_104203",
    "count_view": 0
  },
  {
    "link_thumb": "https://live.staticflickr.com/65535/50021178803_95efa549d1_n.jpg",
    "id_album": "-843028318",
    "description": "Jaguar_380931",
    "title": "Jaguar_380931",
    "link_img": "https://live.staticflickr.com/65535/50021178803_b008a5ab8a_o.jpg",
    "id_image": "Jaguar_380931",
    "count_view": 0
  },
  {
    "link_thumb": "https://live.staticflickr.com/65535/50021449567_6118bf5027_n.jpg",
    "id_album": "-462831704",
    "description": "Cat_713684",
    "title": "Cat_713684",
    "link_img": "https://live.staticflickr.com/65535/50021449567_1ef96285ff_o.jpg",
    "id_image": "Cat_713684",
    "count_view": 0
  },
  {
    "link_thumb": "https://live.staticflickr.com/65535/50021790811_fba212067e_n.jpg",
    "id_album": "-649286029",
    "description": "Kangaroo_291797",
    "title": "Kangaroo_291797",
    "link_img": "https://live.staticflickr.com/65535/50021790811_72ea35bfa4_o.jpg",
    "id_image": "Kangaroo_291797",
    "count_view": 0
  },
  {
    "link_thumb": "https://live.staticflickr.com/65535/50020828681_17a77aee9d_n.jpg",
    "id_album": "-1118073211",
    "description": "Fish_237152",
    "title": "Fish_237152",
    "link_img": "https://live.staticflickr.com/65535/50020828681_1c01701dec_o.jpg",
    "id_image": "Fish_237152",
    "count_view": 0
  },
  {
    "link_thumb": "https://live.staticflickr.com/65535/50021226976_5a7953b21d_n.jpg",
    "id_album": "-462831703",
    "description": "Cat_747534",
    "title": "Cat_747534",
    "link_img": "https://live.staticflickr.com/65535/50021226976_2fcf815e0a_o.jpg",
    "id_image": "Cat_747534",
    "count_view": 0
  },
  {
    "link_thumb": "https://live.staticflickr.com/65535/50017467836_134574e637_n.jpg",
    "id_album": "-530283314",
    "description": "BlueandyellowMacaw_564774",
    "title": "BlueandyellowMacaw_564774",
    "link_img": "https://live.staticflickr.com/65535/50017467836_56064c97e9_o.jpg",
    "id_image": "BlueandyellowMacaw_564774",
    "count_view": 0
  },
  {
    "link_thumb": "https://live.staticflickr.com/65535/50352784667_539125e6d7_n.jpg",
    "id_album": "-462831703",
    "description": "Cat_602784",
    "title": "Cat_602784",
    "link_img": "https://live.staticflickr.com/65535/50352784667_e60f1f40aa_o.jpg",
    "id_image": "Cat_602784",
    "count_view": 0
  },
  {
    "link_thumb": "https://live.staticflickr.com/65535/50352741657_3c70b299b9_n.jpg",
    "id_album": "-462831703",
    "description": "Cat_519601",
    "title": "Cat_519601",
    "link_img": "https://live.staticflickr.com/65535/50352741657_df2620457d_o.jpg",
    "id_image": "Cat_519601",
    "count_view": 0
  },
  {
    "link_thumb": "https://live.staticflickr.com/65535/50023796793_4a49f98eb9_n.jpg",
    "id_album": "410750612",
    "description": "Wasp_414775",
    "title": "Wasp_414775",
    "link_img": "https://live.staticflickr.com/65535/50023796793_725897ba7a_o.jpg",
    "id_image": "Wasp_414775",
    "count_view": 0
  },
  {
    "link_thumb": "https://live.staticflickr.com/65535/50017641126_124897934a_n.jpg",
    "id_album": "-401151552",
    "description": "Butterfly_684016",
    "title": "Butterfly_684016",
    "link_img": "https://live.staticflickr.com/65535/50017641126_75dbc08d56_o.jpg",
    "id_image": "Butterfly_684016",
    "count_view": 0
  },
  {
    "link_thumb": "https://live.staticflickr.com/65535/50352813722_d4d34043bc_n.jpg",
    "id_album": "-462831703",
    "description": "Cat_704848",
    "title": "Cat_704848",
    "link_img": "https://live.staticflickr.com/65535/50352813722_2ac3ec30ec_o.jpg",
    "id_image": "Cat_704848",
    "count_view": 0
  },
  {
    "link_thumb": "https://live.staticflickr.com/65535/50024805512_d44d43463e_n.jpg",
    "id_album": "-709711865",
    "description": "Wolf_789220",
    "title": "Wolf_789220",
    "link_img": "https://live.staticflickr.com/65535/50024805512_6409b088ca_o.jpg",
    "id_image": "Wolf_789220",
    "count_view": 0
  },
  {
    "link_thumb": "https://live.staticflickr.com/65535/50021352007_569134000a_n.jpg",
    "id_album": "-462831704",
    "description": "Cat_541501",
    "title": "Cat_541501",
    "link_img": "https://live.staticflickr.com/65535/50021352007_2650b0ef31_o.jpg",
    "id_image": "Cat_541501",
    "count_view": 0
  },
  {
    "link_thumb": "https://live.staticflickr.com/65535/50019936332_57eae8cc7d_n.jpg",
    "id_album": "-1481843714",
    "description": "Cheetah_167168",
    "title": "Cheetah_167168",
    "link_img": "https://live.staticflickr.com/65535/50019936332_0853f0578b_o.jpg",
    "id_image": "Cheetah_167168",
    "count_view": 0
  },
  {
    "link_thumb": "https://live.staticflickr.com/65535/50018392887_2e2b6da33c_n.jpg",
    "id_album": "-462831702",
    "description": "Cat_396320",
    "title": "Cat_396320",
    "link_img": "https://live.staticflickr.com/65535/50018392887_8c03d10c52_o.jpg",
    "id_image": "Cat_396320",
    "count_view": 0
  },
  {
    "link_thumb": "https://live.staticflickr.com/65535/50017807561_91ccfb0252_n.jpg",
    "id_album": "-462831705",
    "description": "Cat_169808",
    "title": "Cat_169808",
    "link_img": "https://live.staticflickr.com/65535/50017807561_20afa721bf_o.jpg",
    "id_image": "Cat_169808",
    "count_view": 0
  },
  {
    "link_thumb": "https://live.staticflickr.com/65535/50018108242_24e68880f3_n.jpg",
    "id_album": "-462831705",
    "description": "Cat_206625",
    "title": "Cat_206625",
    "link_img": "https://live.staticflickr.com/65535/50018108242_3560515402_o.jpg",
    "id_image": "Cat_206625",
    "count_view": 0
  },
  {
    "link_thumb": "https://live.staticflickr.com/65535/50024820267_675b467cda_n.jpg",
    "id_album": "-709711865",
    "description": "Wolf_905985",
    "title": "Wolf_905985",
    "link_img": "https://live.staticflickr.com/65535/50024820267_e53f569c8c_o.jpg",
    "id_image": "Wolf_905985",
    "count_view": 0
  },
  {
    "link_thumb": "https://live.staticflickr.com/65535/50017211588_658202198d_n.jpg",
    "id_album": "189994021",
    "description": "Cardinal_934386",
    "title": "Cardinal_934386",
    "link_img": "https://live.staticflickr.com/65535/50017211588_14e84cc457_o.jpg",
    "id_image": "Cardinal_934386",
    "count_view": 0
  },
  {
    "link_thumb": "https://live.staticflickr.com/65535/50022665282_bd0a5fc2b0_n.jpg",
    "id_album": "-1384601601",
    "description": "Owl_377287",
    "title": "Owl_377287",
    "link_img": "https://live.staticflickr.com/65535/50022665282_afb34c57b3_o.jpg",
    "id_image": "Owl_377287",
    "count_view": 0
  },
  {
    "link_thumb": "https://live.staticflickr.com/65535/50022677287_fbe74a5d02_n.jpg",
    "id_album": "-1384601601",
    "description": "Owl_411477",
    "title": "Owl_411477",
    "link_img": "https://live.staticflickr.com/65535/50022677287_c113ab01a2_o.jpg",
    "id_image": "Owl_411477",
    "count_view": 0
  },
  {
    "link_thumb": "https://live.staticflickr.com/65535/50017856332_f81664d9a7_n.jpg",
    "id_album": "-401151552",
    "description": "Butterfly_431667",
    "title": "Butterfly_431667",
    "link_img": "https://live.staticflickr.com/65535/50017856332_e803026aab_o.jpg",
    "id_image": "Butterfly_431667",
    "count_view": 0
  },
  {
    "link_thumb": "https://live.staticflickr.com/65535/50022558167_fe7b97a73f_n.jpg",
    "id_album": "1957967135",
    "description": "Mouse_872117",
    "title": "Mouse_872117",
    "link_img": "https://live.staticflickr.com/65535/50022558167_05f408d4bd_o.jpg",
    "id_image": "Mouse_872117",
    "count_view": 0
  },
  {
    "link_thumb": "https://live.staticflickr.com/65535/50018123231_d6a4d42493_n.jpg",
    "id_album": "-462831702",
    "description": "Cat_390960",
    "title": "Cat_390960",
    "link_img": "https://live.staticflickr.com/65535/50018123231_96e28074e5_o.jpg",
    "id_image": "Cat_390960",
    "count_view": 0
  },
  {
    "link_thumb": "https://live.staticflickr.com/65535/50020870712_3eaea774c0_n.jpg",
    "id_album": "-405058657",
    "description": "Dragonfly_361002",
    "title": "Dragonfly_361002",
    "link_img": "https://live.staticflickr.com/65535/50020870712_6ce0172258_o.jpg",
    "id_image": "Dragonfly_361002",
    "count_view": 0
  },
  {
    "link_thumb": "https://live.staticflickr.com/65535/50019288313_1f8b7c9351_n.jpg",
    "id_album": "-1868680171",
    "description": "Cougar_436672",
    "title": "Cougar_436672",
    "link_img": "https://live.staticflickr.com/65535/50019288313_f509cdd02d_o.jpg",
    "id_image": "Cougar_436672",
    "count_view": 0
  },
  {
    "link_thumb": "https://live.staticflickr.com/65535/50024487646_92f9565cb4_n.jpg",
    "id_album": "-709711865",
    "description": "Wolf_367153",
    "title": "Wolf_367153",
    "link_img": "https://live.staticflickr.com/65535/50024487646_18dbd03d9e_o.jpg",
    "id_image": "Wolf_367153",
    "count_view": 0
  },
  {
    "link_thumb": "https://live.staticflickr.com/65535/50352598797_f2e8cf6002_n.jpg",
    "id_album": "-462831703",
    "description": "Cat_242820",
    "title": "Cat_242820",
    "link_img": "https://live.staticflickr.com/65535/50352598797_81fa242584_o.jpg",
    "id_image": "Cat_242820",
    "count_view": 0
  },
  {
    "link_thumb": "https://live.staticflickr.com/65535/50020530451_b428991bf6_n.jpg",
    "id_album": "-149330231",
    "description": "Dog_875248",
    "title": "Dog_875248",
    "link_img": "https://live.staticflickr.com/65535/50020530451_9a206a3d11_o.jpg",
    "id_image": "Dog_875248",
    "count_view": 0
  },
  {
    "link_thumb": "https://live.staticflickr.com/65535/50020055132_b81a0c8494_n.jpg",
    "id_album": "-1462118852",
    "description": "Corgi_879225",
    "title": "Corgi_879225",
    "link_img": "https://live.staticflickr.com/65535/50020055132_411558ef47_o.jpg",
    "id_image": "Corgi_879225",
    "count_view": 0
  },
  {
    "link_thumb": "https://live.staticflickr.com/65535/50020419957_877a964fe7_n.jpg",
    "id_album": "-149330232",
    "description": "Dog_224001",
    "title": "Dog_224001",
    "link_img": "https://live.staticflickr.com/65535/50020419957_c99cba5b60_o.jpg",
    "id_image": "Dog_224001",
    "count_view": 0
  },
  {
    "link_thumb": "https://live.staticflickr.com/65535/50020692131_ab7edfe8b6_n.jpg",
    "id_album": "-39098563",
    "description": "Eagle_335681",
    "title": "Eagle_335681",
    "link_img": "https://live.staticflickr.com/65535/50020692131_0ea880abd3_o.jpg",
    "id_image": "Eagle_335681",
    "count_view": 0
  },
  {
    "link_thumb": "https://live.staticflickr.com/65535/50351710533_4841a01d4c_n.jpg",
    "id_album": "-462831703",
    "description": "Cat_173794",
    "title": "Cat_173794",
    "link_img": "https://live.staticflickr.com/65535/50351710533_b5d34b725b_o.jpg",
    "id_image": "Cat_173794",
    "count_view": 0
  },
  {
    "link_thumb": "https://live.staticflickr.com/65535/50017236487_2bc71e70d3_n.jpg",
    "id_album": "-80092825",
    "description": "Barnowl_1000912",
    "title": "Barnowl_1000912",
    "link_img": "https://live.staticflickr.com/65535/50017236487_f48ac000c3_o.jpg",
    "id_image": "Barnowl_1000912",
    "count_view": 0
  },
  {
    "link_thumb": "https://live.staticflickr.com/65535/50024306177_2bbc163a77_n.jpg",
    "id_album": "405170427",
    "description": "Tiger_244523",
    "title": "Tiger_244523",
    "link_img": "https://live.staticflickr.com/65535/50024306177_e58f022a05_o.jpg",
    "id_image": "Tiger_244523",
    "count_view": 0
  },
  {
    "link_thumb": "https://live.staticflickr.com/65535/50016520938_3ea0f4a9ab_n.jpg",
    "id_album": "-422187261",
    "description": "Bear_445002",
    "title": "Bear_445002",
    "link_img": "https://live.staticflickr.com/65535/50016520938_511d4bc906_o.jpg",
    "id_image": "Bear_445002",
    "count_view": 0
  },
  {
    "link_thumb": "https://live.staticflickr.com/65535/50021917971_df5e23347b_n.jpg",
    "id_album": "1392348450",
    "description": "Leopard_390323",
    "title": "Leopard_390323",
    "link_img": "https://live.staticflickr.com/65535/50021917971_828a7cfcf4_o.jpg",
    "id_image": "Leopard_390323",
    "count_view": 0
  },
  {
    "link_thumb": "https://live.staticflickr.com/65535/50024781192_b331a026ac_n.jpg",
    "id_album": "-709711865",
    "description": "Wolf_591423",
    "title": "Wolf_591423",
    "link_img": "https://live.staticflickr.com/65535/50024781192_e2b7ccfb7f_o.jpg",
    "id_image": "Wolf_591423",
    "count_view": 0
  },
  {
    "link_thumb": "https://live.staticflickr.com/65535/50018199557_60119e29dc_n.jpg",
    "id_album": "-462831702",
    "description": "Cat_287909",
    "title": "Cat_287909",
    "link_img": "https://live.staticflickr.com/65535/50018199557_025916e840_o.jpg",
    "id_image": "Cat_287909",
    "count_view": 0
  },
  {
    "link_thumb": "https://live.staticflickr.com/65535/50020331301_65f01cd1e1_n.jpg",
    "id_album": "-149330232",
    "description": "Dog_365898",
    "title": "Dog_365898",
    "link_img": "https://live.staticflickr.com/65535/50020331301_1ac899554c_o.jpg",
    "id_image": "Dog_365898",
    "count_view": 0
  },
  {
    "link_thumb": "https://live.staticflickr.com/65535/50020386602_44c4c05423_n.jpg",
    "id_album": "-149330232",
    "description": "Dog_165352",
    "title": "Dog_165352",
    "link_img": "https://live.staticflickr.com/65535/50020386602_c0945dce74_o.jpg",
    "id_image": "Dog_165352",
    "count_view": 0
  },
  {
    "link_thumb": "https://live.staticflickr.com/65535/50024690372_1c1d9e678e_n.jpg",
    "id_album": "766572659",
    "description": "WhiteTiger_284432",
    "title": "WhiteTiger_284432",
    "link_img": "https://live.staticflickr.com/65535/50024690372_d5c8832995_o.jpg",
    "id_image": "WhiteTiger_284432",
    "count_view": 0
  },
  {
    "link_thumb": "https://live.staticflickr.com/65535/50020045518_1d356ef9f7_n.jpg",
    "id_album": "-54509188",
    "description": "Dolphin_469362",
    "title": "Dolphin_469362",
    "link_img": "https://live.staticflickr.com/65535/50020045518_dcc26f39b9_o.jpg",
    "id_image": "Dolphin_469362",
    "count_view": 0
  },
  {
    "link_thumb": "https://live.staticflickr.com/65535/50019479957_5ce01282fe_n.jpg",
    "id_album": "-462831704",
    "description": "Cat_453871",
    "title": "Cat_453871",
    "link_img": "https://live.staticflickr.com/65535/50019479957_2d39b1859e_o.jpg",
    "id_image": "Cat_453871",
    "count_view": 0
  },
  {
    "link_thumb": "https://live.staticflickr.com/65535/50019760488_0baa770bdf_n.jpg",
    "id_album": "-149330232",
    "description": "Dog_347354",
    "title": "Dog_347354",
    "link_img": "https://live.staticflickr.com/65535/50019760488_60ae9a2da9_o.jpg",
    "id_image": "Dog_347354",
    "count_view": 0
  },
  {
    "link_thumb": "https://live.staticflickr.com/65535/50022733713_eb2b64ea07_n.jpg",
    "id_album": "48367914",
    "description": "Rhino_347381",
    "title": "Rhino_347381",
    "link_img": "https://live.staticflickr.com/65535/50022733713_518322a6b8_o.jpg",
    "id_image": "Rhino_347381",
    "count_view": 0
  },
  {
    "link_thumb": "https://live.staticflickr.com/65535/50020415892_4bb754514b_n.jpg",
    "id_album": "-149330232",
    "description": "Dog_217171",
    "title": "Dog_217171",
    "link_img": "https://live.staticflickr.com/65535/50020415892_7101b0961e_o.jpg",
    "id_image": "Dog_217171",
    "count_view": 0
  },
  {
    "link_thumb": "https://live.staticflickr.com/65535/50020481961_d4ab83810e_n.jpg",
    "id_album": "-149330231",
    "description": "Dog_687227",
    "title": "Dog_687227",
    "link_img": "https://live.staticflickr.com/65535/50020481961_3520ffe918_o.jpg",
    "id_image": "Dog_687227",
    "count_view": 0
  },
  {
    "link_thumb": "https://live.staticflickr.com/65535/50019271263_8fee98284b_n.jpg",
    "id_album": "-1868680171",
    "description": "Cougar_113028",
    "title": "Cougar_113028",
    "link_img": "https://live.staticflickr.com/65535/50019271263_cb082e298c_o.jpg",
    "id_image": "Cougar_113028",
    "count_view": 0
  },
  {
    "link_thumb": "https://live.staticflickr.com/65535/50017472887_796907fdd9_n.jpg",
    "id_album": "-1846011410",
    "description": "Bird_212354",
    "title": "Bird_212354",
    "link_img": "https://live.staticflickr.com/65535/50017472887_fda4137f63_o.jpg",
    "id_image": "Bird_212354",
    "count_view": 0
  },
  {
    "link_thumb": "https://live.staticflickr.com/65535/50023143136_e984feab6d_n.jpg",
    "id_album": "248289288",
    "description": "Raccoon_344295",
    "title": "Raccoon_344295",
    "link_img": "https://live.staticflickr.com/65535/50023143136_7451c645bd_o.jpg",
    "id_image": "Raccoon_344295",
    "count_view": 0
  },
  {
    "link_thumb": "https://live.staticflickr.com/65535/50016496663_7fcb1fa58a_n.jpg",
    "id_album": "-422187261",
    "description": "Bear_338243",
    "title": "Bear_338243",
    "link_img": "https://live.staticflickr.com/65535/50016496663_6d07707b8b_o.jpg",
    "id_image": "Bear_338243",
    "count_view": 0
  },
  {
    "link_thumb": "https://live.staticflickr.com/65535/50022326043_fcc3c8bd2b_n.jpg",
    "id_album": "1008910300",
    "description": "PolarBear_924506",
    "title": "PolarBear_924506",
    "link_img": "https://live.staticflickr.com/65535/50022326043_f9d0d79e6f_o.jpg",
    "id_image": "PolarBear_924506",
    "count_view": 0
  },
  {
    "link_thumb": "https://live.staticflickr.com/65535/50019640757_d57bc2aa4b_n.jpg",
    "id_album": "-462831703",
    "description": "Cat_878667",
    "title": "Cat_878667",
    "link_img": "https://live.staticflickr.com/65535/50019640757_7c1743e85f_o.jpg",
    "id_image": "Cat_878667",
    "count_view": 0
  },
  {
    "link_thumb": "https://live.staticflickr.com/65535/50023906467_d12470f0b2_n.jpg",
    "id_album": "-1131363127",
    "description": "SnowLeopard_424690",
    "title": "SnowLeopard_424690",
    "link_img": "https://live.staticflickr.com/65535/50023906467_b16bb70377_o.jpg",
    "id_image": "SnowLeopard_424690",
    "count_view": 0
  },
  {
    "link_thumb": "https://live.staticflickr.com/65535/50022268902_9525eba312_n.jpg",
    "id_album": "416744915",
    "description": "Lion_409219",
    "title": "Lion_409219",
    "link_img": "https://live.staticflickr.com/65535/50022268902_468991b2b5_o.jpg",
    "id_image": "Lion_409219",
    "count_view": 0
  },
  {
    "link_thumb": "https://live.staticflickr.com/65535/50017379986_77acbe1556_n.jpg",
    "id_album": "-1846011410",
    "description": "Bird_593139",
    "title": "Bird_593139",
    "link_img": "https://live.staticflickr.com/65535/50017379986_6080d27ec4_o.jpg",
    "id_image": "Bird_593139",
    "count_view": 0
  },
  {
    "link_thumb": "https://live.staticflickr.com/65535/50352695607_85e46acc85_n.jpg",
    "id_album": "-462831703",
    "description": "Cat_457921",
    "title": "Cat_457921",
    "link_img": "https://live.staticflickr.com/65535/50352695607_05f906a6e3_o.jpg",
    "id_image": "Cat_457921",
    "count_view": 0
  },
  {
    "link_thumb": "https://live.staticflickr.com/65535/50019089618_a836cf3a22_n.jpg",
    "id_album": "1889777354",
    "description": "CGI_176925",
    "title": "CGI_176925",
    "link_img": "https://live.staticflickr.com/65535/50019089618_b05f96522c_o.jpg",
    "id_image": "CGI_176925",
    "count_view": 0
  },
  {
    "link_thumb": "https://live.staticflickr.com/65535/50019540528_bbd77f64c5_n.jpg",
    "id_album": "1903411565",
    "description": "Deer_993528",
    "title": "Deer_993528",
    "link_img": "https://live.staticflickr.com/65535/50019540528_bcf32aacb0_o.jpg",
    "id_image": "Deer_993528",
    "count_view": 0
  },
  {
    "link_thumb": "https://live.staticflickr.com/65535/50017826447_175ece502f_n.jpg",
    "id_album": "-401151552",
    "description": "Butterfly_343043",
    "title": "Butterfly_343043",
    "link_img": "https://live.staticflickr.com/65535/50017826447_6fb5a6e6bf_o.jpg",
    "id_image": "Butterfly_343043",
    "count_view": 0
  },
  {
    "link_thumb": "https://live.staticflickr.com/65535/50022062742_e6a62cc0e3_n.jpg",
    "id_album": "770105808",
    "description": "Kingfisher_700737",
    "title": "Kingfisher_700737",
    "link_img": "https://live.staticflickr.com/65535/50022062742_c4458bfd33_o.jpg",
    "id_image": "Kingfisher_700737",
    "count_view": 0
  },
  {
    "link_thumb": "https://live.staticflickr.com/65535/50352655456_2239ff15ca_n.jpg",
    "id_album": "-462831703",
    "description": "Cat_705413",
    "title": "Cat_705413",
    "link_img": "https://live.staticflickr.com/65535/50352655456_462b0ebd68_o.jpg",
    "id_image": "Cat_705413",
    "count_view": 0
  },
  {
    "link_thumb": "https://live.staticflickr.com/65535/50024455652_166e013e11_n.jpg",
    "id_album": "405170427",
    "description": "Tiger_709989",
    "title": "Tiger_709989",
    "link_img": "https://live.staticflickr.com/65535/50024455652_56434b4efa_o.jpg",
    "id_image": "Tiger_709989",
    "count_view": 0
  },
  {
    "link_thumb": "https://live.staticflickr.com/65535/50019588283_3d536036d9_n.jpg",
    "id_album": "-149330232",
    "description": "Dog_113928",
    "title": "Dog_113928",
    "link_img": "https://live.staticflickr.com/65535/50019588283_191ba447e9_o.jpg",
    "id_image": "Dog_113928",
    "count_view": 0
  },
  {
    "link_thumb": "https://live.staticflickr.com/65535/50017267216_92b01bd53b_n.jpg",
    "id_album": "-1846011410",
    "description": "Bird_355685",
    "title": "Bird_355685",
    "link_img": "https://live.staticflickr.com/65535/50017267216_cc07025a59_o.jpg",
    "id_image": "Bird_355685",
    "count_view": 0
  },
  {
    "link_thumb": "https://live.staticflickr.com/65535/50021870471_c979dbe1e6_n.jpg",
    "id_album": "1918884325",
    "description": "Lemur_176989",
    "title": "Lemur_176989",
    "link_img": "https://live.staticflickr.com/65535/50021870471_5173e9c576_o.jpg",
    "id_image": "Lemur_176989",
    "count_view": 0
  },
  {
    "link_thumb": "https://live.staticflickr.com/65535/50019768486_f0957da9ed_n.jpg",
    "id_album": "791455625",
    "description": "Chipmunk_738050",
    "title": "Chipmunk_738050",
    "link_img": "https://live.staticflickr.com/65535/50019768486_0ef4fa560e_o.jpg",
    "id_image": "Chipmunk_738050",
    "count_view": 0
  },
  {
    "link_thumb": "https://live.staticflickr.com/65535/50020648346_4e6c5928e7_n.jpg",
    "id_album": "1168627767",
    "description": "Duck_275185",
    "title": "Duck_275185",
    "link_img": "https://live.staticflickr.com/65535/50020648346_35338fa99f_o.jpg",
    "id_image": "Duck_275185",
    "count_view": 0
  },
  {
    "link_thumb": "https://live.staticflickr.com/65535/50021275396_fd67477c39_n.jpg",
    "id_album": "1273365283",
    "description": "Cute_368955",
    "title": "Cute_368955",
    "link_img": "https://live.staticflickr.com/65535/50021275396_494ac68843_o.jpg",
    "id_image": "Cute_368955",
    "count_view": 0
  },
  {
    "link_thumb": "https://live.staticflickr.com/65535/50022399336_da86fc581c_n.jpg",
    "id_album": "-1384601601",
    "description": "Owl_352639",
    "title": "Owl_352639",
    "link_img": "https://live.staticflickr.com/65535/50022399336_73554d37b9_o.jpg",
    "id_image": "Owl_352639",
    "count_view": 0
  },
  {
    "link_thumb": "https://live.staticflickr.com/65535/50019344733_625430f448_n.jpg",
    "id_album": "815329026",
    "description": "Crab_281539",
    "title": "Crab_281539",
    "link_img": "https://live.staticflickr.com/65535/50019344733_933f17b868_o.jpg",
    "id_image": "Crab_281539",
    "count_view": 0
  },
  {
    "link_thumb": "https://live.staticflickr.com/65535/50023888982_dcd393a32d_n.jpg",
    "id_album": "-1131363127",
    "description": "SnowLeopard_335275",
    "title": "SnowLeopard_335275",
    "link_img": "https://live.staticflickr.com/65535/50023888982_7bd8c5aff8_o.jpg",
    "id_image": "SnowLeopard_335275",
    "count_view": 0
  },
  {
    "link_thumb": "https://live.staticflickr.com/65535/50022983078_78be9216db_n.jpg",
    "id_album": "-800019164",
    "description": "Snail_438177",
    "title": "Snail_438177",
    "link_img": "https://live.staticflickr.com/65535/50022983078_a3e0dde7d8_o.jpg",
    "id_image": "Snail_438177",
    "count_view": 0
  },
  {
    "link_thumb": "https://live.staticflickr.com/65535/50019646483_f395bc06c0_n.jpg",
    "id_album": "-149330232",
    "description": "Dog_247318",
    "title": "Dog_247318",
    "link_img": "https://live.staticflickr.com/65535/50019646483_1a7f01e690_o.jpg",
    "id_image": "Dog_247318",
    "count_view": 0
  },
  {
    "link_thumb": "https://live.staticflickr.com/65535/50022959522_4a9e92d987_n.jpg",
    "id_album": "392248205",
    "description": "Penguin_468729",
    "title": "Penguin_468729",
    "link_img": "https://live.staticflickr.com/65535/50022959522_9ddda0487a_o.jpg",
    "id_image": "Penguin_468729",
    "count_view": 0
  },
  {
    "link_thumb": "https://live.staticflickr.com/65535/50021209007_8f422b2837_n.jpg",
    "id_album": "-128218148",
    "description": "Fox_370081",
    "title": "Fox_370081",
    "link_img": "https://live.staticflickr.com/65535/50021209007_8cc2cbb1c8_o.jpg",
    "id_image": "Fox_370081",
    "count_view": 0
  },
  {
    "link_thumb": "https://live.staticflickr.com/65535/50017753866_488be920a2_n.jpg",
    "id_album": "-462831705",
    "description": "Cat_111240",
    "title": "Cat_111240",
    "link_img": "https://live.staticflickr.com/65535/50017753866_76fd12e189_o.jpg",
    "id_image": "Cat_111240",
    "count_view": 0
  },
  {
    "link_thumb": "https://live.staticflickr.com/65535/50021479007_129f723820_n.jpg",
    "id_album": "-462831703",
    "description": "Cat_746332",
    "title": "Cat_746332",
    "link_img": "https://live.staticflickr.com/65535/50021479007_948ffbb53e_o.jpg",
    "id_image": "Cat_746332",
    "count_view": 0
  },
  {
    "link_thumb": "https://live.staticflickr.com/65535/50023693818_41ba5006d1_n.jpg",
    "id_album": "405170427",
    "description": "Tiger_913471",
    "title": "Tiger_913471",
    "link_img": "https://live.staticflickr.com/65535/50023693818_6cbf3a95ff_o.jpg",
    "id_image": "Tiger_913471",
    "count_view": 0
  },
  {
    "link_thumb": "https://live.staticflickr.com/65535/50021364573_e506621797_n.jpg",
    "id_album": "1392348450",
    "description": "Leopard_365014",
    "title": "Leopard_365014",
    "link_img": "https://live.staticflickr.com/65535/50021364573_2de8dee7ab_o.jpg",
    "id_image": "Leopard_365014",
    "count_view": 0
  },
  {
    "link_thumb": "https://live.staticflickr.com/65535/50023489343_f218bfc3a8_n.jpg",
    "id_album": "405170427",
    "description": "Tiger_212357",
    "title": "Tiger_212357",
    "link_img": "https://live.staticflickr.com/65535/50023489343_cc946027e4_o.jpg",
    "id_image": "Tiger_212357",
    "count_view": 0
  },
  {
    "link_thumb": "https://live.staticflickr.com/65535/50019554207_3ed1a13181_n.jpg",
    "id_album": "-462831704",
    "description": "Cat_529984",
    "title": "Cat_529984",
    "link_img": "https://live.staticflickr.com/65535/50019554207_141f16d936_o.jpg",
    "id_image": "Cat_529984",
    "count_view": 0
  },
  {
    "link_thumb": "https://live.staticflickr.com/65535/50019672386_ae837c4a4c_n.jpg",
    "id_album": "-766919393",
    "description": "Chameleon_923970",
    "title": "Chameleon_923970",
    "link_img": "https://live.staticflickr.com/65535/50019672386_db76e47321_o.jpg",
    "id_image": "Chameleon_923970",
    "count_view": 0
  },
  {
    "link_thumb": "https://live.staticflickr.com/65535/50021303407_e1f7efbec4_n.jpg",
    "id_album": "844170697",
    "description": "Frog_171068",
    "title": "Frog_171068",
    "link_img": "https://live.staticflickr.com/65535/50021303407_32270b09e1_o.jpg",
    "id_image": "Frog_171068",
    "count_view": 0
  },
  {
    "link_thumb": "https://live.staticflickr.com/65535/50020630251_147ccb1a59_n.jpg",
    "id_album": "-405058657",
    "description": "Dragonfly_543264",
    "title": "Dragonfly_543264",
    "link_img": "https://live.staticflickr.com/65535/50020630251_a51bc08b87_o.jpg",
    "id_image": "Dragonfly_543264",
    "count_view": 0
  },
  {
    "link_thumb": "https://live.staticflickr.com/65535/50352663667_7e0ffdceb7_n.jpg",
    "id_album": "-462831703",
    "description": "Cat_416189",
    "title": "Cat_416189",
    "link_img": "https://live.staticflickr.com/65535/50352663667_df619feaa6_o.jpg",
    "id_image": "Cat_416189",
    "count_view": 0
  },
  {
    "link_thumb": "https://live.staticflickr.com/65535/50021403971_23a8b30a7e_n.jpg",
    "id_album": "-1168906494",
    "description": "Grasshopper_706528",
    "title": "Grasshopper_706528",
    "link_img": "https://live.staticflickr.com/65535/50021403971_93740790bc_o.jpg",
    "id_image": "Grasshopper_706528",
    "count_view": 0
  },
  {
    "link_thumb": "https://live.staticflickr.com/65535/50020269178_aaa912cc66_n.jpg",
    "id_album": "1270947998",
    "description": "Elephant_987881",
    "title": "Elephant_987881",
    "link_img": "https://live.staticflickr.com/65535/50020269178_e6f2af939d_o.jpg",
    "id_image": "Elephant_987881",
    "count_view": 0
  },
  {
    "link_thumb": "https://live.staticflickr.com/65535/50016374598_9b00345319_n.jpg",
    "id_album": "523598895",
    "description": "Artistic_378566",
    "title": "Artistic_378566",
    "link_img": "https://live.staticflickr.com/65535/50016374598_35dda78fc5_o.jpg",
    "id_image": "Artistic_378566",
    "count_view": 0
  },
  {
    "link_thumb": "https://live.staticflickr.com/65535/50020938578_13097be5ca_n.jpg",
    "id_album": "-1933715543",
    "description": "Horse_279318",
    "title": "Horse_279318",
    "link_img": "https://live.staticflickr.com/65535/50020938578_f1a6735349_o.jpg",
    "id_image": "Horse_279318",
    "count_view": 0
  },
  {
    "link_thumb": "https://live.staticflickr.com/65535/50021728297_942b999e1d_n.jpg",
    "id_album": "-1933715543",
    "description": "Horse_263160",
    "title": "Horse_263160",
    "link_img": "https://live.staticflickr.com/65535/50021728297_b122525a66_o.jpg",
    "id_image": "Horse_263160",
    "count_view": 0
  },
  {
    "link_thumb": "https://live.staticflickr.com/65535/50020422393_9884e39bdc_n.jpg",
    "id_album": "-128218148",
    "description": "Fox_432580",
    "title": "Fox_432580",
    "link_img": "https://live.staticflickr.com/65535/50020422393_363571b49f_o.jpg",
    "id_image": "Fox_432580",
    "count_view": 0
  },
  {
    "link_thumb": "https://live.staticflickr.com/65535/50017207522_68666af2ff_n.jpg",
    "id_album": "390697200",
    "description": "AustralianShepherd_911915",
    "title": "AustralianShepherd_911915",
    "link_img": "https://live.staticflickr.com/65535/50017207522_9f93f580f6_o.jpg",
    "id_image": "AustralianShepherd_911915",
    "count_view": 0
  },
  {
    "link_thumb": "https://live.staticflickr.com/65535/50024048411_c714ffd3fc_n.jpg",
    "id_album": "405170427",
    "description": "Tiger_247643",
    "title": "Tiger_247643",
    "link_img": "https://live.staticflickr.com/65535/50024048411_406f7926bc_o.jpg",
    "id_image": "Tiger_247643",
    "count_view": 0
  },
  {
    "link_thumb": "https://live.staticflickr.com/65535/50018627863_8065ceacfb_n.jpg",
    "id_album": "-462831702",
    "description": "Cat_421991",
    "title": "Cat_421991",
    "link_img": "https://live.staticflickr.com/65535/50018627863_b8c4785829_o.jpg",
    "id_image": "Cat_421991",
    "count_view": 0
  },
  {
    "link_thumb": "https://live.staticflickr.com/65535/50020733861_47a73cbf88_n.jpg",
    "id_album": "1270947998",
    "description": "Elephant_203830",
    "title": "Elephant_203830",
    "link_img": "https://live.staticflickr.com/65535/50020733861_2d272dcefe_o.jpg",
    "id_image": "Elephant_203830",
    "count_view": 0
  },
  {
    "link_thumb": "https://live.staticflickr.com/65535/50017182966_a0e3f5db58_n.jpg",
    "id_album": "325287329",
    "description": "Beetle_407053",
    "title": "Beetle_407053",
    "link_img": "https://live.staticflickr.com/65535/50017182966_007eee230f_o.jpg",
    "id_image": "Beetle_407053",
    "count_view": 0
  },
  {
    "link_thumb": "https://live.staticflickr.com/65535/50020707798_652b05b338_n.jpg",
    "id_album": "-462831703",
    "description": "Cat_790247",
    "title": "Cat_790247",
    "link_img": "https://live.staticflickr.com/65535/50020707798_d4bc622747_o.jpg",
    "id_image": "Cat_790247",
    "count_view": 0
  },
  {
    "link_thumb": "https://live.staticflickr.com/65535/50019643142_c18a888563_n.jpg",
    "id_album": "-462831703",
    "description": "Cat_879772",
    "title": "Cat_879772",
    "link_img": "https://live.staticflickr.com/65535/50019643142_535db19b92_o.jpg",
    "id_image": "Cat_879772",
    "count_view": 0
  },
  {
    "link_thumb": "https://live.staticflickr.com/65535/50019480478_06eeb0848d_n.jpg",
    "id_album": "1903411565",
    "description": "Deer_443217",
    "title": "Deer_443217",
    "link_img": "https://live.staticflickr.com/65535/50019480478_e8e119a9b2_o.jpg",
    "id_image": "Deer_443217",
    "count_view": 0
  },
  {
    "link_thumb": "https://live.staticflickr.com/65535/50020904872_416b9e6c3a_n.jpg",
    "id_album": "1168627767",
    "description": "Duck_272312",
    "title": "Duck_272312",
    "link_img": "https://live.staticflickr.com/65535/50020904872_b2f308020a_o.jpg",
    "id_image": "Duck_272312",
    "count_view": 0
  },
  {
    "link_thumb": "https://live.staticflickr.com/65535/50020857127_e8d57dc9fc_n.jpg",
    "id_album": "-1859457960",
    "description": "Dove_548644",
    "title": "Dove_548644",
    "link_img": "https://live.staticflickr.com/65535/50020857127_ea5d022983_o.jpg",
    "id_image": "Dove_548644",
    "count_view": 0
  },
  {
    "link_thumb": "https://live.staticflickr.com/65535/50017914581_7605e23933_n.jpg",
    "id_album": "-462831705",
    "description": "Cat_263104",
    "title": "Cat_263104",
    "link_img": "https://live.staticflickr.com/65535/50017914581_f57edd15e8_o.jpg",
    "id_image": "Cat_263104",
    "count_view": 0
  },
  {
    "link_thumb": "https://live.staticflickr.com/65535/50022859677_0d9e572cfb_n.jpg",
    "id_album": "-801414987",
    "description": "Peacock_716011",
    "title": "Peacock_716011",
    "link_img": "https://live.staticflickr.com/65535/50022859677_562d24783f_o.jpg",
    "id_image": "Peacock_716011",
    "count_view": 0
  },
  {
    "link_thumb": "https://live.staticflickr.com/65535/50023541192_ec8d520eff_n.jpg",
    "id_album": "48367914",
    "description": "Rhino_436362",
    "title": "Rhino_436362",
    "link_img": "https://live.staticflickr.com/65535/50023541192_9ce4d65ec9_o.jpg",
    "id_image": "Rhino_436362",
    "count_view": 0
  },
  {
    "link_thumb": "https://live.staticflickr.com/65535/50022274217_fed40274f4_n.jpg",
    "id_album": "416744915",
    "description": "Lion_427148",
    "title": "Lion_427148",
    "link_img": "https://live.staticflickr.com/65535/50022274217_4702aab87f_o.jpg",
    "id_image": "Lion_427148",
    "count_view": 0
  },
  {
    "link_thumb": "https://live.staticflickr.com/65535/50352703177_5d30af6599_n.jpg",
    "id_album": "-462831703",
    "description": "Cat_461804",
    "title": "Cat_461804",
    "link_img": "https://live.staticflickr.com/65535/50352703177_95a3c6149b_o.jpg",
    "id_image": "Cat_461804",
    "count_view": 0
  },
  {
    "link_thumb": "https://live.staticflickr.com/65535/50019360666_8c559e228f_n.jpg",
    "id_album": "-462831703",
    "description": "Cat_872504",
    "title": "Cat_872504",
    "link_img": "https://live.staticflickr.com/65535/50019360666_bd0bbe209e_o.jpg",
    "id_image": "Cat_872504",
    "count_view": 0
  },
  {
    "link_thumb": "https://live.staticflickr.com/65535/50017833862_5e8f486d2a_n.jpg",
    "id_album": "-401151552",
    "description": "Butterfly_366109",
    "title": "Butterfly_366109",
    "link_img": "https://live.staticflickr.com/65535/50017833862_20a799e11a_o.jpg",
    "id_image": "Butterfly_366109",
    "count_view": 0
  },
  {
    "link_thumb": "https://live.staticflickr.com/65535/50017145692_f4fb65f34a_n.jpg",
    "id_album": "523598895",
    "description": "Artistic_234293",
    "title": "Artistic_234293",
    "link_img": "https://live.staticflickr.com/65535/50017145692_62bd91a25f_o.jpg",
    "id_image": "Artistic_234293",
    "count_view": 0
  },
  {
    "link_thumb": "https://live.staticflickr.com/65535/50017555226_60923a2aa6_n.jpg",
    "id_album": "-401151552",
    "description": "Butterfly_276055",
    "title": "Butterfly_276055",
    "link_img": "https://live.staticflickr.com/65535/50017555226_1a78257cdd_o.jpg",
    "id_image": "Butterfly_276055",
    "count_view": 0
  },
  {
    "link_thumb": "https://live.staticflickr.com/65535/50021294937_22da61778f_n.jpg",
    "id_album": "704811092",
    "description": "FrenchBulldog_570054",
    "title": "FrenchBulldog_570054",
    "link_img": "https://live.staticflickr.com/65535/50021294937_0e09a044ec_o.jpg",
    "id_image": "FrenchBulldog_570054",
    "count_view": 0
  },
  {
    "link_thumb": "https://live.staticflickr.com/65535/50020556248_cd0314108f_n.jpg",
    "id_album": "-462831704",
    "description": "Cat_542004",
    "title": "Cat_542004",
    "link_img": "https://live.staticflickr.com/65535/50020556248_5db1611b68_o.jpg",
    "id_image": "Cat_542004",
    "count_view": 0
  },
  {
    "link_thumb": "https://live.staticflickr.com/65535/50019884481_73002ed30b_n.jpg",
    "id_album": "1475096665",
    "description": "Crocodile_102764",
    "title": "Crocodile_102764",
    "link_img": "https://live.staticflickr.com/65535/50019884481_9921dcd4d7_o.jpg",
    "id_image": "Crocodile_102764",
    "count_view": 0
  },
  {
    "link_thumb": "https://live.staticflickr.com/65535/50021531727_334fd6a92e_n.jpg",
    "id_album": "-1758557371",
    "description": "Flamingo_462355",
    "title": "Flamingo_462355",
    "link_img": "https://live.staticflickr.com/65535/50021531727_9e392d5a08_o.jpg",
    "id_image": "Flamingo_462355",
    "count_view": 0
  },
  {
    "link_thumb": "https://live.staticflickr.com/65535/50020020201_55b013f6bc_n.jpg",
    "id_album": "1903411565",
    "description": "Deer_529864",
    "title": "Deer_529864",
    "link_img": "https://live.staticflickr.com/65535/50020020201_bd8aa2137c_o.jpg",
    "id_image": "Deer_529864",
    "count_view": 0
  },
  {
    "link_thumb": "https://live.staticflickr.com/65535/50022210522_178ffaff69_n.jpg",
    "id_album": "1392348450",
    "description": "Leopard_863004",
    "title": "Leopard_863004",
    "link_img": "https://live.staticflickr.com/65535/50022210522_889dc1bf22_o.jpg",
    "id_image": "Leopard_863004",
    "count_view": 0
  },
  {
    "link_thumb": "https://live.staticflickr.com/65535/50023222227_54a9c938f0_n.jpg",
    "id_album": "-353898617",
    "description": "Puppy_359061",
    "title": "Puppy_359061",
    "link_img": "https://live.staticflickr.com/65535/50023222227_f88b98e33c_o.jpg",
    "id_image": "Puppy_359061",
    "count_view": 0
  },
  {
    "link_thumb": "https://live.staticflickr.com/65535/50017167546_6fce4dd839_n.jpg",
    "id_album": "1699594607",
    "description": "Bee_926251",
    "title": "Bee_926251",
    "link_img": "https://live.staticflickr.com/65535/50017167546_f75ff856dd_o.jpg",
    "id_image": "Bee_926251",
    "count_view": 0
  },
  {
    "link_thumb": "https://live.staticflickr.com/65535/50024211932_cf4f70a8d3_n.jpg",
    "id_album": "702283289",
    "description": "Squirrel_860900",
    "title": "Squirrel_860900",
    "link_img": "https://live.staticflickr.com/65535/50024211932_6a0c2192c0_o.jpg",
    "id_image": "Squirrel_860900",
    "count_view": 0
  },
  {
    "link_thumb": "https://live.staticflickr.com/65535/50023437402_72370f6fa1_n.jpg",
    "id_album": "-434874555",
    "description": "RainbowLorikeet_729854",
    "title": "RainbowLorikeet_729854",
    "link_img": "https://live.staticflickr.com/65535/50023437402_e3bdd762fe_o.jpg",
    "id_image": "RainbowLorikeet_729854",
    "count_view": 0
  },
  {
    "link_thumb": "https://live.staticflickr.com/65535/50020697772_92fdb1fe0f_n.jpg",
    "id_album": "-149330231",
    "description": "Dog_495144",
    "title": "Dog_495144",
    "link_img": "https://live.staticflickr.com/65535/50020697772_711d665a6a_o.jpg",
    "id_image": "Dog_495144",
    "count_view": 0
  },
  {
    "link_thumb": "https://live.staticflickr.com/65535/50018902678_e0cddf1ac5_n.jpg",
    "id_album": "-462831703",
    "description": "Cat_908416",
    "title": "Cat_908416",
    "link_img": "https://live.staticflickr.com/65535/50018902678_5d6bc80084_o.jpg",
    "id_image": "Cat_908416",
    "count_view": 0
  }
]