[
  {
    "total_img": 0,
    "number_page": 0,
    "title": "Kangaroo",
    "tag": "Kangaroo,",
    "description": "Kangaroo",
    "link_thumb": "https://live.staticflickr.com/65535/50022045087_b1858cfda0_n.jpg",
    "id_album": "-649286029",
    "total_view": 29
  }
]