[
  {
    "link_thumb": "https://live.staticflickr.com/65535/50017723127_50c5e09d5a_n.jpg",
    "id_album": "-530283314",
    "description": "BlueandyellowMacaw_349386",
    "title": "BlueandyellowMacaw_349386",
    "link_img": "https://live.staticflickr.com/65535/50017723127_c6116c5cef_o.jpg",
    "id_image": "BlueandyellowMacaw_349386",
    "count_view": 0
  },
  {
    "link_thumb": "https://live.staticflickr.com/65535/50018081472_e2299c8b8c_n.jpg",
    "id_album": "-462831705",
    "description": "Cat_181043",
    "title": "Cat_181043",
    "link_img": "https://live.staticflickr.com/65535/50018081472_6b3b851c8a_o.jpg",
    "id_image": "Cat_181043",
    "count_view": 0
  },
  {
    "link_thumb": "https://live.staticflickr.com/65535/50023279857_dcf43a1987_n.jpg",
    "id_album": "-353898617",
    "description": "Puppy_559285",
    "title": "Puppy_559285",
    "link_img": "https://live.staticflickr.com/65535/50023279857_55b4e2c773_o.jpg",
    "id_image": "Puppy_559285",
    "count_view": 0
  },
  {
    "link_thumb": "https://live.staticflickr.com/65535/50017446827_f625fd5d9c_n.jpg",
    "id_album": "325287329",
    "description": "Beetle_503825",
    "title": "Beetle_503825",
    "link_img": "https://live.staticflickr.com/65535/50017446827_bb46d89fe3_o.jpg",
    "id_image": "Beetle_503825",
    "count_view": 0
  },
  {
    "link_thumb": "https://live.staticflickr.com/65535/50018678088_c3c3bf2f14_n.jpg",
    "id_album": "-462831704",
    "description": "Cat_441301",
    "title": "Cat_441301",
    "link_img": "https://live.staticflickr.com/65535/50018678088_e342fe2d90_o.jpg",
    "id_image": "Cat_441301",
    "count_view": 0
  },
  {
    "link_thumb": "https://live.staticflickr.com/65535/50017865677_0f261aa08f_n.jpg",
    "id_album": "-401151552",
    "description": "Butterfly_458424",
    "title": "Butterfly_458424",
    "link_img": "https://live.staticflickr.com/65535/50017865677_98682a7127_o.jpg",
    "id_image": "Butterfly_458424",
    "count_view": 0
  },
  {
    "link_thumb": "https://live.staticflickr.com/65535/50017108038_748e474ae1_n.jpg",
    "id_album": "-401151552",
    "description": "Butterfly_574422",
    "title": "Butterfly_574422",
    "link_img": "https://live.staticflickr.com/65535/50017108038_97c9053a5b_o.jpg",
    "id_image": "Butterfly_574422",
    "count_view": 0
  },
  {
    "link_thumb": "https://live.staticflickr.com/65535/50352658956_59301a9170_n.jpg",
    "id_album": "-462831703",
    "description": "Cat_724214",
    "title": "Cat_724214",
    "link_img": "https://live.staticflickr.com/65535/50352658956_44d346e19a_o.jpg",
    "id_image": "Cat_724214",
    "count_view": 0
  },
  {
    "link_thumb": "https://live.staticflickr.com/65535/50017505693_be3d5da4bc_n.jpg",
    "id_album": "-462831702",
    "description": "Cat_350933",
    "title": "Cat_350933",
    "link_img": "https://live.staticflickr.com/65535/50017505693_8fb47c6fdc_o.jpg",
    "id_image": "Cat_350933",
    "count_view": 0
  },
  {
    "link_thumb": "https://live.staticflickr.com/65535/50017950536_8aa5eca067_n.jpg",
    "id_album": "-462831702",
    "description": "Cat_304605",
    "title": "Cat_304605",
    "link_img": "https://live.staticflickr.com/65535/50017950536_616bb8a507_o.jpg",
    "id_image": "Cat_304605",
    "count_view": 0
  },
  {
    "link_thumb": "https://live.staticflickr.com/65535/50352628606_1c5c0e1952_n.jpg",
    "id_album": "-462831703",
    "description": "Cat_624561",
    "title": "Cat_624561",
    "link_img": "https://live.staticflickr.com/65535/50352628606_53b59a6f6c_o.jpg",
    "id_image": "Cat_624561",
    "count_view": 0
  },
  {
    "link_thumb": "https://live.staticflickr.com/65535/50351859088_34b0de27f3_n.jpg",
    "id_album": "-462831703",
    "description": "Cat_478699",
    "title": "Cat_478699",
    "link_img": "https://live.staticflickr.com/65535/50351859088_76248de921_o.jpg",
    "id_image": "Cat_478699",
    "count_view": 0
  },
  {
    "link_thumb": "https://live.staticflickr.com/65535/50020520986_b77e70d28f_n.jpg",
    "id_album": "-149330231",
    "description": "Dog_839863",
    "title": "Dog_839863",
    "link_img": "https://live.staticflickr.com/65535/50020520986_42a5d570fd_o.jpg",
    "id_image": "Dog_839863",
    "count_view": 0
  },
  {
    "link_thumb": "https://live.staticflickr.com/65535/50022939447_f2ca2f3c34_n.jpg",
    "id_album": "392248205",
    "description": "Penguin_209075",
    "title": "Penguin_209075",
    "link_img": "https://live.staticflickr.com/65535/50022939447_d4b8a81ee2_o.jpg",
    "id_image": "Penguin_209075",
    "count_view": 0
  },
  {
    "link_thumb": "https://live.staticflickr.com/65535/50020742727_bdc3eaa931_n.jpg",
    "id_album": "-149330231",
    "description": "Dog_700091",
    "title": "Dog_700091",
    "link_img": "https://live.staticflickr.com/65535/50020742727_720efe6718_o.jpg",
    "id_image": "Dog_700091",
    "count_view": 0
  },
  {
    "link_thumb": "https://live.staticflickr.com/65535/50020442993_5d3c88d445_n.jpg",
    "id_album": "-128218148",
    "description": "Fox_668851",
    "title": "Fox_668851",
    "link_img": "https://live.staticflickr.com/65535/50020442993_ea8196ae7d_o.jpg",
    "id_image": "Fox_668851",
    "count_view": 0
  },
  {
    "link_thumb": "https://live.staticflickr.com/65535/50352803772_090c83565f_n.jpg",
    "id_album": "-462831703",
    "description": "Cat_684585",
    "title": "Cat_684585",
    "link_img": "https://live.staticflickr.com/65535/50352803772_88897cd83f_o.jpg",
    "id_image": "Cat_684585",
    "count_view": 0
  },
  {
    "link_thumb": "https://live.staticflickr.com/65535/50022051682_64afddd7b8_n.jpg",
    "id_album": "770105808",
    "description": "Kingfisher_234955",
    "title": "Kingfisher_234955",
    "link_img": "https://live.staticflickr.com/65535/50022051682_881931751f_o.jpg",
    "id_image": "Kingfisher_234955",
    "count_view": 0
  },
  {
    "link_thumb": "https://live.staticflickr.com/65535/50019159001_498d21aefb_n.jpg",
    "id_album": "-462831702",
    "description": "Cat_422930",
    "title": "Cat_422930",
    "link_img": "https://live.staticflickr.com/65535/50019159001_f6750c2636_o.jpg",
    "id_image": "Cat_422930",
    "count_view": 0
  },
  {
    "link_thumb": "https://live.staticflickr.com/65535/50352442531_a9799cb081_n.jpg",
    "id_album": "-462831703",
    "description": "Cat_249522",
    "title": "Cat_249522",
    "link_img": "https://live.staticflickr.com/65535/50352442531_cace1cee32_o.jpg",
    "id_image": "Cat_249522",
    "count_view": 0
  },
  {
    "link_thumb": "https://live.staticflickr.com/65535/50017464968_a7d4cb280d_n.jpg",
    "id_album": "-462831702",
    "description": "Cat_333050",
    "title": "Cat_333050",
    "link_img": "https://live.staticflickr.com/65535/50017464968_c28c902322_o.jpg",
    "id_image": "Cat_333050",
    "count_view": 0
  },
  {
    "link_thumb": "https://live.staticflickr.com/65535/50021927102_016b6004a4_n.jpg",
    "id_album": "1658866795",
    "description": "Insect_393126",
    "title": "Insect_393126",
    "link_img": "https://live.staticflickr.com/65535/50021927102_11db9621ac_o.jpg",
    "id_image": "Insect_393126",
    "count_view": 0
  },
  {
    "link_thumb": "https://live.staticflickr.com/65535/50020373296_ffe06e2f0c_n.jpg",
    "id_album": "-149330231",
    "description": "Dog_397277",
    "title": "Dog_397277",
    "link_img": "https://live.staticflickr.com/65535/50020373296_32c142f484_o.jpg",
    "id_image": "Dog_397277",
    "count_view": 0
  },
  {
    "link_thumb": "https://live.staticflickr.com/65535/50022545098_55f29786f3_n.jpg",
    "id_album": "-1940643173",
    "description": "Rabbit_146806",
    "title": "Rabbit_146806",
    "link_img": "https://live.staticflickr.com/65535/50022545098_5fc8ea001b_o.jpg",
    "id_image": "Rabbit_146806",
    "count_view": 0
  },
  {
    "link_thumb": "https://live.staticflickr.com/65535/50020802653_3bbd43a3ce_n.jpg",
    "id_album": "-804131074",
    "description": "Goat_787341",
    "title": "Goat_787341",
    "link_img": "https://live.staticflickr.com/65535/50020802653_d097f71d5b_o.jpg",
    "id_image": "Goat_787341",
    "count_view": 0
  },
  {
    "link_thumb": "https://live.staticflickr.com/65535/50020203786_2696e7afe4_n.jpg",
    "id_album": "-149330232",
    "description": "Dog_273365",
    "title": "Dog_273365",
    "link_img": "https://live.staticflickr.com/65535/50020203786_eaf49524e6_o.jpg",
    "id_image": "Dog_273365",
    "count_view": 0
  },
  {
    "link_thumb": "https://live.staticflickr.com/65535/50020429302_abce38fa74_n.jpg",
    "id_album": "-149330232",
    "description": "Dog_239267",
    "title": "Dog_239267",
    "link_img": "https://live.staticflickr.com/65535/50020429302_0ecde474a0_o.jpg",
    "id_image": "Dog_239267",
    "count_view": 0
  },
  {
    "link_thumb": "https://live.staticflickr.com/65535/50018009771_5b403e3aaa_n.jpg",
    "id_album": "-462831702",
    "description": "Cat_339422",
    "title": "Cat_339422",
    "link_img": "https://live.staticflickr.com/65535/50018009771_1121a1eb5e_o.jpg",
    "id_image": "Cat_339422",
    "count_view": 0
  },
  {
    "link_thumb": "https://live.staticflickr.com/65535/50021609373_e24d4f516b_n.jpg",
    "id_album": "1894617400",
    "description": "Lynx_534087",
    "title": "Lynx_534087",
    "link_img": "https://live.staticflickr.com/65535/50021609373_1219399d24_o.jpg",
    "id_image": "Lynx_534087",
    "count_view": 0
  },
  {
    "link_thumb": "https://live.staticflickr.com/65535/50016389103_3f8d5f1a53_n.jpg",
    "id_album": "523598895",
    "description": "Artistic_746683",
    "title": "Artistic_746683",
    "link_img": "https://live.staticflickr.com/65535/50016389103_728ea48db3_o.jpg",
    "id_image": "Artistic_746683",
    "count_view": 0
  },
  {
    "link_thumb": "https://live.staticflickr.com/65535/50020085702_a75973ed53_n.jpg",
    "id_album": "-1868680171",
    "description": "Cougar_742706",
    "title": "Cougar_742706",
    "link_img": "https://live.staticflickr.com/65535/50020085702_b9f13441b2_o.jpg",
    "id_image": "Cougar_742706",
    "count_view": 0
  },
  {
    "link_thumb": "https://live.staticflickr.com/65535/50020132077_83e19e3205_n.jpg",
    "id_album": "815329026",
    "description": "Crab_258005",
    "title": "Crab_258005",
    "link_img": "https://live.staticflickr.com/65535/50020132077_11eecd900c_o.jpg",
    "id_image": "Crab_258005",
    "count_view": 0
  },
  {
    "link_thumb": "https://live.staticflickr.com/65535/50019337643_9cb02b3beb_n.jpg",
    "id_album": "-2144640780",
    "description": "Cow_905004",
    "title": "Cow_905004",
    "link_img": "https://live.staticflickr.com/65535/50019337643_79684c4fa3_o.jpg",
    "id_image": "Cow_905004",
    "count_view": 0
  },
  {
    "link_thumb": "https://live.staticflickr.com/65535/50020190767_fe085943c6_n.jpg",
    "id_album": "1273365283",
    "description": "Cute_312431",
    "title": "Cute_312431",
    "link_img": "https://live.staticflickr.com/65535/50020190767_9991da6fce_o.jpg",
    "id_image": "Cute_312431",
    "count_view": 0
  },
  {
    "link_thumb": "https://live.staticflickr.com/65535/50019815967_bd1c965341_n.jpg",
    "id_album": "-462831703",
    "description": "Cat_985935",
    "title": "Cat_985935",
    "link_img": "https://live.staticflickr.com/65535/50019815967_faa6335f5c_o.jpg",
    "id_image": "Cat_985935",
    "count_view": 0
  },
  {
    "link_thumb": "https://live.staticflickr.com/65535/50017397023_6dba261530_n.jpg",
    "id_album": "-462831705",
    "description": "Cat_272318",
    "title": "Cat_272318",
    "link_img": "https://live.staticflickr.com/65535/50017397023_54040d8db0_o.jpg",
    "id_image": "Cat_272318",
    "count_view": 0
  },
  {
    "link_thumb": "https://live.staticflickr.com/65535/50020417706_6f0eb1a325_n.jpg",
    "id_album": "-149330231",
    "description": "Dog_443773",
    "title": "Dog_443773",
    "link_img": "https://live.staticflickr.com/65535/50020417706_05fb22c158_o.jpg",
    "id_image": "Dog_443773",
    "count_view": 0
  },
  {
    "link_thumb": "https://live.staticflickr.com/65535/50021703471_2ca6993417_n.jpg",
    "id_album": "1658866795",
    "description": "Insect_574042",
    "title": "Insect_574042",
    "link_img": "https://live.staticflickr.com/65535/50021703471_258edbda98_o.jpg",
    "id_image": "Insect_574042",
    "count_view": 0
  },
  {
    "link_thumb": "https://live.staticflickr.com/65535/50023347596_0cd46f7efe_n.jpg",
    "id_album": "-419757464",
    "description": "SeaLife_75238",
    "title": "SeaLife_75238",
    "link_img": "https://live.staticflickr.com/65535/50023347596_04f82e83ff_o.jpg",
    "id_image": "SeaLife_75238",
    "count_view": 0
  },
  {
    "link_thumb": "https://live.staticflickr.com/65535/50023995827_806e22ae74_n.jpg",
    "id_album": "-1082521515",
    "description": "Spider_370222",
    "title": "Spider_370222",
    "link_img": "https://live.staticflickr.com/65535/50023995827_5de6908147_o.jpg",
    "id_image": "Spider_370222",
    "count_view": 0
  },
  {
    "link_thumb": "https://live.staticflickr.com/65535/50022991426_f8757d95dd_n.jpg",
    "id_album": "-353898617",
    "description": "Puppy_419584",
    "title": "Puppy_419584",
    "link_img": "https://live.staticflickr.com/65535/50022991426_fcdb8012f3_o.jpg",
    "id_image": "Puppy_419584",
    "count_view": 0
  },
  {
    "link_thumb": "https://live.staticflickr.com/65535/50020722808_f83c5762bd_n.jpg",
    "id_album": "-462831703",
    "description": "Cat_819608",
    "title": "Cat_819608",
    "link_img": "https://live.staticflickr.com/65535/50020722808_d40404e5c9_o.jpg",
    "id_image": "Cat_819608",
    "count_view": 0
  },
  {
    "link_thumb": "https://live.staticflickr.com/65535/50016687463_4effb99b58_n.jpg",
    "id_album": "-1846011410",
    "description": "Bird_217602",
    "title": "Bird_217602",
    "link_img": "https://live.staticflickr.com/65535/50016687463_a187ea899d_o.jpg",
    "id_image": "Bird_217602",
    "count_view": 0
  },
  {
    "link_thumb": "https://live.staticflickr.com/65535/50020476468_9f560106f9_n.jpg",
    "id_album": "-128218148",
    "description": "Fox_900284",
    "title": "Fox_900284",
    "link_img": "https://live.staticflickr.com/65535/50020476468_7332a90622_o.jpg",
    "id_image": "Fox_900284",
    "count_view": 0
  },
  {
    "link_thumb": "https://live.staticflickr.com/65535/50016593393_98018589b6_n.jpg",
    "id_album": "1699594607",
    "description": "Bee_225214",
    "title": "Bee_225214",
    "link_img": "https://live.staticflickr.com/65535/50016593393_091a334ea5_o.jpg",
    "id_image": "Bee_225214",
    "count_view": 0
  },
  {
    "link_thumb": "https://live.staticflickr.com/65535/50019426188_26c8365fb0_n.jpg",
    "id_album": "1831085598",
    "description": "Dachshund_790277",
    "title": "Dachshund_790277",
    "link_img": "https://live.staticflickr.com/65535/50019426188_a422d34a27_o.jpg",
    "id_image": "Dachshund_790277",
    "count_view": 0
  },
  {
    "link_thumb": "https://live.staticflickr.com/65535/50020136122_25ba427ee9_n.jpg",
    "id_album": "815329026",
    "description": "Crab_391775",
    "title": "Crab_391775",
    "link_img": "https://live.staticflickr.com/65535/50020136122_3e1051e440_o.jpg",
    "id_image": "Crab_391775",
    "count_view": 0
  },
  {
    "link_thumb": "https://live.staticflickr.com/65535/50020961231_e66363f129_n.jpg",
    "id_album": "-128218148",
    "description": "Fox_400117",
    "title": "Fox_400117",
    "link_img": "https://live.staticflickr.com/65535/50020961231_fa81cd940f_o.jpg",
    "id_image": "Fox_400117",
    "count_view": 0
  },
  {
    "link_thumb": "https://live.staticflickr.com/65535/50016414143_a54cdd2664_n.jpg",
    "id_album": "390697200",
    "description": "AustralianShepherd_861327",
    "title": "AustralianShepherd_861327",
    "link_img": "https://live.staticflickr.com/65535/50016414143_37a5f8cd0a_o.jpg",
    "id_image": "AustralianShepherd_861327",
    "count_view": 0
  },
  {
    "link_thumb": "https://live.staticflickr.com/65535/50023738807_4d1220550c_n.jpg",
    "id_album": "-755466332",
    "description": "Sheep_491143",
    "title": "Sheep_491143",
    "link_img": "https://live.staticflickr.com/65535/50023738807_e6c2e898bb_o.jpg",
    "id_image": "Sheep_491143",
    "count_view": 0
  },
  {
    "link_thumb": "https://live.staticflickr.com/65535/50022933418_c8ef4175fa_n.jpg",
    "id_album": "-755466332",
    "description": "Sheep_363527",
    "title": "Sheep_363527",
    "link_img": "https://live.staticflickr.com/65535/50022933418_e973d0eb26_o.jpg",
    "id_image": "Sheep_363527",
    "count_view": 0
  },
  {
    "link_thumb": "https://live.staticflickr.com/65535/50019125538_881c473dc5_n.jpg",
    "id_album": "-766919393",
    "description": "Chameleon_645545",
    "title": "Chameleon_645545",
    "link_img": "https://live.staticflickr.com/65535/50019125538_24cf8490f9_o.jpg",
    "id_image": "Chameleon_645545",
    "count_view": 0
  },
  {
    "link_thumb": "https://live.staticflickr.com/65535/50352793847_b6f7b9f560_n.jpg",
    "id_album": "-462831703",
    "description": "Cat_656572",
    "title": "Cat_656572",
    "link_img": "https://live.staticflickr.com/65535/50352793847_f79385d560_o.jpg",
    "id_image": "Cat_656572",
    "count_view": 0
  },
  {
    "link_thumb": "https://live.staticflickr.com/65535/50020808968_db4520394d_n.jpg",
    "id_album": "2060159334",
    "description": "GoldenRetriever_650865",
    "title": "GoldenRetriever_650865",
    "link_img": "https://live.staticflickr.com/65535/50020808968_da403c0749_o.jpg",
    "id_image": "GoldenRetriever_650865",
    "count_view": 0
  },
  {
    "link_thumb": "https://live.staticflickr.com/65535/50023984147_720878531c_n.jpg",
    "id_album": "-1082521515",
    "description": "Spider_322591",
    "title": "Spider_322591",
    "link_img": "https://live.staticflickr.com/65535/50023984147_db7527e260_o.jpg",
    "id_image": "Spider_322591",
    "count_view": 0
  },
  {
    "link_thumb": "https://live.staticflickr.com/65535/50017121287_93f4b90405_n.jpg",
    "id_album": "523598895",
    "description": "Artistic_113047",
    "title": "Artistic_113047",
    "link_img": "https://live.staticflickr.com/65535/50017121287_ed759d2a38_o.jpg",
    "id_image": "Artistic_113047",
    "count_view": 0
  },
  {
    "link_thumb": "https://live.staticflickr.com/65535/50019475867_b25a2d5780_n.jpg",
    "id_album": "-462831704",
    "description": "Cat_449140",
    "title": "Cat_449140",
    "link_img": "https://live.staticflickr.com/65535/50019475867_893dec6735_o.jpg",
    "id_image": "Cat_449140",
    "count_view": 0
  },
  {
    "link_thumb": "https://live.staticflickr.com/65535/50352648312_bec0059359_n.jpg",
    "id_album": "-462831703",
    "description": "Cat_390090",
    "title": "Cat_390090",
    "link_img": "https://live.staticflickr.com/65535/50352648312_f08fd2b5a1_o.jpg",
    "id_image": "Cat_390090",
    "count_view": 0
  },
  {
    "link_thumb": "https://live.staticflickr.com/65535/50022906941_b6267b30b8_n.jpg",
    "id_album": "191452764",
    "description": "PrayingMantis_931137",
    "title": "PrayingMantis_931137",
    "link_img": "https://live.staticflickr.com/65535/50022906941_62d5ef06cc_o.jpg",
    "id_image": "PrayingMantis_931137",
    "count_view": 0
  },
  {
    "link_thumb": "https://live.staticflickr.com/65535/50021738181_672d14c3c0_n.jpg",
    "id_album": "-843028318",
    "description": "Jaguar_699610",
    "title": "Jaguar_699610",
    "link_img": "https://live.staticflickr.com/65535/50021738181_88937f9ca7_o.jpg",
    "id_image": "Jaguar_699610",
    "count_view": 0
  },
  {
    "link_thumb": "https://live.staticflickr.com/65535/50017612522_82c98af3a8_n.jpg",
    "id_album": "-1846011410",
    "description": "Bird_496309",
    "title": "Bird_496309",
    "link_img": "https://live.staticflickr.com/65535/50017612522_a979f05bd1_o.jpg",
    "id_image": "Bird_496309",
    "count_view": 0
  },
  {
    "link_thumb": "https://live.staticflickr.com/65535/50023815822_1622091922_n.jpg",
    "id_album": "-1182356179",
    "description": "Snake_162689",
    "title": "Snake_162689",
    "link_img": "https://live.staticflickr.com/65535/50023815822_bf8100d4dd_o.jpg",
    "id_image": "Snake_162689",
    "count_view": 0
  },
  {
    "link_thumb": "https://live.staticflickr.com/65535/50021022201_eea6444cd9_n.jpg",
    "id_album": "-128218148",
    "description": "Fox_907103",
    "title": "Fox_907103",
    "link_img": "https://live.staticflickr.com/65535/50021022201_2cecbda299_o.jpg",
    "id_image": "Fox_907103",
    "count_view": 0
  },
  {
    "link_thumb": "https://live.staticflickr.com/65535/50021013506_b2848fd39c_n.jpg",
    "id_album": "-128218148",
    "description": "Fox_858078",
    "title": "Fox_858078",
    "link_img": "https://live.staticflickr.com/65535/50021013506_ee74f72d40_o.jpg",
    "id_image": "Fox_858078",
    "count_view": 0
  },
  {
    "link_thumb": "https://live.staticflickr.com/65535/50024522936_e3db9c31b4_n.jpg",
    "id_album": "-709711865",
    "description": "Wolf_607653",
    "title": "Wolf_607653",
    "link_img": "https://live.staticflickr.com/65535/50024522936_de7a508d35_o.jpg",
    "id_image": "Wolf_607653",
    "count_view": 0
  },
  {
    "link_thumb": "https://live.staticflickr.com/65535/50019135533_1b9b369828_n.jpg",
    "id_album": "-766919393",
    "description": "Chameleon_796162",
    "title": "Chameleon_796162",
    "link_img": "https://live.staticflickr.com/65535/50019135533_9024dddd42_o.jpg",
    "id_image": "Chameleon_796162",
    "count_view": 0
  },
  {
    "link_thumb": "https://live.staticflickr.com/65535/50020970786_e2347e0e4e_n.jpg",
    "id_album": "-128218148",
    "description": "Fox_522975",
    "title": "Fox_522975",
    "link_img": "https://live.staticflickr.com/65535/50020970786_3cb95b9d32_o.jpg",
    "id_image": "Fox_522975",
    "count_view": 0
  },
  {
    "link_thumb": "https://live.staticflickr.com/65535/50019531416_33b1c3e6c3_n.jpg",
    "id_album": "-462831703",
    "description": "Cat_965304",
    "title": "Cat_965304",
    "link_img": "https://live.staticflickr.com/65535/50019531416_71befd298a_o.jpg",
    "id_image": "Cat_965304",
    "count_view": 0
  },
  {
    "link_thumb": "https://live.staticflickr.com/65535/50017568973_e7f713f65b_n.jpg",
    "id_album": "-462831702",
    "description": "Cat_373728",
    "title": "Cat_373728",
    "link_img": "https://live.staticflickr.com/65535/50017568973_3329b7502f_o.jpg",
    "id_image": "Cat_373728",
    "count_view": 0
  },
  {
    "link_thumb": "https://live.staticflickr.com/65535/50021242153_e6a75bb9d5_n.jpg",
    "id_album": "1562047127",
    "description": "Jellyfish_859451",
    "title": "Jellyfish_859451",
    "link_img": "https://live.staticflickr.com/65535/50021242153_43d7c1a21e_o.jpg",
    "id_image": "Jellyfish_859451",
    "count_view": 0
  },
  {
    "link_thumb": "https://live.staticflickr.com/65535/50017131021_6f7357022f_n.jpg",
    "id_album": "1699594607",
    "description": "Bee_366993",
    "title": "Bee_366993",
    "link_img": "https://live.staticflickr.com/65535/50017131021_b52d49d035_o.jpg",
    "id_image": "Bee_366993",
    "count_view": 0
  },
  {
    "link_thumb": "https://live.staticflickr.com/65535/50016861796_2fdef33768_n.jpg",
    "id_album": "523598895",
    "description": "Artistic_113686",
    "title": "Artistic_113686",
    "link_img": "https://live.staticflickr.com/65535/50016861796_eba12895b7_o.jpg",
    "id_image": "Artistic_113686",
    "count_view": 0
  },
  {
    "link_thumb": "https://live.staticflickr.com/65535/50023529621_f083861f1f_n.jpg",
    "id_album": "-800019164",
    "description": "Snail_458271",
    "title": "Snail_458271",
    "link_img": "https://live.staticflickr.com/65535/50023529621_f286b85b86_o.jpg",
    "id_image": "Snail_458271",
    "count_view": 0
  },
  {
    "link_thumb": "https://live.staticflickr.com/65535/50019798986_70238c90f3_n.jpg",
    "id_album": "-1462118852",
    "description": "Corgi_900270",
    "title": "Corgi_900270",
    "link_img": "https://live.staticflickr.com/65535/50019798986_f01cfc110c_o.jpg",
    "id_image": "Corgi_900270",
    "count_view": 0
  },
  {
    "link_thumb": "https://live.staticflickr.com/65535/50021523392_e47a12be75_n.jpg",
    "id_album": "-462831703",
    "description": "Cat_830779",
    "title": "Cat_830779",
    "link_img": "https://live.staticflickr.com/65535/50021523392_a4a6c72eed_o.jpg",
    "id_image": "Cat_830779",
    "count_view": 0
  },
  {
    "link_thumb": "https://live.staticflickr.com/65535/50017225576_1a10bf4000_n.jpg",
    "id_album": "-1846011410",
    "description": "Bird_272283",
    "title": "Bird_272283",
    "link_img": "https://live.staticflickr.com/65535/50017225576_6330323a15_o.jpg",
    "id_image": "Bird_272283",
    "count_view": 0
  },
  {
    "link_thumb": "https://live.staticflickr.com/65535/50021821988_f7458bf759_n.jpg",
    "id_album": "106807275",
    "description": "Otter_329475",
    "title": "Otter_329475",
    "link_img": "https://live.staticflickr.com/65535/50021821988_da4fcf6744_o.jpg",
    "id_image": "Otter_329475",
    "count_view": 0
  },
  {
    "link_thumb": "https://live.staticflickr.com/65535/50020356991_cd81c79b90_n.jpg",
    "id_album": "-149330231",
    "description": "Dog_380976",
    "title": "Dog_380976",
    "link_img": "https://live.staticflickr.com/65535/50020356991_a2b0884489_o.jpg",
    "id_image": "Dog_380976",
    "count_view": 0
  },
  {
    "link_thumb": "https://live.staticflickr.com/65535/50021823853_c131430eae_n.jpg",
    "id_album": "106807275",
    "description": "Otter_356565",
    "title": "Otter_356565",
    "link_img": "https://live.staticflickr.com/65535/50021823853_bd5ca35d06_o.jpg",
    "id_image": "Otter_356565",
    "count_view": 0
  },
  {
    "link_thumb": "https://live.staticflickr.com/65535/50021067381_3aa34ddc88_n.jpg",
    "id_album": "844170697",
    "description": "Frog_529952",
    "title": "Frog_529952",
    "link_img": "https://live.staticflickr.com/65535/50021067381_1c271bb9e8_o.jpg",
    "id_image": "Frog_529952",
    "count_view": 0
  },
  {
    "link_thumb": "https://live.staticflickr.com/65535/50018283902_111dd9eed9_n.jpg",
    "id_album": "-462831702",
    "description": "Cat_346798",
    "title": "Cat_346798",
    "link_img": "https://live.staticflickr.com/65535/50018283902_921be960ef_o.jpg",
    "id_image": "Cat_346798",
    "count_view": 0
  },
  {
    "link_thumb": "https://live.staticflickr.com/65535/50019460562_057e7f9c2d_n.jpg",
    "id_album": "-462831704",
    "description": "Cat_439081",
    "title": "Cat_439081",
    "link_img": "https://live.staticflickr.com/65535/50019460562_fdc94dd837_o.jpg",
    "id_image": "Cat_439081",
    "count_view": 0
  },
  {
    "link_thumb": "https://live.staticflickr.com/65535/50017985977_1c5aa8d296_n.jpg",
    "id_album": "-1131161368",
    "description": "Camel_353347",
    "title": "Camel_353347",
    "link_img": "https://live.staticflickr.com/65535/50017985977_13c1bf3d63_o.jpg",
    "id_image": "Camel_353347",
    "count_view": 0
  },
  {
    "link_thumb": "https://live.staticflickr.com/65535/50023251577_e04cb5dee1_n.jpg",
    "id_album": "-353898617",
    "description": "Puppy_430240",
    "title": "Puppy_430240",
    "link_img": "https://live.staticflickr.com/65535/50023251577_4908499bda_o.jpg",
    "id_image": "Puppy_430240",
    "count_view": 0
  },
  {
    "link_thumb": "https://live.staticflickr.com/65535/50017823926_0d738d447b_n.jpg",
    "id_album": "-462831705",
    "description": "Cat_181075",
    "title": "Cat_181075",
    "link_img": "https://live.staticflickr.com/65535/50017823926_665db5a870_o.jpg",
    "id_image": "Cat_181075",
    "count_view": 0
  },
  {
    "link_thumb": "https://live.staticflickr.com/65535/50020929122_34b94806c7_n.jpg",
    "id_album": "1168627767",
    "description": "Duck_771437",
    "title": "Duck_771437",
    "link_img": "https://live.staticflickr.com/65535/50020929122_8a220ca426_o.jpg",
    "id_image": "Duck_771437",
    "count_view": 0
  },
  {
    "link_thumb": "https://live.staticflickr.com/65535/50018393632_22c1616d00_n.jpg",
    "id_album": "-462831702",
    "description": "Cat_396419",
    "title": "Cat_396419",
    "link_img": "https://live.staticflickr.com/65535/50018393632_0500598a3d_o.jpg",
    "id_image": "Cat_396419",
    "count_view": 0
  },
  {
    "link_thumb": "https://live.staticflickr.com/65535/50021371306_e9bbd724ff_n.jpg",
    "id_album": "2060159334",
    "description": "GoldenRetriever_934813",
    "title": "GoldenRetriever_934813",
    "link_img": "https://live.staticflickr.com/65535/50021371306_9651bef8b7_o.jpg",
    "id_image": "GoldenRetriever_934813",
    "count_view": 0
  },
  {
    "link_thumb": "https://live.staticflickr.com/65535/50021372842_46d7ac19e0_n.jpg",
    "id_album": "-462831704",
    "description": "Cat_570456",
    "title": "Cat_570456",
    "link_img": "https://live.staticflickr.com/65535/50021372842_328f64220d_o.jpg",
    "id_image": "Cat_570456",
    "count_view": 0
  },
  {
    "link_thumb": "https://live.staticflickr.com/65535/50020838528_c7cf026c7c_n.jpg",
    "id_album": "-817970789",
    "description": "Goose_318355",
    "title": "Goose_318355",
    "link_img": "https://live.staticflickr.com/65535/50020838528_1655eed1e8_o.jpg",
    "id_image": "Goose_318355",
    "count_view": 0
  },
  {
    "link_thumb": "https://live.staticflickr.com/65535/50024487002_44d55553d3_n.jpg",
    "id_album": "405170427",
    "description": "Tiger_872442",
    "title": "Tiger_872442",
    "link_img": "https://live.staticflickr.com/65535/50024487002_137e1f8b54_o.jpg",
    "id_image": "Tiger_872442",
    "count_view": 0
  },
  {
    "link_thumb": "https://live.staticflickr.com/65535/50016964111_5405e424a3_n.jpg",
    "id_album": "231236068",
    "description": "BaldEagle_643327",
    "title": "BaldEagle_643327",
    "link_img": "https://live.staticflickr.com/65535/50016964111_f9e35ae50b_o.jpg",
    "id_image": "BaldEagle_643327",
    "count_view": 0
  },
  {
    "link_thumb": "https://live.staticflickr.com/65535/50020813456_9ce4c4e3e0_n.jpg",
    "id_album": "822895535",
    "description": "Falcon_436691",
    "title": "Falcon_436691",
    "link_img": "https://live.staticflickr.com/65535/50020813456_c2732c468b_o.jpg",
    "id_image": "Falcon_436691",
    "count_view": 0
  },
  {
    "link_thumb": "https://live.staticflickr.com/65535/50017561447_ea6b043522_n.jpg",
    "id_album": "-1846011410",
    "description": "Bird_396865",
    "title": "Bird_396865",
    "link_img": "https://live.staticflickr.com/65535/50017561447_6474c54433_o.jpg",
    "id_image": "Bird_396865",
    "count_view": 0
  },
  {
    "link_thumb": "https://live.staticflickr.com/65535/50016920793_bed2a20904_n.jpg",
    "id_album": "-1561645279",
    "description": "BlackPanther_213387",
    "title": "BlackPanther_213387",
    "link_img": "https://live.staticflickr.com/65535/50016920793_250416874e_o.jpg",
    "id_image": "BlackPanther_213387",
    "count_view": 0
  },
  {
    "link_thumb": "https://live.staticflickr.com/65535/50024715042_aa37d60697_n.jpg",
    "id_album": "-709711865",
    "description": "Wolf_106049",
    "title": "Wolf_106049",
    "link_img": "https://live.staticflickr.com/65535/50024715042_477b04aba1_o.jpg",
    "id_image": "Wolf_106049",
    "count_view": 0
  },
  {
    "link_thumb": "https://live.staticflickr.com/65535/50023313642_aa42fdfc39_n.jpg",
    "id_album": "-353898617",
    "description": "Puppy_728708",
    "title": "Puppy_728708",
    "link_img": "https://live.staticflickr.com/65535/50023313642_56bbdf6d80_o.jpg",
    "id_image": "Puppy_728708",
    "count_view": 0
  },
  {
    "link_thumb": "https://live.staticflickr.com/65535/50020009277_014cfdef77_n.jpg",
    "id_album": "1949822052",
    "description": "Chimpanzee_858577",
    "title": "Chimpanzee_858577",
    "link_img": "https://live.staticflickr.com/65535/50020009277_ce742d8169_o.jpg",
    "id_image": "Chimpanzee_858577",
    "count_view": 0
  },
  {
    "link_thumb": "https://live.staticflickr.com/65535/50022999366_541dcff25e_n.jpg",
    "id_album": "-353898617",
    "description": "Puppy_442833",
    "title": "Puppy_442833",
    "link_img": "https://live.staticflickr.com/65535/50022999366_f21d1235cf_o.jpg",
    "id_image": "Puppy_442833",
    "count_view": 0
  },
  {
    "link_thumb": "https://live.staticflickr.com/65535/50022163637_6b901218ce_n.jpg",
    "id_album": "1392348450",
    "description": "Leopard_365013",
    "title": "Leopard_365013",
    "link_img": "https://live.staticflickr.com/65535/50022163637_90655912a8_o.jpg",
    "id_image": "Leopard_365013",
    "count_view": 0
  },
  {
    "link_thumb": "https://live.staticflickr.com/65535/50021035002_ac82195fc2_n.jpg",
    "id_album": "1270947998",
    "description": "Elephant_675181",
    "title": "Elephant_675181",
    "link_img": "https://live.staticflickr.com/65535/50021035002_84f7bf1741_o.jpg",
    "id_image": "Elephant_675181",
    "count_view": 0
  },
  {
    "link_thumb": "https://live.staticflickr.com/65535/50020568103_8b4e9b5d68_n.jpg",
    "id_album": "-462831704",
    "description": "Cat_553683",
    "title": "Cat_553683",
    "link_img": "https://live.staticflickr.com/65535/50020568103_0f7d95cb1d_o.jpg",
    "id_image": "Cat_553683",
    "count_view": 0
  },
  {
    "link_thumb": "https://live.staticflickr.com/65535/50020286392_46c8195585_n.jpg",
    "id_album": "1903411565",
    "description": "Deer_596063",
    "title": "Deer_596063",
    "link_img": "https://live.staticflickr.com/65535/50020286392_0bf95396ca_o.jpg",
    "id_image": "Deer_596063",
    "count_view": 0
  },
  {
    "link_thumb": "https://live.staticflickr.com/65535/50351743203_ee8f5747e7_n.jpg",
    "id_album": "-462831703",
    "description": "Cat_243329",
    "title": "Cat_243329",
    "link_img": "https://live.staticflickr.com/65535/50351743203_df5f67a211_o.jpg",
    "id_image": "Cat_243329",
    "count_view": 0
  },
  {
    "link_thumb": "https://live.staticflickr.com/65535/50021365213_42658fd73b_n.jpg",
    "id_album": "1392348450",
    "description": "Leopard_365025",
    "title": "Leopard_365025",
    "link_img": "https://live.staticflickr.com/65535/50021365213_947e5da521_o.jpg",
    "id_image": "Leopard_365025",
    "count_view": 0
  },
  {
    "link_thumb": "https://live.staticflickr.com/65535/50019190321_75390538e9_n.jpg",
    "id_album": "-462831702",
    "description": "Cat_433166",
    "title": "Cat_433166",
    "link_img": "https://live.staticflickr.com/65535/50019190321_15aa7b4ec0_o.jpg",
    "id_image": "Cat_433166",
    "count_view": 0
  },
  {
    "link_thumb": "https://live.staticflickr.com/65535/50017431501_401f23928d_n.jpg",
    "id_album": "-1846011410",
    "description": "Bird_838174",
    "title": "Bird_838174",
    "link_img": "https://live.staticflickr.com/65535/50017431501_cb6a057563_o.jpg",
    "id_image": "Bird_838174",
    "count_view": 0
  },
  {
    "link_thumb": "https://live.staticflickr.com/65535/50022190098_f5dd369762_n.jpg",
    "id_album": "392248205",
    "description": "Penguin_965306",
    "title": "Penguin_965306",
    "link_img": "https://live.staticflickr.com/65535/50022190098_64e8bd0961_o.jpg",
    "id_image": "Penguin_965306",
    "count_view": 0
  },
  {
    "link_thumb": "https://live.staticflickr.com/65535/50019691962_aee7345674_n.jpg",
    "id_album": "-462831703",
    "description": "Cat_909984",
    "title": "Cat_909984",
    "link_img": "https://live.staticflickr.com/65535/50019691962_4ca3cf5f81_o.jpg",
    "id_image": "Cat_909984",
    "count_view": 0
  },
  {
    "link_thumb": "https://live.staticflickr.com/65535/50016681148_44d4b7766c_n.jpg",
    "id_album": "-1846011410",
    "description": "Bird_187811",
    "title": "Bird_187811",
    "link_img": "https://live.staticflickr.com/65535/50016681148_e10a4c3466_o.jpg",
    "id_image": "Bird_187811",
    "count_view": 0
  },
  {
    "link_thumb": "https://live.staticflickr.com/65535/50016933881_ee0d042c02_n.jpg",
    "id_album": "390697200",
    "description": "AustralianShepherd_694772",
    "title": "AustralianShepherd_694772",
    "link_img": "https://live.staticflickr.com/65535/50016933881_dce37ecf3b_o.jpg",
    "id_image": "AustralianShepherd_694772",
    "count_view": 0
  },
  {
    "link_thumb": "https://live.staticflickr.com/65535/50020666786_164c56dca1_n.jpg",
    "id_album": "1168627767",
    "description": "Duck_656563",
    "title": "Duck_656563",
    "link_img": "https://live.staticflickr.com/65535/50020666786_f8bb927e80_o.jpg",
    "id_image": "Duck_656563",
    "count_view": 0
  },
  {
    "link_thumb": "https://live.staticflickr.com/65535/50020223202_3be8366f1f_n.jpg",
    "id_album": "-1783645069",
    "description": "Dalmatian_353085",
    "title": "Dalmatian_353085",
    "link_img": "https://live.staticflickr.com/65535/50020223202_d9d0e317a4_o.jpg",
    "id_image": "Dalmatian_353085",
    "count_view": 0
  },
  {
    "link_thumb": "https://live.staticflickr.com/65535/50018978193_bd88852c52_n.jpg",
    "id_album": "-462831703",
    "description": "Cat_947508",
    "title": "Cat_947508",
    "link_img": "https://live.staticflickr.com/65535/50018978193_d481cea687_o.jpg",
    "id_image": "Cat_947508",
    "count_view": 0
  },
  {
    "link_thumb": "https://live.staticflickr.com/65535/50016935318_efe9bb8882_n.jpg",
    "id_album": "-530283314",
    "description": "BlueandyellowMacaw_327698",
    "title": "BlueandyellowMacaw_327698",
    "link_img": "https://live.staticflickr.com/65535/50016935318_16db76cb49_o.jpg",
    "id_image": "BlueandyellowMacaw_327698",
    "count_view": 0
  },
  {
    "link_thumb": "https://live.staticflickr.com/65535/50020243026_30d540ddfc_n.jpg",
    "id_album": "-149330232",
    "description": "Dog_324324",
    "title": "Dog_324324",
    "link_img": "https://live.staticflickr.com/65535/50020243026_344c8256c3_o.jpg",
    "id_image": "Dog_324324",
    "count_view": 0
  },
  {
    "link_thumb": "https://live.staticflickr.com/65535/50016924586_166f7ca844_n.jpg",
    "id_album": "523598895",
    "description": "Artistic_924374",
    "title": "Artistic_924374",
    "link_img": "https://live.staticflickr.com/65535/50016924586_468c35808c_o.jpg",
    "id_image": "Artistic_924374",
    "count_view": 0
  },
  {
    "link_thumb": "https://live.staticflickr.com/65535/50021631897_8a2f217f34_n.jpg",
    "id_album": "-975314166",
    "description": "Goldfish_391343",
    "title": "Goldfish_391343",
    "link_img": "https://live.staticflickr.com/65535/50021631897_88aaa162aa_o.jpg",
    "id_image": "Goldfish_391343",
    "count_view": 0
  },
  {
    "link_thumb": "https://live.staticflickr.com/65535/50023105082_fddbe2ffb0_n.jpg",
    "id_album": "1008910300",
    "description": "PolarBear_644869",
    "title": "PolarBear_644869",
    "link_img": "https://live.staticflickr.com/65535/50023105082_8985e75bc2_o.jpg",
    "id_image": "PolarBear_644869",
    "count_view": 0
  },
  {
    "link_thumb": "https://live.staticflickr.com/65535/50017911787_d2e0643e27_n.jpg",
    "id_album": "-401151552",
    "description": "Butterfly_708386",
    "title": "Butterfly_708386",
    "link_img": "https://live.staticflickr.com/65535/50017911787_490b1036a2_o.jpg",
    "id_image": "Butterfly_708386",
    "count_view": 0
  },
  {
    "link_thumb": "https://live.staticflickr.com/65535/50019138826_8f645ca8f5_n.jpg",
    "id_album": "-462831702",
    "description": "Cat_397651",
    "title": "Cat_397651",
    "link_img": "https://live.staticflickr.com/65535/50019138826_66cddc2526_o.jpg",
    "id_image": "Cat_397651",
    "count_view": 0
  },
  {
    "link_thumb": "https://live.staticflickr.com/65535/50024514977_54745e1e50_n.jpg",
    "id_album": "405170427",
    "description": "Tiger_984845",
    "title": "Tiger_984845",
    "link_img": "https://live.staticflickr.com/65535/50024514977_0b0176913d_o.jpg",
    "id_image": "Tiger_984845",
    "count_view": 0
  },
  {
    "link_thumb": "https://live.staticflickr.com/65535/50020707556_9497fcb3ca_n.jpg",
    "id_album": "-39098563",
    "description": "Eagle_420094",
    "title": "Eagle_420094",
    "link_img": "https://live.staticflickr.com/65535/50020707556_761fd975d9_o.jpg",
    "id_image": "Eagle_420094",
    "count_view": 0
  },
  {
    "link_thumb": "https://live.staticflickr.com/65535/50021091411_0aa95ba729_n.jpg",
    "id_album": "-34696179",
    "description": "Gecko_386545",
    "title": "Gecko_386545",
    "link_img": "https://live.staticflickr.com/65535/50021091411_0b7d2e4bf3_o.jpg",
    "id_image": "Gecko_386545",
    "count_view": 0
  },
  {
    "link_thumb": "https://live.staticflickr.com/65535/50019419998_1db95437cb_n.jpg",
    "id_album": "1831085598",
    "description": "Dachshund_408368",
    "title": "Dachshund_408368",
    "link_img": "https://live.staticflickr.com/65535/50019419998_5524e29a8d_o.jpg",
    "id_image": "Dachshund_408368",
    "count_view": 0
  },
  {
    "link_thumb": "https://live.staticflickr.com/65535/50021679337_d07ebb2fb9_n.jpg",
    "id_album": "-1513987841",
    "description": "Hawk_746339",
    "title": "Hawk_746339",
    "link_img": "https://live.staticflickr.com/65535/50021679337_33873883c9_o.jpg",
    "id_image": "Hawk_746339",
    "count_view": 0
  },
  {
    "link_thumb": "https://live.staticflickr.com/65535/50016565283_4ec18ccabc_n.jpg",
    "id_album": "-422187261",
    "description": "Bear_867509",
    "title": "Bear_867509",
    "link_img": "https://live.staticflickr.com/65535/50016565283_86024b937f_o.jpg",
    "id_image": "Bear_867509",
    "count_view": 0
  },
  {
    "link_thumb": "https://live.staticflickr.com/65535/50022537622_0cd8f1507c_n.jpg",
    "id_album": "1610416937",
    "description": "Moth_550302",
    "title": "Moth_550302",
    "link_img": "https://live.staticflickr.com/65535/50022537622_35fcbbc6db_o.jpg",
    "id_image": "Moth_550302",
    "count_view": 0
  },
  {
    "link_thumb": "https://live.staticflickr.com/65535/50020242983_e96b80585e_n.jpg",
    "id_album": "1270947998",
    "description": "Elephant_650734",
    "title": "Elephant_650734",
    "link_img": "https://live.staticflickr.com/65535/50020242983_2c8c5660cb_o.jpg",
    "id_image": "Elephant_650734",
    "count_view": 0
  },
  {
    "link_thumb": "https://live.staticflickr.com/65535/50017974661_fc1639f3a6_n.jpg",
    "id_album": "-462831702",
    "description": "Cat_325794",
    "title": "Cat_325794",
    "link_img": "https://live.staticflickr.com/65535/50017974661_71f7c3ac8c_o.jpg",
    "id_image": "Cat_325794",
    "count_view": 0
  },
  {
    "link_thumb": "https://live.staticflickr.com/65535/50022551088_79e0831925_n.jpg",
    "id_album": "-1940643173",
    "description": "Rabbit_275691",
    "title": "Rabbit_275691",
    "link_img": "https://live.staticflickr.com/65535/50022551088_ab0b64222d_o.jpg",
    "id_image": "Rabbit_275691",
    "count_view": 0
  },
  {
    "link_thumb": "https://live.staticflickr.com/65535/50020954966_8e1ed931d8_n.jpg",
    "id_album": "-128218148",
    "description": "Fox_365425",
    "title": "Fox_365425",
    "link_img": "https://live.staticflickr.com/65535/50020954966_8381871cf5_o.jpg",
    "id_image": "Fox_365425",
    "count_view": 0
  },
  {
    "link_thumb": "https://live.staticflickr.com/65535/50021476258_0a5698f141_n.jpg",
    "id_album": "416744915",
    "description": "Lion_430539",
    "title": "Lion_430539",
    "link_img": "https://live.staticflickr.com/65535/50021476258_213ce48ec6_o.jpg",
    "id_image": "Lion_430539",
    "count_view": 0
  },
  {
    "link_thumb": "https://live.staticflickr.com/65535/50016414643_f4c5aca356_n.jpg",
    "id_album": "390697200",
    "description": "AustralianShepherd_863473",
    "title": "AustralianShepherd_863473",
    "link_img": "https://live.staticflickr.com/65535/50016414643_d92bd020b2_o.jpg",
    "id_image": "AustralianShepherd_863473",
    "count_view": 0
  },
  {
    "link_thumb": "https://live.staticflickr.com/65535/50018380367_5584ff6b3f_n.jpg",
    "id_album": "-462831702",
    "description": "Cat_387669",
    "title": "Cat_387669",
    "link_img": "https://live.staticflickr.com/65535/50018380367_6fd73ea248_o.jpg",
    "id_image": "Cat_387669",
    "count_view": 0
  },
  {
    "link_thumb": "https://live.staticflickr.com/65535/50017807987_fe4b5b6539_n.jpg",
    "id_album": "-401151552",
    "description": "Butterfly_224046",
    "title": "Butterfly_224046",
    "link_img": "https://live.staticflickr.com/65535/50017807987_0ecbdab935_o.jpg",
    "id_image": "Butterfly_224046",
    "count_view": 0
  },
  {
    "link_thumb": "https://live.staticflickr.com/65535/50020385348_2fec754cdf_n.jpg",
    "id_album": "-1694105481",
    "description": "Fly_889033",
    "title": "Fly_889033",
    "link_img": "https://live.staticflickr.com/65535/50020385348_aa21bd0e71_o.jpg",
    "id_image": "Fly_889033",
    "count_view": 0
  },
  {
    "link_thumb": "https://live.staticflickr.com/65535/50017364271_9e27e99d75_n.jpg",
    "id_album": "-1846011410",
    "description": "Bird_554501",
    "title": "Bird_554501",
    "link_img": "https://live.staticflickr.com/65535/50017364271_0f5b7b85f5_o.jpg",
    "id_image": "Bird_554501",
    "count_view": 0
  },
  {
    "link_thumb": "https://live.staticflickr.com/65535/50017488187_edab280b27_n.jpg",
    "id_album": "-1846011410",
    "description": "Bird_275230",
    "title": "Bird_275230",
    "link_img": "https://live.staticflickr.com/65535/50017488187_8d2d659ba5_o.jpg",
    "id_image": "Bird_275230",
    "count_view": 0
  },
  {
    "link_thumb": "https://live.staticflickr.com/65535/50021672127_45e4871ccf_n.jpg",
    "id_album": "-1513987841",
    "description": "Hawk_290540",
    "title": "Hawk_290540",
    "link_img": "https://live.staticflickr.com/65535/50021672127_75a64387f5_o.jpg",
    "id_image": "Hawk_290540",
    "count_view": 0
  },
  {
    "link_thumb": "https://live.staticflickr.com/65535/50022546007_8fa8aeff06_n.jpg",
    "id_album": "1957967135",
    "description": "Mouse_342065",
    "title": "Mouse_342065",
    "link_img": "https://live.staticflickr.com/65535/50022546007_ed4d8527d6_o.jpg",
    "id_image": "Mouse_342065",
    "count_view": 0
  },
  {
    "link_thumb": "https://live.staticflickr.com/65535/50019323806_4453ac8875_n.jpg",
    "id_album": "-462831703",
    "description": "Cat_854698",
    "title": "Cat_854698",
    "link_img": "https://live.staticflickr.com/65535/50019323806_9fef692c67_o.jpg",
    "id_image": "Cat_854698",
    "count_view": 0
  },
  {
    "link_thumb": "https://live.staticflickr.com/65535/50017507851_33b27b78d2_n.jpg",
    "id_album": "782930701",
    "description": "BorderCollie_910691",
    "title": "BorderCollie_910691",
    "link_img": "https://live.staticflickr.com/65535/50017507851_17df3d057d_o.jpg",
    "id_image": "BorderCollie_910691",
    "count_view": 0
  },
  {
    "link_thumb": "https://live.staticflickr.com/65535/50024343096_0f406089de_n.jpg",
    "id_album": "410750612",
    "description": "Wasp_584288",
    "title": "Wasp_584288",
    "link_img": "https://live.staticflickr.com/65535/50024343096_fcef755f04_o.jpg",
    "id_image": "Wasp_584288",
    "count_view": 0
  },
  {
    "link_thumb": "https://live.staticflickr.com/65535/50017454843_41cf55ae4d_n.jpg",
    "id_album": "-462831702",
    "description": "Cat_328392",
    "title": "Cat_328392",
    "link_img": "https://live.staticflickr.com/65535/50017454843_539d97ece5_o.jpg",
    "id_image": "Cat_328392",
    "count_view": 0
  },
  {
    "link_thumb": "https://live.staticflickr.com/65535/50019683527_6b9ac5dd18_n.jpg",
    "id_album": "-462831703",
    "description": "Cat_904921",
    "title": "Cat_904921",
    "link_img": "https://live.staticflickr.com/65535/50019683527_ca520a1a0a_o.jpg",
    "id_image": "Cat_904921",
    "count_view": 0
  },
  {
    "link_thumb": "https://live.staticflickr.com/65535/50021374451_87a0ae2bfc_n.jpg",
    "id_album": "2060159334",
    "description": "GoldenRetriever_985589",
    "title": "GoldenRetriever_985589",
    "link_img": "https://live.staticflickr.com/65535/50021374451_beb14daed3_o.jpg",
    "id_image": "GoldenRetriever_985589",
    "count_view": 0
  },
  {
    "link_thumb": "https://live.staticflickr.com/65535/50017737686_a774a7422c_n.jpg",
    "id_album": "189994021",
    "description": "Cardinal_778011",
    "title": "Cardinal_778011",
    "link_img": "https://live.staticflickr.com/65535/50017737686_fb8b10006b_o.jpg",
    "id_image": "Cardinal_778011",
    "count_view": 0
  },
  {
    "link_thumb": "https://live.staticflickr.com/65535/50020519946_82f2af3069_n.jpg",
    "id_album": "-149330231",
    "description": "Dog_831940",
    "title": "Dog_831940",
    "link_img": "https://live.staticflickr.com/65535/50020519946_5c10ba535f_o.jpg",
    "id_image": "Dog_831940",
    "count_view": 0
  },
  {
    "link_thumb": "https://live.staticflickr.com/65535/50022085007_3e1f40c003_n.jpg",
    "id_album": "1307335982",
    "description": "LabradorRetriever_506747",
    "title": "LabradorRetriever_506747",
    "link_img": "https://live.staticflickr.com/65535/50022085007_769e77b5dd_o.jpg",
    "id_image": "LabradorRetriever_506747",
    "count_view": 0
  },
  {
    "link_thumb": "https://live.staticflickr.com/65535/50023438228_dafb28251f_n.jpg",
    "id_album": "702283289",
    "description": "Squirrel_981031",
    "title": "Squirrel_981031",
    "link_img": "https://live.staticflickr.com/65535/50023438228_db5979b037_o.jpg",
    "id_image": "Squirrel_981031",
    "count_view": 0
  },
  {
    "link_thumb": "https://live.staticflickr.com/65535/50022156792_1881636e6b_n.jpg",
    "id_album": "1392348450",
    "description": "Leopard_343420",
    "title": "Leopard_343420",
    "link_img": "https://live.staticflickr.com/65535/50022156792_2e575a790d_o.jpg",
    "id_image": "Leopard_343420",
    "count_view": 0
  },
  {
    "link_thumb": "https://live.staticflickr.com/65535/50022689607_bcfc05c725_n.jpg",
    "id_album": "-1384601601",
    "description": "Owl_442043",
    "title": "Owl_442043",
    "link_img": "https://live.staticflickr.com/65535/50022689607_9a568fe5eb_o.jpg",
    "id_image": "Owl_442043",
    "count_view": 0
  },
  {
    "link_thumb": "https://live.staticflickr.com/65535/50017058423_d9069404a9_n.jpg",
    "id_album": "-401151552",
    "description": "Butterfly_405690",
    "title": "Butterfly_405690",
    "link_img": "https://live.staticflickr.com/65535/50017058423_190c0961f6_o.jpg",
    "id_image": "Butterfly_405690",
    "count_view": 0
  },
  {
    "link_thumb": "https://live.staticflickr.com/65535/50021612227_9c5bfd46b6_n.jpg",
    "id_album": "2060159334",
    "description": "GoldenRetriever_767516",
    "title": "GoldenRetriever_767516",
    "link_img": "https://live.staticflickr.com/65535/50021612227_55dd62da29_o.jpg",
    "id_image": "GoldenRetriever_767516",
    "count_view": 0
  },
  {
    "link_thumb": "https://live.staticflickr.com/65535/50023576627_eede870abd_n.jpg",
    "id_album": "1926701726",
    "description": "Robin_889609",
    "title": "Robin_889609",
    "link_img": "https://live.staticflickr.com/65535/50023576627_42bfec37e6_o.jpg",
    "id_image": "Robin_889609",
    "count_view": 0
  },
  {
    "link_thumb": "https://live.staticflickr.com/65535/50019871597_707e833689_n.jpg",
    "id_album": "-420782796",
    "description": "Caterpillar_927027",
    "title": "Caterpillar_927027",
    "link_img": "https://live.staticflickr.com/65535/50019871597_3e8dccb359_o.jpg",
    "id_image": "Caterpillar_927027",
    "count_view": 0
  },
  {
    "link_thumb": "https://live.staticflickr.com/65535/50023425527_02246f387c_n.jpg",
    "id_album": "248289288",
    "description": "Raccoon_982287",
    "title": "Raccoon_982287",
    "link_img": "https://live.staticflickr.com/65535/50023425527_0af24a6eca_o.jpg",
    "id_image": "Raccoon_982287",
    "count_view": 0
  },
  {
    "link_thumb": "https://live.staticflickr.com/65535/50020450233_40d40a81e2_n.jpg",
    "id_album": "-128218148",
    "description": "Fox_709361",
    "title": "Fox_709361",
    "link_img": "https://live.staticflickr.com/65535/50020450233_1d5b2e7dfa_o.jpg",
    "id_image": "Fox_709361",
    "count_view": 0
  },
  {
    "link_thumb": "https://live.staticflickr.com/65535/50022095727_e8b87cac1c_n.jpg",
    "id_album": "-1882491687",
    "description": "Ladybug_213424",
    "title": "Ladybug_213424",
    "link_img": "https://live.staticflickr.com/65535/50022095727_deea1a65ab_o.jpg",
    "id_image": "Ladybug_213424",
    "count_view": 0
  },
  {
    "link_thumb": "https://live.staticflickr.com/65535/50021166347_cc71461739_n.jpg",
    "id_album": "-1758557371",
    "description": "Flamingo_795837",
    "title": "Flamingo_795837",
    "link_img": "https://live.staticflickr.com/65535/50021166347_f7baf7ec4a_o.jpg",
    "id_image": "Flamingo_795837",
    "count_view": 0
  },
  {
    "link_thumb": "https://live.staticflickr.com/65535/50021094506_0de17c0c41_n.jpg",
    "id_album": "-34696179",
    "description": "Gecko_598371",
    "title": "Gecko_598371",
    "link_img": "https://live.staticflickr.com/65535/50021094506_3439dbebe2_o.jpg",
    "id_image": "Gecko_598371",
    "count_view": 0
  },
  {
    "link_thumb": "https://live.staticflickr.com/65535/50020524268_d475810eab_n.jpg",
    "id_album": "844170697",
    "description": "Frog_527304",
    "title": "Frog_527304",
    "link_img": "https://live.staticflickr.com/65535/50020524268_dbf6902b50_o.jpg",
    "id_image": "Frog_527304",
    "count_view": 0
  },
  {
    "link_thumb": "https://live.staticflickr.com/65535/50017862666_4d57700f47_n.jpg",
    "id_album": "-462831705",
    "description": "Cat_215237",
    "title": "Cat_215237",
    "link_img": "https://live.staticflickr.com/65535/50017862666_d01401a839_o.jpg",
    "id_image": "Cat_215237",
    "count_view": 0
  },
  {
    "link_thumb": "https://live.staticflickr.com/65535/50020497306_f71d7e56f0_n.jpg",
    "id_album": "-149330231",
    "description": "Dog_728776",
    "title": "Dog_728776",
    "link_img": "https://live.staticflickr.com/65535/50020497306_ba5504451f_o.jpg",
    "id_image": "Dog_728776",
    "count_view": 0
  },
  {
    "link_thumb": "https://live.staticflickr.com/65535/50019978103_26c60256b0_n.jpg",
    "id_album": "-149330231",
    "description": "Dog_772134",
    "title": "Dog_772134",
    "link_img": "https://live.staticflickr.com/65535/50019978103_ae038e418d_o.jpg",
    "id_image": "Dog_772134",
    "count_view": 0
  },
  {
    "link_thumb": "https://live.staticflickr.com/65535/50019079538_25535b0673_n.jpg",
    "id_album": "-420782796",
    "description": "Caterpillar_535403",
    "title": "Caterpillar_535403",
    "link_img": "https://live.staticflickr.com/65535/50019079538_fb75d88dee_o.jpg",
    "id_image": "Caterpillar_535403",
    "count_view": 0
  },
  {
    "link_thumb": "https://live.staticflickr.com/65535/50023511616_a61bbf8898_n.jpg",
    "id_album": "-800019164",
    "description": "Snail_330060",
    "title": "Snail_330060",
    "link_img": "https://live.staticflickr.com/65535/50023511616_8657038ebd_o.jpg",
    "id_image": "Snail_330060",
    "count_view": 0
  },
  {
    "link_thumb": "https://live.staticflickr.com/65535/50020638566_b2e1ba5edd_n.jpg",
    "id_album": "-405058657",
    "description": "Dragonfly_742085",
    "title": "Dragonfly_742085",
    "link_img": "https://live.staticflickr.com/65535/50020638566_94c000ee3f_o.jpg",
    "id_image": "Dragonfly_742085",
    "count_view": 0
  },
  {
    "link_thumb": "https://live.staticflickr.com/65535/50021529562_2abf8dae18_n.jpg",
    "id_album": "-149330232",
    "description": "Dog_207289",
    "title": "Dog_207289",
    "link_img": "https://live.staticflickr.com/65535/50021529562_0a950f1cbd_o.jpg",
    "id_image": "Dog_207289",
    "count_view": 0
  },
  {
    "link_thumb": "https://live.staticflickr.com/65535/50023192093_91596bb4be_n.jpg",
    "id_album": "-1082521515",
    "description": "Spider_367163",
    "title": "Spider_367163",
    "link_img": "https://live.staticflickr.com/65535/50023192093_3622482824_o.jpg",
    "id_image": "Spider_367163",
    "count_view": 0
  },
  {
    "link_thumb": "https://live.staticflickr.com/65535/50020687283_4834951db7_n.jpg",
    "id_album": "-462831703",
    "description": "Cat_755313",
    "title": "Cat_755313",
    "link_img": "https://live.staticflickr.com/65535/50020687283_a9e367f721_o.jpg",
    "id_image": "Cat_755313",
    "count_view": 0
  },
  {
    "link_thumb": "https://live.staticflickr.com/65535/50020054173_046b93e812_n.jpg",
    "id_album": "-54509188",
    "description": "Dolphin_653560",
    "title": "Dolphin_653560",
    "link_img": "https://live.staticflickr.com/65535/50020054173_7abfbc9284_o.jpg",
    "id_image": "Dolphin_653560",
    "count_view": 0
  },
  {
    "link_thumb": "https://live.staticflickr.com/65535/50023206348_f54e593525_n.jpg",
    "id_album": "-1082521515",
    "description": "Spider_399081",
    "title": "Spider_399081",
    "link_img": "https://live.staticflickr.com/65535/50023206348_90cb41d04b_o.jpg",
    "id_image": "Spider_399081",
    "count_view": 0
  },
  {
    "link_thumb": "https://live.staticflickr.com/65535/50023061041_b910b71801_n.jpg",
    "id_album": "-353898617",
    "description": "Puppy_783580",
    "title": "Puppy_783580",
    "link_img": "https://live.staticflickr.com/65535/50023061041_7d45d734d6_o.jpg",
    "id_image": "Puppy_783580",
    "count_view": 0
  },
  {
    "link_thumb": "https://live.staticflickr.com/65535/50020166347_f553ef7e88_n.jpg",
    "id_album": "-392100404",
    "description": "Crow_561721",
    "title": "Crow_561721",
    "link_img": "https://live.staticflickr.com/65535/50020166347_7e1f34a256_o.jpg",
    "id_image": "Crow_561721",
    "count_view": 0
  },
  {
    "link_thumb": "https://live.staticflickr.com/65535/50016450083_528bd92008_n.jpg",
    "id_album": "-80092825",
    "description": "Barnowl_32875",
    "title": "Barnowl_32875",
    "link_img": "https://live.staticflickr.com/65535/50016450083_1d4c89e44d_o.jpg",
    "id_image": "Barnowl_32875",
    "count_view": 0
  },
  {
    "link_thumb": "https://live.staticflickr.com/65535/50019374386_e1df5a3bbb_n.jpg",
    "id_album": "-462831703",
    "description": "Cat_876801",
    "title": "Cat_876801",
    "link_img": "https://live.staticflickr.com/65535/50019374386_135064ef21_o.jpg",
    "id_image": "Cat_876801",
    "count_view": 0
  },
  {
    "link_thumb": "https://live.staticflickr.com/65535/50018075207_50eb7b9dbe_n.jpg",
    "id_album": "-462831705",
    "description": "Cat_175979",
    "title": "Cat_175979",
    "link_img": "https://live.staticflickr.com/65535/50018075207_eb3ecfb90c_o.jpg",
    "id_image": "Cat_175979",
    "count_view": 0
  },
  {
    "link_thumb": "https://live.staticflickr.com/65535/50021451851_191a36614f_n.jpg",
    "id_album": "-362549635",
    "description": "Hippo_407627",
    "title": "Hippo_407627",
    "link_img": "https://live.staticflickr.com/65535/50021451851_0171eebc69_o.jpg",
    "id_image": "Hippo_407627",
    "count_view": 0
  },
  {
    "link_thumb": "https://live.staticflickr.com/65535/50016460833_0100589673_n.jpg",
    "id_album": "809937717",
    "description": "Beagle_515702",
    "title": "Beagle_515702",
    "link_img": "https://live.staticflickr.com/65535/50016460833_180c1c4ac7_o.jpg",
    "id_image": "Beagle_515702",
    "count_view": 0
  },
  {
    "link_thumb": "https://live.staticflickr.com/65535/50017786791_11eee356bc_n.jpg",
    "id_album": "-462831705",
    "description": "Cat_152451",
    "title": "Cat_152451",
    "link_img": "https://live.staticflickr.com/65535/50017786791_a9a754e7af_o.jpg",
    "id_image": "Cat_152451",
    "count_view": 0
  },
  {
    "link_thumb": "https://live.staticflickr.com/65535/50021948621_8f6da257f1_n.jpg",
    "id_album": "1392348450",
    "description": "Leopard_739811",
    "title": "Leopard_739811",
    "link_img": "https://live.staticflickr.com/65535/50021948621_a68bea6a58_o.jpg",
    "id_image": "Leopard_739811",
    "count_view": 0
  },
  {
    "link_thumb": "https://live.staticflickr.com/65535/50023249773_6c3c00a71e_n.jpg",
    "id_album": "-1082521515",
    "description": "Spider_872770",
    "title": "Spider_872770",
    "link_img": "https://live.staticflickr.com/65535/50023249773_95715fc80f_o.jpg",
    "id_image": "Spider_872770",
    "count_view": 0
  },
  {
    "link_thumb": "https://live.staticflickr.com/65535/50017269321_d08b9aa574_n.jpg",
    "id_album": "-1846011410",
    "description": "Bird_358706",
    "title": "Bird_358706",
    "link_img": "https://live.staticflickr.com/65535/50017269321_38bc416552_o.jpg",
    "id_image": "Bird_358706",
    "count_view": 0
  },
  {
    "link_thumb": "https://live.staticflickr.com/65535/50020237991_82c58dde2b_n.jpg",
    "id_album": "-149330232",
    "description": "Dog_323387",
    "title": "Dog_323387",
    "link_img": "https://live.staticflickr.com/65535/50020237991_3f669e1792_o.jpg",
    "id_image": "Dog_323387",
    "count_view": 0
  },
  {
    "link_thumb": "https://live.staticflickr.com/65535/50017133167_282bd69b08_n.jpg",
    "id_album": "523598895",
    "description": "Artistic_167475",
    "title": "Artistic_167475",
    "link_img": "https://live.staticflickr.com/65535/50017133167_f2e14801ae_o.jpg",
    "id_image": "Artistic_167475",
    "count_view": 0
  },
  {
    "link_thumb": "https://live.staticflickr.com/65535/50020037612_82dc578d8e_n.jpg",
    "id_album": "643379324",
    "description": "Clownfish_344386",
    "title": "Clownfish_344386",
    "link_img": "https://live.staticflickr.com/65535/50020037612_c44c79a3b3_o.jpg",
    "id_image": "Clownfish_344386",
    "count_view": 0
  },
  {
    "link_thumb": "https://live.staticflickr.com/65535/50021131871_4cc1255efd_n.jpg",
    "id_album": "-462831704",
    "description": "Cat_593222",
    "title": "Cat_593222",
    "link_img": "https://live.staticflickr.com/65535/50021131871_3fe280e2a8_o.jpg",
    "id_image": "Cat_593222",
    "count_view": 0
  },
  {
    "link_thumb": "https://live.staticflickr.com/65535/50023824357_65e943c3a4_n.jpg",
    "id_album": "-1182356179",
    "description": "Snake_327802",
    "title": "Snake_327802",
    "link_img": "https://live.staticflickr.com/65535/50023824357_bb3b55fdc6_o.jpg",
    "id_image": "Snake_327802",
    "count_view": 0
  },
  {
    "link_thumb": "https://live.staticflickr.com/65535/50024546077_c1435b02d2_n.jpg",
    "id_album": "-1103743486",
    "description": "Toucan_887482",
    "title": "Toucan_887482",
    "link_img": "https://live.staticflickr.com/65535/50024546077_d617f3dff7_o.jpg",
    "id_image": "Toucan_887482",
    "count_view": 0
  },
  {
    "link_thumb": "https://live.staticflickr.com/65535/50021274811_89306b26c7_n.jpg",
    "id_album": "-462831703",
    "description": "Cat_878527",
    "title": "Cat_878527",
    "link_img": "https://live.staticflickr.com/65535/50021274811_c19c2817cc_o.jpg",
    "id_image": "Cat_878527",
    "count_view": 0
  },
  {
    "link_thumb": "https://live.staticflickr.com/65535/50020386043_df5325bda6_n.jpg",
    "id_album": "-1694105481",
    "description": "Fly_889052",
    "title": "Fly_889052",
    "link_img": "https://live.staticflickr.com/65535/50020386043_b2c25c9c63_o.jpg",
    "id_image": "Fly_889052",
    "count_view": 0
  },
  {
    "link_thumb": "https://live.staticflickr.com/65535/50019707756_3f5de76f76_n.jpg",
    "id_album": "-1481843714",
    "description": "Cheetah_433566",
    "title": "Cheetah_433566",
    "link_img": "https://live.staticflickr.com/65535/50019707756_f1d638e496_o.jpg",
    "id_image": "Cheetah_433566",
    "count_view": 0
  },
  {
    "link_thumb": "https://live.staticflickr.com/65535/50017317386_c830701de1_n.jpg",
    "id_album": "-1846011410",
    "description": "Bird_410561",
    "title": "Bird_410561",
    "link_img": "https://live.staticflickr.com/65535/50017317386_07fe17c977_o.jpg",
    "id_image": "Bird_410561",
    "count_view": 0
  },
  {
    "link_thumb": "https://live.staticflickr.com/65535/50021601087_eaaca4e2fa_n.jpg",
    "id_album": "2060159334",
    "description": "GoldenRetriever_371095",
    "title": "GoldenRetriever_371095",
    "link_img": "https://live.staticflickr.com/65535/50021601087_8ea9170657_o.jpg",
    "id_image": "GoldenRetriever_371095",
    "count_view": 0
  },
  {
    "link_thumb": "https://live.staticflickr.com/65535/50016982121_18800b2eac_n.jpg",
    "id_album": "-80092825",
    "description": "Barnowl_986388",
    "title": "Barnowl_986388",
    "link_img": "https://live.staticflickr.com/65535/50016982121_0c8a077215_o.jpg",
    "id_image": "Barnowl_986388",
    "count_view": 0
  },
  {
    "link_thumb": "https://live.staticflickr.com/65535/50021578472_ec35b0452c_n.jpg",
    "id_album": "713572662",
    "description": "Giraffe_394594",
    "title": "Giraffe_394594",
    "link_img": "https://live.staticflickr.com/65535/50021578472_aefa008cb3_o.jpg",
    "id_image": "Giraffe_394594",
    "count_view": 0
  },
  {
    "link_thumb": "https://live.staticflickr.com/65535/50020249976_c866172637_n.jpg",
    "id_album": "-149330232",
    "description": "Dog_330388",
    "title": "Dog_330388",
    "link_img": "https://live.staticflickr.com/65535/50020249976_419e90f885_o.jpg",
    "id_image": "Dog_330388",
    "count_view": 0
  },
  {
    "link_thumb": "https://live.staticflickr.com/65535/50017607053_a226f29223_n.jpg",
    "id_album": "-462831702",
    "description": "Cat_398752",
    "title": "Cat_398752",
    "link_img": "https://live.staticflickr.com/65535/50017607053_b0772f9130_o.jpg",
    "id_image": "Cat_398752",
    "count_view": 0
  },
  {
    "link_thumb": "https://live.staticflickr.com/65535/50019996801_3cebe2afc7_n.jpg",
    "id_album": "1903411565",
    "description": "Deer_359649",
    "title": "Deer_359649",
    "link_img": "https://live.staticflickr.com/65535/50019996801_106b824f52_o.jpg",
    "id_image": "Deer_359649",
    "count_view": 0
  },
  {
    "link_thumb": "https://live.staticflickr.com/65535/50021004457_ed204fa16d_n.jpg",
    "id_album": "1270947998",
    "description": "Elephant_359787",
    "title": "Elephant_359787",
    "link_img": "https://live.staticflickr.com/65535/50021004457_e8f9eb62de_o.jpg",
    "id_image": "Elephant_359787",
    "count_view": 0
  },
  {
    "link_thumb": "https://live.staticflickr.com/65535/50019448803_37c80fee3c_n.jpg",
    "id_album": "1903411565",
    "description": "Deer_186645",
    "title": "Deer_186645",
    "link_img": "https://live.staticflickr.com/65535/50019448803_3b87510f53_o.jpg",
    "id_image": "Deer_186645",
    "count_view": 0
  },
  {
    "link_thumb": "https://live.staticflickr.com/65535/50022389197_f478ff32e6_n.jpg",
    "id_album": "1894617400",
    "description": "Lynx_276216",
    "title": "Lynx_276216",
    "link_img": "https://live.staticflickr.com/65535/50022389197_03dfe42e22_o.jpg",
    "id_image": "Lynx_276216",
    "count_view": 0
  },
  {
    "link_thumb": "https://live.staticflickr.com/65535/50022641697_b857a8310a_n.jpg",
    "id_album": "-1384601601",
    "description": "Owl_260624",
    "title": "Owl_260624",
    "link_img": "https://live.staticflickr.com/65535/50022641697_c4f59276b2_o.jpg",
    "id_image": "Owl_260624",
    "count_view": 0
  },
  {
    "link_thumb": "https://live.staticflickr.com/65535/50022484738_cbaaed56ba_n.jpg",
    "id_album": "-353898617",
    "description": "Puppy_587562",
    "title": "Puppy_587562",
    "link_img": "https://live.staticflickr.com/65535/50022484738_4a3ba19db1_o.jpg",
    "id_image": "Puppy_587562",
    "count_view": 0
  },
  {
    "link_thumb": "https://live.staticflickr.com/65535/50024424721_333bf900d8_n.jpg",
    "id_album": "545627045",
    "description": "Whitestork_807720",
    "title": "Whitestork_807720",
    "link_img": "https://live.staticflickr.com/65535/50024424721_2358ce1a51_o.jpg",
    "id_image": "Whitestork_807720",
    "count_view": 0
  },
  {
    "link_thumb": "https://live.staticflickr.com/65535/50018412612_935bff2314_n.jpg",
    "id_album": "-462831702",
    "description": "Cat_407409",
    "title": "Cat_407409",
    "link_img": "https://live.staticflickr.com/65535/50018412612_a129583882_o.jpg",
    "id_image": "Cat_407409",
    "count_view": 0
  },
  {
    "link_thumb": "https://live.staticflickr.com/65535/50020754177_d174e1a3d6_n.jpg",
    "id_album": "-149330231",
    "description": "Dog_729680",
    "title": "Dog_729680",
    "link_img": "https://live.staticflickr.com/65535/50020754177_e85f62aaf5_o.jpg",
    "id_image": "Dog_729680",
    "count_view": 0
  },
  {
    "link_thumb": "https://live.staticflickr.com/65535/50020207441_848f34c19a_n.jpg",
    "id_album": "-149330232",
    "description": "Dog_275579",
    "title": "Dog_275579",
    "link_img": "https://live.staticflickr.com/65535/50020207441_659812e1c5_o.jpg",
    "id_image": "Dog_275579",
    "count_view": 0
  },
  {
    "link_thumb": "https://live.staticflickr.com/65535/50024820397_e768cd5175_n.jpg",
    "id_album": "-709711865",
    "description": "Wolf_906179",
    "title": "Wolf_906179",
    "link_img": "https://live.staticflickr.com/65535/50024820397_3cefd1cea7_o.jpg",
    "id_image": "Wolf_906179",
    "count_view": 0
  },
  {
    "link_thumb": "https://live.staticflickr.com/65535/50016836126_8ebe02686e_n.jpg",
    "id_album": "-1741290715",
    "description": "Ant_462035",
    "title": "Ant_462035",
    "link_img": "https://live.staticflickr.com/65535/50016836126_61ccc84a1b_o.jpg",
    "id_image": "Ant_462035",
    "count_view": 0
  },
  {
    "link_thumb": "https://live.staticflickr.com/65535/50024832877_b490b8ebf9_n.jpg",
    "id_album": "1104421803",
    "description": "Zebra_420990",
    "title": "Zebra_420990",
    "link_img": "https://live.staticflickr.com/65535/50024832877_2ae46f3243_o.jpg",
    "id_image": "Zebra_420990",
    "count_view": 0
  },
  {
    "link_thumb": "https://live.staticflickr.com/65535/50017006201_6db00c56f2_n.jpg",
    "id_album": "-422187261",
    "description": "Bear_191618",
    "title": "Bear_191618",
    "link_img": "https://live.staticflickr.com/65535/50017006201_a036a36eec_o.jpg",
    "id_image": "Bear_191618",
    "count_view": 0
  },
  {
    "link_thumb": "https://live.staticflickr.com/65535/50021224506_6c29b4d92e_n.jpg",
    "id_album": "-462831703",
    "description": "Cat_744082",
    "title": "Cat_744082",
    "link_img": "https://live.staticflickr.com/65535/50021224506_bc02451aba_o.jpg",
    "id_image": "Cat_744082",
    "count_view": 0
  },
  {
    "link_thumb": "https://live.staticflickr.com/65535/50020989652_cf75e79664_n.jpg",
    "id_album": "1270947998",
    "description": "Elephant_212205",
    "title": "Elephant_212205",
    "link_img": "https://live.staticflickr.com/65535/50020989652_2ea8f9f332_o.jpg",
    "id_image": "Elephant_212205",
    "count_view": 0
  },
  {
    "link_thumb": "https://live.staticflickr.com/65535/50021131386_385ba7b904_n.jpg",
    "id_album": "-462831704",
    "description": "Cat_593088",
    "title": "Cat_593088",
    "link_img": "https://live.staticflickr.com/65535/50021131386_122cac6404_o.jpg",
    "id_image": "Cat_593088",
    "count_view": 0
  },
  {
    "link_thumb": "https://live.staticflickr.com/65535/50022153322_0bf9363513_n.jpg",
    "id_album": "1392348450",
    "description": "Leopard_323258",
    "title": "Leopard_323258",
    "link_img": "https://live.staticflickr.com/65535/50022153322_aba23cd7d8_o.jpg",
    "id_image": "Leopard_323258",
    "count_view": 0
  },
  {
    "link_thumb": "https://live.staticflickr.com/65535/50017197482_e966b38ac0_n.jpg",
    "id_album": "390697200",
    "description": "AustralianShepherd_787334",
    "title": "AustralianShepherd_787334",
    "link_img": "https://live.staticflickr.com/65535/50017197482_f650091bf6_o.jpg",
    "id_image": "AustralianShepherd_787334",
    "count_view": 0
  },
  {
    "link_thumb": "https://live.staticflickr.com/65535/50020512403_68eba1eb7b_n.jpg",
    "id_album": "844170697",
    "description": "Frog_324850",
    "title": "Frog_324850",
    "link_img": "https://live.staticflickr.com/65535/50020512403_7736db61a8_o.jpg",
    "id_image": "Frog_324850",
    "count_view": 0
  },
  {
    "link_thumb": "https://live.staticflickr.com/65535/50017592456_01cf851971_n.jpg",
    "id_album": "-401151552",
    "description": "Butterfly_426847",
    "title": "Butterfly_426847",
    "link_img": "https://live.staticflickr.com/65535/50017592456_28c1571f15_o.jpg",
    "id_image": "Butterfly_426847",
    "count_view": 0
  },
  {
    "link_thumb": "https://live.staticflickr.com/65535/50022219087_2d809a7267_n.jpg",
    "id_album": "1392348450",
    "description": "Leopard_945815",
    "title": "Leopard_945815",
    "link_img": "https://live.staticflickr.com/65535/50022219087_71a85de4e8_o.jpg",
    "id_image": "Leopard_945815",
    "count_view": 0
  },
  {
    "link_thumb": "https://live.staticflickr.com/65535/50021479996_f3666d9041_n.jpg",
    "id_album": "-1933715543",
    "description": "Horse_275651",
    "title": "Horse_275651",
    "link_img": "https://live.staticflickr.com/65535/50021479996_5571396007_o.jpg",
    "id_image": "Horse_275651",
    "count_view": 0
  },
  {
    "link_thumb": "https://live.staticflickr.com/65535/50021166692_486fe02ed6_n.jpg",
    "id_album": "-1758557371",
    "description": "Flamingo_808492",
    "title": "Flamingo_808492",
    "link_img": "https://live.staticflickr.com/65535/50021166692_78116a8e6c_o.jpg",
    "id_image": "Flamingo_808492",
    "count_view": 0
  },
  {
    "link_thumb": "https://live.staticflickr.com/65535/50023959351_4eb05b3031_n.jpg",
    "id_album": "702283289",
    "description": "Squirrel_887487",
    "title": "Squirrel_887487",
    "link_img": "https://live.staticflickr.com/65535/50023959351_8c0edb0e74_o.jpg",
    "id_image": "Squirrel_887487",
    "count_view": 0
  },
  {
    "link_thumb": "https://live.staticflickr.com/65535/50017198057_df1dc161da_n.jpg",
    "id_album": "390697200",
    "description": "AustralianShepherd_790274",
    "title": "AustralianShepherd_790274",
    "link_img": "https://live.staticflickr.com/65535/50017198057_ef89a86f9b_o.jpg",
    "id_image": "AustralianShepherd_790274",
    "count_view": 0
  },
  {
    "link_thumb": "https://live.staticflickr.com/65535/50020060577_32aa115960_n.jpg",
    "id_album": "-1868680171",
    "description": "Cougar_224507",
    "title": "Cougar_224507",
    "link_img": "https://live.staticflickr.com/65535/50020060577_2142e76706_o.jpg",
    "id_image": "Cougar_224507",
    "count_view": 0
  },
  {
    "link_thumb": "https://live.staticflickr.com/65535/50016675038_75b5befafe_n.jpg",
    "id_album": "-1846011410",
    "description": "Bird_161556",
    "title": "Bird_161556",
    "link_img": "https://live.staticflickr.com/65535/50016675038_f6ba8b46ca_o.jpg",
    "id_image": "Bird_161556",
    "count_view": 0
  },
  {
    "link_thumb": "https://live.staticflickr.com/65535/50021507197_beff1387d8_n.jpg",
    "id_album": "-462831703",
    "description": "Cat_794219",
    "title": "Cat_794219",
    "link_img": "https://live.staticflickr.com/65535/50021507197_3cf8d06ea9_o.jpg",
    "id_image": "Cat_794219",
    "count_view": 0
  },
  {
    "link_thumb": "https://live.staticflickr.com/65535/50022002607_c8dff058cb_n.jpg",
    "id_album": "665694624",
    "description": "JapaneseMacaque_362122",
    "title": "JapaneseMacaque_362122",
    "link_img": "https://live.staticflickr.com/65535/50022002607_1e862545f0_o.jpg",
    "id_image": "JapaneseMacaque_362122",
    "count_view": 0
  },
  {
    "link_thumb": "https://live.staticflickr.com/65535/50017903202_736456682b_n.jpg",
    "id_album": "-401151552",
    "description": "Butterfly_686289",
    "title": "Butterfly_686289",
    "link_img": "https://live.staticflickr.com/65535/50017903202_6c708bb4f5_o.jpg",
    "id_image": "Butterfly_686289",
    "count_view": 0
  },
  {
    "link_thumb": "https://live.staticflickr.com/65535/50351958768_0d35ba0450_n.jpg",
    "id_album": "-462831703",
    "description": "Cat_706447",
    "title": "Cat_706447",
    "link_img": "https://live.staticflickr.com/65535/50351958768_165f321c63_o.jpg",
    "id_image": "Cat_706447",
    "count_view": 0
  },
  {
    "link_thumb": "https://live.staticflickr.com/65535/50017069653_a304cbf89f_n.jpg",
    "id_album": "-401151552",
    "description": "Butterfly_433585",
    "title": "Butterfly_433585",
    "link_img": "https://live.staticflickr.com/65535/50017069653_77ef549ca4_o.jpg",
    "id_image": "Butterfly_433585",
    "count_view": 0
  },
  {
    "link_thumb": "https://live.staticflickr.com/65535/50022593607_7079074109_n.jpg",
    "id_album": "1015034486",
    "description": "Muteswan_731879",
    "title": "Muteswan_731879",
    "link_img": "https://live.staticflickr.com/65535/50022593607_ce472ecd5b_o.jpg",
    "id_image": "Muteswan_731879",
    "count_view": 0
  },
  {
    "link_thumb": "https://live.staticflickr.com/65535/50020475033_a3bdb04aa4_n.jpg",
    "id_album": "-128218148",
    "description": "Fox_892942",
    "title": "Fox_892942",
    "link_img": "https://live.staticflickr.com/65535/50020475033_0077c169cf_o.jpg",
    "id_image": "Fox_892942",
    "count_view": 0
  },
  {
    "link_thumb": "https://live.staticflickr.com/65535/50352748142_da02651011_n.jpg",
    "id_album": "-462831703",
    "description": "Cat_527494",
    "title": "Cat_527494",
    "link_img": "https://live.staticflickr.com/65535/50352748142_b5155515ac_o.jpg",
    "id_image": "Cat_527494",
    "count_view": 0
  },
  {
    "link_thumb": "https://live.staticflickr.com/65535/50022670488_921d36ccf5_n.jpg",
    "id_album": "332874268",
    "description": "RedPanda_432997",
    "title": "RedPanda_432997",
    "link_img": "https://live.staticflickr.com/65535/50022670488_27aef2199e_o.jpg",
    "id_image": "RedPanda_432997",
    "count_view": 0
  },
  {
    "link_thumb": "https://live.staticflickr.com/65535/50018171427_4894608087_n.jpg",
    "id_album": "-462831705",
    "description": "Cat_261186",
    "title": "Cat_261186",
    "link_img": "https://live.staticflickr.com/65535/50018171427_f1488a8d8f_o.jpg",
    "id_image": "Cat_261186",
    "count_view": 0
  },
  {
    "link_thumb": "https://live.staticflickr.com/65535/50021108236_fa1be25fc6_n.jpg",
    "id_album": "-462831704",
    "description": "Cat_548994",
    "title": "Cat_548994",
    "link_img": "https://live.staticflickr.com/65535/50021108236_dfbe6ae7e6_o.jpg",
    "id_image": "Cat_548994",
    "count_view": 0
  },
  {
    "link_thumb": "https://live.staticflickr.com/65535/50021921852_5011b2bb7a_n.jpg",
    "id_album": "1658866795",
    "description": "Insect_391728",
    "title": "Insect_391728",
    "link_img": "https://live.staticflickr.com/65535/50021921852_d88f88bb97_o.jpg",
    "id_image": "Insect_391728",
    "count_view": 0
  },
  {
    "link_thumb": "https://live.staticflickr.com/65535/50017041063_6f34638ee8_n.jpg",
    "id_album": "-401151552",
    "description": "Butterfly_349196",
    "title": "Butterfly_349196",
    "link_img": "https://live.staticflickr.com/65535/50017041063_9dec9859cb_o.jpg",
    "id_image": "Butterfly_349196",
    "count_view": 0
  },
  {
    "link_thumb": "https://live.staticflickr.com/65535/50017057718_145745e28d_n.jpg",
    "id_album": "-401151552",
    "description": "Butterfly_401859",
    "title": "Butterfly_401859",
    "link_img": "https://live.staticflickr.com/65535/50017057718_20f6f4a213_o.jpg",
    "id_image": "Butterfly_401859",
    "count_view": 0
  },
  {
    "link_thumb": "https://live.staticflickr.com/65535/50024421432_b273765e4b_n.jpg",
    "id_album": "405170427",
    "description": "Tiger_565191",
    "title": "Tiger_565191",
    "link_img": "https://live.staticflickr.com/65535/50024421432_4e8f6def77_o.jpg",
    "id_image": "Tiger_565191",
    "count_view": 0
  },
  {
    "link_thumb": "https://live.staticflickr.com/65535/50016601478_fbb7c93ec0_n.jpg",
    "id_album": "1699594607",
    "description": "Bee_358876",
    "title": "Bee_358876",
    "link_img": "https://live.staticflickr.com/65535/50016601478_1469172530_o.jpg",
    "id_image": "Bee_358876",
    "count_view": 0
  },
  {
    "link_thumb": "https://live.staticflickr.com/65535/50020798993_d5dbfca591_n.jpg",
    "id_album": "-804131074",
    "description": "Goat_416099",
    "title": "Goat_416099",
    "link_img": "https://live.staticflickr.com/65535/50020798993_941cc9b0a9_o.jpg",
    "id_image": "Goat_416099",
    "count_view": 0
  },
  {
    "link_thumb": "https://live.staticflickr.com/65535/50016952288_98ac26e2d0_n.jpg",
    "id_album": "782930701",
    "description": "BorderCollie_246200",
    "title": "BorderCollie_246200",
    "link_img": "https://live.staticflickr.com/65535/50016952288_624b3d1a4d_o.jpg",
    "id_image": "BorderCollie_246200",
    "count_view": 0
  },
  {
    "link_thumb": "https://live.staticflickr.com/65535/50024466262_1c1b8a7e3f_n.jpg",
    "id_album": "405170427",
    "description": "Tiger_750220",
    "title": "Tiger_750220",
    "link_img": "https://live.staticflickr.com/65535/50024466262_2afed63090_o.jpg",
    "id_image": "Tiger_750220",
    "count_view": 0
  },
  {
    "link_thumb": "https://live.staticflickr.com/65535/50021848652_b08beb8b09_n.jpg",
    "id_album": "773713550",
    "description": "Hoverfly_272313",
    "title": "Hoverfly_272313",
    "link_img": "https://live.staticflickr.com/65535/50021848652_4821c80e5b_o.jpg",
    "id_image": "Hoverfly_272313",
    "count_view": 0
  },
  {
    "link_thumb": "https://live.staticflickr.com/65535/50022449178_2b0841fd4f_n.jpg",
    "id_album": "-353898617",
    "description": "Puppy_422453",
    "title": "Puppy_422453",
    "link_img": "https://live.staticflickr.com/65535/50022449178_9b2f631e72_o.jpg",
    "id_image": "Puppy_422453",
    "count_view": 0
  },
  {
    "link_thumb": "https://live.staticflickr.com/65535/50019210098_d9d88f8fa8_n.jpg",
    "id_album": "-1481843714",
    "description": "Cheetah_982505",
    "title": "Cheetah_982505",
    "link_img": "https://live.staticflickr.com/65535/50019210098_ae13ff301e_o.jpg",
    "id_image": "Cheetah_982505",
    "count_view": 0
  },
  {
    "link_thumb": "https://live.staticflickr.com/65535/50022718123_d7db69f5b0_n.jpg",
    "id_album": "-2087362619",
    "description": "RedandgreenMacaw_937206",
    "title": "RedandgreenMacaw_937206",
    "link_img": "https://live.staticflickr.com/65535/50022718123_4159697817_o.jpg",
    "id_image": "RedandgreenMacaw_937206",
    "count_view": 0
  },
  {
    "link_thumb": "https://live.staticflickr.com/65535/50021845441_59b6bb19bf_n.jpg",
    "id_album": "-1882491687",
    "description": "Ladybug_371593",
    "title": "Ladybug_371593",
    "link_img": "https://live.staticflickr.com/65535/50021845441_8d1b925ede_o.jpg",
    "id_image": "Ladybug_371593",
    "count_view": 0
  },
  {
    "link_thumb": "https://live.staticflickr.com/65535/50021957391_d6660bebac_n.jpg",
    "id_album": "1392348450",
    "description": "Leopard_916074",
    "title": "Leopard_916074",
    "link_img": "https://live.staticflickr.com/65535/50021957391_53562ee002_o.jpg",
    "id_image": "Leopard_916074",
    "count_view": 0
  },
  {
    "link_thumb": "https://live.staticflickr.com/65535/50017022756_b0afbd5ae1_n.jpg",
    "id_album": "-422187261",
    "description": "Bear_338040",
    "title": "Bear_338040",
    "link_img": "https://live.staticflickr.com/65535/50017022756_6157853cb1_o.jpg",
    "id_image": "Bear_338040",
    "count_view": 0
  },
  {
    "link_thumb": "https://live.staticflickr.com/65535/50016889603_c392b998cd_n.jpg",
    "id_album": "-1846011410",
    "description": "Bird_736553",
    "title": "Bird_736553",
    "link_img": "https://live.staticflickr.com/65535/50016889603_1b56b569f1_o.jpg",
    "id_image": "Bird_736553",
    "count_view": 0
  },
  {
    "link_thumb": "https://live.staticflickr.com/65535/50021324513_9df7bb2da8_n.jpg",
    "id_album": "-1882491687",
    "description": "Ladybug_836860",
    "title": "Ladybug_836860",
    "link_img": "https://live.staticflickr.com/65535/50021324513_f888782e1f_o.jpg",
    "id_image": "Ladybug_836860",
    "count_view": 0
  },
  {
    "link_thumb": "https://live.staticflickr.com/65535/50021113068_fa3c14e6bc_n.jpg",
    "id_album": "-737856092",
    "description": "Iguana_808127",
    "title": "Iguana_808127",
    "link_img": "https://live.staticflickr.com/65535/50021113068_f62b9e7e30_o.jpg",
    "id_image": "Iguana_808127",
    "count_view": 0
  },
  {
    "link_thumb": "https://live.staticflickr.com/65535/50017677896_5f5513ae1f_n.jpg",
    "id_album": "-401151552",
    "description": "Butterfly_852980",
    "title": "Butterfly_852980",
    "link_img": "https://live.staticflickr.com/65535/50017677896_06e87e3363_o.jpg",
    "id_image": "Butterfly_852980",
    "count_view": 0
  },
  {
    "link_thumb": "https://live.staticflickr.com/65535/50021380471_275a9fa677_n.jpg",
    "id_album": "-817970789",
    "description": "Goose_268517",
    "title": "Goose_268517",
    "link_img": "https://live.staticflickr.com/65535/50021380471_4e34fb9a18_o.jpg",
    "id_image": "Goose_268517",
    "count_view": 0
  },
  {
    "link_thumb": "https://live.staticflickr.com/65535/50016307143_cd52e318b8_n.jpg",
    "id_album": "-1741290715",
    "description": "Ant_452324",
    "title": "Ant_452324",
    "link_img": "https://live.staticflickr.com/65535/50016307143_1857eca872_o.jpg",
    "id_image": "Ant_452324",
    "count_view": 0
  },
  {
    "link_thumb": "https://live.staticflickr.com/65535/50023893748_37b837812c_n.jpg",
    "id_album": "766572659",
    "description": "WhiteTiger_387354",
    "title": "WhiteTiger_387354",
    "link_img": "https://live.staticflickr.com/65535/50023893748_799136f705_o.jpg",
    "id_image": "WhiteTiger_387354",
    "count_view": 0
  },
  {
    "link_thumb": "https://live.staticflickr.com/65535/50020579593_27465a044f_n.jpg",
    "id_album": "-462831704",
    "description": "Cat_571962",
    "title": "Cat_571962",
    "link_img": "https://live.staticflickr.com/65535/50020579593_24de781a94_o.jpg",
    "id_image": "Cat_571962",
    "count_view": 0
  },
  {
    "link_thumb": "https://live.staticflickr.com/65535/50017539501_4a808dd3c7_n.jpg",
    "id_album": "-401151552",
    "description": "Butterfly_168591",
    "title": "Butterfly_168591",
    "link_img": "https://live.staticflickr.com/65535/50017539501_5e9a7f03f7_o.jpg",
    "id_image": "Butterfly_168591",
    "count_view": 0
  },
  {
    "link_thumb": "https://live.staticflickr.com/65535/50352711501_db5d9585d4_n.jpg",
    "id_album": "-462831702",
    "description": "Cat_92106",
    "title": "Cat_92106",
    "link_img": "https://live.staticflickr.com/65535/50352711501_75ccec9ca5_o.jpg",
    "id_image": "Cat_92106",
    "count_view": 0
  },
  {
    "link_thumb": "https://live.staticflickr.com/65535/50021320861_0a3888b136_n.jpg",
    "id_album": "713572662",
    "description": "Giraffe_355441",
    "title": "Giraffe_355441",
    "link_img": "https://live.staticflickr.com/65535/50021320861_182cccf059_o.jpg",
    "id_image": "Giraffe_355441",
    "count_view": 0
  },
  {
    "link_thumb": "https://live.staticflickr.com/65535/50019661313_c4466cbdd0_n.jpg",
    "id_album": "-149330232",
    "description": "Dog_264006",
    "title": "Dog_264006",
    "link_img": "https://live.staticflickr.com/65535/50019661313_d45c30bfe7_o.jpg",
    "id_image": "Dog_264006",
    "count_view": 0
  },
  {
    "link_thumb": "https://live.staticflickr.com/65535/50021225676_c9c69f0f0b_n.jpg",
    "id_album": "-462831703",
    "description": "Cat_745829",
    "title": "Cat_745829",
    "link_img": "https://live.staticflickr.com/65535/50021225676_3ef9004fa4_o.jpg",
    "id_image": "Cat_745829",
    "count_view": 0
  },
  {
    "link_thumb": "https://live.staticflickr.com/65535/50019976862_e19f9707ca_n.jpg",
    "id_album": "-1481843714",
    "description": "Cheetah_686303",
    "title": "Cheetah_686303",
    "link_img": "https://live.staticflickr.com/65535/50019976862_a970b8d6e7_o.jpg",
    "id_image": "Cheetah_686303",
    "count_view": 0
  },
  {
    "link_thumb": "https://live.staticflickr.com/65535/50022731216_38d015c5f3_n.jpg",
    "id_album": "392248205",
    "description": "Penguin_912464",
    "title": "Penguin_912464",
    "link_img": "https://live.staticflickr.com/65535/50022731216_1b6aa0aa9b_o.jpg",
    "id_image": "Penguin_912464",
    "count_view": 0
  },
  {
    "link_thumb": "https://live.staticflickr.com/65535/50020666152_0c6b175c8d_n.jpg",
    "id_album": "-149330231",
    "description": "Dog_431582",
    "title": "Dog_431582",
    "link_img": "https://live.staticflickr.com/65535/50020666152_90ebb37e77_o.jpg",
    "id_image": "Dog_431582",
    "count_view": 0
  },
  {
    "link_thumb": "https://live.staticflickr.com/65535/50018340767_fd59c7feac_n.jpg",
    "id_album": "-462831702",
    "description": "Cat_367906",
    "title": "Cat_367906",
    "link_img": "https://live.staticflickr.com/65535/50018340767_98b79b99e7_o.jpg",
    "id_image": "Cat_367906",
    "count_view": 0
  },
  {
    "link_thumb": "https://live.staticflickr.com/65535/50023285822_a1c9ec08d3_n.jpg",
    "id_album": "-353898617",
    "description": "Puppy_589812",
    "title": "Puppy_589812",
    "link_img": "https://live.staticflickr.com/65535/50023285822_6bec644dbd_o.jpg",
    "id_image": "Puppy_589812",
    "count_view": 0
  },
  {
    "link_thumb": "https://live.staticflickr.com/65535/50024162412_d591103cba_n.jpg",
    "id_album": "702283289",
    "description": "Squirrel_550994",
    "title": "Squirrel_550994",
    "link_img": "https://live.staticflickr.com/65535/50024162412_24e6ea1c4e_o.jpg",
    "id_image": "Squirrel_550994",
    "count_view": 0
  },
  {
    "link_thumb": "https://live.staticflickr.com/65535/50020253841_1db218ef0b_n.jpg",
    "id_album": "-149330232",
    "description": "Dog_331858",
    "title": "Dog_331858",
    "link_img": "https://live.staticflickr.com/65535/50020253841_8e8fcc5983_o.jpg",
    "id_image": "Dog_331858",
    "count_view": 0
  },
  {
    "link_thumb": "https://live.staticflickr.com/65535/50016670643_05bb342fd8_n.jpg",
    "id_album": "-1846011410",
    "description": "Bird_118057",
    "title": "Bird_118057",
    "link_img": "https://live.staticflickr.com/65535/50016670643_d3ba5b3494_o.jpg",
    "id_image": "Bird_118057",
    "count_view": 0
  },
  {
    "link_thumb": "https://live.staticflickr.com/65535/50017331692_a2b328eb1f_n.jpg",
    "id_album": "-422187261",
    "description": "Bear_708136",
    "title": "Bear_708136",
    "link_img": "https://live.staticflickr.com/65535/50017331692_3e4181cb21_o.jpg",
    "id_image": "Bear_708136",
    "count_view": 0
  },
  {
    "link_thumb": "https://live.staticflickr.com/65535/50017863207_ef52454a5e_n.jpg",
    "id_album": "-401151552",
    "description": "Butterfly_453834",
    "title": "Butterfly_453834",
    "link_img": "https://live.staticflickr.com/65535/50017863207_b8dd310b41_o.jpg",
    "id_image": "Butterfly_453834",
    "count_view": 0
  },
  {
    "link_thumb": "https://live.staticflickr.com/65535/50021179242_9817481474_n.jpg",
    "id_album": "-1694105481",
    "description": "Fly_696596",
    "title": "Fly_696596",
    "link_img": "https://live.staticflickr.com/65535/50021179242_26388f0940_o.jpg",
    "id_image": "Fly_696596",
    "count_view": 0
  },
  {
    "link_thumb": "https://live.staticflickr.com/65535/50020950271_d6ee807d66_n.jpg",
    "id_album": "-128218148",
    "description": "Fox_346200",
    "title": "Fox_346200",
    "link_img": "https://live.staticflickr.com/65535/50020950271_8444909482_o.jpg",
    "id_image": "Fox_346200",
    "count_view": 0
  },
  {
    "link_thumb": "https://live.staticflickr.com/65535/50017621866_35d1b79dfc_n.jpg",
    "id_album": "-401151552",
    "description": "Butterfly_531407",
    "title": "Butterfly_531407",
    "link_img": "https://live.staticflickr.com/65535/50017621866_abdfd05f9c_o.jpg",
    "id_image": "Butterfly_531407",
    "count_view": 0
  },
  {
    "link_thumb": "https://live.staticflickr.com/65535/50023333312_ac7677642c_n.jpg",
    "id_album": "470794721",
    "description": "Python_270199",
    "title": "Python_270199",
    "link_img": "https://live.staticflickr.com/65535/50023333312_b260b4d8d0_o.jpg",
    "id_image": "Python_270199",
    "count_view": 0
  },
  {
    "link_thumb": "https://live.staticflickr.com/65535/50021189116_06c404007b_n.jpg",
    "id_album": "-462831704",
    "description": "Cat_708269",
    "title": "Cat_708269",
    "link_img": "https://live.staticflickr.com/65535/50021189116_0673eb4ebc_o.jpg",
    "id_image": "Cat_708269",
    "count_view": 0
  },
  {
    "link_thumb": "https://live.staticflickr.com/65535/50023230827_4b143eccd7_n.jpg",
    "id_album": "-353898617",
    "description": "Puppy_364948",
    "title": "Puppy_364948",
    "link_img": "https://live.staticflickr.com/65535/50023230827_64c5cc3f05_o.jpg",
    "id_image": "Puppy_364948",
    "count_view": 0
  },
  {
    "link_thumb": "https://live.staticflickr.com/65535/50019542412_a6b90ec69d_n.jpg",
    "id_album": "-462831704",
    "description": "Cat_523603",
    "title": "Cat_523603",
    "link_img": "https://live.staticflickr.com/65535/50019542412_faa4e361f6_o.jpg",
    "id_image": "Cat_523603",
    "count_view": 0
  },
  {
    "link_thumb": "https://live.staticflickr.com/65535/50351713348_87d62b2c1a_n.jpg",
    "id_album": "-462831703",
    "description": "Cat_176153",
    "title": "Cat_176153",
    "link_img": "https://live.staticflickr.com/65535/50351713348_b2ca82eb0f_o.jpg",
    "id_image": "Cat_176153",
    "count_view": 0
  },
  {
    "link_thumb": "https://live.staticflickr.com/65535/50017291841_85b58be973_n.jpg",
    "id_album": "-1846011410",
    "description": "Bird_385218",
    "title": "Bird_385218",
    "link_img": "https://live.staticflickr.com/65535/50017291841_c76a92882b_o.jpg",
    "id_image": "Bird_385218",
    "count_view": 0
  },
  {
    "link_thumb": "https://live.staticflickr.com/65535/50023416556_fd3cda9015_n.jpg",
    "id_album": "1961094930",
    "description": "Seal_524445",
    "title": "Seal_524445",
    "link_img": "https://live.staticflickr.com/65535/50023416556_d9b4939f48_o.jpg",
    "id_image": "Seal_524445",
    "count_view": 0
  },
  {
    "link_thumb": "https://live.staticflickr.com/65535/50017347308_d39dee573f_n.jpg",
    "id_album": "-462831705",
    "description": "Cat_225418",
    "title": "Cat_225418",
    "link_img": "https://live.staticflickr.com/65535/50017347308_9782ff3a3e_o.jpg",
    "id_image": "Cat_225418",
    "count_view": 0
  },
  {
    "link_thumb": "https://live.staticflickr.com/65535/50017211948_e174d97050_n.jpg",
    "id_album": "189994021",
    "description": "Cardinal_96068",
    "title": "Cardinal_96068",
    "link_img": "https://live.staticflickr.com/65535/50017211948_cf541a4597_o.jpg",
    "id_image": "Cardinal_96068",
    "count_view": 0
  },
  {
    "link_thumb": "https://live.staticflickr.com/65535/50022924063_7d9598168f_n.jpg",
    "id_album": "-1596347105",
    "description": "Shark_897358",
    "title": "Shark_897358",
    "link_img": "https://live.staticflickr.com/65535/50022924063_1c2ea8e9af_o.jpg",
    "id_image": "Shark_897358",
    "count_view": 0
  },
  {
    "link_thumb": "https://live.staticflickr.com/65535/50020938726_0637f92721_n.jpg",
    "id_album": "-128218148",
    "description": "Fox_249055",
    "title": "Fox_249055",
    "link_img": "https://live.staticflickr.com/65535/50020938726_e983b7fa03_o.jpg",
    "id_image": "Fox_249055",
    "count_view": 0
  },
  {
    "link_thumb": "https://live.staticflickr.com/65535/50021253261_b7b908295b_n.jpg",
    "id_album": "-462831703",
    "description": "Cat_793094",
    "title": "Cat_793094",
    "link_img": "https://live.staticflickr.com/65535/50021253261_d81c9c099d_o.jpg",
    "id_image": "Cat_793094",
    "count_view": 0
  },
  {
    "link_thumb": "https://live.staticflickr.com/65535/50021367241_905a13e9f3_n.jpg",
    "id_album": "2060159334",
    "description": "GoldenRetriever_903444",
    "title": "GoldenRetriever_903444",
    "link_img": "https://live.staticflickr.com/65535/50021367241_d62b6b0ac8_o.jpg",
    "id_image": "GoldenRetriever_903444",
    "count_view": 0
  },
  {
    "link_thumb": "https://live.staticflickr.com/65535/50017388227_f444829d59_n.jpg",
    "id_album": "1699594607",
    "description": "Bee_357871",
    "title": "Bee_357871",
    "link_img": "https://live.staticflickr.com/65535/50017388227_d342b2ddc3_o.jpg",
    "id_image": "Bee_357871",
    "count_view": 0
  },
  {
    "link_thumb": "https://live.staticflickr.com/65535/50352515561_f6767a6e14_n.jpg",
    "id_album": "-462831703",
    "description": "Cat_429075",
    "title": "Cat_429075",
    "link_img": "https://live.staticflickr.com/65535/50352515561_ea22008074_o.jpg",
    "id_image": "Cat_429075",
    "count_view": 0
  },
  {
    "link_thumb": "https://live.staticflickr.com/65535/50017872601_9088374a88_n.jpg",
    "id_album": "-462831705",
    "description": "Cat_221854",
    "title": "Cat_221854",
    "link_img": "https://live.staticflickr.com/65535/50017872601_75468418d1_o.jpg",
    "id_image": "Cat_221854",
    "count_view": 0
  },
  {
    "link_thumb": "https://live.staticflickr.com/65535/50022567873_6125ed9fe8_n.jpg",
    "id_album": "-1940643173",
    "description": "Rabbit_435861",
    "title": "Rabbit_435861",
    "link_img": "https://live.staticflickr.com/65535/50022567873_6dc394ba21_o.jpg",
    "id_image": "Rabbit_435861",
    "count_view": 0
  },
  {
    "link_thumb": "https://live.staticflickr.com/65535/50019654993_8103b898b4_n.jpg",
    "id_album": "-149330232",
    "description": "Dog_258034",
    "title": "Dog_258034",
    "link_img": "https://live.staticflickr.com/65535/50019654993_79c4210c84_o.jpg",
    "id_image": "Dog_258034",
    "count_view": 0
  },
  {
    "link_thumb": "https://live.staticflickr.com/65535/50017078707_235c348ed0_n.jpg",
    "id_album": "-1473450542",
    "description": "Alpaca_548393",
    "title": "Alpaca_548393",
    "link_img": "https://live.staticflickr.com/65535/50017078707_4cb56d428f_o.jpg",
    "id_image": "Alpaca_548393",
    "count_view": 0
  },
  {
    "link_thumb": "https://live.staticflickr.com/65535/50020677463_9b31dfe015_n.jpg",
    "id_album": "-462831703",
    "description": "Cat_740480",
    "title": "Cat_740480",
    "link_img": "https://live.staticflickr.com/65535/50020677463_f0cd380cd5_o.jpg",
    "id_image": "Cat_740480",
    "count_view": 0
  }
]