[
  {
    "link_thumb": "https://live.staticflickr.com/65535/50020239488_9709cee6ef_n.jpg",
    "id_album": "1270947998",
    "description": "Elephant_596625",
    "title": "Elephant_596625",
    "link_img": "https://live.staticflickr.com/65535/50020239488_3d4118a0fb_o.jpg",
    "id_image": "Elephant_596625",
    "count_view": 0
  },
  {
    "link_thumb": "https://live.staticflickr.com/65535/50016710038_88da5fdf10_n.jpg",
    "id_album": "-1846011410",
    "description": "Bird_316004",
    "title": "Bird_316004",
    "link_img": "https://live.staticflickr.com/65535/50016710038_8b7a987cd1_o.jpg",
    "id_image": "Bird_316004",
    "count_view": 0
  },
  {
    "link_thumb": "https://live.staticflickr.com/65535/50021871417_d608999c55_n.jpg",
    "id_album": "2144294979",
    "description": "Hummingbird_701762",
    "title": "Hummingbird_701762",
    "link_img": "https://live.staticflickr.com/65535/50021871417_088f4e0ab2_o.jpg",
    "id_image": "Hummingbird_701762",
    "count_view": 0
  },
  {
    "link_thumb": "https://live.staticflickr.com/65535/50021154326_3a8e34ceb6_n.jpg",
    "id_album": "-462831704",
    "description": "Cat_658829",
    "title": "Cat_658829",
    "link_img": "https://live.staticflickr.com/65535/50021154326_626fcee510_o.jpg",
    "id_image": "Cat_658829",
    "count_view": 0
  },
  {
    "link_thumb": "https://live.staticflickr.com/65535/50020661551_2a1947a075_n.jpg",
    "id_album": "1168627767",
    "description": "Duck_453725",
    "title": "Duck_453725",
    "link_img": "https://live.staticflickr.com/65535/50020661551_1ab65ef5b8_o.jpg",
    "id_image": "Duck_453725",
    "count_view": 0
  },
  {
    "link_thumb": "https://live.staticflickr.com/65535/50021094962_bf780678d0_n.jpg",
    "id_album": "-1118073211",
    "description": "Fish_348736",
    "title": "Fish_348736",
    "link_img": "https://live.staticflickr.com/65535/50021094962_8666295217_o.jpg",
    "id_image": "Fish_348736",
    "count_view": 0
  },
  {
    "link_thumb": "https://live.staticflickr.com/65535/50020860763_c22a603140_n.jpg",
    "id_album": "-1168906494",
    "description": "Grasshopper_616734",
    "title": "Grasshopper_616734",
    "link_img": "https://live.staticflickr.com/65535/50020860763_3f9029e781_o.jpg",
    "id_image": "Grasshopper_616734",
    "count_view": 0
  },
  {
    "link_thumb": "https://live.staticflickr.com/65535/50016958546_b15c82d1c2_n.jpg",
    "id_album": "231236068",
    "description": "BaldEagle_443229",
    "title": "BaldEagle_443229",
    "link_img": "https://live.staticflickr.com/65535/50016958546_2b2a888257_o.jpg",
    "id_image": "BaldEagle_443229",
    "count_view": 0
  },
  {
    "link_thumb": "https://live.staticflickr.com/65535/50023238561_c08257eda4_n.jpg",
    "id_album": "332874268",
    "description": "RedPanda_908990",
    "title": "RedPanda_908990",
    "link_img": "https://live.staticflickr.com/65535/50023238561_af723ee65b_o.jpg",
    "id_image": "RedPanda_908990",
    "count_view": 0
  },
  {
    "link_thumb": "https://live.staticflickr.com/65535/50021491567_dcf4826584_n.jpg",
    "id_album": "-462831703",
    "description": "Cat_776581",
    "title": "Cat_776581",
    "link_img": "https://live.staticflickr.com/65535/50021491567_413974cf6e_o.jpg",
    "id_image": "Cat_776581",
    "count_view": 0
  },
  {
    "link_thumb": "https://live.staticflickr.com/65535/50020947292_1db6c93db7_n.jpg",
    "id_album": "-39098563",
    "description": "Eagle_331984",
    "title": "Eagle_331984",
    "link_img": "https://live.staticflickr.com/65535/50020947292_42fc367ed6_o.jpg",
    "id_image": "Eagle_331984",
    "count_view": 0
  },
  {
    "link_thumb": "https://live.staticflickr.com/65535/50016679443_7a8a172a9d_n.jpg",
    "id_album": "-1846011410",
    "description": "Bird_178297",
    "title": "Bird_178297",
    "link_img": "https://live.staticflickr.com/65535/50016679443_4aa1bc307c_o.jpg",
    "id_image": "Bird_178297",
    "count_view": 0
  },
  {
    "link_thumb": "https://live.staticflickr.com/65535/50022167653_f4a02a9120_n.jpg",
    "id_album": "392248205",
    "description": "Penguin_660794",
    "title": "Penguin_660794",
    "link_img": "https://live.staticflickr.com/65535/50022167653_9f5a026c87_o.jpg",
    "id_image": "Penguin_660794",
    "count_view": 0
  },
  {
    "link_thumb": "https://live.staticflickr.com/65535/50016998773_f57ab750e0_n.jpg",
    "id_album": "368532157",
    "description": "Bulldog_388783",
    "title": "Bulldog_388783",
    "link_img": "https://live.staticflickr.com/65535/50016998773_7c680de45d_o.jpg",
    "id_image": "Bulldog_388783",
    "count_view": 0
  },
  {
    "link_thumb": "https://live.staticflickr.com/65535/50020266787_077cb1c017_n.jpg",
    "id_album": "1903411565",
    "description": "Deer_432328",
    "title": "Deer_432328",
    "link_img": "https://live.staticflickr.com/65535/50020266787_0c7afd6016_o.jpg",
    "id_image": "Deer_432328",
    "count_view": 0
  },
  {
    "link_thumb": "https://live.staticflickr.com/65535/50021884271_d64657c59d_n.jpg",
    "id_album": "1392348450",
    "description": "Leopard_172762",
    "title": "Leopard_172762",
    "link_img": "https://live.staticflickr.com/65535/50021884271_8e4c001ed9_o.jpg",
    "id_image": "Leopard_172762",
    "count_view": 0
  },
  {
    "link_thumb": "https://live.staticflickr.com/65535/50017794631_94eefdee41_n.jpg",
    "id_album": "-462831705",
    "description": "Cat_166134",
    "title": "Cat_166134",
    "link_img": "https://live.staticflickr.com/65535/50017794631_8cc359a37f_o.jpg",
    "id_image": "Cat_166134",
    "count_view": 0
  },
  {
    "link_thumb": "https://live.staticflickr.com/65535/50020760636_3476132433_n.jpg",
    "id_album": "1270947998",
    "description": "Elephant_454139",
    "title": "Elephant_454139",
    "link_img": "https://live.staticflickr.com/65535/50020760636_7a9d90a6c7_o.jpg",
    "id_image": "Elephant_454139",
    "count_view": 0
  },
  {
    "link_thumb": "https://live.staticflickr.com/65535/50018013432_629dc6a17f_n.jpg",
    "id_album": "-462831705",
    "description": "Cat_111148",
    "title": "Cat_111148",
    "link_img": "https://live.staticflickr.com/65535/50018013432_aa1a26e461_o.jpg",
    "id_image": "Cat_111148",
    "count_view": 0
  },
  {
    "link_thumb": "https://live.staticflickr.com/65535/50019386661_1854ff43ec_n.jpg",
    "id_album": "-462831703",
    "description": "Cat_879799",
    "title": "Cat_879799",
    "link_img": "https://live.staticflickr.com/65535/50019386661_b6cf2ef1d4_o.jpg",
    "id_image": "Cat_879799",
    "count_view": 0
  },
  {
    "link_thumb": "https://live.staticflickr.com/65535/50019228623_eddce01f67_n.jpg",
    "id_album": "791455625",
    "description": "Chipmunk_352269",
    "title": "Chipmunk_352269",
    "link_img": "https://live.staticflickr.com/65535/50019228623_e28f531253_o.jpg",
    "id_image": "Chipmunk_352269",
    "count_view": 0
  },
  {
    "link_thumb": "https://live.staticflickr.com/65535/50020121836_d26539ce75_n.jpg",
    "id_album": "-149330232",
    "description": "Dog_115124",
    "title": "Dog_115124",
    "link_img": "https://live.staticflickr.com/65535/50020121836_712aa29236_o.jpg",
    "id_image": "Dog_115124",
    "count_view": 0
  },
  {
    "link_thumb": "https://live.staticflickr.com/65535/50020009277_014cfdef77_n.jpg",
    "id_album": "1949822052",
    "description": "Chimpanzee_858577",
    "title": "Chimpanzee_858577",
    "link_img": "https://live.staticflickr.com/65535/50020009277_ce742d8169_o.jpg",
    "id_image": "Chimpanzee_858577",
    "count_view": 0
  },
  {
    "link_thumb": "https://live.staticflickr.com/65535/50023053011_4f4e94dc31_n.jpg",
    "id_album": "-353898617",
    "description": "Puppy_699629",
    "title": "Puppy_699629",
    "link_img": "https://live.staticflickr.com/65535/50023053011_39e409e87b_o.jpg",
    "id_image": "Puppy_699629",
    "count_view": 0
  },
  {
    "link_thumb": "https://live.staticflickr.com/65535/50023921036_b78f878063_n.jpg",
    "id_album": "702283289",
    "description": "Squirrel_680539",
    "title": "Squirrel_680539",
    "link_img": "https://live.staticflickr.com/65535/50023921036_5d590a123f_o.jpg",
    "id_image": "Squirrel_680539",
    "count_view": 0
  },
  {
    "link_thumb": "https://live.staticflickr.com/65535/50017326553_3cca9104e9_n.jpg",
    "id_album": "-462831705",
    "description": "Cat_210121",
    "title": "Cat_210121",
    "link_img": "https://live.staticflickr.com/65535/50017326553_9d92739c0f_o.jpg",
    "id_image": "Cat_210121",
    "count_view": 0
  },
  {
    "link_thumb": "https://live.staticflickr.com/65535/50022875336_4134b2f6d9_n.jpg",
    "id_album": "1008910300",
    "description": "PolarBear_965274",
    "title": "PolarBear_965274",
    "link_img": "https://live.staticflickr.com/65535/50022875336_a2681414d9_o.jpg",
    "id_image": "PolarBear_965274",
    "count_view": 0
  },
  {
    "link_thumb": "https://live.staticflickr.com/65535/50019575156_13f8d16d04_n.jpg",
    "id_album": "-462831703",
    "description": "Cat_998116",
    "title": "Cat_998116",
    "link_img": "https://live.staticflickr.com/65535/50019575156_16a9b99bc1_o.jpg",
    "id_image": "Cat_998116",
    "count_view": 0
  },
  {
    "link_thumb": "https://live.staticflickr.com/65535/50021191826_834bfddec4_n.jpg",
    "id_album": "-462831704",
    "description": "Cat_708998",
    "title": "Cat_708998",
    "link_img": "https://live.staticflickr.com/65535/50021191826_4e3fcfcb27_o.jpg",
    "id_image": "Cat_708998",
    "count_view": 0
  },
  {
    "link_thumb": "https://live.staticflickr.com/65535/50020460581_75ca36d036_n.jpg",
    "id_album": "-149330231",
    "description": "Dog_570559",
    "title": "Dog_570559",
    "link_img": "https://live.staticflickr.com/65535/50020460581_49583a10f3_o.jpg",
    "id_image": "Dog_570559",
    "count_view": 0
  },
  {
    "link_thumb": "https://live.staticflickr.com/65535/50021948017_5067f0a75d_n.jpg",
    "id_album": "1658866795",
    "description": "Insect_404799",
    "title": "Insect_404799",
    "link_img": "https://live.staticflickr.com/65535/50021948017_469857175e_o.jpg",
    "id_image": "Insect_404799",
    "count_view": 0
  },
  {
    "link_thumb": "https://live.staticflickr.com/65535/50017650392_85429a54a8_n.jpg",
    "id_album": "-1846011410",
    "description": "Bird_615908",
    "title": "Bird_615908",
    "link_img": "https://live.staticflickr.com/65535/50017650392_b6b65c36c5_o.jpg",
    "id_image": "Bird_615908",
    "count_view": 0
  },
  {
    "link_thumb": "https://live.staticflickr.com/65535/50021472296_82fdfab8fa_n.jpg",
    "id_album": "-1933715543",
    "description": "Horse_241269",
    "title": "Horse_241269",
    "link_img": "https://live.staticflickr.com/65535/50021472296_4dc22c5ee9_o.jpg",
    "id_image": "Horse_241269",
    "count_view": 0
  },
  {
    "link_thumb": "https://live.staticflickr.com/65535/50024511001_1ca41f7982_n.jpg",
    "id_album": "-709711865",
    "description": "Wolf_524406",
    "title": "Wolf_524406",
    "link_img": "https://live.staticflickr.com/65535/50024511001_16ab99c79a_o.jpg",
    "id_image": "Wolf_524406",
    "count_view": 0
  },
  {
    "link_thumb": "https://live.staticflickr.com/65535/50017819012_46e3c19917_n.jpg",
    "id_album": "-401151552",
    "description": "Butterfly_284678",
    "title": "Butterfly_284678",
    "link_img": "https://live.staticflickr.com/65535/50017819012_7b857e8e5e_o.jpg",
    "id_image": "Butterfly_284678",
    "count_view": 0
  },
  {
    "link_thumb": "https://live.staticflickr.com/65535/50017232542_b16ee3859a_n.jpg",
    "id_album": "231236068",
    "description": "BaldEagle_88926",
    "title": "BaldEagle_88926",
    "link_img": "https://live.staticflickr.com/65535/50017232542_9ea2ae5b98_o.jpg",
    "id_image": "BaldEagle_88926",
    "count_view": 0
  },
  {
    "link_thumb": "https://live.staticflickr.com/65535/50023517116_004b1044ab_n.jpg",
    "id_album": "-800019164",
    "description": "Snail_364154",
    "title": "Snail_364154",
    "link_img": "https://live.staticflickr.com/65535/50023517116_7580ab4010_o.jpg",
    "id_image": "Snail_364154",
    "count_view": 0
  },
  {
    "link_thumb": "https://live.staticflickr.com/65535/50021422148_4f97cc47da_n.jpg",
    "id_album": "1392348450",
    "description": "Leopard_994159",
    "title": "Leopard_994159",
    "link_img": "https://live.staticflickr.com/65535/50021422148_5746a64055_o.jpg",
    "id_image": "Leopard_994159",
    "count_view": 0
  },
  {
    "link_thumb": "https://live.staticflickr.com/65535/50020562973_036989b163_n.jpg",
    "id_album": "-462831704",
    "description": "Cat_548837",
    "title": "Cat_548837",
    "link_img": "https://live.staticflickr.com/65535/50020562973_a93b6481a7_o.jpg",
    "id_image": "Cat_548837",
    "count_view": 0
  },
  {
    "link_thumb": "https://live.staticflickr.com/65535/50020616943_5cf0b747f9_n.jpg",
    "id_album": "-462831704",
    "description": "Cat_671919",
    "title": "Cat_671919",
    "link_img": "https://live.staticflickr.com/65535/50020616943_6faeeae45e_o.jpg",
    "id_image": "Cat_671919",
    "count_view": 0
  },
  {
    "link_thumb": "https://live.staticflickr.com/65535/50017829402_e65f40bf2e_n.jpg",
    "id_album": "-401151552",
    "description": "Butterfly_352571",
    "title": "Butterfly_352571",
    "link_img": "https://live.staticflickr.com/65535/50017829402_25d748f908_o.jpg",
    "id_image": "Butterfly_352571",
    "count_view": 0
  },
  {
    "link_thumb": "https://live.staticflickr.com/65535/50022484738_cbaaed56ba_n.jpg",
    "id_album": "-353898617",
    "description": "Puppy_587562",
    "title": "Puppy_587562",
    "link_img": "https://live.staticflickr.com/65535/50022484738_4a3ba19db1_o.jpg",
    "id_image": "Puppy_587562",
    "count_view": 0
  },
  {
    "link_thumb": "https://live.staticflickr.com/65535/50019862373_70dc1740e1_n.jpg",
    "id_album": "-149330231",
    "description": "Dog_412312",
    "title": "Dog_412312",
    "link_img": "https://live.staticflickr.com/65535/50019862373_996b03e969_o.jpg",
    "id_image": "Dog_412312",
    "count_view": 0
  },
  {
    "link_thumb": "https://live.staticflickr.com/65535/50020215312_01517cf437_n.jpg",
    "id_album": "1831085598",
    "description": "Dachshund_793303",
    "title": "Dachshund_793303",
    "link_img": "https://live.staticflickr.com/65535/50020215312_212199c8c5_o.jpg",
    "id_image": "Dachshund_793303",
    "count_view": 0
  },
  {
    "link_thumb": "https://live.staticflickr.com/65535/50352612887_21a2cc4d5d_n.jpg",
    "id_album": "-462831703",
    "description": "Cat_298603",
    "title": "Cat_298603",
    "link_img": "https://live.staticflickr.com/65535/50352612887_b95f6929fa_o.jpg",
    "id_image": "Cat_298603",
    "count_view": 0
  },
  {
    "link_thumb": "https://live.staticflickr.com/65535/50022926476_d0b1841763_n.jpg",
    "id_album": "-356780855",
    "description": "Puffin_479476",
    "title": "Puffin_479476",
    "link_img": "https://live.staticflickr.com/65535/50022926476_0742bc1a65_o.jpg",
    "id_image": "Puffin_479476",
    "count_view": 0
  },
  {
    "link_thumb": "https://live.staticflickr.com/65535/50019721302_24e70251f6_n.jpg",
    "id_album": "-462831703",
    "description": "Cat_916859",
    "title": "Cat_916859",
    "link_img": "https://live.staticflickr.com/65535/50019721302_bb560756e3_o.jpg",
    "id_image": "Cat_916859",
    "count_view": 0
  },
  {
    "link_thumb": "https://live.staticflickr.com/65535/50016783943_8a3e759592_n.jpg",
    "id_album": "-1846011410",
    "description": "Bird_405955",
    "title": "Bird_405955",
    "link_img": "https://live.staticflickr.com/65535/50016783943_90e1c2bacc_o.jpg",
    "id_image": "Bird_405955",
    "count_view": 0
  },
  {
    "link_thumb": "https://live.staticflickr.com/65535/50020666038_91656aed17_n.jpg",
    "id_album": "-462831704",
    "description": "Cat_727492",
    "title": "Cat_727492",
    "link_img": "https://live.staticflickr.com/65535/50020666038_7a118dc4b3_o.jpg",
    "id_image": "Cat_727492",
    "count_view": 0
  },
  {
    "link_thumb": "https://live.staticflickr.com/65535/50020063642_7376d16b4b_n.jpg",
    "id_album": "-1868680171",
    "description": "Cougar_347965",
    "title": "Cougar_347965",
    "link_img": "https://live.staticflickr.com/65535/50020063642_0c92282597_o.jpg",
    "id_image": "Cougar_347965",
    "count_view": 0
  },
  {
    "link_thumb": "https://live.staticflickr.com/65535/50023351027_e110205cc7_n.jpg",
    "id_album": "-1940643173",
    "description": "Rabbit_277068",
    "title": "Rabbit_277068",
    "link_img": "https://live.staticflickr.com/65535/50023351027_a4e3fe4dca_o.jpg",
    "id_image": "Rabbit_277068",
    "count_view": 0
  },
  {
    "link_thumb": "https://live.staticflickr.com/65535/50021251071_fa937d5a16_n.jpg",
    "id_album": "-462831703",
    "description": "Cat_790418",
    "title": "Cat_790418",
    "link_img": "https://live.staticflickr.com/65535/50021251071_29ae6a7322_o.jpg",
    "id_image": "Cat_790418",
    "count_view": 0
  },
  {
    "link_thumb": "https://live.staticflickr.com/65535/50021383308_ab88ef1f7d_n.jpg",
    "id_album": "1392348450",
    "description": "Leopard_427798",
    "title": "Leopard_427798",
    "link_img": "https://live.staticflickr.com/65535/50021383308_be7d1011e0_o.jpg",
    "id_image": "Leopard_427798",
    "count_view": 0
  },
  {
    "link_thumb": "https://live.staticflickr.com/65535/50023789573_35c81050d5_n.jpg",
    "id_album": "461588038",
    "description": "Vulture_349306",
    "title": "Vulture_349306",
    "link_img": "https://live.staticflickr.com/65535/50023789573_d348a12253_o.jpg",
    "id_image": "Vulture_349306",
    "count_view": 0
  },
  {
    "link_thumb": "https://live.staticflickr.com/65535/50020218583_c45bba099e_n.jpg",
    "id_album": "1270947998",
    "description": "Elephant_389845",
    "title": "Elephant_389845",
    "link_img": "https://live.staticflickr.com/65535/50020218583_69e2ac32c0_o.jpg",
    "id_image": "Elephant_389845",
    "count_view": 0
  },
  {
    "link_thumb": "https://live.staticflickr.com/65535/50021842716_9fe0ca4f89_n.jpg",
    "id_album": "-1882491687",
    "description": "Ladybug_284694",
    "title": "Ladybug_284694",
    "link_img": "https://live.staticflickr.com/65535/50021842716_29b3c1927c_o.jpg",
    "id_image": "Ladybug_284694",
    "count_view": 0
  },
  {
    "link_thumb": "https://live.staticflickr.com/65535/50016995941_60ae3052e7_n.jpg",
    "id_album": "809937717",
    "description": "Beagle_810236",
    "title": "Beagle_810236",
    "link_img": "https://live.staticflickr.com/65535/50016995941_3142f8984e_o.jpg",
    "id_image": "Beagle_810236",
    "count_view": 0
  },
  {
    "link_thumb": "https://live.staticflickr.com/65535/50352628472_29ea4c6491_n.jpg",
    "id_album": "-462831703",
    "description": "Cat_365188",
    "title": "Cat_365188",
    "link_img": "https://live.staticflickr.com/65535/50352628472_f050000ac4_o.jpg",
    "id_image": "Cat_365188",
    "count_view": 0
  },
  {
    "link_thumb": "https://live.staticflickr.com/65535/50021635618_167bb0cb25_n.jpg",
    "id_album": "-1173056085",
    "description": "Macaw_550139",
    "title": "Macaw_550139",
    "link_img": "https://live.staticflickr.com/65535/50021635618_b3956bdaec_o.jpg",
    "id_image": "Macaw_550139",
    "count_view": 0
  },
  {
    "link_thumb": "https://live.staticflickr.com/65535/50017501902_e52f1afc7d_n.jpg",
    "id_album": "-1846011410",
    "description": "Bird_328160",
    "title": "Bird_328160",
    "link_img": "https://live.staticflickr.com/65535/50017501902_e43bc60e63_o.jpg",
    "id_image": "Bird_328160",
    "count_view": 0
  },
  {
    "link_thumb": "https://live.staticflickr.com/65535/50022038587_2203024e20_n.jpg",
    "id_album": "1562047127",
    "description": "Jellyfish_825876",
    "title": "Jellyfish_825876",
    "link_img": "https://live.staticflickr.com/65535/50022038587_18b69ab93b_o.jpg",
    "id_image": "Jellyfish_825876",
    "count_view": 0
  },
  {
    "link_thumb": "https://live.staticflickr.com/65535/50021605027_533bf43984_n.jpg",
    "id_album": "2060159334",
    "description": "GoldenRetriever_642625",
    "title": "GoldenRetriever_642625",
    "link_img": "https://live.staticflickr.com/65535/50021605027_4bdcaf737c_o.jpg",
    "id_image": "GoldenRetriever_642625",
    "count_view": 0
  },
  {
    "link_thumb": "https://live.staticflickr.com/65535/50023921118_ddc73f2360_n.jpg",
    "id_album": "-709711865",
    "description": "Wolf_239473",
    "title": "Wolf_239473",
    "link_img": "https://live.staticflickr.com/65535/50023921118_c79ffbbe9d_o.jpg",
    "id_image": "Wolf_239473",
    "count_view": 0
  },
  {
    "link_thumb": "https://live.staticflickr.com/65535/50018239262_f91f59c7cb_n.jpg",
    "id_album": "-462831702",
    "description": "Cat_327010",
    "title": "Cat_327010",
    "link_img": "https://live.staticflickr.com/65535/50018239262_e2277c6b7f_o.jpg",
    "id_image": "Cat_327010",
    "count_view": 0
  },
  {
    "link_thumb": "https://live.staticflickr.com/65535/50016418548_28227ed350_n.jpg",
    "id_album": "390697200",
    "description": "AustralianShepherd_884516",
    "title": "AustralianShepherd_884516",
    "link_img": "https://live.staticflickr.com/65535/50016418548_795002c8b4_o.jpg",
    "id_image": "AustralianShepherd_884516",
    "count_view": 0
  },
  {
    "link_thumb": "https://live.staticflickr.com/65535/50020889342_a44d497690_n.jpg",
    "id_album": "-405058657",
    "description": "Dragonfly_588147",
    "title": "Dragonfly_588147",
    "link_img": "https://live.staticflickr.com/65535/50020889342_822dcb7cdd_o.jpg",
    "id_image": "Dragonfly_588147",
    "count_view": 0
  },
  {
    "link_thumb": "https://live.staticflickr.com/65535/50017416153_0aaeb53550_n.jpg",
    "id_album": "-462831702",
    "description": "Cat_292957",
    "title": "Cat_292957",
    "link_img": "https://live.staticflickr.com/65535/50017416153_44aacd9124_o.jpg",
    "id_image": "Cat_292957",
    "count_view": 0
  },
  {
    "link_thumb": "https://live.staticflickr.com/65535/50018354642_920f624fa8_n.jpg",
    "id_album": "-462831702",
    "description": "Cat_370625",
    "title": "Cat_370625",
    "link_img": "https://live.staticflickr.com/65535/50018354642_cdf578aeed_o.jpg",
    "id_image": "Cat_370625",
    "count_view": 0
  },
  {
    "link_thumb": "https://live.staticflickr.com/65535/50022352971_4f94dffcc8_n.jpg",
    "id_album": "588679857",
    "description": "Orangutan_668055",
    "title": "Orangutan_668055",
    "link_img": "https://live.staticflickr.com/65535/50022352971_6fe05cef1a_o.jpg",
    "id_image": "Orangutan_668055",
    "count_view": 0
  },
  {
    "link_thumb": "https://live.staticflickr.com/65535/50021767448_733b80ea00_n.jpg",
    "id_album": "1015034486",
    "description": "Muteswan_325479",
    "title": "Muteswan_325479",
    "link_img": "https://live.staticflickr.com/65535/50021767448_dcf07300a1_o.jpg",
    "id_image": "Muteswan_325479",
    "count_view": 0
  },
  {
    "link_thumb": "https://live.staticflickr.com/65535/50022163422_735ee6870c_n.jpg",
    "id_album": "1392348450",
    "description": "Leopard_365011",
    "title": "Leopard_365011",
    "link_img": "https://live.staticflickr.com/65535/50022163422_b8893bceb5_o.jpg",
    "id_image": "Leopard_365011",
    "count_view": 0
  },
  {
    "link_thumb": "https://live.staticflickr.com/65535/50016885046_5349fda9e4_n.jpg",
    "id_album": "523598895",
    "description": "Artistic_232850",
    "title": "Artistic_232850",
    "link_img": "https://live.staticflickr.com/65535/50016885046_eff9875250_o.jpg",
    "id_image": "Artistic_232850",
    "count_view": 0
  },
  {
    "link_thumb": "https://live.staticflickr.com/65535/50352683111_c3961baa38_n.jpg",
    "id_album": "-462831702",
    "description": "Cat_115060",
    "title": "Cat_115060",
    "link_img": "https://live.staticflickr.com/65535/50352683111_feca11d6ce_o.jpg",
    "id_image": "Cat_115060",
    "count_view": 0
  },
  {
    "link_thumb": "https://live.staticflickr.com/65535/50024353337_f1d4d9187a_n.jpg",
    "id_album": "405170427",
    "description": "Tiger_372156",
    "title": "Tiger_372156",
    "link_img": "https://live.staticflickr.com/65535/50024353337_cb1977319d_o.jpg",
    "id_image": "Tiger_372156",
    "count_view": 0
  },
  {
    "link_thumb": "https://live.staticflickr.com/65535/50017462253_5369702cbf_n.jpg",
    "id_album": "-462831702",
    "description": "Cat_331241",
    "title": "Cat_331241",
    "link_img": "https://live.staticflickr.com/65535/50017462253_e3f35736d2_o.jpg",
    "id_image": "Cat_331241",
    "count_view": 0
  },
  {
    "link_thumb": "https://live.staticflickr.com/65535/50024545456_aec3cae534_n.jpg",
    "id_album": "-709711865",
    "description": "Wolf_798083",
    "title": "Wolf_798083",
    "link_img": "https://live.staticflickr.com/65535/50024545456_616ff96f80_o.jpg",
    "id_image": "Wolf_798083",
    "count_view": 0
  },
  {
    "link_thumb": "https://live.staticflickr.com/65535/50021973252_c9928bc587_n.jpg",
    "id_album": "-843028318",
    "description": "Jaguar_279324",
    "title": "Jaguar_279324",
    "link_img": "https://live.staticflickr.com/65535/50021973252_b7fa318f78_o.jpg",
    "id_image": "Jaguar_279324",
    "count_view": 0
  },
  {
    "link_thumb": "https://live.staticflickr.com/65535/50023449148_535f22a285_n.jpg",
    "id_album": "1244464375",
    "description": "Starfish_423023",
    "title": "Starfish_423023",
    "link_img": "https://live.staticflickr.com/65535/50023449148_cfb0123825_o.jpg",
    "id_image": "Starfish_423023",
    "count_view": 0
  },
  {
    "link_thumb": "https://live.staticflickr.com/65535/50021966266_649093976b_n.jpg",
    "id_album": "416744915",
    "description": "Lion_113658",
    "title": "Lion_113658",
    "link_img": "https://live.staticflickr.com/65535/50021966266_6965b56a8c_o.jpg",
    "id_image": "Lion_113658",
    "count_view": 0
  },
  {
    "link_thumb": "https://live.staticflickr.com/65535/50017459561_5623b97f8e_n.jpg",
    "id_album": "-530283314",
    "description": "BlueandyellowMacaw_161651",
    "title": "BlueandyellowMacaw_161651",
    "link_img": "https://live.staticflickr.com/65535/50017459561_624bc92c72_o.jpg",
    "id_image": "BlueandyellowMacaw_161651",
    "count_view": 0
  },
  {
    "link_thumb": "https://live.staticflickr.com/65535/50020092498_13d461265c_n.jpg",
    "id_album": "-405058657",
    "description": "Dragonfly_463344",
    "title": "Dragonfly_463344",
    "link_img": "https://live.staticflickr.com/65535/50020092498_508c2ea6fc_o.jpg",
    "id_image": "Dragonfly_463344",
    "count_view": 0
  },
  {
    "link_thumb": "https://live.staticflickr.com/65535/50021375811_be69b46fc1_n.jpg",
    "id_album": "-975314166",
    "description": "Goldfish_190934",
    "title": "Goldfish_190934",
    "link_img": "https://live.staticflickr.com/65535/50021375811_847db31be7_o.jpg",
    "id_image": "Goldfish_190934",
    "count_view": 0
  },
  {
    "link_thumb": "https://live.staticflickr.com/65535/50021105053_bd67e2cc24_n.jpg",
    "id_album": "-737856092",
    "description": "Iguana_357994",
    "title": "Iguana_357994",
    "link_img": "https://live.staticflickr.com/65535/50021105053_8996bddf94_o.jpg",
    "id_image": "Iguana_357994",
    "count_view": 0
  },
  {
    "link_thumb": "https://live.staticflickr.com/65535/50018633348_865c003977_n.jpg",
    "id_album": "-462831702",
    "description": "Cat_423696",
    "title": "Cat_423696",
    "link_img": "https://live.staticflickr.com/65535/50018633348_903fd29d8f_o.jpg",
    "id_image": "Cat_423696",
    "count_view": 0
  },
  {
    "link_thumb": "https://live.staticflickr.com/65535/50021040011_1c294125e4_n.jpg",
    "id_album": "704811092",
    "description": "FrenchBulldog_419563",
    "title": "FrenchBulldog_419563",
    "link_img": "https://live.staticflickr.com/65535/50021040011_07d4a9718d_o.jpg",
    "id_image": "FrenchBulldog_419563",
    "count_view": 0
  },
  {
    "link_thumb": "https://live.staticflickr.com/65535/50021714722_f2e71c34c6_n.jpg",
    "id_album": "-1933715543",
    "description": "Horse_121518",
    "title": "Horse_121518",
    "link_img": "https://live.staticflickr.com/65535/50021714722_d2b33597d6_o.jpg",
    "id_image": "Horse_121518",
    "count_view": 0
  },
  {
    "link_thumb": "https://live.staticflickr.com/65535/50352630706_e5ae4af865_n.jpg",
    "id_album": "-462831703",
    "description": "Cat_645414",
    "title": "Cat_645414",
    "link_img": "https://live.staticflickr.com/65535/50352630706_53113fa276_o.jpg",
    "id_image": "Cat_645414",
    "count_view": 0
  },
  {
    "link_thumb": "https://live.staticflickr.com/65535/50019791263_b63f3792d5_n.jpg",
    "id_album": "-149330232",
    "description": "Dog_364183",
    "title": "Dog_364183",
    "link_img": "https://live.staticflickr.com/65535/50019791263_69c53df6bd_o.jpg",
    "id_image": "Dog_364183",
    "count_view": 0
  },
  {
    "link_thumb": "https://live.staticflickr.com/65535/50017357276_5e2ee8e0f0_n.jpg",
    "id_album": "-1846011410",
    "description": "Bird_526589",
    "title": "Bird_526589",
    "link_img": "https://live.staticflickr.com/65535/50017357276_443b1fb309_o.jpg",
    "id_image": "Bird_526589",
    "count_view": 0
  },
  {
    "link_thumb": "https://live.staticflickr.com/65535/50017560381_664695feed_n.jpg",
    "id_album": "-401151552",
    "description": "Butterfly_322575",
    "title": "Butterfly_322575",
    "link_img": "https://live.staticflickr.com/65535/50017560381_bba8b6a5cc_o.jpg",
    "id_image": "Butterfly_322575",
    "count_view": 0
  },
  {
    "link_thumb": "https://live.staticflickr.com/65535/50023653357_c9bc853656_n.jpg",
    "id_album": "1961094930",
    "description": "Seal_173616",
    "title": "Seal_173616",
    "link_img": "https://live.staticflickr.com/65535/50023653357_215aa70e72_o.jpg",
    "id_image": "Seal_173616",
    "count_view": 0
  },
  {
    "link_thumb": "https://live.staticflickr.com/65535/50017171598_233e9bf5c7_n.jpg",
    "id_album": "-401151552",
    "description": "Butterfly_926512",
    "title": "Butterfly_926512",
    "link_img": "https://live.staticflickr.com/65535/50017171598_135649cb41_o.jpg",
    "id_image": "Butterfly_926512",
    "count_view": 0
  },
  {
    "link_thumb": "https://live.staticflickr.com/65535/50016950641_f21e9b1172_n.jpg",
    "id_album": "390697200",
    "description": "AustralianShepherd_997674",
    "title": "AustralianShepherd_997674",
    "link_img": "https://live.staticflickr.com/65535/50016950641_3089cb6dfd_o.jpg",
    "id_image": "AustralianShepherd_997674",
    "count_view": 0
  },
  {
    "link_thumb": "https://live.staticflickr.com/65535/50024374747_e90b58b987_n.jpg",
    "id_album": "405170427",
    "description": "Tiger_397443",
    "title": "Tiger_397443",
    "link_img": "https://live.staticflickr.com/65535/50024374747_2b004fd7e7_o.jpg",
    "id_image": "Tiger_397443",
    "count_view": 0
  },
  {
    "link_thumb": "https://live.staticflickr.com/65535/50021911716_2c5809a89f_n.jpg",
    "id_album": "1392348450",
    "description": "Leopard_373574",
    "title": "Leopard_373574",
    "link_img": "https://live.staticflickr.com/65535/50021911716_a696253b17_o.jpg",
    "id_image": "Leopard_373574",
    "count_view": 0
  },
  {
    "link_thumb": "https://live.staticflickr.com/65535/50019452101_935605ee87_n.jpg",
    "id_album": "-462831705",
    "description": "Cat_91404",
    "title": "Cat_91404",
    "link_img": "https://live.staticflickr.com/65535/50019452101_d4b7ef7d10_o.jpg",
    "id_image": "Cat_91404",
    "count_view": 0
  },
  {
    "link_thumb": "https://live.staticflickr.com/65535/50022125201_c56d59f515_n.jpg",
    "id_album": "-656526748",
    "description": "Lizard_68028",
    "title": "Lizard_68028",
    "link_img": "https://live.staticflickr.com/65535/50022125201_20dd52caaf_o.jpg",
    "id_image": "Lizard_68028",
    "count_view": 0
  },
  {
    "link_thumb": "https://live.staticflickr.com/65535/50020110381_8be829b604_n.jpg",
    "id_album": "297232732",
    "description": "Dinosaur_998263",
    "title": "Dinosaur_998263",
    "link_img": "https://live.staticflickr.com/65535/50020110381_8b84855067_o.jpg",
    "id_image": "Dinosaur_998263",
    "count_view": 0
  },
  {
    "link_thumb": "https://live.staticflickr.com/65535/50021601896_feec4feb8e_n.jpg",
    "id_album": "2144294979",
    "description": "Hummingbird_190950",
    "title": "Hummingbird_190950",
    "link_img": "https://live.staticflickr.com/65535/50021601896_4d05fa3d7a_o.jpg",
    "id_image": "Hummingbird_190950",
    "count_view": 0
  },
  {
    "link_thumb": "https://live.staticflickr.com/65535/50023895723_e930a46f15_n.jpg",
    "id_album": "766572659",
    "description": "WhiteTiger_414179",
    "title": "WhiteTiger_414179",
    "link_img": "https://live.staticflickr.com/65535/50023895723_39387f2130_o.jpg",
    "id_image": "WhiteTiger_414179",
    "count_view": 0
  },
  {
    "link_thumb": "https://live.staticflickr.com/65535/50022523712_551c971f8e_n.jpg",
    "id_album": "-784970094",
    "description": "Monkey_787857",
    "title": "Monkey_787857",
    "link_img": "https://live.staticflickr.com/65535/50022523712_2a410267ec_o.jpg",
    "id_image": "Monkey_787857",
    "count_view": 0
  },
  {
    "link_thumb": "https://live.staticflickr.com/65535/50017085832_24a2f995c8_n.jpg",
    "id_album": "-229810103",
    "description": "AmericanBison_559063",
    "title": "AmericanBison_559063",
    "link_img": "https://live.staticflickr.com/65535/50017085832_b728d58957_o.jpg",
    "id_image": "AmericanBison_559063",
    "count_view": 0
  },
  {
    "link_thumb": "https://live.staticflickr.com/65535/50017215383_e1853c5d07_n.jpg",
    "id_album": "-462831705",
    "description": "Cat_101499",
    "title": "Cat_101499",
    "link_img": "https://live.staticflickr.com/65535/50017215383_f936512659_o.jpg",
    "id_image": "Cat_101499",
    "count_view": 0
  },
  {
    "link_thumb": "https://live.staticflickr.com/65535/50017426258_d3d16297d0_n.jpg",
    "id_album": "-462831702",
    "description": "Cat_310078",
    "title": "Cat_310078",
    "link_img": "https://live.staticflickr.com/65535/50017426258_befc60f758_o.jpg",
    "id_image": "Cat_310078",
    "count_view": 0
  },
  {
    "link_thumb": "https://live.staticflickr.com/65535/50021374443_3b30bfca37_n.jpg",
    "id_album": "1392348450",
    "description": "Leopard_387882",
    "title": "Leopard_387882",
    "link_img": "https://live.staticflickr.com/65535/50021374443_2d2a0a1e93_o.jpg",
    "id_image": "Leopard_387882",
    "count_view": 0
  },
  {
    "link_thumb": "https://live.staticflickr.com/65535/50022797951_4bbc999446_n.jpg",
    "id_album": "1008910300",
    "description": "PolarBear_322856",
    "title": "PolarBear_322856",
    "link_img": "https://live.staticflickr.com/65535/50022797951_4d8fa8c0e2_o.jpg",
    "id_image": "PolarBear_322856",
    "count_view": 0
  },
  {
    "link_thumb": "https://live.staticflickr.com/65535/50024429736_bca919ff54_n.jpg",
    "id_album": "766572659",
    "description": "WhiteTiger_274807",
    "title": "WhiteTiger_274807",
    "link_img": "https://live.staticflickr.com/65535/50024429736_f6290152d0_o.jpg",
    "id_image": "WhiteTiger_274807",
    "count_view": 0
  },
  {
    "link_thumb": "https://live.staticflickr.com/65535/50023515231_7bb4a50465_n.jpg",
    "id_album": "-800019164",
    "description": "Snail_354547",
    "title": "Snail_354547",
    "link_img": "https://live.staticflickr.com/65535/50023515231_c4317a04ff_o.jpg",
    "id_image": "Snail_354547",
    "count_view": 0
  },
  {
    "link_thumb": "https://live.staticflickr.com/65535/50019854788_ba23cdeecf_n.jpg",
    "id_album": "-149330231",
    "description": "Dog_408033",
    "title": "Dog_408033",
    "link_img": "https://live.staticflickr.com/65535/50019854788_0e7a9192a0_o.jpg",
    "id_image": "Dog_408033",
    "count_view": 0
  },
  {
    "link_thumb": "https://live.staticflickr.com/65535/50016955518_88ea21fd66_n.jpg",
    "id_album": "782930701",
    "description": "BorderCollie_436264",
    "title": "BorderCollie_436264",
    "link_img": "https://live.staticflickr.com/65535/50016955518_7e175f4fe6_o.jpg",
    "id_image": "BorderCollie_436264",
    "count_view": 0
  },
  {
    "link_thumb": "https://live.staticflickr.com/65535/50022179452_e6e3017faf_n.jpg",
    "id_album": "1392348450",
    "description": "Leopard_414952",
    "title": "Leopard_414952",
    "link_img": "https://live.staticflickr.com/65535/50022179452_0ee2b06c1e_o.jpg",
    "id_image": "Leopard_414952",
    "count_view": 0
  },
  {
    "link_thumb": "https://live.staticflickr.com/65535/50019169958_df706aede0_n.jpg",
    "id_album": "-1481843714",
    "description": "Cheetah_378793",
    "title": "Cheetah_378793",
    "link_img": "https://live.staticflickr.com/65535/50019169958_4bbe81c89b_o.jpg",
    "id_image": "Cheetah_378793",
    "count_view": 0
  },
  {
    "link_thumb": "https://live.staticflickr.com/65535/50021178803_95efa549d1_n.jpg",
    "id_album": "-843028318",
    "description": "Jaguar_380931",
    "title": "Jaguar_380931",
    "link_img": "https://live.staticflickr.com/65535/50021178803_b008a5ab8a_o.jpg",
    "id_image": "Jaguar_380931",
    "count_view": 0
  },
  {
    "link_thumb": "https://live.staticflickr.com/65535/50020321642_b6376daab7_n.jpg",
    "id_album": "1903411565",
    "description": "Deer_921200",
    "title": "Deer_921200",
    "link_img": "https://live.staticflickr.com/65535/50020321642_273b300ff4_o.jpg",
    "id_image": "Deer_921200",
    "count_view": 0
  },
  {
    "link_thumb": "https://live.staticflickr.com/65535/50023734893_5540c54aa0_n.jpg",
    "id_album": "-1103743486",
    "description": "Toucan_462106",
    "title": "Toucan_462106",
    "link_img": "https://live.staticflickr.com/65535/50023734893_f84fe668b9_o.jpg",
    "id_image": "Toucan_462106",
    "count_view": 0
  },
  {
    "link_thumb": "https://live.staticflickr.com/65535/50018155562_35de759c39_n.jpg",
    "id_album": "-462831705",
    "description": "Cat_240951",
    "title": "Cat_240951",
    "link_img": "https://live.staticflickr.com/65535/50018155562_a414df1d2f_o.jpg",
    "id_image": "Cat_240951",
    "count_view": 0
  },
  {
    "link_thumb": "https://live.staticflickr.com/65535/50022591008_920c1a3469_n.jpg",
    "id_album": "-1940643173",
    "description": "Rabbit_905027",
    "title": "Rabbit_905027",
    "link_img": "https://live.staticflickr.com/65535/50022591008_f40807c06a_o.jpg",
    "id_image": "Rabbit_905027",
    "count_view": 0
  },
  {
    "link_thumb": "https://live.staticflickr.com/65535/50020738358_5f84d75275_n.jpg",
    "id_album": "-34696179",
    "description": "Gecko_701050",
    "title": "Gecko_701050",
    "link_img": "https://live.staticflickr.com/65535/50020738358_c1125c63e9_o.jpg",
    "id_image": "Gecko_701050",
    "count_view": 0
  },
  {
    "link_thumb": "https://live.staticflickr.com/65535/50017767217_379a515f2c_n.jpg",
    "id_album": "782930701",
    "description": "BorderCollie_881267",
    "title": "BorderCollie_881267",
    "link_img": "https://live.staticflickr.com/65535/50017767217_a3f24a3315_o.jpg",
    "id_image": "BorderCollie_881267",
    "count_view": 0
  },
  {
    "link_thumb": "https://live.staticflickr.com/65535/50020228541_6462588e8f_n.jpg",
    "id_album": "-149330232",
    "description": "Dog_301720",
    "title": "Dog_301720",
    "link_img": "https://live.staticflickr.com/65535/50020228541_f81fede7ab_o.jpg",
    "id_image": "Dog_301720",
    "count_view": 0
  },
  {
    "link_thumb": "https://live.staticflickr.com/65535/50020812471_669b945571_n.jpg",
    "id_album": "822895535",
    "description": "Falcon_425862",
    "title": "Falcon_425862",
    "link_img": "https://live.staticflickr.com/65535/50020812471_2a06e5aa6c_o.jpg",
    "id_image": "Falcon_425862",
    "count_view": 0
  },
  {
    "link_thumb": "https://live.staticflickr.com/65535/50023411342_da1d0f0bb7_n.jpg",
    "id_album": "248289288",
    "description": "Raccoon_590444",
    "title": "Raccoon_590444",
    "link_img": "https://live.staticflickr.com/65535/50023411342_3a8ba37922_o.jpg",
    "id_image": "Raccoon_590444",
    "count_view": 0
  },
  {
    "link_thumb": "https://live.staticflickr.com/65535/50016948548_e675606225_n.jpg",
    "id_album": "-530283314",
    "description": "BlueandyellowMacaw_773009",
    "title": "BlueandyellowMacaw_773009",
    "link_img": "https://live.staticflickr.com/65535/50016948548_2db621404b_o.jpg",
    "id_image": "BlueandyellowMacaw_773009",
    "count_view": 0
  },
  {
    "link_thumb": "https://live.staticflickr.com/65535/50019914323_343434ac8d_n.jpg",
    "id_album": "-149330231",
    "description": "Dog_514837",
    "title": "Dog_514837",
    "link_img": "https://live.staticflickr.com/65535/50019914323_a4822773ba_o.jpg",
    "id_image": "Dog_514837",
    "count_view": 0
  },
  {
    "link_thumb": "https://live.staticflickr.com/65535/50017050173_b1f1278d3d_n.jpg",
    "id_album": "-401151552",
    "description": "Butterfly_378586",
    "title": "Butterfly_378586",
    "link_img": "https://live.staticflickr.com/65535/50017050173_a0029e22d3_o.jpg",
    "id_image": "Butterfly_378586",
    "count_view": 0
  },
  {
    "link_thumb": "https://live.staticflickr.com/65535/50023110971_56e29ed207_n.jpg",
    "id_album": "-1940643173",
    "description": "Rabbit_438939",
    "title": "Rabbit_438939",
    "link_img": "https://live.staticflickr.com/65535/50023110971_359f49f620_o.jpg",
    "id_image": "Rabbit_438939",
    "count_view": 0
  },
  {
    "link_thumb": "https://live.staticflickr.com/65535/50019978793_c92fb9f013_n.jpg",
    "id_album": "-149330231",
    "description": "Dog_776116",
    "title": "Dog_776116",
    "link_img": "https://live.staticflickr.com/65535/50019978793_72b3b53399_o.jpg",
    "id_image": "Dog_776116",
    "count_view": 0
  },
  {
    "link_thumb": "https://live.staticflickr.com/65535/50020871653_d2899a621c_n.jpg",
    "id_album": "109779448",
    "description": "Hare_415007",
    "title": "Hare_415007",
    "link_img": "https://live.staticflickr.com/65535/50020871653_b325c3ca40_o.jpg",
    "id_image": "Hare_415007",
    "count_view": 0
  },
  {
    "link_thumb": "https://live.staticflickr.com/65535/50024218636_322ab65cc7_n.jpg",
    "id_album": "405170427",
    "description": "Tiger_819596",
    "title": "Tiger_819596",
    "link_img": "https://live.staticflickr.com/65535/50024218636_ea8abeaced_o.jpg",
    "id_image": "Tiger_819596",
    "count_view": 0
  },
  {
    "link_thumb": "https://live.staticflickr.com/65535/50019715002_db080d6e39_n.jpg",
    "id_album": "-462831705",
    "description": "Cat_91479",
    "title": "Cat_91479",
    "link_img": "https://live.staticflickr.com/65535/50019715002_18f37519d2_o.jpg",
    "id_image": "Cat_91479",
    "count_view": 0
  },
  {
    "link_thumb": "https://live.staticflickr.com/65535/50022687543_87bb5ea30d_n.jpg",
    "id_album": "332874268",
    "description": "RedPanda_735257",
    "title": "RedPanda_735257",
    "link_img": "https://live.staticflickr.com/65535/50022687543_ac6ebe5efb_o.jpg",
    "id_image": "RedPanda_735257",
    "count_view": 0
  },
  {
    "link_thumb": "https://live.staticflickr.com/65535/50017417201_64a0936a2c_n.jpg",
    "id_album": "-1846011410",
    "description": "Bird_742078",
    "title": "Bird_742078",
    "link_img": "https://live.staticflickr.com/65535/50017417201_b64fc7eebd_o.jpg",
    "id_image": "Bird_742078",
    "count_view": 0
  },
  {
    "link_thumb": "https://live.staticflickr.com/65535/50019768976_131e436ebb_n.jpg",
    "id_album": "791455625",
    "description": "Chipmunk_745665",
    "title": "Chipmunk_745665",
    "link_img": "https://live.staticflickr.com/65535/50019768976_2efaaecd0e_o.jpg",
    "id_image": "Chipmunk_745665",
    "count_view": 0
  },
  {
    "link_thumb": "https://live.staticflickr.com/65535/50022259436_f2112d6393_n.jpg",
    "id_album": "-784970094",
    "description": "Monkey_737411",
    "title": "Monkey_737411",
    "link_img": "https://live.staticflickr.com/65535/50022259436_1be2c11714_o.jpg",
    "id_image": "Monkey_737411",
    "count_view": 0
  },
  {
    "link_thumb": "https://live.staticflickr.com/65535/50019875412_5d3f9bb8ac_n.jpg",
    "id_album": "1889777354",
    "description": "CGI_111492",
    "title": "CGI_111492",
    "link_img": "https://live.staticflickr.com/65535/50019875412_88a6ae39da_o.jpg",
    "id_image": "CGI_111492",
    "count_view": 0
  },
  {
    "link_thumb": "https://live.staticflickr.com/65535/50020004466_179bf0efd5_n.jpg",
    "id_album": "1903411565",
    "description": "Deer_397111",
    "title": "Deer_397111",
    "link_img": "https://live.staticflickr.com/65535/50020004466_6073d492df_o.jpg",
    "id_image": "Deer_397111",
    "count_view": 0
  },
  {
    "link_thumb": "https://live.staticflickr.com/65535/50021678436_bd451b58ed_n.jpg",
    "id_album": "1658866795",
    "description": "Insect_403467",
    "title": "Insect_403467",
    "link_img": "https://live.staticflickr.com/65535/50021678436_cab34f956d_o.jpg",
    "id_image": "Insect_403467",
    "count_view": 0
  },
  {
    "link_thumb": "https://live.staticflickr.com/65535/50021031096_c684373b1d_n.jpg",
    "id_album": "-128218148",
    "description": "Fox_964651",
    "title": "Fox_964651",
    "link_img": "https://live.staticflickr.com/65535/50021031096_06fc5cb22e_o.jpg",
    "id_image": "Fox_964651",
    "count_view": 0
  },
  {
    "link_thumb": "https://live.staticflickr.com/65535/50020233841_3c881ac663_n.jpg",
    "id_album": "-149330232",
    "description": "Dog_311152",
    "title": "Dog_311152",
    "link_img": "https://live.staticflickr.com/65535/50020233841_d59079a94d_o.jpg",
    "id_image": "Dog_311152",
    "count_view": 0
  },
  {
    "link_thumb": "https://live.staticflickr.com/65535/50020942996_409a74fc67_n.jpg",
    "id_album": "-128218148",
    "description": "Fox_306558",
    "title": "Fox_306558",
    "link_img": "https://live.staticflickr.com/65535/50020942996_321bfd43a7_o.jpg",
    "id_image": "Fox_306558",
    "count_view": 0
  },
  {
    "link_thumb": "https://live.staticflickr.com/65535/50017607053_a226f29223_n.jpg",
    "id_album": "-462831702",
    "description": "Cat_398752",
    "title": "Cat_398752",
    "link_img": "https://live.staticflickr.com/65535/50017607053_b0772f9130_o.jpg",
    "id_image": "Cat_398752",
    "count_view": 0
  },
  {
    "link_thumb": "https://live.staticflickr.com/65535/50020886002_8d0b9c0968_n.jpg",
    "id_album": "-405058657",
    "description": "Dragonfly_533732",
    "title": "Dragonfly_533732",
    "link_img": "https://live.staticflickr.com/65535/50020886002_0c3d5498ea_o.jpg",
    "id_image": "Dragonfly_533732",
    "count_view": 0
  },
  {
    "link_thumb": "https://live.staticflickr.com/65535/50021051611_df1842292f_n.jpg",
    "id_album": "844170697",
    "description": "Frog_200993",
    "title": "Frog_200993",
    "link_img": "https://live.staticflickr.com/65535/50021051611_cb6cdb4286_o.jpg",
    "id_image": "Frog_200993",
    "count_view": 0
  },
  {
    "link_thumb": "https://live.staticflickr.com/65535/50023614667_01f4cc622a_n.jpg",
    "id_album": "1656131695",
    "description": "Seagull_363348",
    "title": "Seagull_363348",
    "link_img": "https://live.staticflickr.com/65535/50023614667_c72457b41e_o.jpg",
    "id_image": "Seagull_363348",
    "count_view": 0
  },
  {
    "link_thumb": "https://live.staticflickr.com/65535/50021607312_59e68ce30c_n.jpg",
    "id_album": "2060159334",
    "description": "GoldenRetriever_651113",
    "title": "GoldenRetriever_651113",
    "link_img": "https://live.staticflickr.com/65535/50021607312_40c4ed9f97_o.jpg",
    "id_image": "GoldenRetriever_651113",
    "count_view": 0
  },
  {
    "link_thumb": "https://live.staticflickr.com/65535/50023901273_8aabc71ef6_n.jpg",
    "id_album": "766572659",
    "description": "WhiteTiger_676866",
    "title": "WhiteTiger_676866",
    "link_img": "https://live.staticflickr.com/65535/50023901273_0d822453eb_o.jpg",
    "id_image": "WhiteTiger_676866",
    "count_view": 0
  },
  {
    "link_thumb": "https://live.staticflickr.com/65535/50017023488_4690ed32ff_n.jpg",
    "id_album": "-401151552",
    "description": "Butterfly_240249",
    "title": "Butterfly_240249",
    "link_img": "https://live.staticflickr.com/65535/50017023488_b819355522_o.jpg",
    "id_image": "Butterfly_240249",
    "count_view": 0
  },
  {
    "link_thumb": "https://live.staticflickr.com/65535/50019294201_e99a90ae31_n.jpg",
    "id_album": "-462831704",
    "description": "Cat_529618",
    "title": "Cat_529618",
    "link_img": "https://live.staticflickr.com/65535/50019294201_995a3a656f_o.jpg",
    "id_image": "Cat_529618",
    "count_view": 0
  },
  {
    "link_thumb": "https://live.staticflickr.com/65535/50017951806_856a8fe9ee_n.jpg",
    "id_album": "-462831702",
    "description": "Cat_307294",
    "title": "Cat_307294",
    "link_img": "https://live.staticflickr.com/65535/50017951806_2d4a4d6d32_o.jpg",
    "id_image": "Cat_307294",
    "count_view": 0
  },
  {
    "link_thumb": "https://live.staticflickr.com/65535/50017579161_be6f8a8aa7_n.jpg",
    "id_album": "-401151552",
    "description": "Butterfly_385761",
    "title": "Butterfly_385761",
    "link_img": "https://live.staticflickr.com/65535/50017579161_8cd8901511_o.jpg",
    "id_image": "Butterfly_385761",
    "count_view": 0
  },
  {
    "link_thumb": "https://live.staticflickr.com/65535/50020407713_7f5a266e32_n.jpg",
    "id_album": "-128218148",
    "description": "Fox_349973",
    "title": "Fox_349973",
    "link_img": "https://live.staticflickr.com/65535/50020407713_025ced4228_o.jpg",
    "id_image": "Fox_349973",
    "count_view": 0
  },
  {
    "link_thumb": "https://live.staticflickr.com/65535/50020962641_799ab6db09_n.jpg",
    "id_album": "-128218148",
    "description": "Fox_408957",
    "title": "Fox_408957",
    "link_img": "https://live.staticflickr.com/65535/50020962641_e810c03ecf_o.jpg",
    "id_image": "Fox_408957",
    "count_view": 0
  },
  {
    "link_thumb": "https://live.staticflickr.com/65535/50020241333_03b452438c_n.jpg",
    "id_album": "1270947998",
    "description": "Elephant_637149",
    "title": "Elephant_637149",
    "link_img": "https://live.staticflickr.com/65535/50020241333_6095317ba1_o.jpg",
    "id_image": "Elephant_637149",
    "count_view": 0
  },
  {
    "link_thumb": "https://live.staticflickr.com/65535/50016738248_83f45ccd4d_n.jpg",
    "id_album": "-1846011410",
    "description": "Bird_351549",
    "title": "Bird_351549",
    "link_img": "https://live.staticflickr.com/65535/50016738248_5fbfa42ac7_o.jpg",
    "id_image": "Bird_351549",
    "count_view": 0
  },
  {
    "link_thumb": "https://live.staticflickr.com/65535/50021227482_c8fecfdb1d_n.jpg",
    "id_album": "-128218148",
    "description": "Fox_540988",
    "title": "Fox_540988",
    "link_img": "https://live.staticflickr.com/65535/50021227482_c4a7b82bf3_o.jpg",
    "id_image": "Fox_540988",
    "count_view": 0
  },
  {
    "link_thumb": "https://live.staticflickr.com/65535/50019136838_a76c3422b5_n.jpg",
    "id_album": "-766919393",
    "description": "Chameleon_813969",
    "title": "Chameleon_813969",
    "link_img": "https://live.staticflickr.com/65535/50019136838_0632e0b425_o.jpg",
    "id_image": "Chameleon_813969",
    "count_view": 0
  },
  {
    "link_thumb": "https://live.staticflickr.com/65535/50021652122_0001855d12_n.jpg",
    "id_album": "-1168906494",
    "description": "Grasshopper_284691",
    "title": "Grasshopper_284691",
    "link_img": "https://live.staticflickr.com/65535/50021652122_ec5f7cfaed_o.jpg",
    "id_image": "Grasshopper_284691",
    "count_view": 0
  },
  {
    "link_thumb": "https://live.staticflickr.com/65535/50018316702_49affbda22_n.jpg",
    "id_album": "-462831702",
    "description": "Cat_361396",
    "title": "Cat_361396",
    "link_img": "https://live.staticflickr.com/65535/50018316702_e998857b4d_o.jpg",
    "id_image": "Cat_361396",
    "count_view": 0
  },
  {
    "link_thumb": "https://live.staticflickr.com/65535/50020950611_49a2066279_n.jpg",
    "id_album": "-128218148",
    "description": "Fox_347961",
    "title": "Fox_347961",
    "link_img": "https://live.staticflickr.com/65535/50020950611_cced99627c_o.jpg",
    "id_image": "Fox_347961",
    "count_view": 0
  },
  {
    "link_thumb": "https://live.staticflickr.com/65535/50024521692_b146fe79a4_n.jpg",
    "id_album": "-809392728",
    "description": "Titmouse_738372",
    "title": "Titmouse_738372",
    "link_img": "https://live.staticflickr.com/65535/50024521692_c2ea82ab81_o.jpg",
    "id_image": "Titmouse_738372",
    "count_view": 0
  },
  {
    "link_thumb": "https://live.staticflickr.com/65535/50021382083_7a11e8eb38_n.jpg",
    "id_album": "1392348450",
    "description": "Leopard_426032",
    "title": "Leopard_426032",
    "link_img": "https://live.staticflickr.com/65535/50021382083_cd0d7c5e78_o.jpg",
    "id_image": "Leopard_426032",
    "count_view": 0
  },
  {
    "link_thumb": "https://live.staticflickr.com/65535/50019607418_63e97ebcb1_n.jpg",
    "id_album": "-149330232",
    "description": "Dog_189319",
    "title": "Dog_189319",
    "link_img": "https://live.staticflickr.com/65535/50019607418_88d1d26c49_o.jpg",
    "id_image": "Dog_189319",
    "count_view": 0
  },
  {
    "link_thumb": "https://live.staticflickr.com/65535/50017318651_6c4e7337c6_n.jpg",
    "id_album": "-1846011410",
    "description": "Bird_412318",
    "title": "Bird_412318",
    "link_img": "https://live.staticflickr.com/65535/50017318651_61728601df_o.jpg",
    "id_image": "Bird_412318",
    "count_view": 0
  },
  {
    "link_thumb": "https://live.staticflickr.com/65535/50021864036_dc9662a180_n.jpg",
    "id_album": "-1882491687",
    "description": "Ladybug_778154",
    "title": "Ladybug_778154",
    "link_img": "https://live.staticflickr.com/65535/50021864036_6130dfaaef_o.jpg",
    "id_image": "Ladybug_778154",
    "count_view": 0
  },
  {
    "link_thumb": "https://live.staticflickr.com/65535/50022999366_541dcff25e_n.jpg",
    "id_album": "-353898617",
    "description": "Puppy_442833",
    "title": "Puppy_442833",
    "link_img": "https://live.staticflickr.com/65535/50022999366_f21d1235cf_o.jpg",
    "id_image": "Puppy_442833",
    "count_view": 0
  },
  {
    "link_thumb": "https://live.staticflickr.com/65535/50021444422_58861b5edf_n.jpg",
    "id_album": "-462831704",
    "description": "Cat_708994",
    "title": "Cat_708994",
    "link_img": "https://live.staticflickr.com/65535/50021444422_b7c24d119c_o.jpg",
    "id_image": "Cat_708994",
    "count_view": 0
  },
  {
    "link_thumb": "https://live.staticflickr.com/65535/50019219458_d011ca0d2c_n.jpg",
    "id_album": "1949822052",
    "description": "Chimpanzee_668065",
    "title": "Chimpanzee_668065",
    "link_img": "https://live.staticflickr.com/65535/50019219458_ef5edb849e_o.jpg",
    "id_image": "Chimpanzee_668065",
    "count_view": 0
  },
  {
    "link_thumb": "https://live.staticflickr.com/65535/50020321501_f0bbedce67_n.jpg",
    "id_album": "-149330232",
    "description": "Dog_363034",
    "title": "Dog_363034",
    "link_img": "https://live.staticflickr.com/65535/50020321501_247cb4841c_o.jpg",
    "id_image": "Dog_363034",
    "count_view": 0
  },
  {
    "link_thumb": "https://live.staticflickr.com/65535/50020725053_501d321095_n.jpg",
    "id_album": "-462831703",
    "description": "Cat_826150",
    "title": "Cat_826150",
    "link_img": "https://live.staticflickr.com/65535/50020725053_dc944361e7_o.jpg",
    "id_image": "Cat_826150",
    "count_view": 0
  },
  {
    "link_thumb": "https://live.staticflickr.com/65535/50022608508_3a79769990_n.jpg",
    "id_album": "248289288",
    "description": "Raccoon_556321",
    "title": "Raccoon_556321",
    "link_img": "https://live.staticflickr.com/65535/50022608508_0397e02eb3_o.jpg",
    "id_image": "Raccoon_556321",
    "count_view": 0
  },
  {
    "link_thumb": "https://live.staticflickr.com/65535/50016976398_f83cc096e7_n.jpg",
    "id_album": "782930701",
    "description": "BorderCollie_868903",
    "title": "BorderCollie_868903",
    "link_img": "https://live.staticflickr.com/65535/50016976398_f255c8ba74_o.jpg",
    "id_image": "BorderCollie_868903",
    "count_view": 0
  },
  {
    "link_thumb": "https://live.staticflickr.com/65535/50016409453_1cbc575928_n.jpg",
    "id_album": "390697200",
    "description": "AustralianShepherd_765116",
    "title": "AustralianShepherd_765116",
    "link_img": "https://live.staticflickr.com/65535/50016409453_30d096b93f_o.jpg",
    "id_image": "AustralianShepherd_765116",
    "count_view": 0
  },
  {
    "link_thumb": "https://live.staticflickr.com/65535/50022445657_2f043f3a45_n.jpg",
    "id_album": "-1720012921",
    "description": "Meerkat_459947",
    "title": "Meerkat_459947",
    "link_img": "https://live.staticflickr.com/65535/50022445657_2f5c8be280_o.jpg",
    "id_image": "Meerkat_459947",
    "count_view": 0
  },
  {
    "link_thumb": "https://live.staticflickr.com/65535/50024248937_27a052001a_n.jpg",
    "id_album": "1244464375",
    "description": "Starfish_271556",
    "title": "Starfish_271556",
    "link_img": "https://live.staticflickr.com/65535/50024248937_df1299e282_o.jpg",
    "id_image": "Starfish_271556",
    "count_view": 0
  },
  {
    "link_thumb": "https://live.staticflickr.com/65535/50018129622_c67c7df6a1_n.jpg",
    "id_album": "-462831705",
    "description": "Cat_219157",
    "title": "Cat_219157",
    "link_img": "https://live.staticflickr.com/65535/50018129622_5bebc61768_o.jpg",
    "id_image": "Cat_219157",
    "count_view": 0
  },
  {
    "link_thumb": "https://live.staticflickr.com/65535/50020748061_d21b1a6a8a_n.jpg",
    "id_album": "1270947998",
    "description": "Elephant_353652",
    "title": "Elephant_353652",
    "link_img": "https://live.staticflickr.com/65535/50020748061_c73660542d_o.jpg",
    "id_image": "Elephant_353652",
    "count_view": 0
  },
  {
    "link_thumb": "https://live.staticflickr.com/65535/50020036488_d41fd2d628_n.jpg",
    "id_album": "-54509188",
    "description": "Dolphin_348893",
    "title": "Dolphin_348893",
    "link_img": "https://live.staticflickr.com/65535/50020036488_d817ab15b3_o.jpg",
    "id_image": "Dolphin_348893",
    "count_view": 0
  },
  {
    "link_thumb": "https://live.staticflickr.com/65535/50020427978_0364cc6d95_n.jpg",
    "id_album": "-128218148",
    "description": "Fox_524401",
    "title": "Fox_524401",
    "link_img": "https://live.staticflickr.com/65535/50020427978_248d50424b_o.jpg",
    "id_image": "Fox_524401",
    "count_view": 0
  },
  {
    "link_thumb": "https://live.staticflickr.com/65535/50020366763_ff3270af4d_n.jpg",
    "id_album": "-1758557371",
    "description": "Flamingo_742037",
    "title": "Flamingo_742037",
    "link_img": "https://live.staticflickr.com/65535/50020366763_75bb66b813_o.jpg",
    "id_image": "Flamingo_742037",
    "count_view": 0
  },
  {
    "link_thumb": "https://live.staticflickr.com/65535/50019942908_4e8b8b4a12_n.jpg",
    "id_album": "-149330231",
    "description": "Dog_672815",
    "title": "Dog_672815",
    "link_img": "https://live.staticflickr.com/65535/50019942908_a21a27a3a9_o.jpg",
    "id_image": "Dog_672815",
    "count_view": 0
  },
  {
    "link_thumb": "https://live.staticflickr.com/65535/50016901021_7f9ce9d5ca_n.jpg",
    "id_album": "523598895",
    "description": "Artistic_376389",
    "title": "Artistic_376389",
    "link_img": "https://live.staticflickr.com/65535/50016901021_4506251cc2_o.jpg",
    "id_image": "Artistic_376389",
    "count_view": 0
  },
  {
    "link_thumb": "https://live.staticflickr.com/65535/50021871303_22d9b2d3c3_n.jpg",
    "id_album": "-1384601601",
    "description": "Owl_406099",
    "title": "Owl_406099",
    "link_img": "https://live.staticflickr.com/65535/50021871303_3d4d689652_o.jpg",
    "id_image": "Owl_406099",
    "count_view": 0
  },
  {
    "link_thumb": "https://live.staticflickr.com/65535/50019525061_1e362870c9_n.jpg",
    "id_album": "-462831703",
    "description": "Cat_960537",
    "title": "Cat_960537",
    "link_img": "https://live.staticflickr.com/65535/50019525061_6ba93b3191_o.jpg",
    "id_image": "Cat_960537",
    "count_view": 0
  },
  {
    "link_thumb": "https://live.staticflickr.com/65535/50018145721_c8698c9393_n.jpg",
    "id_album": "-462831702",
    "description": "Cat_405104",
    "title": "Cat_405104",
    "link_img": "https://live.staticflickr.com/65535/50018145721_b08e0fa43f_o.jpg",
    "id_image": "Cat_405104",
    "count_view": 0
  },
  {
    "link_thumb": "https://live.staticflickr.com/65535/50017742837_142d63397d_n.jpg",
    "id_album": "782930701",
    "description": "BorderCollie_439434",
    "title": "BorderCollie_439434",
    "link_img": "https://live.staticflickr.com/65535/50017742837_7f214a4a74_o.jpg",
    "id_image": "BorderCollie_439434",
    "count_view": 0
  },
  {
    "link_thumb": "https://live.staticflickr.com/65535/50019859467_e57cb0125d_n.jpg",
    "id_album": "-420782796",
    "description": "Caterpillar_391536",
    "title": "Caterpillar_391536",
    "link_img": "https://live.staticflickr.com/65535/50019859467_9f32916e89_o.jpg",
    "id_image": "Caterpillar_391536",
    "count_view": 0
  },
  {
    "link_thumb": "https://live.staticflickr.com/65535/50021298386_b94f2339a3_n.jpg",
    "id_album": "-405626519",
    "description": "GermanShepherd_734381",
    "title": "GermanShepherd_734381",
    "link_img": "https://live.staticflickr.com/65535/50021298386_99e420e0ab_o.jpg",
    "id_image": "GermanShepherd_734381",
    "count_view": 0
  },
  {
    "link_thumb": "https://live.staticflickr.com/65535/50021193736_34d26bede6_n.jpg",
    "id_album": "-462831704",
    "description": "Cat_711186",
    "title": "Cat_711186",
    "link_img": "https://live.staticflickr.com/65535/50021193736_0e3edc5f8e_o.jpg",
    "id_image": "Cat_711186",
    "count_view": 0
  },
  {
    "link_thumb": "https://live.staticflickr.com/65535/50023497188_f4c9a30236_n.jpg",
    "id_album": "405170427",
    "description": "Tiger_235850",
    "title": "Tiger_235850",
    "link_img": "https://live.staticflickr.com/65535/50023497188_89632d1582_o.jpg",
    "id_image": "Tiger_235850",
    "count_view": 0
  },
  {
    "link_thumb": "https://live.staticflickr.com/65535/50017127628_db6b3d603a_n.jpg",
    "id_album": "-401151552",
    "description": "Butterfly_718695",
    "title": "Butterfly_718695",
    "link_img": "https://live.staticflickr.com/65535/50017127628_be6cc53939_o.jpg",
    "id_image": "Butterfly_718695",
    "count_view": 0
  },
  {
    "link_thumb": "https://live.staticflickr.com/65535/50023040262_40ba7a3352_n.jpg",
    "id_album": "1008910300",
    "description": "PolarBear_165207",
    "title": "PolarBear_165207",
    "link_img": "https://live.staticflickr.com/65535/50023040262_d9642d729a_o.jpg",
    "id_image": "PolarBear_165207",
    "count_view": 0
  },
  {
    "link_thumb": "https://live.staticflickr.com/65535/50021153203_00dd3a696b_n.jpg",
    "id_album": "1658866795",
    "description": "Insect_405558",
    "title": "Insect_405558",
    "link_img": "https://live.staticflickr.com/65535/50021153203_366ea55a34_o.jpg",
    "id_image": "Insect_405558",
    "count_view": 0
  },
  {
    "link_thumb": "https://live.staticflickr.com/65535/50024399437_c5483f20cc_n.jpg",
    "id_album": "405170427",
    "description": "Tiger_459403",
    "title": "Tiger_459403",
    "link_img": "https://live.staticflickr.com/65535/50024399437_29cf65c90e_o.jpg",
    "id_image": "Tiger_459403",
    "count_view": 0
  },
  {
    "link_thumb": "https://live.staticflickr.com/65535/50023312192_15fbc5be78_n.jpg",
    "id_album": "-353898617",
    "description": "Puppy_724733",
    "title": "Puppy_724733",
    "link_img": "https://live.staticflickr.com/65535/50023312192_0736a0ae07_o.jpg",
    "id_image": "Puppy_724733",
    "count_view": 0
  },
  {
    "link_thumb": "https://live.staticflickr.com/65535/50020467807_f9ea2b3589_n.jpg",
    "id_album": "-149330232",
    "description": "Dog_275589",
    "title": "Dog_275589",
    "link_img": "https://live.staticflickr.com/65535/50020467807_650a14df2a_o.jpg",
    "id_image": "Dog_275589",
    "count_view": 0
  },
  {
    "link_thumb": "https://live.staticflickr.com/65535/50021083368_5fa2383404_n.jpg",
    "id_album": "2144294979",
    "description": "Hummingbird_951296",
    "title": "Hummingbird_951296",
    "link_img": "https://live.staticflickr.com/65535/50021083368_99ab0c3943_o.jpg",
    "id_image": "Hummingbird_951296",
    "count_view": 0
  },
  {
    "link_thumb": "https://live.staticflickr.com/65535/50016950663_bdfd648e29_n.jpg",
    "id_album": "-530283314",
    "description": "BlueandyellowMacaw_941963",
    "title": "BlueandyellowMacaw_941963",
    "link_img": "https://live.staticflickr.com/65535/50016950663_940a5c15d2_o.jpg",
    "id_image": "BlueandyellowMacaw_941963",
    "count_view": 0
  },
  {
    "link_thumb": "https://live.staticflickr.com/65535/50020458958_b209bf659e_n.jpg",
    "id_album": "-128218148",
    "description": "Fox_771404",
    "title": "Fox_771404",
    "link_img": "https://live.staticflickr.com/65535/50020458958_d3eef6c59a_o.jpg",
    "id_image": "Fox_771404",
    "count_view": 0
  },
  {
    "link_thumb": "https://live.staticflickr.com/65535/50020809337_8471ac90eb_n.jpg",
    "id_album": "-149330231",
    "description": "Dog_969741",
    "title": "Dog_969741",
    "link_img": "https://live.staticflickr.com/65535/50020809337_cb561052b5_o.jpg",
    "id_image": "Dog_969741",
    "count_view": 0
  },
  {
    "link_thumb": "https://live.staticflickr.com/65535/50018678368_902a798b96_n.jpg",
    "id_album": "-462831704",
    "description": "Cat_441535",
    "title": "Cat_441535",
    "link_img": "https://live.staticflickr.com/65535/50018678368_ba5daf045c_o.jpg",
    "id_image": "Cat_441535",
    "count_view": 0
  },
  {
    "link_thumb": "https://live.staticflickr.com/65535/50021600432_af6dc4d063_n.jpg",
    "id_album": "2060159334",
    "description": "GoldenRetriever_323380",
    "title": "GoldenRetriever_323380",
    "link_img": "https://live.staticflickr.com/65535/50021600432_b8e1589455_o.jpg",
    "id_image": "GoldenRetriever_323380",
    "count_view": 0
  },
  {
    "link_thumb": "https://live.staticflickr.com/65535/50017619838_333347fa30_n.jpg",
    "id_album": "-462831702",
    "description": "Cat_407059",
    "title": "Cat_407059",
    "link_img": "https://live.staticflickr.com/65535/50017619838_954eb8e07b_o.jpg",
    "id_image": "Cat_407059",
    "count_view": 0
  },
  {
    "link_thumb": "https://live.staticflickr.com/65535/50017154956_7017162e74_n.jpg",
    "id_album": "1699594607",
    "description": "Bee_696194",
    "title": "Bee_696194",
    "link_img": "https://live.staticflickr.com/65535/50017154956_76e6459da7_o.jpg",
    "id_image": "Bee_696194",
    "count_view": 0
  },
  {
    "link_thumb": "https://live.staticflickr.com/65535/50352591321_4984534692_n.jpg",
    "id_album": "-462831703",
    "description": "Cat_530238",
    "title": "Cat_530238",
    "link_img": "https://live.staticflickr.com/65535/50352591321_e34737a726_o.jpg",
    "id_image": "Cat_530238",
    "count_view": 0
  },
  {
    "link_thumb": "https://live.staticflickr.com/65535/50021413308_3e6f52e3d2_n.jpg",
    "id_album": "1392348450",
    "description": "Leopard_887951",
    "title": "Leopard_887951",
    "link_img": "https://live.staticflickr.com/65535/50021413308_4bd202dbe0_o.jpg",
    "id_image": "Leopard_887951",
    "count_view": 0
  },
  {
    "link_thumb": "https://live.staticflickr.com/65535/50018902513_b364e1995a_n.jpg",
    "id_album": "-462831703",
    "description": "Cat_908411",
    "title": "Cat_908411",
    "link_img": "https://live.staticflickr.com/65535/50018902513_6030a9a615_o.jpg",
    "id_image": "Cat_908411",
    "count_view": 0
  },
  {
    "link_thumb": "https://live.staticflickr.com/65535/50023849373_7299b05cca_n.jpg",
    "id_album": "786934945",
    "description": "Whale_178482",
    "title": "Whale_178482",
    "link_img": "https://live.staticflickr.com/65535/50023849373_980eed6e50_o.jpg",
    "id_image": "Whale_178482",
    "count_view": 0
  },
  {
    "link_thumb": "https://live.staticflickr.com/65535/50024009121_678f86d04a_n.jpg",
    "id_album": "1579675410",
    "description": "Swan_442028",
    "title": "Swan_442028",
    "link_img": "https://live.staticflickr.com/65535/50024009121_0d73bd4d00_o.jpg",
    "id_image": "Swan_442028",
    "count_view": 0
  },
  {
    "link_thumb": "https://live.staticflickr.com/65535/50021769652_0bdf4474a5_n.jpg",
    "id_album": "-1933715543",
    "description": "Horse_432346",
    "title": "Horse_432346",
    "link_img": "https://live.staticflickr.com/65535/50021769652_8ab9b0eafd_o.jpg",
    "id_image": "Horse_432346",
    "count_view": 0
  },
  {
    "link_thumb": "https://live.staticflickr.com/65535/50022268902_9525eba312_n.jpg",
    "id_album": "416744915",
    "description": "Lion_409219",
    "title": "Lion_409219",
    "link_img": "https://live.staticflickr.com/65535/50022268902_468991b2b5_o.jpg",
    "id_image": "Lion_409219",
    "count_view": 0
  },
  {
    "link_thumb": "https://live.staticflickr.com/65535/50024259002_b408fab08e_n.jpg",
    "id_album": "1244464375",
    "description": "Starfish_725713",
    "title": "Starfish_725713",
    "link_img": "https://live.staticflickr.com/65535/50024259002_b7ca4b68b0_o.jpg",
    "id_image": "Starfish_725713",
    "count_view": 0
  },
  {
    "link_thumb": "https://live.staticflickr.com/65535/50023593678_eaa217d647_n.jpg",
    "id_album": "405170427",
    "description": "Tiger_460162",
    "title": "Tiger_460162",
    "link_img": "https://live.staticflickr.com/65535/50023593678_3b42494990_o.jpg",
    "id_image": "Tiger_460162",
    "count_view": 0
  },
  {
    "link_thumb": "https://live.staticflickr.com/65535/50351766713_0ecfe2343e_n.jpg",
    "id_album": "-462831703",
    "description": "Cat_360084",
    "title": "Cat_360084",
    "link_img": "https://live.staticflickr.com/65535/50351766713_49d720edba_o.jpg",
    "id_image": "Cat_360084",
    "count_view": 0
  },
  {
    "link_thumb": "https://live.staticflickr.com/65535/50020833008_09a1840523_n.jpg",
    "id_album": "2060159334",
    "description": "GoldenRetriever_998172",
    "title": "GoldenRetriever_998172",
    "link_img": "https://live.staticflickr.com/65535/50020833008_f383f1d6a5_o.jpg",
    "id_image": "GoldenRetriever_998172",
    "count_view": 0
  },
  {
    "link_thumb": "https://live.staticflickr.com/65535/50017424042_fd8374db89_n.jpg",
    "id_album": "1699594607",
    "description": "Bee_811925",
    "title": "Bee_811925",
    "link_img": "https://live.staticflickr.com/65535/50017424042_23c9757cc0_o.jpg",
    "id_image": "Bee_811925",
    "count_view": 0
  },
  {
    "link_thumb": "https://live.staticflickr.com/65535/50020741697_738b22f6f4_n.jpg",
    "id_album": "-149330231",
    "description": "Dog_699470",
    "title": "Dog_699470",
    "link_img": "https://live.staticflickr.com/65535/50020741697_a7aabdff55_o.jpg",
    "id_image": "Dog_699470",
    "count_view": 0
  },
  {
    "link_thumb": "https://live.staticflickr.com/65535/50020067367_b086808063_n.jpg",
    "id_album": "-1868680171",
    "description": "Cougar_370634",
    "title": "Cougar_370634",
    "link_img": "https://live.staticflickr.com/65535/50020067367_f2a8fdc75f_o.jpg",
    "id_image": "Cougar_370634",
    "count_view": 0
  },
  {
    "link_thumb": "https://live.staticflickr.com/65535/50023861406_f4cae3fa3e_n.jpg",
    "id_album": "702283289",
    "description": "Squirrel_397814",
    "title": "Squirrel_397814",
    "link_img": "https://live.staticflickr.com/65535/50023861406_8cb28b1823_o.jpg",
    "id_image": "Squirrel_397814",
    "count_view": 0
  },
  {
    "link_thumb": "https://live.staticflickr.com/65535/50022111887_f90c2f9e92_n.jpg",
    "id_album": "-1882491687",
    "description": "Ladybug_539716",
    "title": "Ladybug_539716",
    "link_img": "https://live.staticflickr.com/65535/50022111887_bc0df18039_o.jpg",
    "id_image": "Ladybug_539716",
    "count_view": 0
  },
  {
    "link_thumb": "https://live.staticflickr.com/65535/50022062462_0541c7387d_n.jpg",
    "id_album": "770105808",
    "description": "Kingfisher_666158",
    "title": "Kingfisher_666158",
    "link_img": "https://live.staticflickr.com/65535/50022062462_73864ae309_o.jpg",
    "id_image": "Kingfisher_666158",
    "count_view": 0
  },
  {
    "link_thumb": "https://live.staticflickr.com/65535/50021161973_3ace942956_n.jpg",
    "id_album": "1658866795",
    "description": "Insect_574381",
    "title": "Insect_574381",
    "link_img": "https://live.staticflickr.com/65535/50021161973_345c53d355_o.jpg",
    "id_image": "Insect_574381",
    "count_view": 0
  },
  {
    "link_thumb": "https://live.staticflickr.com/65535/50019112278_a04da1a5ca_n.jpg",
    "id_album": "-766919393",
    "description": "Chameleon_353567",
    "title": "Chameleon_353567",
    "link_img": "https://live.staticflickr.com/65535/50019112278_72ea7dfd1b_o.jpg",
    "id_image": "Chameleon_353567",
    "count_view": 0
  },
  {
    "link_thumb": "https://live.staticflickr.com/65535/50021295941_442992ea99_n.jpg",
    "id_album": "-405626519",
    "description": "GermanShepherd_693248",
    "title": "GermanShepherd_693248",
    "link_img": "https://live.staticflickr.com/65535/50021295941_fc9e0460ca_o.jpg",
    "id_image": "GermanShepherd_693248",
    "count_view": 0
  },
  {
    "link_thumb": "https://live.staticflickr.com/65535/50021290256_1a494e0b14_n.jpg",
    "id_album": "-405626519",
    "description": "GermanShepherd_452051",
    "title": "GermanShepherd_452051",
    "link_img": "https://live.staticflickr.com/65535/50021290256_b4165e449d_o.jpg",
    "id_image": "GermanShepherd_452051",
    "count_view": 0
  },
  {
    "link_thumb": "https://live.staticflickr.com/65535/50018242157_b813347bd3_n.jpg",
    "id_album": "-462831702",
    "description": "Cat_327768",
    "title": "Cat_327768",
    "link_img": "https://live.staticflickr.com/65535/50018242157_8ceb56aa9e_o.jpg",
    "id_image": "Cat_327768",
    "count_view": 0
  },
  {
    "link_thumb": "https://live.staticflickr.com/65535/50016989813_b715fee42e_n.jpg",
    "id_album": "1696155652",
    "description": "Boxer_197482",
    "title": "Boxer_197482",
    "link_img": "https://live.staticflickr.com/65535/50016989813_1072b937b8_o.jpg",
    "id_image": "Boxer_197482",
    "count_view": 0
  },
  {
    "link_thumb": "https://live.staticflickr.com/65535/50019227073_9fdfce2b41_n.jpg",
    "id_album": "791455625",
    "description": "Chipmunk_334534",
    "title": "Chipmunk_334534",
    "link_img": "https://live.staticflickr.com/65535/50019227073_8b85e86a31_o.jpg",
    "id_image": "Chipmunk_334534",
    "count_view": 0
  },
  {
    "link_thumb": "https://live.staticflickr.com/65535/50024391447_c0eb0b1acf_n.jpg",
    "id_album": "405170427",
    "description": "Tiger_432617",
    "title": "Tiger_432617",
    "link_img": "https://live.staticflickr.com/65535/50024391447_ebe9b8081c_o.jpg",
    "id_image": "Tiger_432617",
    "count_view": 0
  },
  {
    "link_thumb": "https://live.staticflickr.com/65535/50017279083_36016cf3d9_n.jpg",
    "id_album": "-462831705",
    "description": "Cat_169504",
    "title": "Cat_169504",
    "link_img": "https://live.staticflickr.com/65535/50017279083_a1c2e067a6_o.jpg",
    "id_image": "Cat_169504",
    "count_view": 0
  },
  {
    "link_thumb": "https://live.staticflickr.com/65535/50351881943_3133d00846_n.jpg",
    "id_album": "-462831703",
    "description": "Cat_511424",
    "title": "Cat_511424",
    "link_img": "https://live.staticflickr.com/65535/50351881943_4b9bb7b2d2_o.jpg",
    "id_image": "Cat_511424",
    "count_view": 0
  },
  {
    "link_thumb": "https://live.staticflickr.com/65535/50017211408_3ca63920e0_n.jpg",
    "id_album": "189994021",
    "description": "Cardinal_920818",
    "title": "Cardinal_920818",
    "link_img": "https://live.staticflickr.com/65535/50017211408_b8c4fbb5dc_o.jpg",
    "id_image": "Cardinal_920818",
    "count_view": 0
  },
  {
    "link_thumb": "https://live.staticflickr.com/65535/50016443538_7d7ec9975c_n.jpg",
    "id_album": "231236068",
    "description": "BaldEagle_842777",
    "title": "BaldEagle_842777",
    "link_img": "https://live.staticflickr.com/65535/50016443538_eb998ed744_o.jpg",
    "id_image": "BaldEagle_842777",
    "count_view": 0
  },
  {
    "link_thumb": "https://live.staticflickr.com/65535/50022984111_8772877e5b_n.jpg",
    "id_album": "-353898617",
    "description": "Puppy_380979",
    "title": "Puppy_380979",
    "link_img": "https://live.staticflickr.com/65535/50022984111_9f31932bed_o.jpg",
    "id_image": "Puppy_380979",
    "count_view": 0
  },
  {
    "link_thumb": "https://live.staticflickr.com/65535/50351828828_b23ec485b1_n.jpg",
    "id_album": "-462831703",
    "description": "Cat_440950",
    "title": "Cat_440950",
    "link_img": "https://live.staticflickr.com/65535/50351828828_6137991288_o.jpg",
    "id_image": "Cat_440950",
    "count_view": 0
  },
  {
    "link_thumb": "https://live.staticflickr.com/65535/50022382356_f7379125f0_n.jpg",
    "id_album": "-1384601601",
    "description": "Owl_275237",
    "title": "Owl_275237",
    "link_img": "https://live.staticflickr.com/65535/50022382356_182eed12b1_o.jpg",
    "id_image": "Owl_275237",
    "count_view": 0
  },
  {
    "link_thumb": "https://live.staticflickr.com/65535/50020076743_3787dde705_n.jpg",
    "id_album": "-405058657",
    "description": "Dragonfly_326781",
    "title": "Dragonfly_326781",
    "link_img": "https://live.staticflickr.com/65535/50020076743_09d3c926c5_o.jpg",
    "id_image": "Dragonfly_326781",
    "count_view": 0
  },
  {
    "link_thumb": "https://live.staticflickr.com/65535/50023861046_5e4283b024_n.jpg",
    "id_album": "702283289",
    "description": "Squirrel_397713",
    "title": "Squirrel_397713",
    "link_img": "https://live.staticflickr.com/65535/50023861046_4ce40eb9db_o.jpg",
    "id_image": "Squirrel_397713",
    "count_view": 0
  },
  {
    "link_thumb": "https://live.staticflickr.com/65535/50021033816_76b2904446_n.jpg",
    "id_album": "-128218148",
    "description": "Fox_983088",
    "title": "Fox_983088",
    "link_img": "https://live.staticflickr.com/65535/50021033816_ed30a622c4_o.jpg",
    "id_image": "Fox_983088",
    "count_view": 0
  },
  {
    "link_thumb": "https://live.staticflickr.com/65535/50018014457_e442b2d030_n.jpg",
    "id_album": "-462831705",
    "description": "Cat_111307",
    "title": "Cat_111307",
    "link_img": "https://live.staticflickr.com/65535/50018014457_2e3580c476_o.jpg",
    "id_image": "Cat_111307",
    "count_view": 0
  },
  {
    "link_thumb": "https://live.staticflickr.com/65535/50020915307_b66a443a48_n.jpg",
    "id_album": "1168627767",
    "description": "Duck_428615",
    "title": "Duck_428615",
    "link_img": "https://live.staticflickr.com/65535/50020915307_a54ba97883_o.jpg",
    "id_image": "Duck_428615",
    "count_view": 0
  },
  {
    "link_thumb": "https://live.staticflickr.com/65535/50023182481_4c489b3193_n.jpg",
    "id_album": "-434874555",
    "description": "RainbowLorikeet_836843",
    "title": "RainbowLorikeet_836843",
    "link_img": "https://live.staticflickr.com/65535/50023182481_2f9a91e677_o.jpg",
    "id_image": "RainbowLorikeet_836843",
    "count_view": 0
  },
  {
    "link_thumb": "https://live.staticflickr.com/65535/50017559812_213988bd20_n.jpg",
    "id_album": "-1846011410",
    "description": "Bird_394864",
    "title": "Bird_394864",
    "link_img": "https://live.staticflickr.com/65535/50017559812_a52445a17b_o.jpg",
    "id_image": "Bird_394864",
    "count_view": 0
  },
  {
    "link_thumb": "https://live.staticflickr.com/65535/50023582307_31efab4049_n.jpg",
    "id_album": "1512228924",
    "description": "ScarletMacaw_449424",
    "title": "ScarletMacaw_449424",
    "link_img": "https://live.staticflickr.com/65535/50023582307_64e747bfb5_o.jpg",
    "id_image": "ScarletMacaw_449424",
    "count_view": 0
  },
  {
    "link_thumb": "https://live.staticflickr.com/65535/50019876463_98baca600a_n.jpg",
    "id_album": "-149330231",
    "description": "Dog_431448",
    "title": "Dog_431448",
    "link_img": "https://live.staticflickr.com/65535/50019876463_9ef1499266_o.jpg",
    "id_image": "Dog_431448",
    "count_view": 0
  },
  {
    "link_thumb": "https://live.staticflickr.com/65535/50023666083_dc3dd82b0a_n.jpg",
    "id_album": "405170427",
    "description": "Tiger_777021",
    "title": "Tiger_777021",
    "link_img": "https://live.staticflickr.com/65535/50023666083_2bcb745a03_o.jpg",
    "id_image": "Tiger_777021",
    "count_view": 0
  },
  {
    "link_thumb": "https://live.staticflickr.com/65535/50352435041_f332837330_n.jpg",
    "id_album": "-462831703",
    "description": "Cat_236350",
    "title": "Cat_236350",
    "link_img": "https://live.staticflickr.com/65535/50352435041_326f1b5722_o.jpg",
    "id_image": "Cat_236350",
    "count_view": 0
  },
  {
    "link_thumb": "https://live.staticflickr.com/65535/50019768221_d12dd9d3a5_n.jpg",
    "id_album": "791455625",
    "description": "Chipmunk_737969",
    "title": "Chipmunk_737969",
    "link_img": "https://live.staticflickr.com/65535/50019768221_3178b31803_o.jpg",
    "id_image": "Chipmunk_737969",
    "count_view": 0
  },
  {
    "link_thumb": "https://live.staticflickr.com/65535/50020649856_ea4bf24b05_n.jpg",
    "id_album": "1168627767",
    "description": "Duck_330923",
    "title": "Duck_330923",
    "link_img": "https://live.staticflickr.com/65535/50020649856_0d8be8c69c_o.jpg",
    "id_image": "Duck_330923",
    "count_view": 0
  },
  {
    "link_thumb": "https://live.staticflickr.com/65535/50018262537_3293b3db93_n.jpg",
    "id_album": "-462831702",
    "description": "Cat_336430",
    "title": "Cat_336430",
    "link_img": "https://live.staticflickr.com/65535/50018262537_4c0635ece3_o.jpg",
    "id_image": "Cat_336430",
    "count_view": 0
  },
  {
    "link_thumb": "https://live.staticflickr.com/65535/50017716211_98a20263de_n.jpg",
    "id_album": "-401151552",
    "description": "Butterfly_944524",
    "title": "Butterfly_944524",
    "link_img": "https://live.staticflickr.com/65535/50017716211_b099779fc9_o.jpg",
    "id_image": "Butterfly_944524",
    "count_view": 0
  }
]